(module AWM3300V_BT-BLINDAGE_100001101001100001100001100001 (layer F.Cu) (tedit 0)
  (fp_text reference REF** (at 0 0) (layer F.SilkS)
    (effects (font (size 1 1) (thickness 0.15)))
  )
  (fp_text value AWM3300V_BT-BLINDAGE_100001101001100001100001100001 (at 0 2) (layer F.Fab) hide
    (effects (font (size 1 1) (thickness 0.15)))
  )
  (fp_line (start -1.651 -0.889) (end -3.429 -0.889) (layer B.SilkS) (width 0.1))
  (fp_line (start -1.651 0.889) (end -1.651 -0.889) (layer B.SilkS) (width 0.1))
  (fp_line (start -3.429 0.889) (end -1.651 0.889) (layer B.SilkS) (width 0.1))
  (fp_line (start -3.429 -0.889) (end -3.429 0.889) (layer B.SilkS) (width 0.1))
  (fp_line (start -16.25 -12.3598) (end -16.25 5.1402) (layer F.Fab) (width 0.1))
  (fp_line (start 16.25 -12.3598) (end -16.25 -12.3598) (layer F.Fab) (width 0.1))
  (fp_line (start 16.25 5.1402) (end 16.25 -12.3598) (layer F.Fab) (width 0.1))
  (fp_line (start -16.25 5.1402) (end 16.25 5.1402) (layer F.Fab) (width 0.1))
  (fp_line (start 16.25 4.1402) (end 16.25 -11.3538) (layer F.Fab) (width 0.1))
  (fp_line (start -16.25 4.1402) (end 16.25 4.1402) (layer F.Fab) (width 0.1))
  (fp_line (start -16.25 -11.3538) (end -16.25 4.1402) (layer F.Fab) (width 0.1))
  (fp_line (start 16.25 -11.3538) (end -16.25 -11.3538) (layer F.Fab) (width 0.1))
  (fp_line (start -13.45 -3.54) (end 13.45 -3.54) (layer F.Fab) (width 0.1))
  (fp_line (start -15.25 -11.3538) (end -15.25 -1) (layer F.Fab) (width 0.1))
  (fp_line (start 15.25 -11.3538) (end -15.25 -11.3538) (layer F.Fab) (width 0.1))
  (fp_line (start 15.25 -1) (end 15.25 -11.3538) (layer F.Fab) (width 0.1))
  (fp_line (start 27.2 -1) (end 15.25 -1) (layer F.Fab) (width 0.1))
  (fp_line (start 27.2 4.1402) (end 27.2 -1) (layer F.Fab) (width 0.1))
  (fp_line (start -27.2 4.1402) (end 27.2 4.1402) (layer F.Fab) (width 0.1))
  (fp_line (start -27.2 -1) (end -27.2 4.1402) (layer F.Fab) (width 0.1))
  (fp_line (start -15.25 -1) (end -27.2 -1) (layer F.Fab) (width 0.1))
  (fp_line (start 15.25 4.1402) (end 15.25 -11.3538) (layer F.Fab) (width 0.1))
  (fp_line (start -15.25 4.1402) (end 15.25 4.1402) (layer F.Fab) (width 0.1))
  (fp_line (start -15.25 -11.3538) (end -15.25 4.1402) (layer F.Fab) (width 0.1))
  (fp_line (start 15.25 -11.3538) (end -15.25 -11.3538) (layer F.Fab) (width 0.1))
  (fp_line (start -3.503 -8.74) (end -6.403 -8.74) (layer F.Fab) (width 0.1))
  (fp_line (start -6.403 -5.84) (end -3.503 -5.84) (layer F.Fab) (width 0.1))
  (fp_line (start 10.467 -8.74) (end 7.567 -8.74) (layer F.Fab) (width 0.1))
  (fp_line (start 7.567 -5.84) (end 10.467 -5.84) (layer F.Fab) (width 0.1))
  (fp_line (start -13.45 -3.54) (end -13.45 -11.3) (layer F.Fab) (width 0.1))
  (fp_line (start -15.25 -3.54) (end -13.45 -3.54) (layer F.Fab) (width 0.1))
  (fp_line (start 13.45 -3.54) (end 13.45 -11.3) (layer F.Fab) (width 0.1))
  (fp_line (start 15.25 -3.54) (end 13.45 -3.54) (layer F.Fab) (width 0.1))
  (fp_line (start 2.297 -11.3) (end 0.497 -11.3) (layer F.Fab) (width 0.1))
  (fp_line (start 2.297 -3.54) (end 2.297 -11.3) (layer F.Fab) (width 0.1))
  (fp_line (start 0.497 -3.54) (end 2.297 -3.54) (layer F.Fab) (width 0.1))
  (fp_line (start 0.497 -11.3) (end 0.497 -3.54) (layer F.Fab) (width 0.1))
  (fp_line (start -3.429 -0.889) (end -1.651 -0.889) (layer B.CrtYd) (width 0.02))
  (fp_line (start -3.429 0.889) (end -3.429 -0.889) (layer B.CrtYd) (width 0.02))
  (fp_line (start -1.651 0.889) (end -3.429 0.889) (layer B.CrtYd) (width 0.02))
  (fp_line (start -1.651 -0.889) (end -1.651 0.889) (layer B.CrtYd) (width 0.02))
  (fp_line (start -27.2 -1) (end -16.25 -1) (layer F.CrtYd) (width 0.02))
  (fp_line (start -27.2 4.1402) (end -27.2 -1) (layer F.CrtYd) (width 0.02))
  (fp_line (start -16.25 4.1402) (end -27.2 4.1402) (layer F.CrtYd) (width 0.02))
  (fp_line (start -16.25 5.1402) (end -16.25 4.1402) (layer F.CrtYd) (width 0.02))
  (fp_line (start 16.25 5.1402) (end -16.25 5.1402) (layer F.CrtYd) (width 0.02))
  (fp_line (start 16.25 4.1402) (end 16.25 5.1402) (layer F.CrtYd) (width 0.02))
  (fp_line (start 27.2 4.1402) (end 16.25 4.1402) (layer F.CrtYd) (width 0.02))
  (fp_line (start 27.2 -1) (end 27.2 4.1402) (layer F.CrtYd) (width 0.02))
  (fp_line (start 16.25 -1) (end 27.2 -1) (layer F.CrtYd) (width 0.02))
  (fp_line (start 16.25 -12.3598) (end 16.25 -1) (layer F.CrtYd) (width 0.02))
  (fp_line (start -16.25 -12.3598) (end 16.25 -12.3598) (layer F.CrtYd) (width 0.02))
  (fp_line (start -16.25 -1) (end -16.25 -12.3598) (layer F.CrtYd) (width 0.02))
  (fp_line (start -15.25 -11.3538) (end -15.25 -1) (layer F.SilkS) (width 0.18))
  (fp_line (start 15.25 -11.3538) (end -15.25 -11.3538) (layer F.SilkS) (width 0.18))
  (fp_line (start 15.25 -1) (end 15.25 -11.3538) (layer F.SilkS) (width 0.18))
  (fp_line (start 27.2 -1) (end 15.25 -1) (layer F.SilkS) (width 0.18))
  (fp_line (start 27.2 4.1402) (end 27.2 -1) (layer F.SilkS) (width 0.18))
  (fp_line (start -27.2 4.1402) (end 27.2 4.1402) (layer F.SilkS) (width 0.18))
  (fp_line (start -27.2 -1) (end -27.2 4.1402) (layer F.SilkS) (width 0.18))
  (fp_line (start -15.25 -1) (end -27.2 -1) (layer F.SilkS) (width 0.18))
  (fp_line (start 27.29 6.4904) (end -27.29 6.4904) (layer Dwgs.User) (width 0.05))
  (fp_line (start 27.29 -13.71) (end 27.29 6.4904) (layer Dwgs.User) (width 0.05))
  (fp_line (start -27.29 -13.71) (end 27.29 -13.71) (layer Dwgs.User) (width 0.05))
  (fp_line (start -27.29 6.4904) (end -27.29 -13.71) (layer Dwgs.User) (width 0.05))
  (fp_arc (start -6.403 -7.29) (end -6.403 -8.74) (angle -180) (layer F.Fab) (width 0.1))
  (fp_arc (start -3.503 -7.29) (end -3.503 -5.84) (angle -180) (layer F.Fab) (width 0.1))
  (fp_arc (start 7.567 -7.29) (end 7.567 -8.74) (angle -180) (layer F.Fab) (width 0.1))
  (fp_arc (start 10.467 -7.29) (end 10.467 -5.84) (angle -180) (layer F.Fab) (width 0.1))
  (fp_arc (start 9.017 -7.29) (end 10.033 -7.29) (angle 360) (layer B.CrtYd) (width 0.02))
  (fp_arc (start -4.953 -7.29) (end -3.937 -7.29) (angle 360) (layer B.CrtYd) (width 0.02))
  (fp_arc (start 0 -12.1098) (end 1.27 -12.1098) (angle 360) (layer B.CrtYd) (width 0.02))
  (fp_arc (start 16 -3.6098) (end 17.27 -3.6098) (angle 360) (layer B.CrtYd) (width 0.02))
  (fp_arc (start 0 4.8902) (end 1.27 4.8902) (angle 360) (layer B.CrtYd) (width 0.02))
  (fp_arc (start -16 -3.6098) (end -14.73 -3.6098) (angle 360) (layer B.CrtYd) (width 0.02))
  (fp_arc (start 2.54 0) (end 3.429 0) (angle 360) (layer B.CrtYd) (width 0.02))
  (fp_arc (start 0 0) (end 0.889 0) (angle 360) (layer B.CrtYd) (width 0.02))
  (pad 9 np_thru_hole circle (at 9.017 -7.29) (size 2.032 2.032) (drill 2.5146) (layers F&B.Cu *.Mask)
    (solder_mask_margin 0.4318) (clearance 0.5334) (zone_connect 2) (thermal_width 0.3048) (thermal_gap 0.3048))
  (pad 8 np_thru_hole circle (at -4.953 -7.29) (size 2.032 2.032) (drill 2.5146) (layers F&B.Cu *.Mask)
    (solder_mask_margin 0.4318) (clearance 0.5334) (zone_connect 2) (thermal_width 0.3048) (thermal_gap 0.3048))
  (pad 3 thru_hole circle (at 2.54 0) (size 1.778 1.778) (drill 1.1176) (layers F&B.Cu *.Mask)
    (solder_mask_margin 0.1016) (clearance 0.1016) (zone_connect 2))
  (pad 2 thru_hole circle (at 0 0) (size 1.778 1.778) (drill 1.1176) (layers *.Mask F.Cu In2.Cu B.Cu)
    (solder_mask_margin 0.1016) (clearance 0.1016) (zone_connect 2))
  (pad 1 thru_hole rect (at -2.54 0) (size 1.778 1.778) (drill 1.1176) (layers F&B.Cu *.Mask)
    (solder_mask_margin 0.1016) (zone_connect 2))
  (model "${KIPRJMOD}/../Library/Footprints.3dshapes/capteur debit.stp"
    (offset (xyz -45.35 -19.65 31.5))
    (scale (xyz 1 1 1))
    (rotate (xyz 180 0 180))
  )
)
