(module BP2X5C_111101100001100001100001100001100001100001100001100001100101 (layer F.Cu) (tedit 0)
  (fp_text reference REF** (at 0 0) (layer F.SilkS)
    (effects (font (size 1 1) (thickness 0.15)))
  )
  (fp_text value BP2X5C_111101100001100001100001100001100001100001100001100001100101 (at 0 2) (layer F.Fab) hide
    (effects (font (size 1 1) (thickness 0.15)))
  )
  (fp_line (start 0.7874 -0.7874) (end -0.7874 -0.7874) (layer B.SilkS) (width 0.1))
  (fp_line (start 0.7874 0.7874) (end 0.7874 -0.7874) (layer B.SilkS) (width 0.1))
  (fp_line (start -0.7874 0.7874) (end 0.7874 0.7874) (layer B.SilkS) (width 0.1))
  (fp_line (start -0.7874 -0.7874) (end -0.7874 0.7874) (layer B.SilkS) (width 0.1))
  (fp_line (start -5.08 0.889) (end 15.38 0.889) (layer F.Fab) (width 0.1))
  (fp_line (start -5.08 -13.97) (end -5.08 0.889) (layer F.Fab) (width 0.1))
  (fp_line (start 15.38 -13.97) (end -5.08 -13.97) (layer F.Fab) (width 0.1))
  (fp_line (start 15.38 0.889) (end 15.38 -13.97) (layer F.Fab) (width 0.1))
  (fp_line (start 3.81 -11.43) (end 3.81 -13.97) (layer F.Fab) (width 0.1))
  (fp_line (start 6.35 -11.43) (end 3.81 -11.43) (layer F.Fab) (width 0.1))
  (fp_line (start 6.35 -13.97) (end 6.35 -11.43) (layer F.Fab) (width 0.1))
  (fp_line (start 0.635 -13.0556) (end 0.635 -13.97) (layer F.Fab) (width 0.1))
  (fp_line (start 0.1524 -11.938) (end 0.635 -13.0556) (layer F.Fab) (width 0.1))
  (fp_line (start -0.1778 -11.938) (end 0.1524 -11.938) (layer F.Fab) (width 0.1))
  (fp_line (start -0.635 -13.0556) (end -0.1778 -11.938) (layer F.Fab) (width 0.1))
  (fp_line (start -0.635 -13.97) (end -0.635 -13.0556) (layer F.Fab) (width 0.1))
  (fp_line (start -0.7874 -0.7874) (end 0.7874 -0.7874) (layer B.CrtYd) (width 0.02))
  (fp_line (start -0.7874 0.7874) (end -0.7874 -0.7874) (layer B.CrtYd) (width 0.02))
  (fp_line (start 0.7874 0.7874) (end -0.7874 0.7874) (layer B.CrtYd) (width 0.02))
  (fp_line (start 0.7874 -0.7874) (end 0.7874 0.7874) (layer B.CrtYd) (width 0.02))
  (fp_line (start 15.38 0.889) (end -5.08 0.889) (layer F.CrtYd) (width 0.02))
  (fp_line (start 15.38 -13.97) (end 15.38 0.889) (layer F.CrtYd) (width 0.02))
  (fp_line (start -5.08 -13.97) (end 15.38 -13.97) (layer F.CrtYd) (width 0.02))
  (fp_line (start -5.08 0.889) (end -5.08 -13.97) (layer F.CrtYd) (width 0.02))
  (fp_line (start -5.08 0.635) (end -1.27 0.635) (layer F.SilkS) (width 0.18))
  (fp_line (start -5.08 -13.97) (end -5.08 0.635) (layer F.SilkS) (width 0.18))
  (fp_line (start 15.38 -13.97) (end -5.08 -13.97) (layer F.SilkS) (width 0.18))
  (fp_line (start 15.38 0.635) (end 15.38 -13.97) (layer F.SilkS) (width 0.18))
  (fp_line (start 11.43 0.635) (end 15.38 0.635) (layer F.SilkS) (width 0.18))
  (fp_line (start 0.635 -13.0556) (end 0.635 -13.97) (layer F.SilkS) (width 0.18))
  (fp_line (start 0.1524 -11.938) (end 0.635 -13.0556) (layer F.SilkS) (width 0.18))
  (fp_line (start -0.1778 -11.938) (end 0.1524 -11.938) (layer F.SilkS) (width 0.18))
  (fp_line (start -0.635 -13.0556) (end -0.1778 -11.938) (layer F.SilkS) (width 0.18))
  (fp_line (start -0.635 -13.97) (end -0.635 -13.0556) (layer F.SilkS) (width 0.18))
  (fp_line (start 15.47 0.9906) (end -5.17 0.9906) (layer Dwgs.User) (width 0.05))
  (fp_line (start 15.47 -14.06) (end 15.47 0.9906) (layer Dwgs.User) (width 0.05))
  (fp_line (start -5.17 -14.06) (end 15.47 -14.06) (layer Dwgs.User) (width 0.05))
  (fp_line (start -5.17 0.9906) (end -5.17 -14.06) (layer Dwgs.User) (width 0.05))
  (fp_arc (start 10.16 -2.54) (end 10.9474 -2.54) (angle 360) (layer B.CrtYd) (width 0.02))
  (fp_arc (start 10.16 0) (end 10.9474 0) (angle 360) (layer B.CrtYd) (width 0.02))
  (fp_arc (start 7.62 -2.54) (end 8.4074 -2.54) (angle 360) (layer B.CrtYd) (width 0.02))
  (fp_arc (start 7.62 0) (end 8.4074 0) (angle 360) (layer B.CrtYd) (width 0.02))
  (fp_arc (start 5.08 -2.54) (end 5.8674 -2.54) (angle 360) (layer B.CrtYd) (width 0.02))
  (fp_arc (start 5.08 0) (end 5.8674 0) (angle 360) (layer B.CrtYd) (width 0.02))
  (fp_arc (start 2.54 -2.54) (end 3.3274 -2.54) (angle 360) (layer B.CrtYd) (width 0.02))
  (fp_arc (start 2.54 0) (end 3.3274 0) (angle 360) (layer B.CrtYd) (width 0.02))
  (fp_arc (start 0 -2.54) (end 0.7874 -2.54) (angle 360) (layer B.CrtYd) (width 0.02))
  (pad 10 thru_hole circle (at 10.16 -2.54) (size 1.5748 1.5748) (drill 0.9144) (layers *.Mask F.Cu In3.Cu B.Cu)
    (solder_mask_margin 0.1016) (clearance 0.1524) (zone_connect 2) (thermal_width 0.2032) (thermal_gap 0.2032))
  (pad 9 thru_hole circle (at 10.16 0) (size 1.5748 1.5748) (drill 0.9144) (layers F&B.Cu *.Mask)
    (solder_mask_margin 0.1016) (clearance 0.1524) (zone_connect 2) (thermal_width 0.2032) (thermal_gap 0.2032))
  (pad 8 thru_hole circle (at 7.62 -2.54) (size 1.5748 1.5748) (drill 0.9144) (layers F&B.Cu *.Mask)
    (solder_mask_margin 0.1016) (clearance 0.1524) (zone_connect 2) (thermal_width 0.2032) (thermal_gap 0.2032))
  (pad 7 thru_hole circle (at 7.62 0) (size 1.5748 1.5748) (drill 0.9144) (layers F&B.Cu *.Mask)
    (solder_mask_margin 0.1016) (clearance 0.1524) (zone_connect 2) (thermal_width 0.2032) (thermal_gap 0.2032))
  (pad 6 thru_hole circle (at 5.08 -2.54) (size 1.5748 1.5748) (drill 0.9144) (layers F&B.Cu *.Mask)
    (solder_mask_margin 0.1016) (clearance 0.1524) (zone_connect 2) (thermal_width 0.2032) (thermal_gap 0.2032))
  (pad 5 thru_hole circle (at 5.08 0) (size 1.5748 1.5748) (drill 0.9144) (layers F&B.Cu *.Mask)
    (solder_mask_margin 0.1016) (clearance 0.1524) (zone_connect 2) (thermal_width 0.2032) (thermal_gap 0.2032))
  (pad 4 thru_hole circle (at 2.54 -2.54) (size 1.5748 1.5748) (drill 0.9144) (layers F&B.Cu *.Mask)
    (solder_mask_margin 0.1016) (clearance 0.1524) (zone_connect 2) (thermal_width 0.2032) (thermal_gap 0.2032))
  (pad 3 thru_hole circle (at 2.54 0) (size 1.5748 1.5748) (drill 0.9144) (layers F&B.Cu *.Mask)
    (solder_mask_margin 0.1016) (clearance 0.1524) (zone_connect 2) (thermal_width 0.2032) (thermal_gap 0.2032))
  (pad 2 thru_hole circle (at 0 -2.54) (size 1.5748 1.5748) (drill 0.9144) (layers F&B.Cu *.Mask)
    (solder_mask_margin 0.1016) (clearance 0.1524) (zone_connect 2) (thermal_width 0.2032) (thermal_gap 0.2032))
  (pad 1 thru_hole rect (at 0 0) (size 1.5748 1.5748) (drill 0.9144) (layers *.Mask F.Cu In1.Cu In2.Cu In3.Cu B.Cu)
    (solder_mask_margin 0.1016) (clearance 0.1524) (zone_connect 2) (thermal_width 0.2032) (thermal_gap 0.2032))
  (model ${KIPRJMOD}/../Library/Footprints.3dshapes/39-26-7108.step
    (offset (xyz 5.1 -1 0))
    (scale (xyz 1 1 1))
    (rotate (xyz 0 0 0))
  )
)
