(module C0402 (layer F.Cu) (tedit 0)
  (fp_text reference REF** (at 0 0) (layer F.SilkS)
    (effects (font (size 1 1) (thickness 0.15)))
  )
  (fp_text value C0402 (at 0 2) (layer F.Fab) hide
    (effects (font (size 1 1) (thickness 0.15)))
  )
  (fp_line (start -1.0425 0.725) (end -1.0425 -0.725) (layer Dwgs.User) (width 0.05))
  (fp_line (start -1.0425 -0.725) (end 1.0425 -0.725) (layer Dwgs.User) (width 0.05))
  (fp_line (start 1.0425 -0.725) (end 1.0425 0.725) (layer Dwgs.User) (width 0.05))
  (fp_line (start 1.0425 0.725) (end -1.0425 0.725) (layer Dwgs.User) (width 0.05))
  (fp_line (start -0.9525 -0.635) (end -0.9525 0.635) (layer F.SilkS) (width 0.18))
  (fp_line (start -0.9525 0.635) (end 0.9525 0.635) (layer F.SilkS) (width 0.18))
  (fp_line (start 0.9525 0.635) (end 0.9525 -0.635) (layer F.SilkS) (width 0.18))
  (fp_line (start 0.9525 -0.635) (end -0.9525 -0.635) (layer F.SilkS) (width 0.18))
  (fp_line (start -0.9525 -0.635) (end 0.9525 -0.635) (layer F.CrtYd) (width 0.02))
  (fp_line (start 0.9525 -0.635) (end 0.9525 0.635) (layer F.CrtYd) (width 0.02))
  (fp_line (start 0.9525 0.635) (end -0.9525 0.635) (layer F.CrtYd) (width 0.02))
  (fp_line (start -0.9525 0.635) (end -0.9525 -0.635) (layer F.CrtYd) (width 0.02))
  (fp_line (start 0.55 0.3) (end 0.55 -0.3) (layer F.Fab) (width 0.1))
  (fp_line (start 0.55 -0.3) (end -0.55 -0.3) (layer F.Fab) (width 0.1))
  (fp_line (start -0.55 -0.3) (end -0.55 0.3) (layer F.Fab) (width 0.1))
  (fp_line (start -0.55 0.3) (end 0.55 0.3) (layer F.Fab) (width 0.1))
  (fp_line (start -0.7548 -0.3048) (end -0.7548 0.3048) (layer F.SilkS) (width 0))
  (fp_line (start -0.7548 0.3048) (end -0.1452 0.3048) (layer F.SilkS) (width 0))
  (fp_line (start -0.1452 0.3048) (end -0.1452 -0.3048) (layer F.SilkS) (width 0))
  (fp_line (start -0.1452 -0.3048) (end -0.7548 -0.3048) (layer F.SilkS) (width 0))
  (fp_line (start 0.1452 -0.3048) (end 0.1452 0.3048) (layer F.SilkS) (width 0))
  (fp_line (start 0.1452 0.3048) (end 0.7548 0.3048) (layer F.SilkS) (width 0))
  (fp_line (start 0.7548 0.3048) (end 0.7548 -0.3048) (layer F.SilkS) (width 0))
  (fp_line (start 0.7548 -0.3048) (end 0.1452 -0.3048) (layer F.SilkS) (width 0))
  (pad 1 smd rect (at -0.45 0) (size 0.6096 0.6096) (layers F.Cu F.Mask F.Paste)
    (clearance 0.2032) (solder_mask_margin 0.1016)
    (zone_connect 2) (thermal_width 0.3048) (thermal_gap 0.254))
  (pad 2 smd rect (at 0.45 0) (size 0.6096 0.6096) (layers F.Cu F.Mask F.Paste)
    (clearance 0.2032) (solder_mask_margin 0.1016)
    (zone_connect 2) (thermal_width 0.3048) (thermal_gap 0.254))
  (model ${KISYS3DMOD}/Capacitor_SMD.3dshapes/C_0402_1005Metric.wrl
    (offset (xyz 0 0 0))
    (scale (xyz 1 1 1))
    (rotate (xyz 0 0 0))
  )
)