(module FIX35-MEGGITT-CONV. (layer F.Cu) (tedit 0)
  (fp_text reference REF** (at 0 0) (layer F.SilkS)
    (effects (font (size 1 1) (thickness 0.15)))
  )
  (fp_text value FIX35-MEGGITT-CONV. (at 0 2) (layer F.Fab) hide
    (effects (font (size 1 1) (thickness 0.15)))
  )
  (fp_arc (start 0 0) (end 3.25 0) (angle 360) (layer F.CrtYd) (width 0.02))
  (fp_arc (start 0 0) (end 3.25 0) (angle 360) (layer B.CrtYd) (width 0.02))
  (fp_arc (start 0 0) (end 1.75 0) (angle 360) (layer F.Fab) (width 0.1))
  (fp_arc (start 0 0) (end 2.25 0) (angle 360) (layer Dwgs.User) (width 0))
  (fp_line (start -3.25 3.25) (end -3.25 -3.25) (layer Dwgs.User) (width 0.05))
  (fp_line (start -3.25 -3.25) (end 3.25 -3.25) (layer Dwgs.User) (width 0.05))
  (fp_line (start 3.25 -3.25) (end 3.25 3.25) (layer Dwgs.User) (width 0.05))
  (fp_line (start 3.25 3.25) (end -3.25 3.25) (layer Dwgs.User) (width 0.05))
  (pad 1 np_thru_hole circle (at 0 0) (size 2.9972 2.9972) (drill 3.5052 (offset 0 0 )) (layers *.Cu *.Mask)
    (clearance 0.6096) (solder_mask_margin 0.762)
    (zone_connect 2))
)