(module HMB12 (layer F.Cu) (tedit 0)
  (fp_text reference REF** (at 0 0) (layer F.SilkS)
    (effects (font (size 1 1) (thickness 0.15)))
  )
  (fp_text value HMB12 (at 0 2) (layer F.Fab) hide
    (effects (font (size 1 1) (thickness 0.15)))
  )
  (fp_arc (start 0 0) (end 8 0) (angle 360) (layer F.SilkS) (width 0.18))
  (fp_arc (start 0 0) (end 8 0) (angle 360) (layer F.CrtYd) (width 0.02))
  (fp_arc (start 0 3.81) (end 1.016 3.81) (angle 360) (layer B.CrtYd) (width 0.02))
  (fp_arc (start 0 0) (end 5 0) (angle 360) (layer F.Fab) (width 0.1))
  (fp_arc (start 0 0) (end 6 0) (angle 360) (layer F.Fab) (width 0.1))
  (fp_arc (start 0 0) (end 2 0) (angle 360) (layer F.Fab) (width 0.1))
  (fp_arc (start 0 0) (end 8 0) (angle 360) (layer F.Fab) (width 0.1))
  (fp_line (start -8.09 8.09) (end -8.09 -8.09) (layer Dwgs.User) (width 0.05))
  (fp_line (start -8.09 -8.09) (end 8.09 -8.09) (layer Dwgs.User) (width 0.05))
  (fp_line (start 8.09 -8.09) (end 8.09 8.09) (layer Dwgs.User) (width 0.05))
  (fp_line (start 8.09 8.09) (end -8.09 8.09) (layer Dwgs.User) (width 0.05))
  (fp_line (start 1.016 -4.826) (end 1.016 -2.794) (layer B.CrtYd) (width 0.02))
  (fp_line (start 1.016 -2.794) (end -1.016 -2.794) (layer B.CrtYd) (width 0.02))
  (fp_line (start -1.016 -2.794) (end -1.016 -4.826) (layer B.CrtYd) (width 0.02))
  (fp_line (start -1.016 -4.826) (end 1.016 -4.826) (layer B.CrtYd) (width 0.02))
  (fp_line (start -1.016 -4.826) (end -1.016 -2.794) (layer B.SilkS) (width 0))
  (fp_line (start -1.016 -2.794) (end 1.016 -2.794) (layer B.SilkS) (width 0))
  (fp_line (start 1.016 -2.794) (end 1.016 -4.826) (layer B.SilkS) (width 0))
  (fp_line (start 1.016 -4.826) (end -1.016 -4.826) (layer B.SilkS) (width 0))
  (pad + thru_hole rect (at 0 -3.81) (size 2.032 2.032) (drill 1.016 (offset 0 0 )) (layers *.Cu *.Mask)
    (solder_mask_margin 0.1016)
    (zone_connect 2))
  (pad - thru_hole circle (at 0 3.81) (size 2.032 2.032) (drill 1.016 (offset 0 0 )) (layers *.Cu *.Mask)
    (clearance 0.1016) (solder_mask_margin 0.1016)
    (zone_connect 2))
  (fp_text user + (at -0.381 -6.03508) (layer F.Fab)
    (effects (font (size 1 1) (thickness 0.1016)) (justify left))
  )
  (model ${KISYS3DMOD}/Buzzer_Beeper.3dshapes/MagneticBuzzer_StarMicronics_HMB-06_HMB-12.wrl
    (offset (xyz 0 3.8 0))
    (scale (xyz 1 1 1))
    (rotate (xyz 0 0 90))
  )
)