(module OBLS174L95.5R95.5A0 (layer F.Cu) (tedit 0)
  (fp_text reference REF** (at 0 0) (layer F.SilkS) hide
    (effects (font (size 1 1) (thickness 0.15)))
  )
  (fp_text value OBLS174L95.5R95.5A0 (at 0 2) (layer F.Fab) hide
    (effects (font (size 1 1) (thickness 0.15)))
  )
  (fp_line (start -2.91084 2.65176) (end -2.91084 -2.65176) (layer F.CrtYd) (width 0.05))
  (fp_line (start -2.91084 -2.65176) (end 2.91084 -2.65176) (layer F.CrtYd) (width 0.05))
  (fp_line (start 2.91084 -2.65176) (end 2.91084 2.65176) (layer F.CrtYd) (width 0.05))
  (fp_line (start 2.91084 2.65176) (end -2.91084 2.65176) (layer F.CrtYd) (width 0.05))
  (fp_line (start -2.4257 2.2098) (end -2.4257 -2.2098) (layer F.SilkS) (width 0.02))
  (fp_line (start -2.4257 -2.2098) (end 2.4257 -2.2098) (layer F.SilkS) (width 0.02))
  (fp_line (start 2.4257 -2.2098) (end 2.4257 2.2098) (layer F.SilkS) (width 0.02))
  (fp_line (start 2.4257 2.2098) (end -2.4257 2.2098) (layer F.SilkS) (width 0.02))
  (pad ~ smd rect (at 0 0) (size 4.8514 4.4196) (layers F.Cu F.Mask F.Paste)
    (zone_connect 2))
)