(module OBLS34L40R40A90 (layer F.Cu) (tedit 0)
  (fp_text reference REF** (at 0 0) (layer F.SilkS) hide
    (effects (font (size 1 1) (thickness 0.15)))
  )
  (fp_text value OBLS34L40R40A90 (at 0 2) (layer F.Fab) hide
    (effects (font (size 1 1) (thickness 0.15)))
  )
  (fp_line (start -0.51816 1.2192) (end -0.51816 -1.2192) (layer F.CrtYd) (width 0.05))
  (fp_line (start -0.51816 -1.2192) (end 0.51816 -1.2192) (layer F.CrtYd) (width 0.05))
  (fp_line (start 0.51816 -1.2192) (end 0.51816 1.2192) (layer F.CrtYd) (width 0.05))
  (fp_line (start 0.51816 1.2192) (end -0.51816 1.2192) (layer F.CrtYd) (width 0.05))
  (fp_line (start -0.4318 1.016) (end -0.4318 -1.016) (layer F.SilkS) (width 0.02))
  (fp_line (start -0.4318 -1.016) (end 0.4318 -1.016) (layer F.SilkS) (width 0.02))
  (fp_line (start 0.4318 -1.016) (end 0.4318 1.016) (layer F.SilkS) (width 0.02))
  (fp_line (start 0.4318 1.016) (end -0.4318 1.016) (layer F.SilkS) (width 0.02))
  (pad ~ smd rect (at 0 0) (size 0.8636 2.032) (layers F.Cu F.Mask F.Paste)
    (zone_connect 2))
)