(module OBLS50L28R28A90 (layer F.Cu) (tedit 0)
  (fp_text reference REF** (at 0 0) (layer F.SilkS) hide
    (effects (font (size 1 1) (thickness 0.15)))
  )
  (fp_text value OBLS50L28R28A90 (at 0 2) (layer F.Fab) hide
    (effects (font (size 1 1) (thickness 0.15)))
  )
  (fp_line (start -0.762 0.85344) (end -0.762 -0.85344) (layer F.CrtYd) (width 0.05))
  (fp_line (start -0.762 -0.85344) (end 0.762 -0.85344) (layer F.CrtYd) (width 0.05))
  (fp_line (start 0.762 -0.85344) (end 0.762 0.85344) (layer F.CrtYd) (width 0.05))
  (fp_line (start 0.762 0.85344) (end -0.762 0.85344) (layer F.CrtYd) (width 0.05))
  (fp_line (start -0.635 0.7112) (end -0.635 -0.7112) (layer F.SilkS) (width 0.02))
  (fp_line (start -0.635 -0.7112) (end 0.635 -0.7112) (layer F.SilkS) (width 0.02))
  (fp_line (start 0.635 -0.7112) (end 0.635 0.7112) (layer F.SilkS) (width 0.02))
  (fp_line (start 0.635 0.7112) (end -0.635 0.7112) (layer F.SilkS) (width 0.02))
  (pad ~ smd rect (at 0 0) (size 1.27 1.4224) (layers F.Cu F.Mask F.Paste)
    (zone_connect 2))
)