(module OBLS32L48R48A90 (layer F.Cu) (tedit 0)
  (fp_text reference REF** (at 0 0) (layer F.SilkS) hide
    (effects (font (size 1 1) (thickness 0.15)))
  )
  (fp_text value OBLS32L48R48A90 (at 0 2) (layer F.Fab) hide
    (effects (font (size 1 1) (thickness 0.15)))
  )
  (fp_line (start -0.48768 1.46304) (end -0.48768 -1.46304) (layer F.CrtYd) (width 0.05))
  (fp_line (start -0.48768 -1.46304) (end 0.48768 -1.46304) (layer F.CrtYd) (width 0.05))
  (fp_line (start 0.48768 -1.46304) (end 0.48768 1.46304) (layer F.CrtYd) (width 0.05))
  (fp_line (start 0.48768 1.46304) (end -0.48768 1.46304) (layer F.CrtYd) (width 0.05))
  (fp_line (start -0.4064 1.2192) (end -0.4064 -1.2192) (layer F.SilkS) (width 0.02))
  (fp_line (start -0.4064 -1.2192) (end 0.4064 -1.2192) (layer F.SilkS) (width 0.02))
  (fp_line (start 0.4064 -1.2192) (end 0.4064 1.2192) (layer F.SilkS) (width 0.02))
  (fp_line (start 0.4064 1.2192) (end -0.4064 1.2192) (layer F.SilkS) (width 0.02))
  (pad ~ smd rect (at 0 0) (size 0.8128 2.4384) (layers F.Cu F.Mask F.Paste)
    (zone_connect 2))
)