(module OBLS70L66.5R66.5A90 (layer F.Cu) (tedit 0)
  (fp_text reference REF** (at 0 0) (layer F.SilkS) hide
    (effects (font (size 1 1) (thickness 0.15)))
  )
  (fp_text value OBLS70L66.5R66.5A90 (at 0 2) (layer F.Fab) hide
    (effects (font (size 1 1) (thickness 0.15)))
  )
  (fp_line (start -1.0668 2.02692) (end -1.0668 -2.02692) (layer F.CrtYd) (width 0.05))
  (fp_line (start -1.0668 -2.02692) (end 1.0668 -2.02692) (layer F.CrtYd) (width 0.05))
  (fp_line (start 1.0668 -2.02692) (end 1.0668 2.02692) (layer F.CrtYd) (width 0.05))
  (fp_line (start 1.0668 2.02692) (end -1.0668 2.02692) (layer F.CrtYd) (width 0.05))
  (fp_line (start -0.889 1.6891) (end -0.889 -1.6891) (layer F.SilkS) (width 0.02))
  (fp_line (start -0.889 -1.6891) (end 0.889 -1.6891) (layer F.SilkS) (width 0.02))
  (fp_line (start 0.889 -1.6891) (end 0.889 1.6891) (layer F.SilkS) (width 0.02))
  (fp_line (start 0.889 1.6891) (end -0.889 1.6891) (layer F.SilkS) (width 0.02))
  (pad ~ smd rect (at 0 0) (size 1.778 3.3782) (layers F.Cu F.Mask F.Paste)
    (zone_connect 2))
)