(module PC1.524 (layer F.Cu) (tedit 0)
  (fp_text reference REF** (at 0 0) (layer F.SilkS) hide
    (effects (font (size 1 1) (thickness 0.15)))
  )
  (fp_text value masque_comp (at 0 2) (layer F.Fab) hide
    (effects (font (size 1 1) (thickness 0.15)))
  )
  (fp_line (start -1.03632 1.03632) (end -1.03632 -1.03632) (layer F.CrtYd) (width 0.05))
  (fp_line (start -1.03632 -1.03632) (end 1.03632 -1.03632) (layer F.CrtYd) (width 0.05))
  (fp_line (start 1.03632 -1.03632) (end 1.03632 1.03632) (layer F.CrtYd) (width 0.05))
  (fp_line (start 1.03632 1.03632) (end -1.03632 1.03632) (layer F.CrtYd) (width 0.05))
  (fp_line (start -0.762 -0.762) (end -0.762 0.762) (layer F.SilkS) (width 0))
  (fp_line (start -0.762 0.762) (end 0.762 0.762) (layer F.SilkS) (width 0))
  (fp_line (start 0.762 0.762) (end 0.762 -0.762) (layer F.SilkS) (width 0))
  (fp_line (start 0.762 -0.762) (end -0.762 -0.762) (layer F.SilkS) (width 0))
  (pad ~ smd rect (at 0 0) (size 1.524 1.524) (layers F.Cu F.Mask F.Paste)
    (solder_mask_margin 0.1016)
    (zone_connect 2))
)