(module PR.B2 (layer F.Cu) (tedit 0)
  (fp_text reference REF** (at 0 0) (layer F.SilkS) hide
    (effects (font (size 1 1) (thickness 0.15)))
  )
  (fp_text value masque_comp (at 0 2) (layer F.Fab) hide
    (effects (font (size 1 1) (thickness 0.15)))
  )
  (fp_line (start -1.24968 2.2098) (end -1.24968 -2.2098) (layer F.CrtYd) (width 0.05))
  (fp_line (start -1.24968 -2.2098) (end 1.24968 -2.2098) (layer F.CrtYd) (width 0.05))
  (fp_line (start 1.24968 -2.2098) (end 1.24968 2.2098) (layer F.CrtYd) (width 0.05))
  (fp_line (start 1.24968 2.2098) (end -1.24968 2.2098) (layer F.CrtYd) (width 0.05))
  (fp_line (start -0.7874 1.5875) (end -0.7874 -1.5875) (layer F.SilkS) (width 0.02))
  (fp_line (start -0.7874 -1.5875) (end 0.7874 -1.5875) (layer F.SilkS) (width 0.02))
  (fp_line (start 0.7874 -1.5875) (end 0.7874 1.5875) (layer F.SilkS) (width 0.02))
  (fp_line (start 0.7874 1.5875) (end -0.7874 1.5875) (layer F.SilkS) (width 0.02))
  (pad ~ smd rect (at 0 0) (size 1.5748 3.175) (layers F.Cu F.Mask F.Paste)
    (clearance 0.2032) (solder_mask_margin 0.1016)
    (zone_connect 2))
)