(module PR.O (layer F.Cu) (tedit 0)
  (fp_text reference REF** (at 0 0) (layer F.SilkS) hide
    (effects (font (size 1 1) (thickness 0.15)))
  )
  (fp_text value masque_comp (at 0 2) (layer F.Fab) hide
    (effects (font (size 1 1) (thickness 0.15)))
  )
  (fp_line (start -0.47244 0.9144) (end -0.47244 -0.9144) (layer F.CrtYd) (width 0.05))
  (fp_line (start -0.47244 -0.9144) (end 0.47244 -0.9144) (layer F.CrtYd) (width 0.05))
  (fp_line (start 0.47244 -0.9144) (end 0.47244 0.9144) (layer F.CrtYd) (width 0.05))
  (fp_line (start 0.47244 0.9144) (end -0.47244 0.9144) (layer F.CrtYd) (width 0.05))
  (fp_line (start -0.1397 0.508) (end -0.1397 -0.508) (layer F.SilkS) (width 0.02))
  (fp_line (start -0.1397 -0.508) (end 0.1397 -0.508) (layer F.SilkS) (width 0.02))
  (fp_line (start 0.1397 -0.508) (end 0.1397 0.508) (layer F.SilkS) (width 0.02))
  (fp_line (start 0.1397 0.508) (end -0.1397 0.508) (layer F.SilkS) (width 0.02))
  (pad ~ smd rect (at 0 0) (size 0.2794 1.016) (layers F.Cu F.Mask F.Paste)
    (clearance 0.2032) (solder_mask_margin 0.1143)
    (zone_connect 2))
)