(module R0603-Vishay (layer F.Cu) (tedit 0)
  (fp_text reference REF** (at 0 0) (layer F.SilkS)
    (effects (font (size 1 1) (thickness 0.15)))
  )
  (fp_text value R0603-Vishay (at 0 2) (layer F.Fab) hide
    (effects (font (size 1 1) (thickness 0.15)))
  )
  (fp_line (start -1.6 0.6) (end -1.6 -0.6) (layer Dwgs.User) (width 0.05))
  (fp_line (start -1.6 -0.6) (end 1.6 -0.6) (layer Dwgs.User) (width 0.05))
  (fp_line (start 1.6 -0.6) (end 1.6 0.6) (layer Dwgs.User) (width 0.05))
  (fp_line (start 1.6 0.6) (end -1.6 0.6) (layer Dwgs.User) (width 0.05))
  (fp_line (start 1.6 -0.6) (end 1.6 0.6) (layer F.CrtYd) (width 0.02))
  (fp_line (start 1.6 0.6) (end -1.6 0.6) (layer F.CrtYd) (width 0.02))
  (fp_line (start -1.6 0.6) (end -1.6 -0.6) (layer F.CrtYd) (width 0.02))
  (fp_line (start -1.6 -0.6) (end 1.6 -0.6) (layer F.CrtYd) (width 0.02))
  (fp_line (start -0.85 -0.475) (end 0.85 -0.475) (layer F.Fab) (width 0.1))
  (fp_line (start 0.85 -0.475) (end 0.85 0.475) (layer F.Fab) (width 0.1))
  (fp_line (start 0.85 0.475) (end -0.85 0.475) (layer F.Fab) (width 0.1))
  (fp_line (start -0.85 0.475) (end -0.85 -0.475) (layer F.Fab) (width 0.1))
  (fp_line (start 0.6 0.475) (end 0.6 -0.475) (layer F.Fab) (width 0.1))
  (fp_line (start -0.6 0.475) (end -0.6 -0.475) (layer F.Fab) (width 0.1))
  (fp_line (start -1.4 -0.45) (end -1.4 0.45) (layer F.SilkS) (width 0))
  (fp_line (start -1.4 0.45) (end -0.5 0.45) (layer F.SilkS) (width 0))
  (fp_line (start -0.5 0.45) (end -0.5 -0.45) (layer F.SilkS) (width 0))
  (fp_line (start -0.5 -0.45) (end -1.4 -0.45) (layer F.SilkS) (width 0))
  (fp_line (start 0.5 -0.45) (end 0.5 0.45) (layer F.SilkS) (width 0))
  (fp_line (start 0.5 0.45) (end 1.4 0.45) (layer F.SilkS) (width 0))
  (fp_line (start 1.4 0.45) (end 1.4 -0.45) (layer F.SilkS) (width 0))
  (fp_line (start 1.4 -0.45) (end 0.5 -0.45) (layer F.SilkS) (width 0))
  (pad 1 smd rect (at -0.95 0) (size 0.9 0.9) (layers F.Cu F.Paste F.Mask)
    (solder_mask_margin 0.105)
    (zone_connect 2))
  (pad 2 smd rect (at 0.95 0) (size 0.9 0.9) (layers F.Cu F.Paste F.Mask)
    (solder_mask_margin 0.105)
    (zone_connect 2))
)