(module R0805-SANS-SE (layer F.Cu) (tedit 0)
  (fp_text reference REF** (at 0 0) (layer F.SilkS)
    (effects (font (size 1 1) (thickness 0.15)))
  )
  (fp_text value R0805-SANS-SE (at 0 2) (layer F.Fab) hide
    (effects (font (size 1 1) (thickness 0.15)))
  )
  (fp_line (start -1.939 0.9652) (end -1.939 -0.9652) (layer Dwgs.User) (width 0.05))
  (fp_line (start -1.939 -0.9652) (end 1.939 -0.9652) (layer Dwgs.User) (width 0.05))
  (fp_line (start 1.939 -0.9652) (end 1.939 0.9652) (layer Dwgs.User) (width 0.05))
  (fp_line (start 1.939 0.9652) (end -1.939 0.9652) (layer Dwgs.User) (width 0.05))
  (fp_line (start -1.8 -0.8) (end 1.8 -0.8) (layer F.CrtYd) (width 0.02))
  (fp_line (start 1.8 -0.8) (end 1.8 0.8) (layer F.CrtYd) (width 0.02))
  (fp_line (start 1.8 0.8) (end -1.8 0.8) (layer F.CrtYd) (width 0.02))
  (fp_line (start -1.8 0.8) (end -1.8 -0.8) (layer F.CrtYd) (width 0.02))
  (fp_line (start 1 -0.625) (end -1 -0.625) (layer F.Fab) (width 0.1))
  (fp_line (start -1 -0.625) (end -1 0.625) (layer F.Fab) (width 0.1))
  (fp_line (start -1 0.625) (end 1 0.625) (layer F.Fab) (width 0.1))
  (fp_line (start 1 0.625) (end 1 -0.625) (layer F.Fab) (width 0.1))
  (fp_line (start -1.685 0.7112) (end -1.685 -0.7112) (layer F.SilkS) (width 0.02))
  (fp_line (start -1.685 -0.7112) (end -0.415 -0.7112) (layer F.SilkS) (width 0.02))
  (fp_line (start -0.415 -0.7112) (end -0.415 0.7112) (layer F.SilkS) (width 0.02))
  (fp_line (start -0.415 0.7112) (end -1.685 0.7112) (layer F.SilkS) (width 0.02))
  (fp_line (start 0.415 0.7112) (end 0.415 -0.7112) (layer F.SilkS) (width 0.02))
  (fp_line (start 0.415 -0.7112) (end 1.685 -0.7112) (layer F.SilkS) (width 0.02))
  (fp_line (start 1.685 -0.7112) (end 1.685 0.7112) (layer F.SilkS) (width 0.02))
  (fp_line (start 1.685 0.7112) (end 0.415 0.7112) (layer F.SilkS) (width 0.02))
  (pad 1 smd rect (at -1.05 0) (size 1.27 1.4224) (layers F.Cu F.Mask F.Paste)
    (clearance 0.2032) (solder_mask_margin 0.1016)
    (zone_connect 2))
  (pad 2 smd rect (at 1.05 0) (size 1.27 1.4224) (layers F.Cu F.Mask F.Paste)
    (clearance 0.2032) (solder_mask_margin 0.1016)
    (zone_connect 2))
)