(module RECT1.05X1.65 (layer F.Cu) (tedit 0)
  (fp_text reference REF** (at 0 0) (layer F.SilkS) hide
    (effects (font (size 1 1) (thickness 0.15)))
  )
  (fp_text value RECT1.05X1.65 (at 0 2) (layer F.Fab) hide
    (effects (font (size 1 1) (thickness 0.15)))
  )
  (fp_line (start -0.63 0.99) (end -0.63 -0.99) (layer F.CrtYd) (width 0.05))
  (fp_line (start -0.63 -0.99) (end 0.63 -0.99) (layer F.CrtYd) (width 0.05))
  (fp_line (start 0.63 -0.99) (end 0.63 0.99) (layer F.CrtYd) (width 0.05))
  (fp_line (start 0.63 0.99) (end -0.63 0.99) (layer F.CrtYd) (width 0.05))
  (fp_line (start -0.525 -0.825) (end -0.525 0.825) (layer F.SilkS) (width 0))
  (fp_line (start -0.525 0.825) (end 0.525 0.825) (layer F.SilkS) (width 0))
  (fp_line (start 0.525 0.825) (end 0.525 -0.825) (layer F.SilkS) (width 0))
  (fp_line (start 0.525 -0.825) (end -0.525 -0.825) (layer F.SilkS) (width 0))
  (pad ~ smd rect (at 0 0) (size 1.05 1.65) (layers F.Cu F.Mask F.Paste)
    (zone_connect 2))
)