(module RECT0.9X5.3 (layer F.Cu) (tedit 0)
  (fp_text reference REF** (at 0 0) (layer F.SilkS) hide
    (effects (font (size 1 1) (thickness 0.15)))
  )
  (fp_text value RECT0.9X5.3 (at 0 2) (layer F.Fab) hide
    (effects (font (size 1 1) (thickness 0.15)))
  )
  (fp_line (start -0.54 3.18) (end -0.54 -3.18) (layer F.CrtYd) (width 0.05))
  (fp_line (start -0.54 -3.18) (end 0.54 -3.18) (layer F.CrtYd) (width 0.05))
  (fp_line (start 0.54 -3.18) (end 0.54 3.18) (layer F.CrtYd) (width 0.05))
  (fp_line (start 0.54 3.18) (end -0.54 3.18) (layer F.CrtYd) (width 0.05))
  (fp_line (start -0.45 -2.65) (end -0.45 2.65) (layer F.SilkS) (width 0))
  (fp_line (start -0.45 2.65) (end 0.45 2.65) (layer F.SilkS) (width 0))
  (fp_line (start 0.45 2.65) (end 0.45 -2.65) (layer F.SilkS) (width 0))
  (fp_line (start 0.45 -2.65) (end -0.45 -2.65) (layer F.SilkS) (width 0))
  (pad ~ smd rect (at 0 0) (size 0.9 5.3) (layers F.Cu F.Mask F.Paste)
    (zone_connect 2))
)