(module RECT0.88X1.11 (layer F.Cu) (tedit 0)
  (fp_text reference REF** (at 0 0) (layer F.SilkS) hide
    (effects (font (size 1 1) (thickness 0.15)))
  )
  (fp_text value RECT0.88X1.11 (at 0 2) (layer F.Fab) hide
    (effects (font (size 1 1) (thickness 0.15)))
  )
  (fp_line (start -0.528 0.666) (end -0.528 -0.666) (layer F.CrtYd) (width 0.05))
  (fp_line (start -0.528 -0.666) (end 0.528 -0.666) (layer F.CrtYd) (width 0.05))
  (fp_line (start 0.528 -0.666) (end 0.528 0.666) (layer F.CrtYd) (width 0.05))
  (fp_line (start 0.528 0.666) (end -0.528 0.666) (layer F.CrtYd) (width 0.05))
  (fp_line (start -0.44 -0.555) (end -0.44 0.555) (layer F.SilkS) (width 0))
  (fp_line (start -0.44 0.555) (end 0.44 0.555) (layer F.SilkS) (width 0))
  (fp_line (start 0.44 0.555) (end 0.44 -0.555) (layer F.SilkS) (width 0))
  (fp_line (start 0.44 -0.555) (end -0.44 -0.555) (layer F.SilkS) (width 0))
  (pad ~ smd rect (at 0 0) (size 0.88 1.11) (layers F.Cu F.Mask F.Paste)
    (zone_connect 2))
)