(module RECT1.15X1.4 (layer F.Cu) (tedit 0)
  (fp_text reference REF** (at 0 0) (layer F.SilkS) hide
    (effects (font (size 1 1) (thickness 0.15)))
  )
  (fp_text value RECT1.15X1.4 (at 0 2) (layer F.Fab) hide
    (effects (font (size 1 1) (thickness 0.15)))
  )
  (fp_line (start -0.69 0.84) (end -0.69 -0.84) (layer F.CrtYd) (width 0.05))
  (fp_line (start -0.69 -0.84) (end 0.69 -0.84) (layer F.CrtYd) (width 0.05))
  (fp_line (start 0.69 -0.84) (end 0.69 0.84) (layer F.CrtYd) (width 0.05))
  (fp_line (start 0.69 0.84) (end -0.69 0.84) (layer F.CrtYd) (width 0.05))
  (fp_line (start -0.575 -0.7) (end -0.575 0.7) (layer F.SilkS) (width 0))
  (fp_line (start -0.575 0.7) (end 0.575 0.7) (layer F.SilkS) (width 0))
  (fp_line (start 0.575 0.7) (end 0.575 -0.7) (layer F.SilkS) (width 0))
  (fp_line (start 0.575 -0.7) (end -0.575 -0.7) (layer F.SilkS) (width 0))
  (pad ~ smd rect (at 0 0) (size 1.15 1.4) (layers F.Cu F.Mask F.Paste)
    (zone_connect 2))
)