(module RECT1.0X1.25 (layer F.Cu) (tedit 0)
  (fp_text reference REF** (at 0 0) (layer F.SilkS) hide
    (effects (font (size 1 1) (thickness 0.15)))
  )
  (fp_text value RECT1.0X1.25 (at 0 2) (layer F.Fab) hide
    (effects (font (size 1 1) (thickness 0.15)))
  )
  (fp_line (start -0.6 0.75) (end -0.6 -0.75) (layer F.CrtYd) (width 0.05))
  (fp_line (start -0.6 -0.75) (end 0.6 -0.75) (layer F.CrtYd) (width 0.05))
  (fp_line (start 0.6 -0.75) (end 0.6 0.75) (layer F.CrtYd) (width 0.05))
  (fp_line (start 0.6 0.75) (end -0.6 0.75) (layer F.CrtYd) (width 0.05))
  (fp_line (start -0.5 -0.625) (end -0.5 0.625) (layer F.SilkS) (width 0))
  (fp_line (start -0.5 0.625) (end 0.5 0.625) (layer F.SilkS) (width 0))
  (fp_line (start 0.5 0.625) (end 0.5 -0.625) (layer F.SilkS) (width 0))
  (fp_line (start 0.5 -0.625) (end -0.5 -0.625) (layer F.SilkS) (width 0))
  (pad ~ smd rect (at 0 0) (size 1 1.25) (layers F.Cu F.Mask F.Paste)
    (zone_connect 2))
)