(module RECT1.67X3.8 (layer F.Cu) (tedit 0)
  (fp_text reference REF** (at 0 0) (layer F.SilkS) hide
    (effects (font (size 1 1) (thickness 0.15)))
  )
  (fp_text value RECT1.67X3.8 (at 0 2) (layer F.Fab) hide
    (effects (font (size 1 1) (thickness 0.15)))
  )
  (fp_line (start -1.002 2.28) (end -1.002 -2.28) (layer F.CrtYd) (width 0.05))
  (fp_line (start -1.002 -2.28) (end 1.002 -2.28) (layer F.CrtYd) (width 0.05))
  (fp_line (start 1.002 -2.28) (end 1.002 2.28) (layer F.CrtYd) (width 0.05))
  (fp_line (start 1.002 2.28) (end -1.002 2.28) (layer F.CrtYd) (width 0.05))
  (fp_line (start -0.835 -1.9) (end -0.835 1.9) (layer F.SilkS) (width 0))
  (fp_line (start -0.835 1.9) (end 0.835 1.9) (layer F.SilkS) (width 0))
  (fp_line (start 0.835 1.9) (end 0.835 -1.9) (layer F.SilkS) (width 0))
  (fp_line (start 0.835 -1.9) (end -0.835 -1.9) (layer F.SilkS) (width 0))
  (pad ~ smd rect (at 0 0) (size 1.67 3.8) (layers F.Cu F.Mask F.Paste)
    (zone_connect 2))
)