(module RECT0.96X1.16 (layer F.Cu) (tedit 0)
  (fp_text reference REF** (at 0 0) (layer F.SilkS) hide
    (effects (font (size 1 1) (thickness 0.15)))
  )
  (fp_text value RECT0.96X1.16 (at 0 2) (layer F.Fab) hide
    (effects (font (size 1 1) (thickness 0.15)))
  )
  (fp_line (start -0.576 0.696) (end -0.576 -0.696) (layer F.CrtYd) (width 0.05))
  (fp_line (start -0.576 -0.696) (end 0.576 -0.696) (layer F.CrtYd) (width 0.05))
  (fp_line (start 0.576 -0.696) (end 0.576 0.696) (layer F.CrtYd) (width 0.05))
  (fp_line (start 0.576 0.696) (end -0.576 0.696) (layer F.CrtYd) (width 0.05))
  (fp_line (start -0.48 -0.58) (end -0.48 0.58) (layer F.SilkS) (width 0))
  (fp_line (start -0.48 0.58) (end 0.48 0.58) (layer F.SilkS) (width 0))
  (fp_line (start 0.48 0.58) (end 0.48 -0.58) (layer F.SilkS) (width 0))
  (fp_line (start 0.48 -0.58) (end -0.48 -0.58) (layer F.SilkS) (width 0))
  (pad ~ smd rect (at 0 0) (size 0.96 1.16) (layers F.Cu F.Mask F.Paste)
    (zone_connect 2))
)