(module RNDS66 (layer F.Cu) (tedit 0)
  (fp_text reference REF** (at 0 0) (layer F.SilkS) hide
    (effects (font (size 1 1) (thickness 0.15)))
  )
  (fp_text value RNDS66 (at 0 2) (layer F.Fab) hide
    (effects (font (size 1 1) (thickness 0.15)))
  )
  (fp_line (start -1.00584 1.00584) (end -1.00584 -1.00584) (layer F.CrtYd) (width 0.05))
  (fp_line (start -1.00584 -1.00584) (end 1.00584 -1.00584) (layer F.CrtYd) (width 0.05))
  (fp_line (start 1.00584 -1.00584) (end 1.00584 1.00584) (layer F.CrtYd) (width 0.05))
  (fp_line (start 1.00584 1.00584) (end -1.00584 1.00584) (layer F.CrtYd) (width 0.05))
  (pad ~ smd circle (at 0 0) (size 1.6764 1.6764) (layers F.Cu F.Mask F.Paste)
    (zone_connect 2))
)