(module RNDS54 (layer F.Cu) (tedit 0)
  (fp_text reference REF** (at 0 0) (layer F.SilkS) hide
    (effects (font (size 1 1) (thickness 0.15)))
  )
  (fp_text value RNDS54 (at 0 2) (layer F.Fab) hide
    (effects (font (size 1 1) (thickness 0.15)))
  )
  (fp_line (start -0.82296 0.82296) (end -0.82296 -0.82296) (layer F.CrtYd) (width 0.05))
  (fp_line (start -0.82296 -0.82296) (end 0.82296 -0.82296) (layer F.CrtYd) (width 0.05))
  (fp_line (start 0.82296 -0.82296) (end 0.82296 0.82296) (layer F.CrtYd) (width 0.05))
  (fp_line (start 0.82296 0.82296) (end -0.82296 0.82296) (layer F.CrtYd) (width 0.05))
  (pad ~ smd circle (at 0 0) (size 1.3716 1.3716) (layers F.Cu F.Mask F.Paste)
    (zone_connect 2))
)