(module RNDS114 (layer F.Cu) (tedit 0)
  (fp_text reference REF** (at 0 0) (layer F.SilkS) hide
    (effects (font (size 1 1) (thickness 0.15)))
  )
  (fp_text value RNDS114 (at 0 2) (layer F.Fab) hide
    (effects (font (size 1 1) (thickness 0.15)))
  )
  (fp_line (start -1.73736 1.73736) (end -1.73736 -1.73736) (layer F.CrtYd) (width 0.05))
  (fp_line (start -1.73736 -1.73736) (end 1.73736 -1.73736) (layer F.CrtYd) (width 0.05))
  (fp_line (start 1.73736 -1.73736) (end 1.73736 1.73736) (layer F.CrtYd) (width 0.05))
  (fp_line (start 1.73736 1.73736) (end -1.73736 1.73736) (layer F.CrtYd) (width 0.05))
  (pad ~ smd circle (at 0 0) (size 2.8956 2.8956) (layers F.Cu F.Mask F.Paste)
    (zone_connect 2))
)