(module RNDS75 (layer F.Cu) (tedit 0)
  (fp_text reference REF** (at 0 0) (layer F.SilkS) hide
    (effects (font (size 1 1) (thickness 0.15)))
  )
  (fp_text value RNDS75 (at 0 2) (layer F.Fab) hide
    (effects (font (size 1 1) (thickness 0.15)))
  )
  (fp_line (start -1.143 1.143) (end -1.143 -1.143) (layer F.CrtYd) (width 0.05))
  (fp_line (start -1.143 -1.143) (end 1.143 -1.143) (layer F.CrtYd) (width 0.05))
  (fp_line (start 1.143 -1.143) (end 1.143 1.143) (layer F.CrtYd) (width 0.05))
  (fp_line (start 1.143 1.143) (end -1.143 1.143) (layer F.CrtYd) (width 0.05))
  (pad ~ smd circle (at 0 0) (size 1.905 1.905) (layers F.Cu F.Mask F.Paste)
    (zone_connect 2))
)