(module SPO2-16_0x861861865961861861861f63861 (layer F.Cu) (tedit 0)
  (fp_text reference REF** (at 0 0) (layer F.SilkS)
    (effects (font (size 1 1) (thickness 0.15)))
  )
  (fp_text value SPO2-16_0x861861865961861861861f63861 (at 0 2) (layer F.Fab) hide
    (effects (font (size 1 1) (thickness 0.15)))
  )
  (fp_text user 16 (at 8 5.5) (layer F.Fab)
    (effects (font (size 1 1) (thickness 0.1)) (justify left))
  )
  (fp_text user 9 (at -9.3 5.5) (layer F.Fab)
    (effects (font (size 1 1) (thickness 0.1)) (justify left))
  )
  (fp_text user 8 (at -9.5 -1.3) (layer F.Fab)
    (effects (font (size 1 1) (thickness 0.1)) (justify left))
  )
  (fp_text user 1 (at 8.5 -1.3) (layer F.Fab)
    (effects (font (size 1 1) (thickness 0.1)) (justify left))
  )
  (fp_line (start 9.6266 -0.7366) (end 8.1534 -0.7366) (layer B.SilkS) (width 0.1))
  (fp_line (start 9.6266 0.7366) (end 9.6266 -0.7366) (layer B.SilkS) (width 0.1))
  (fp_line (start 8.1534 0.7366) (end 9.6266 0.7366) (layer B.SilkS) (width 0.1))
  (fp_line (start 8.1534 -0.7366) (end 8.1534 0.7366) (layer B.SilkS) (width 0.1))
  (fp_line (start -10.16 -1.27) (end -10.16 3.81) (layer F.Fab) (width 0.1))
  (fp_line (start 10.16 -1.27) (end -10.16 -1.27) (layer F.Fab) (width 0.1))
  (fp_line (start 10.16 3.81) (end 10.16 -1.27) (layer F.Fab) (width 0.1))
  (fp_line (start -10.16 3.81) (end 10.16 3.81) (layer F.Fab) (width 0.1))
  (fp_line (start -17.15 -4.1) (end -17.15 20.1) (layer F.Fab) (width 0.1))
  (fp_line (start 17.15 -4.1) (end -17.15 -4.1) (layer F.Fab) (width 0.1))
  (fp_line (start 17.15 20.1) (end 17.15 -4.1) (layer F.Fab) (width 0.1))
  (fp_line (start -17.15 20.1) (end 17.15 20.1) (layer F.Fab) (width 0.1))
  (fp_line (start 8.1534 -0.7366) (end 9.6266 -0.7366) (layer B.CrtYd) (width 0.02))
  (fp_line (start 8.1534 0.7366) (end 8.1534 -0.7366) (layer B.CrtYd) (width 0.02))
  (fp_line (start 9.6266 0.7366) (end 8.1534 0.7366) (layer B.CrtYd) (width 0.02))
  (fp_line (start 9.6266 -0.7366) (end 9.6266 0.7366) (layer B.CrtYd) (width 0.02))
  (fp_line (start -17.15 20.1) (end -17.15 -4.1) (layer F.CrtYd) (width 0.02))
  (fp_line (start 17.15 20.1) (end -17.15 20.1) (layer F.CrtYd) (width 0.02))
  (fp_line (start 17.15 -4.1) (end 17.15 20.1) (layer F.CrtYd) (width 0.02))
  (fp_line (start -17.15 -4.1) (end 17.15 -4.1) (layer F.CrtYd) (width 0.02))
  (fp_line (start -17.15 20.1) (end -17.15 -4.1) (layer F.SilkS) (width 0.18))
  (fp_line (start 17.15 20.1) (end -17.15 20.1) (layer F.SilkS) (width 0.18))
  (fp_line (start 17.15 -4.1) (end 17.15 20.1) (layer F.SilkS) (width 0.18))
  (fp_line (start -17.15 -4.1) (end 17.15 -4.1) (layer F.SilkS) (width 0.18))
  (fp_line (start 17.24 20.19) (end -17.24 20.19) (layer Dwgs.User) (width 0.05))
  (fp_line (start 17.24 -4.19) (end 17.24 20.19) (layer Dwgs.User) (width 0.05))
  (fp_line (start -17.24 -4.19) (end 17.24 -4.19) (layer Dwgs.User) (width 0.05))
  (fp_line (start -17.24 20.19) (end -17.24 -4.19) (layer Dwgs.User) (width 0.05))
  (fp_arc (start 13.97 -0.889) (end 14.77 -0.889) (angle 360) (layer F.Fab) (width 0.1))
  (fp_arc (start -13.97 -0.889) (end -13.17 -0.889) (angle 360) (layer F.Fab) (width 0.1))
  (fp_arc (start -13.97 -0.889) (end -12.7 -0.889) (angle 360) (layer B.CrtYd) (width 0.02))
  (fp_arc (start 13.97 -0.889) (end 15.24 -0.889) (angle 360) (layer B.CrtYd) (width 0.02))
  (fp_arc (start 8.89 2.54) (end 9.6266 2.54) (angle 360) (layer B.CrtYd) (width 0.02))
  (fp_arc (start 6.35 2.54) (end 7.0866 2.54) (angle 360) (layer B.CrtYd) (width 0.02))
  (fp_arc (start 3.81 2.54) (end 4.5466 2.54) (angle 360) (layer B.CrtYd) (width 0.02))
  (fp_arc (start 1.27 2.54) (end 2.0066 2.54) (angle 360) (layer B.CrtYd) (width 0.02))
  (fp_arc (start -1.27 2.54) (end -0.5334 2.54) (angle 360) (layer B.CrtYd) (width 0.02))
  (fp_arc (start -3.81 2.54) (end -3.0734 2.54) (angle 360) (layer B.CrtYd) (width 0.02))
  (fp_arc (start -6.35 2.54) (end -5.6134 2.54) (angle 360) (layer B.CrtYd) (width 0.02))
  (fp_arc (start -8.89 2.54) (end -8.1534 2.54) (angle 360) (layer B.CrtYd) (width 0.02))
  (fp_arc (start -8.89 0) (end -8.1534 0) (angle 360) (layer B.CrtYd) (width 0.02))
  (fp_arc (start -6.35 0) (end -5.6134 0) (angle 360) (layer B.CrtYd) (width 0.02))
  (fp_arc (start -3.81 0) (end -3.0734 0) (angle 360) (layer B.CrtYd) (width 0.02))
  (fp_arc (start -1.27 0) (end -0.5334 0) (angle 360) (layer B.CrtYd) (width 0.02))
  (fp_arc (start 1.27 0) (end 2.0066 0) (angle 360) (layer B.CrtYd) (width 0.02))
  (fp_arc (start 3.81 0) (end 4.5466 0) (angle 360) (layer B.CrtYd) (width 0.02))
  (fp_arc (start 6.35 0) (end 7.0866 0) (angle 360) (layer B.CrtYd) (width 0.02))
  (pad 18 np_thru_hole circle (at -13.97 -0.889) (size 2.54 2.54) (drill 3.2004) (layers F&B.Cu *.Mask)
    (solder_mask_margin 0.4826) (clearance 0.8382) (zone_connect 2) (thermal_width 0.2032) (thermal_gap 0.2032))
  (pad 17 np_thru_hole circle (at 13.97 -0.889) (size 2.54 2.54) (drill 3.2004) (layers F&B.Cu *.Mask)
    (solder_mask_margin 0.4826) (clearance 0.8382) (zone_connect 2) (thermal_width 0.2032) (thermal_gap 0.2032))
  (pad 16 thru_hole circle (at 8.89 2.54) (size 1.4732 1.4732) (drill 0.8128) (layers *.Mask F.Cu In4.Cu B.Cu)
    (solder_mask_margin 0.1016) (clearance 0.1524) (zone_connect 2) (thermal_width 0.2032) (thermal_gap 0.2032))
  (pad 15 thru_hole circle (at 6.35 2.54) (size 1.4732 1.4732) (drill 0.8128) (layers *.Mask F.Cu In1.Cu In2.Cu In3.Cu B.Cu)
    (solder_mask_margin 0.1016) (clearance 0.1524) (zone_connect 2) (thermal_width 0.2032) (thermal_gap 0.2032))
  (pad 14 thru_hole circle (at 3.81 2.54) (size 1.4732 1.4732) (drill 0.8128) (layers F&B.Cu *.Mask)
    (solder_mask_margin 0.1016) (clearance 0.1524) (zone_connect 2) (thermal_width 0.2032) (thermal_gap 0.2032))
  (pad 13 thru_hole circle (at 1.27 2.54) (size 1.4732 1.4732) (drill 0.8128) (layers F&B.Cu *.Mask)
    (solder_mask_margin 0.1016) (clearance 0.1524) (zone_connect 2) (thermal_width 0.2032) (thermal_gap 0.2032))
  (pad 12 thru_hole circle (at -1.27 2.54) (size 1.4732 1.4732) (drill 0.8128) (layers F&B.Cu *.Mask)
    (solder_mask_margin 0.1016) (clearance 0.1524) (zone_connect 2) (thermal_width 0.2032) (thermal_gap 0.2032))
  (pad 11 thru_hole circle (at -3.81 2.54) (size 1.4732 1.4732) (drill 0.8128) (layers F&B.Cu *.Mask)
    (solder_mask_margin 0.1016) (clearance 0.1524) (zone_connect 2) (thermal_width 0.2032) (thermal_gap 0.2032))
  (pad 10 thru_hole circle (at -6.35 2.54) (size 1.4732 1.4732) (drill 0.8128) (layers F&B.Cu *.Mask)
    (solder_mask_margin 0.1016) (clearance 0.1524) (zone_connect 2) (thermal_width 0.2032) (thermal_gap 0.2032))
  (pad 9 thru_hole circle (at -8.89 2.54) (size 1.4732 1.4732) (drill 0.8128) (layers F&B.Cu *.Mask)
    (solder_mask_margin 0.1016) (clearance 0.1524) (zone_connect 2) (thermal_width 0.2032) (thermal_gap 0.2032))
  (pad 8 thru_hole circle (at -8.89 0) (size 1.4732 1.4732) (drill 0.8128) (layers F&B.Cu *.Mask)
    (solder_mask_margin 0.1016) (clearance 0.1524) (zone_connect 2) (thermal_width 0.2032) (thermal_gap 0.2032))
  (pad 7 thru_hole circle (at -6.35 0) (size 1.4732 1.4732) (drill 0.8128) (layers *.Mask F.Cu In3.Cu B.Cu)
    (solder_mask_margin 0.1016) (clearance 0.1524) (zone_connect 2) (thermal_width 0.2032) (thermal_gap 0.2032))
  (pad 6 thru_hole circle (at -3.81 0) (size 1.4732 1.4732) (drill 0.8128) (layers *.Mask F.Cu In3.Cu B.Cu)
    (solder_mask_margin 0.1016) (clearance 0.1524) (zone_connect 2) (thermal_width 0.2032) (thermal_gap 0.2032))
  (pad 5 thru_hole circle (at -1.27 0) (size 1.4732 1.4732) (drill 0.8128) (layers F&B.Cu *.Mask)
    (solder_mask_margin 0.1016) (clearance 0.1524) (zone_connect 2) (thermal_width 0.2032) (thermal_gap 0.2032))
  (pad 4 thru_hole circle (at 1.27 0) (size 1.4732 1.4732) (drill 0.8128) (layers F&B.Cu *.Mask)
    (solder_mask_margin 0.1016) (clearance 0.1524) (zone_connect 2) (thermal_width 0.2032) (thermal_gap 0.2032))
  (pad 3 thru_hole circle (at 3.81 0) (size 1.4732 1.4732) (drill 0.8128) (layers F&B.Cu *.Mask)
    (solder_mask_margin 0.1016) (clearance 0.1524) (zone_connect 2) (thermal_width 0.2032) (thermal_gap 0.2032))
  (pad 2 thru_hole circle (at 6.35 0) (size 1.4732 1.4732) (drill 0.8128) (layers F&B.Cu *.Mask)
    (solder_mask_margin 0.1016) (clearance 0.1524) (zone_connect 2) (thermal_width 0.2032) (thermal_gap 0.2032))
  (pad 1 thru_hole rect (at 8.89 0) (size 1.4732 1.4732) (drill 0.8128) (layers F&B.Cu *.Mask)
    (solder_mask_margin 0.1016) (clearance 0.1524) (zone_connect 2) (thermal_width 0.2032) (thermal_gap 0.2032))
)
