(module SQRS68A0 (layer F.Cu) (tedit 0)
  (fp_text reference REF** (at 0 0) (layer F.SilkS) hide
    (effects (font (size 1 1) (thickness 0.15)))
  )
  (fp_text value SQRS68A0 (at 0 2) (layer F.Fab) hide
    (effects (font (size 1 1) (thickness 0.15)))
  )
  (fp_line (start -1.03632 1.03632) (end -1.03632 -1.03632) (layer F.CrtYd) (width 0.05))
  (fp_line (start -1.03632 -1.03632) (end 1.03632 -1.03632) (layer F.CrtYd) (width 0.05))
  (fp_line (start 1.03632 -1.03632) (end 1.03632 1.03632) (layer F.CrtYd) (width 0.05))
  (fp_line (start 1.03632 1.03632) (end -1.03632 1.03632) (layer F.CrtYd) (width 0.05))
  (fp_line (start -0.8636 -0.8636) (end -0.8636 0.8636) (layer F.SilkS) (width 0))
  (fp_line (start -0.8636 0.8636) (end 0.8636 0.8636) (layer F.SilkS) (width 0))
  (fp_line (start 0.8636 0.8636) (end 0.8636 -0.8636) (layer F.SilkS) (width 0))
  (fp_line (start 0.8636 -0.8636) (end -0.8636 -0.8636) (layer F.SilkS) (width 0))
  (pad ~ smd rect (at 0 0) (size 1.7272 1.7272) (layers F.Cu F.Mask F.Paste)
    (zone_connect 2))
)