(module SQRS24A0 (layer F.Cu) (tedit 0)
  (fp_text reference REF** (at 0 0) (layer F.SilkS) hide
    (effects (font (size 1 1) (thickness 0.15)))
  )
  (fp_text value SQRS24A0 (at 0 2) (layer F.Fab) hide
    (effects (font (size 1 1) (thickness 0.15)))
  )
  (fp_line (start -0.36576 0.36576) (end -0.36576 -0.36576) (layer F.CrtYd) (width 0.05))
  (fp_line (start -0.36576 -0.36576) (end 0.36576 -0.36576) (layer F.CrtYd) (width 0.05))
  (fp_line (start 0.36576 -0.36576) (end 0.36576 0.36576) (layer F.CrtYd) (width 0.05))
  (fp_line (start 0.36576 0.36576) (end -0.36576 0.36576) (layer F.CrtYd) (width 0.05))
  (fp_line (start -0.3048 -0.3048) (end -0.3048 0.3048) (layer F.SilkS) (width 0))
  (fp_line (start -0.3048 0.3048) (end 0.3048 0.3048) (layer F.SilkS) (width 0))
  (fp_line (start 0.3048 0.3048) (end 0.3048 -0.3048) (layer F.SilkS) (width 0))
  (fp_line (start 0.3048 -0.3048) (end -0.3048 -0.3048) (layer F.SilkS) (width 0))
  (pad ~ smd rect (at 0 0) (size 0.6096 0.6096) (layers F.Cu F.Mask F.Paste)
    (zone_connect 2))
)