(module TOBLO40I20W12L45R45A90 (layer F.Cu) (tedit 0)
  (fp_text reference REF** (at 0 0) (layer F.SilkS) hide
    (effects (font (size 1 1) (thickness 0.15)))
  )
  (fp_text value TOBLO40I20W12L45R45A90 (at 0 2) (layer F.Fab) hide
    (effects (font (size 1 1) (thickness 0.15)))
  )
  (fp_line (start -0.6096 1.6764) (end -0.6096 -1.6764) (layer F.CrtYd) (width 0.05))
  (fp_line (start -0.6096 -1.6764) (end 0.6096 -1.6764) (layer F.CrtYd) (width 0.05))
  (fp_line (start 0.6096 -1.6764) (end 0.6096 1.6764) (layer F.CrtYd) (width 0.05))
  (fp_line (start 0.6096 1.6764) (end -0.6096 1.6764) (layer F.CrtYd) (width 0.05))
  (fp_line (start -0.381 0.2794) (end -0.381 1.27) (layer F.SilkS) (width 0.254))
  (fp_line (start -0.381 1.27) (end -0.2794 1.27) (layer F.SilkS) (width 0.254))
  (fp_line (start 0.2794 1.27) (end 0.381 1.27) (layer F.SilkS) (width 0.254))
  (fp_line (start 0.381 1.27) (end 0.381 0.2794) (layer F.SilkS) (width 0.254))
  (fp_line (start 0.381 -0.2794) (end 0.381 -1.27) (layer F.SilkS) (width 0.254))
  (fp_line (start 0.381 -1.27) (end 0.2794 -1.27) (layer F.SilkS) (width 0.254))
  (fp_line (start -0.2794 -1.27) (end -0.381 -1.27) (layer F.SilkS) (width 0.254))
  (fp_line (start -0.381 -1.27) (end -0.381 -0.2794) (layer F.SilkS) (width 0.254))
)