EESchema Schematic File Version 4
EELAYER 30 0
EELAYER END
$Descr A4 11693 8268
encoding utf-8
Sheet 3 3
Title ""
Date ""
Rev ""
Comp ""
Comment1 ""
Comment2 ""
Comment3 ""
Comment4 ""
$EndDescr
$Comp
L V_Connector:Via V21
U 1 1 5EBAAA76
P 9600 1600
F 0 "V21" H 9649 1635 50  0000 L CNN
F 1 "GND" H 9649 1555 35  0000 L CNN
F 2 "AllModules:ViaVE_12x32" H 9600 1600 50  0001 C CNN
F 3 "~" H 9600 1600 50  0001 C CNN
	1    9600 1600
	1    0    0    -1  
$EndComp
$Comp
L V_Connector:Via V27
U 1 1 5EBAE03E
P 3600 4900
F 0 "V27" H 3649 4935 50  0000 L CNN
F 1 "BUZ-ACT" H 3649 4855 35  0000 L CNN
F 2 "AllModules:ViaVE_12x32-1011" H 3600 4900 50  0001 C CNN
F 3 "~" H 3600 4900 50  0001 C CNN
	1    3600 4900
	1    0    0    -1  
$EndComp
$Comp
L V_Connector:Via V30
U 1 1 5EBAE05C
P 4600 3100
F 0 "V30" H 4649 3135 50  0000 L CNN
F 1 "SUPPLY-BUZ" H 4649 3055 35  0000 L CNN
F 2 "AllModules:ViaVE_12x32-1011" H 4600 3100 50  0001 C CNN
F 3 "~" H 4600 3100 50  0001 C CNN
	1    4600 3100
	1    0    0    -1  
$EndComp
$Comp
L V_Connector:Via V15
U 1 1 5EBB1762
P 1600 4300
F 0 "V15" H 1649 4335 50  0000 L CNN
F 1 "INHIB-STOP-INV" H 1649 4255 35  0000 L CNN
F 2 "AllModules:ViaVE_12x32-1011" H 1600 4300 50  0001 C CNN
F 3 "~" H 1600 4300 50  0001 C CNN
	1    1600 4300
	1    0    0    -1  
$EndComp
$Comp
L V_Connector:Via V31
U 1 1 5EBB176C
P 3600 5100
F 0 "V31" H 3649 5135 50  0000 L CNN
F 1 "BUZ-ACT" H 3649 5055 35  0000 L CNN
F 2 "AllModules:ViaVE_12x32-1011" H 3600 5100 50  0001 C CNN
F 3 "~" H 3600 5100 50  0001 C CNN
	1    3600 5100
	1    0    0    -1  
$EndComp
$Comp
L V_Connector:Via V35
U 1 1 5EBB1794
P 2900 1100
F 0 "V35" H 2949 1135 50  0000 L CNN
F 1 "+5V" H 2949 1055 35  0000 L CNN
F 2 "AllModules:ViaVE_12x32-1011" H 2900 1100 50  0001 C CNN
F 3 "~" H 2900 1100 50  0001 C CNN
	1    2900 1100
	1    0    0    -1  
$EndComp
$Comp
L V_Connector:Via V16
U 1 1 5EBB179E
P 1600 4900
F 0 "V16" H 1649 4935 50  0000 L CNN
F 1 "STOP-INV" H 1649 4855 35  0000 L CNN
F 2 "AllModules:ViaVE_12x32-1011" H 1600 4900 50  0001 C CNN
F 3 "~" H 1600 4900 50  0001 C CNN
	1    1600 4900
	1    0    0    -1  
$EndComp
$Comp
L V_Connector:Via V37
U 1 1 5EBB17DA
P 4900 1050
F 0 "V37" H 4949 1085 50  0000 L CNN
F 1 "VBAT" H 4949 1005 35  0000 L CNN
F 2 "AllModules:ViaVE_12x32-1011" H 4900 1050 50  0001 C CNN
F 3 "~" H 4900 1050 50  0001 C CNN
	1    4900 1050
	1    0    0    -1  
$EndComp
$Comp
L V_Connector:Via V38
U 1 1 5EBB17E4
P 1700 1850
F 0 "V38" H 1749 1885 50  0000 L CNN
F 1 "-12V" H 1749 1805 35  0000 L CNN
F 2 "AllModules:ViaVE_12x32-1011" H 1700 1850 50  0001 C CNN
F 3 "~" H 1700 1850 50  0001 C CNN
	1    1700 1850
	1    0    0    -1  
$EndComp
$Comp
L V_Connector:Via V44
U 1 1 5EBB77EE
P 9600 5000
F 0 "V44" H 9649 5035 50  0000 L CNN
F 1 "GND" H 9649 4955 35  0000 L CNN
F 2 "AllModules:ViaVE_12x32" H 9600 5000 50  0001 C CNN
F 3 "~" H 9600 5000 50  0001 C CNN
	1    9600 5000
	1    0    0    -1  
$EndComp
$Comp
L V_Connector:Via V45
U 1 1 5EBB77F8
P 9000 1800
F 0 "V45" H 9049 1835 50  0000 L CNN
F 1 "GND" H 9049 1755 35  0000 L CNN
F 2 "AllModules:ViaVE_12x32" H 9000 1800 50  0001 C CNN
F 3 "~" H 9000 1800 50  0001 C CNN
	1    9000 1800
	1    0    0    -1  
$EndComp
$Comp
L V_Connector:Via V61
U 1 1 5EBB7802
P 1600 4100
F 0 "V61" H 1649 4135 50  0000 L CNN
F 1 "INHIB-STOP-INV" H 1649 4055 35  0000 L CNN
F 2 "AllModules:ViaVE_12x32-1011" H 1600 4100 50  0001 C CNN
F 3 "~" H 1600 4100 50  0001 C CNN
	1    1600 4100
	1    0    0    -1  
$EndComp
$Comp
L V_Connector:Via V62
U 1 1 5EBB780C
P 3400 2900
F 0 "V62" H 3449 2935 50  0000 L CNN
F 1 "N$78" H 3449 2855 35  0000 L CNN
F 2 "AllModules:ViaVE_12x32-1011" H 3400 2900 50  0001 C CNN
F 3 "~" H 3400 2900 50  0001 C CNN
	1    3400 2900
	1    0    0    -1  
$EndComp
$Comp
L V_Connector:Via V63
U 1 1 5EBB7816
P 3400 3100
F 0 "V63" H 3449 3135 50  0000 L CNN
F 1 "N$78" H 3449 3055 35  0000 L CNN
F 2 "AllModules:ViaVE_12x32-1011" H 3400 3100 50  0001 C CNN
F 3 "~" H 3400 3100 50  0001 C CNN
	1    3400 3100
	1    0    0    -1  
$EndComp
$Comp
L V_Connector:Via V64
U 1 1 5EBB7820
P 1600 4700
F 0 "V64" H 1649 4735 50  0000 L CNN
F 1 "STOP-INV" H 1649 4655 35  0000 L CNN
F 2 "AllModules:ViaVE_12x32-1011" H 1600 4700 50  0001 C CNN
F 3 "~" H 1600 4700 50  0001 C CNN
	1    1600 4700
	1    0    0    -1  
$EndComp
$Comp
L V_Connector:Via V65
U 1 1 5EBB782A
P 9000 3600
F 0 "V65" H 9049 3635 50  0000 L CNN
F 1 "GND" H 9049 3555 35  0000 L CNN
F 2 "AllModules:ViaVE_12x32" H 9000 3600 50  0001 C CNN
F 3 "~" H 9000 3600 50  0001 C CNN
	1    9000 3600
	1    0    0    -1  
$EndComp
$Comp
L V_Connector:Via V46
U 1 1 5EBB7834
P 9000 2000
F 0 "V46" H 9049 2035 50  0000 L CNN
F 1 "GND" H 9049 1955 35  0000 L CNN
F 2 "AllModules:ViaVE_12x32" H 9000 2000 50  0001 C CNN
F 3 "~" H 9000 2000 50  0001 C CNN
	1    9000 2000
	1    0    0    -1  
$EndComp
$Comp
L V_Connector:Via V47
U 1 1 5EBB783E
P 9000 2200
F 0 "V47" H 9049 2235 50  0000 L CNN
F 1 "GND" H 9049 2155 35  0000 L CNN
F 2 "AllModules:ViaVE_12x32" H 9000 2200 50  0001 C CNN
F 3 "~" H 9000 2200 50  0001 C CNN
	1    9000 2200
	1    0    0    -1  
$EndComp
$Comp
L V_Connector:Via V48
U 1 1 5EBB7848
P 9000 2400
F 0 "V48" H 9049 2435 50  0000 L CNN
F 1 "GND" H 9049 2355 35  0000 L CNN
F 2 "AllModules:ViaVE_12x32" H 9000 2400 50  0001 C CNN
F 3 "~" H 9000 2400 50  0001 C CNN
	1    9000 2400
	1    0    0    -1  
$EndComp
$Comp
L V_Connector:Via V49
U 1 1 5EBB7852
P 5900 1500
F 0 "V49" H 5949 1535 50  0000 L CNN
F 1 "VCHARG" H 5949 1455 35  0000 L CNN
F 2 "AllModules:ViaVE_12x32-1001" H 5900 1500 50  0001 C CNN
F 3 "~" H 5900 1500 50  0001 C CNN
	1    5900 1500
	1    0    0    -1  
$EndComp
$Comp
L V_Connector:Via V50
U 1 1 5EBB785C
P 9000 2600
F 0 "V50" H 9049 2635 50  0000 L CNN
F 1 "GND" H 9049 2555 35  0000 L CNN
F 2 "AllModules:ViaVE_12x32" H 9000 2600 50  0001 C CNN
F 3 "~" H 9000 2600 50  0001 C CNN
	1    9000 2600
	1    0    0    -1  
$EndComp
$Comp
L V_Connector:Via V66
U 1 1 5EBB7866
P 9000 3800
F 0 "V66" H 9049 3835 50  0000 L CNN
F 1 "GND" H 9049 3755 35  0000 L CNN
F 2 "AllModules:ViaVE_12x32" H 9000 3800 50  0001 C CNN
F 3 "~" H 9000 3800 50  0001 C CNN
	1    9000 3800
	1    0    0    -1  
$EndComp
$Comp
L V_Connector:Via V67
U 1 1 5EBB7870
P 9000 4000
F 0 "V67" H 9049 4035 50  0000 L CNN
F 1 "GND" H 9049 3955 35  0000 L CNN
F 2 "AllModules:ViaVE_12x32" H 9000 4000 50  0001 C CNN
F 3 "~" H 9000 4000 50  0001 C CNN
	1    9000 4000
	1    0    0    -1  
$EndComp
$Comp
L V_Connector:Via V68
U 1 1 5EBB787A
P 9000 4200
F 0 "V68" H 9049 4235 50  0000 L CNN
F 1 "GND" H 9049 4155 35  0000 L CNN
F 2 "AllModules:ViaVE_12x32" H 9000 4200 50  0001 C CNN
F 3 "~" H 9000 4200 50  0001 C CNN
	1    9000 4200
	1    0    0    -1  
$EndComp
$Comp
L V_Connector:Via V69
U 1 1 5EBB7884
P 9000 4400
F 0 "V69" H 9049 4435 50  0000 L CNN
F 1 "GND" H 9049 4355 35  0000 L CNN
F 2 "AllModules:ViaVE_12x32" H 9000 4400 50  0001 C CNN
F 3 "~" H 9000 4400 50  0001 C CNN
	1    9000 4400
	1    0    0    -1  
$EndComp
$Comp
L V_Connector:Via V70
U 1 1 5EBB788E
P 9000 4600
F 0 "V70" H 9049 4635 50  0000 L CNN
F 1 "GND" H 9049 4555 35  0000 L CNN
F 2 "AllModules:ViaVE_12x32" H 9000 4600 50  0001 C CNN
F 3 "~" H 9000 4600 50  0001 C CNN
	1    9000 4600
	1    0    0    -1  
$EndComp
$Comp
L V_Connector:Via V51
U 1 1 5EBB7898
P 2300 1650
F 0 "V51" H 2349 1685 50  0000 L CNN
F 1 "+12V" H 2349 1605 35  0000 L CNN
F 2 "AllModules:ViaVE_12x32-1011" H 2300 1650 50  0001 C CNN
F 3 "~" H 2300 1650 50  0001 C CNN
	1    2300 1650
	1    0    0    -1  
$EndComp
$Comp
L V_Connector:Via V52
U 1 1 5EBB78A2
P 3600 4700
F 0 "V52" H 3649 4735 50  0000 L CNN
F 1 "BUZ-ACT" H 3649 4655 35  0000 L CNN
F 2 "AllModules:ViaVE_12x32-1011" H 3600 4700 50  0001 C CNN
F 3 "~" H 3600 4700 50  0001 C CNN
	1    3600 4700
	1    0    0    -1  
$EndComp
$Comp
L V_Connector:Via V53
U 1 1 5EBB78AC
P 2300 850
F 0 "V53" H 2349 885 50  0000 L CNN
F 1 "+12V" H 2349 805 35  0000 L CNN
F 2 "AllModules:ViaVE_12x32-1011" H 2300 850 50  0001 C CNN
F 3 "~" H 2300 850 50  0001 C CNN
	1    2300 850 
	1    0    0    -1  
$EndComp
$Comp
L V_Connector:Via V54
U 1 1 5EBB78B6
P 2900 1300
F 0 "V54" H 2949 1335 50  0000 L CNN
F 1 "+5V" H 2949 1255 35  0000 L CNN
F 2 "AllModules:ViaVE_12x32-1011" H 2900 1300 50  0001 C CNN
F 3 "~" H 2900 1300 50  0001 C CNN
	1    2900 1300
	1    0    0    -1  
$EndComp
$Comp
L V_Connector:Via V55
U 1 1 5EBB78C0
P 9000 2800
F 0 "V55" H 9049 2835 50  0000 L CNN
F 1 "GND" H 9049 2755 35  0000 L CNN
F 2 "AllModules:ViaVE_12x32" H 9000 2800 50  0001 C CNN
F 3 "~" H 9000 2800 50  0001 C CNN
	1    9000 2800
	1    0    0    -1  
$EndComp
$Comp
L V_Connector:Via V71
U 1 1 5EBB78CA
P 9000 4800
F 0 "V71" H 9049 4835 50  0000 L CNN
F 1 "GND" H 9049 4755 35  0000 L CNN
F 2 "AllModules:ViaVE_12x32" H 9000 4800 50  0001 C CNN
F 3 "~" H 9000 4800 50  0001 C CNN
	1    9000 4800
	1    0    0    -1  
$EndComp
$Comp
L V_Connector:Via V72
U 1 1 5EBB78D4
P 9000 5000
F 0 "V72" H 9049 5035 50  0000 L CNN
F 1 "GND" H 9049 4955 35  0000 L CNN
F 2 "AllModules:ViaVE_12x32" H 9000 5000 50  0001 C CNN
F 3 "~" H 9000 5000 50  0001 C CNN
	1    9000 5000
	1    0    0    -1  
$EndComp
$Comp
L V_Connector:Via V73
U 1 1 5EBB78DE
P 8400 1600
F 0 "V73" H 8449 1635 50  0000 L CNN
F 1 "GND" H 8449 1555 35  0000 L CNN
F 2 "AllModules:ViaVE_12x32" H 8400 1600 50  0001 C CNN
F 3 "~" H 8400 1600 50  0001 C CNN
	1    8400 1600
	1    0    0    -1  
$EndComp
$Comp
L V_Connector:Via V74
U 1 1 5EBB78E8
P 8400 1800
F 0 "V74" H 8449 1835 50  0000 L CNN
F 1 "GND" H 8449 1755 35  0000 L CNN
F 2 "AllModules:ViaVE_12x32" H 8400 1800 50  0001 C CNN
F 3 "~" H 8400 1800 50  0001 C CNN
	1    8400 1800
	1    0    0    -1  
$EndComp
$Comp
L V_Connector:Via V75
U 1 1 5EBB78F2
P 8400 2000
F 0 "V75" H 8449 2035 50  0000 L CNN
F 1 "GND" H 8449 1955 35  0000 L CNN
F 2 "AllModules:ViaVE_12x32" H 8400 2000 50  0001 C CNN
F 3 "~" H 8400 2000 50  0001 C CNN
	1    8400 2000
	1    0    0    -1  
$EndComp
$Comp
L V_Connector:Via V56
U 1 1 5EBB78FC
P 9000 3000
F 0 "V56" H 9049 3035 50  0000 L CNN
F 1 "GND" H 9049 2955 35  0000 L CNN
F 2 "AllModules:ViaVE_12x32" H 9000 3000 50  0001 C CNN
F 3 "~" H 9000 3000 50  0001 C CNN
	1    9000 3000
	1    0    0    -1  
$EndComp
$Comp
L V_Connector:Via V57
U 1 1 5EBB7906
P 9000 3200
F 0 "V57" H 9049 3235 50  0000 L CNN
F 1 "GND" H 9049 3155 35  0000 L CNN
F 2 "AllModules:ViaVE_12x32" H 9000 3200 50  0001 C CNN
F 3 "~" H 9000 3200 50  0001 C CNN
	1    9000 3200
	1    0    0    -1  
$EndComp
$Comp
L V_Connector:Via V58
U 1 1 5EBB7910
P 4900 850
F 0 "V58" H 4949 885 50  0000 L CNN
F 1 "VBAT" H 4949 805 35  0000 L CNN
F 2 "AllModules:ViaVE_12x32-1011" H 4900 850 50  0001 C CNN
F 3 "~" H 4900 850 50  0001 C CNN
	1    4900 850 
	1    0    0    -1  
$EndComp
$Comp
L V_Connector:Via V59
U 1 1 5EBB791A
P 9000 3400
F 0 "V59" H 9049 3435 50  0000 L CNN
F 1 "GND" H 9049 3355 35  0000 L CNN
F 2 "AllModules:ViaVE_12x32" H 9000 3400 50  0001 C CNN
F 3 "~" H 9000 3400 50  0001 C CNN
	1    9000 3400
	1    0    0    -1  
$EndComp
$Comp
L V_Connector:Via V60
U 1 1 5EBB7924
P 2900 900
F 0 "V60" H 2949 935 50  0000 L CNN
F 1 "+5V" H 2949 855 35  0000 L CNN
F 2 "AllModules:ViaVE_12x32-1011" H 2900 900 50  0001 C CNN
F 3 "~" H 2900 900 50  0001 C CNN
	1    2900 900 
	1    0    0    -1  
$EndComp
$Comp
L V_Connector:Via V76
U 1 1 5EBB792E
P 6150 2150
F 0 "V76" H 6199 2185 50  0000 L CNN
F 1 "SUPPLY-BUZ-CPU" H 6199 2105 35  0000 L CNN
F 2 "AllModules:ViaVE_12x32-1011" H 6150 2150 50  0001 C CNN
F 3 "~" H 6150 2150 50  0001 C CNN
	1    6150 2150
	1    0    0    -1  
$EndComp
$Comp
L V_Connector:Via V77
U 1 1 5EBB7938
P 4600 2300
F 0 "V77" H 4649 2335 50  0000 L CNN
F 1 "SUPPLY-BUZ" H 4649 2255 35  0000 L CNN
F 2 "AllModules:ViaVE_12x32-1011" H 4600 2300 50  0001 C CNN
F 3 "~" H 4600 2300 50  0001 C CNN
	1    4600 2300
	1    0    0    -1  
$EndComp
$Comp
L V_Connector:Via V78
U 1 1 5EBB7942
P 4600 2500
F 0 "V78" H 4649 2535 50  0000 L CNN
F 1 "SUPPLY-BUZ" H 4649 2455 35  0000 L CNN
F 2 "AllModules:ViaVE_12x32-1011" H 4600 2500 50  0001 C CNN
F 3 "~" H 4600 2500 50  0001 C CNN
	1    4600 2500
	1    0    0    -1  
$EndComp
$Comp
L V_Connector:Via V79
U 1 1 5EBB794C
P 4600 2700
F 0 "V79" H 4649 2735 50  0000 L CNN
F 1 "SUPPLY-BUZ" H 4649 2655 35  0000 L CNN
F 2 "AllModules:ViaVE_12x32-1011" H 4600 2700 50  0001 C CNN
F 3 "~" H 4600 2700 50  0001 C CNN
	1    4600 2700
	1    0    0    -1  
$EndComp
$Comp
L V_Connector:Via V80
U 1 1 5EBB7956
P 2300 1450
F 0 "V80" H 2349 1485 50  0000 L CNN
F 1 "+12V" H 2349 1405 35  0000 L CNN
F 2 "AllModules:ViaVE_12x32-1011" H 2300 1450 50  0001 C CNN
F 3 "~" H 2300 1450 50  0001 C CNN
	1    2300 1450
	1    0    0    -1  
$EndComp
$Comp
L V_Connector:Via V81
U 1 1 5EBC005A
P 8400 2200
F 0 "V81" H 8449 2235 50  0000 L CNN
F 1 "GND" H 8449 2155 35  0000 L CNN
F 2 "AllModules:ViaVE_12x32" H 8400 2200 50  0001 C CNN
F 3 "~" H 8400 2200 50  0001 C CNN
	1    8400 2200
	1    0    0    -1  
$EndComp
$Comp
L V_Connector:Via V82
U 1 1 5EBC0064
P 8400 2400
F 0 "V82" H 8449 2435 50  0000 L CNN
F 1 "GND" H 8449 2355 35  0000 L CNN
F 2 "AllModules:ViaVE_12x32" H 8400 2400 50  0001 C CNN
F 3 "~" H 8400 2400 50  0001 C CNN
	1    8400 2400
	1    0    0    -1  
$EndComp
$Comp
L V_Connector:Via V83
U 1 1 5EBC006E
P 1700 1250
F 0 "V83" H 1749 1285 50  0000 L CNN
F 1 "-12V" H 1749 1205 35  0000 L CNN
F 2 "AllModules:ViaVE_12x32-1011" H 1700 1250 50  0001 C CNN
F 3 "~" H 1700 1250 50  0001 C CNN
	1    1700 1250
	1    0    0    -1  
$EndComp
$Comp
L V_Connector:Via V84
U 1 1 5EBC0078
P 8400 2600
F 0 "V84" H 8449 2635 50  0000 L CNN
F 1 "GND" H 8449 2555 35  0000 L CNN
F 2 "AllModules:ViaVE_12x32" H 8400 2600 50  0001 C CNN
F 3 "~" H 8400 2600 50  0001 C CNN
	1    8400 2600
	1    0    0    -1  
$EndComp
$Comp
L V_Connector:Via V85
U 1 1 5EBC0082
P 8400 2800
F 0 "V85" H 8449 2835 50  0000 L CNN
F 1 "GND" H 8449 2755 35  0000 L CNN
F 2 "AllModules:ViaVE_12x32" H 8400 2800 50  0001 C CNN
F 3 "~" H 8400 2800 50  0001 C CNN
	1    8400 2800
	1    0    0    -1  
$EndComp
$Comp
L V_Connector:Via V101
U 1 1 5EBC008C
P 7200 4200
F 0 "V101" H 7249 4235 50  0000 L CNN
F 1 "GND" H 7249 4155 35  0000 L CNN
F 2 "AllModules:ViaVE_12x32" H 7200 4200 50  0001 C CNN
F 3 "~" H 7200 4200 50  0001 C CNN
	1    7200 4200
	1    0    0    -1  
$EndComp
$Comp
L V_Connector:Via V103
U 1 1 5EBC00A0
P 7200 4000
F 0 "V103" H 7249 4035 50  0000 L CNN
F 1 "GND" H 7249 3955 35  0000 L CNN
F 2 "AllModules:ViaVE_12x32" H 7200 4000 50  0001 C CNN
F 3 "~" H 7200 4000 50  0001 C CNN
	1    7200 4000
	1    0    0    -1  
$EndComp
$Comp
L V_Connector:Via V104
U 1 1 5EBC00AA
P 1700 1450
F 0 "V104" H 1749 1485 50  0000 L CNN
F 1 "-12V" H 1749 1405 35  0000 L CNN
F 2 "AllModules:ViaVE_12x32-1011" H 1700 1450 50  0001 C CNN
F 3 "~" H 1700 1450 50  0001 C CNN
	1    1700 1450
	1    0    0    -1  
$EndComp
$Comp
L V_Connector:Via V86
U 1 1 5EBC00BE
P 8400 3000
F 0 "V86" H 8449 3035 50  0000 L CNN
F 1 "GND" H 8449 2955 35  0000 L CNN
F 2 "AllModules:ViaVE_12x32" H 8400 3000 50  0001 C CNN
F 3 "~" H 8400 3000 50  0001 C CNN
	1    8400 3000
	1    0    0    -1  
$EndComp
$Comp
L V_Connector:Via V87
U 1 1 5EBC00C8
P 8400 3200
F 0 "V87" H 8449 3235 50  0000 L CNN
F 1 "GND" H 8449 3155 35  0000 L CNN
F 2 "AllModules:ViaVE_12x32" H 8400 3200 50  0001 C CNN
F 3 "~" H 8400 3200 50  0001 C CNN
	1    8400 3200
	1    0    0    -1  
$EndComp
$Comp
L V_Connector:Via V88
U 1 1 5EBC00D2
P 8400 3400
F 0 "V88" H 8449 3435 50  0000 L CNN
F 1 "GND" H 8449 3355 35  0000 L CNN
F 2 "AllModules:ViaVE_12x32" H 8400 3400 50  0001 C CNN
F 3 "~" H 8400 3400 50  0001 C CNN
	1    8400 3400
	1    0    0    -1  
$EndComp
$Comp
L V_Connector:Via V89
U 1 1 5EBC00DC
P 8400 3600
F 0 "V89" H 8449 3635 50  0000 L CNN
F 1 "GND" H 8449 3555 35  0000 L CNN
F 2 "AllModules:ViaVE_12x32" H 8400 3600 50  0001 C CNN
F 3 "~" H 8400 3600 50  0001 C CNN
	1    8400 3600
	1    0    0    -1  
$EndComp
$Comp
L V_Connector:Via V90
U 1 1 5EBC00E6
P 4900 1250
F 0 "V90" H 4949 1285 50  0000 L CNN
F 1 "VBAT" H 4949 1205 35  0000 L CNN
F 2 "AllModules:ViaVE_12x32-1011" H 4900 1250 50  0001 C CNN
F 3 "~" H 4900 1250 50  0001 C CNN
	1    4900 1250
	1    0    0    -1  
$EndComp
$Comp
L V_Connector:Via V106
U 1 1 5EBC00F0
P 1700 1650
F 0 "V106" H 1749 1685 50  0000 L CNN
F 1 "-12V" H 1749 1605 35  0000 L CNN
F 2 "AllModules:ViaVE_12x32-1011" H 1700 1650 50  0001 C CNN
F 3 "~" H 1700 1650 50  0001 C CNN
	1    1700 1650
	1    0    0    -1  
$EndComp
$Comp
L V_Connector:Via V107
U 1 1 5EBC00FA
P 7200 3800
F 0 "V107" H 7249 3835 50  0000 L CNN
F 1 "GND" H 7249 3755 35  0000 L CNN
F 2 "AllModules:ViaVE_12x32" H 7200 3800 50  0001 C CNN
F 3 "~" H 7200 3800 50  0001 C CNN
	1    7200 3800
	1    0    0    -1  
$EndComp
$Comp
L V_Connector:Via V108
U 1 1 5EBC0104
P 4600 2900
F 0 "V108" H 4649 2935 50  0000 L CNN
F 1 "SUPPLY-BUZ" H 4649 2855 35  0000 L CNN
F 2 "AllModules:ViaVE_12x32-1011" H 4600 2900 50  0001 C CNN
F 3 "~" H 4600 2900 50  0001 C CNN
	1    4600 2900
	1    0    0    -1  
$EndComp
$Comp
L V_Connector:Via V109
U 1 1 5EBC010E
P 2500 3250
F 0 "V109" H 2549 3285 50  0000 L CNN
F 1 "N$31" H 2549 3205 35  0000 L CNN
F 2 "AllModules:ViaVE_12x32-1011" H 2500 3250 50  0001 C CNN
F 3 "~" H 2500 3250 50  0001 C CNN
	1    2500 3250
	1    0    0    -1  
$EndComp
$Comp
L V_Connector:Via V91
U 1 1 5EBC0122
P 8400 3800
F 0 "V91" H 8449 3835 50  0000 L CNN
F 1 "GND" H 8449 3755 35  0000 L CNN
F 2 "AllModules:ViaVE_12x32" H 8400 3800 50  0001 C CNN
F 3 "~" H 8400 3800 50  0001 C CNN
	1    8400 3800
	1    0    0    -1  
$EndComp
$Comp
L V_Connector:Via V92
U 1 1 5EBC012C
P 8400 4000
F 0 "V92" H 8449 4035 50  0000 L CNN
F 1 "GND" H 8449 3955 35  0000 L CNN
F 2 "AllModules:ViaVE_12x32" H 8400 4000 50  0001 C CNN
F 3 "~" H 8400 4000 50  0001 C CNN
	1    8400 4000
	1    0    0    -1  
$EndComp
$Comp
L V_Connector:Via V93
U 1 1 5EBC0136
P 8400 4200
F 0 "V93" H 8449 4235 50  0000 L CNN
F 1 "GND" H 8449 4155 35  0000 L CNN
F 2 "AllModules:ViaVE_12x32" H 8400 4200 50  0001 C CNN
F 3 "~" H 8400 4200 50  0001 C CNN
	1    8400 4200
	1    0    0    -1  
$EndComp
$Comp
L V_Connector:Via V94
U 1 1 5EBC0140
P 8400 4400
F 0 "V94" H 8449 4435 50  0000 L CNN
F 1 "GND" H 8449 4355 35  0000 L CNN
F 2 "AllModules:ViaVE_12x32" H 8400 4400 50  0001 C CNN
F 3 "~" H 8400 4400 50  0001 C CNN
	1    8400 4400
	1    0    0    -1  
$EndComp
$Comp
L V_Connector:Via V95
U 1 1 5EBC014A
P 8400 4600
F 0 "V95" H 8449 4635 50  0000 L CNN
F 1 "GND" H 8449 4555 35  0000 L CNN
F 2 "AllModules:ViaVE_12x32" H 8400 4600 50  0001 C CNN
F 3 "~" H 8400 4600 50  0001 C CNN
	1    8400 4600
	1    0    0    -1  
$EndComp
$Comp
L V_Connector:Via V111
U 1 1 5EBC0154
P 7200 3600
F 0 "V111" H 7249 3635 50  0000 L CNN
F 1 "GND" H 7249 3555 35  0000 L CNN
F 2 "AllModules:ViaVE_12x32" H 7200 3600 50  0001 C CNN
F 3 "~" H 7200 3600 50  0001 C CNN
	1    7200 3600
	1    0    0    -1  
$EndComp
$Comp
L V_Connector:Via V112
U 1 1 5EBC015E
P 2300 1850
F 0 "V112" H 2349 1885 50  0000 L CNN
F 1 "+12V" H 2349 1805 35  0000 L CNN
F 2 "AllModules:ViaVE_12x32-1011" H 2300 1850 50  0001 C CNN
F 3 "~" H 2300 1850 50  0001 C CNN
	1    2300 1850
	1    0    0    -1  
$EndComp
$Comp
L V_Connector:Via V113
U 1 1 5EBC0168
P 7200 3400
F 0 "V113" H 7249 3435 50  0000 L CNN
F 1 "GND" H 7249 3355 35  0000 L CNN
F 2 "AllModules:ViaVE_12x32" H 7200 3400 50  0001 C CNN
F 3 "~" H 7200 3400 50  0001 C CNN
	1    7200 3400
	1    0    0    -1  
$EndComp
$Comp
L V_Connector:Via V114
U 1 1 5EBC0172
P 2500 2500
F 0 "V114" H 2549 2535 50  0000 L CNN
F 1 "N$18" H 2549 2455 35  0000 L CNN
F 2 "AllModules:ViaVE_12x32-1011" H 2500 2500 50  0001 C CNN
F 3 "~" H 2500 2500 50  0001 C CNN
	1    2500 2500
	1    0    0    -1  
$EndComp
$Comp
L V_Connector:Via V96
U 1 1 5EBC0186
P 8400 4800
F 0 "V96" H 8449 4835 50  0000 L CNN
F 1 "GND" H 8449 4755 35  0000 L CNN
F 2 "AllModules:ViaVE_12x32" H 8400 4800 50  0001 C CNN
F 3 "~" H 8400 4800 50  0001 C CNN
	1    8400 4800
	1    0    0    -1  
$EndComp
$Comp
L V_Connector:Via V97
U 1 1 5EBC0190
P 8400 5000
F 0 "V97" H 8449 5035 50  0000 L CNN
F 1 "GND" H 8449 4955 35  0000 L CNN
F 2 "AllModules:ViaVE_12x32" H 8400 5000 50  0001 C CNN
F 3 "~" H 8400 5000 50  0001 C CNN
	1    8400 5000
	1    0    0    -1  
$EndComp
$Comp
L V_Connector:Via V98
U 1 1 5EBC019A
P 6150 2350
F 0 "V98" H 6199 2385 50  0000 L CNN
F 1 "SUPPLY-BUZ-CPU" H 6199 2305 35  0000 L CNN
F 2 "AllModules:ViaVE_12x32-1011" H 6150 2350 50  0001 C CNN
F 3 "~" H 6150 2350 50  0001 C CNN
	1    6150 2350
	1    0    0    -1  
$EndComp
$Comp
L V_Connector:Via V99
U 1 1 5EBC01A4
P 7800 1600
F 0 "V99" H 7849 1635 50  0000 L CNN
F 1 "GND" H 7849 1555 35  0000 L CNN
F 2 "AllModules:ViaVE_12x32" H 7800 1600 50  0001 C CNN
F 3 "~" H 7800 1600 50  0001 C CNN
	1    7800 1600
	1    0    0    -1  
$EndComp
$Comp
L V_Connector:Via V100
U 1 1 5EBC01AE
P 2500 2700
F 0 "V100" H 2549 2735 50  0000 L CNN
F 1 "N$18" H 2549 2655 35  0000 L CNN
F 2 "AllModules:ViaVE_12x32-1011" H 2500 2700 50  0001 C CNN
F 3 "~" H 2500 2700 50  0001 C CNN
	1    2500 2700
	1    0    0    -1  
$EndComp
$Comp
L V_Connector:Via V116
U 1 1 5EBC01B8
P 7200 3000
F 0 "V116" H 7249 3035 50  0000 L CNN
F 1 "GND" H 7249 2955 35  0000 L CNN
F 2 "AllModules:ViaVE_12x32" H 7200 3000 50  0001 C CNN
F 3 "~" H 7200 3000 50  0001 C CNN
	1    7200 3000
	1    0    0    -1  
$EndComp
$Comp
L V_Connector:Via V117
U 1 1 5EBC01C2
P 7200 3200
F 0 "V117" H 7249 3235 50  0000 L CNN
F 1 "GND" H 7249 3155 35  0000 L CNN
F 2 "AllModules:ViaVE_12x32" H 7200 3200 50  0001 C CNN
F 3 "~" H 7200 3200 50  0001 C CNN
	1    7200 3200
	1    0    0    -1  
$EndComp
$Comp
L V_Connector:Via V118
U 1 1 5EBC01CC
P 2900 1500
F 0 "V118" H 2949 1535 50  0000 L CNN
F 1 "+5V" H 2949 1455 35  0000 L CNN
F 2 "AllModules:ViaVE_12x32-1011" H 2900 1500 50  0001 C CNN
F 3 "~" H 2900 1500 50  0001 C CNN
	1    2900 1500
	1    0    0    -1  
$EndComp
$Comp
L V_Connector:Via V119
U 1 1 5EBC01D6
P 2300 1050
F 0 "V119" H 2349 1085 50  0000 L CNN
F 1 "+12V" H 2349 1005 35  0000 L CNN
F 2 "AllModules:ViaVE_12x32-1011" H 2300 1050 50  0001 C CNN
F 3 "~" H 2300 1050 50  0001 C CNN
	1    2300 1050
	1    0    0    -1  
$EndComp
$Comp
L V_Connector:Via V121
U 1 1 5EBC01EA
P 2300 1250
F 0 "V121" H 2349 1285 50  0000 L CNN
F 1 "+12V" H 2349 1205 35  0000 L CNN
F 2 "AllModules:ViaVE_12x32-1011" H 2300 1250 50  0001 C CNN
F 3 "~" H 2300 1250 50  0001 C CNN
	1    2300 1250
	1    0    0    -1  
$EndComp
$Comp
L V_Connector:Via V122
U 1 1 5EBC01F4
P 2800 4300
F 0 "V122" H 2849 4335 50  0000 L CNN
F 1 "GT1" H 2849 4255 35  0000 L CNN
F 2 "AllModules:ViaVE_12x32-1011" H 2800 4300 50  0001 C CNN
F 3 "~" H 2800 4300 50  0001 C CNN
	1    2800 4300
	1    0    0    -1  
$EndComp
$Comp
L V_Connector:Via V124
U 1 1 5EBC0208
P 7800 1800
F 0 "V124" H 7849 1835 50  0000 L CNN
F 1 "GND" H 7849 1755 35  0000 L CNN
F 2 "AllModules:ViaVE_12x32" H 7800 1800 50  0001 C CNN
F 3 "~" H 7800 1800 50  0001 C CNN
	1    7800 1800
	1    0    0    -1  
$EndComp
$Comp
L V_Connector:Via V125
U 1 1 5EBC0212
P 7800 2000
F 0 "V125" H 7849 2035 50  0000 L CNN
F 1 "GND" H 7849 1955 35  0000 L CNN
F 2 "AllModules:ViaVE_12x32" H 7800 2000 50  0001 C CNN
F 3 "~" H 7800 2000 50  0001 C CNN
	1    7800 2000
	1    0    0    -1  
$EndComp
$Comp
L V_Connector:Via V141
U 1 1 5EBC021C
P 2500 3000
F 0 "V141" H 2549 3035 50  0000 L CNN
F 1 "N$19" H 2549 2955 35  0000 L CNN
F 2 "AllModules:ViaVE_12x32-1011" H 2500 3000 50  0001 C CNN
F 3 "~" H 2500 3000 50  0001 C CNN
	1    2500 3000
	1    0    0    -1  
$EndComp
$Comp
L V_Connector:Via V142
U 1 1 5EBC0226
P 2800 4150
F 0 "V142" H 2849 4185 50  0000 L CNN
F 1 "GT1" H 2849 4105 35  0000 L CNN
F 2 "AllModules:ViaVE_12x32-1011" H 2800 4150 50  0001 C CNN
F 3 "~" H 2800 4150 50  0001 C CNN
	1    2800 4150
	1    0    0    -1  
$EndComp
$Comp
L V_Connector:Via V143
U 1 1 5EBC0230
P 7200 2200
F 0 "V143" H 7249 2235 50  0000 L CNN
F 1 "GND" H 7249 2155 35  0000 L CNN
F 2 "AllModules:ViaVE_12x32" H 7200 2200 50  0001 C CNN
F 3 "~" H 7200 2200 50  0001 C CNN
	1    7200 2200
	1    0    0    -1  
$EndComp
$Comp
L V_Connector:Via V144
U 1 1 5EBC023A
P 7200 2400
F 0 "V144" H 7249 2435 50  0000 L CNN
F 1 "GND" H 7249 2355 35  0000 L CNN
F 2 "AllModules:ViaVE_12x32" H 7200 2400 50  0001 C CNN
F 3 "~" H 7200 2400 50  0001 C CNN
	1    7200 2400
	1    0    0    -1  
$EndComp
$Comp
L V_Connector:Via V145
U 1 1 5EBC0244
P 6300 3900
F 0 "V145" H 6349 3935 50  0000 L CNN
F 1 "N$10" H 6349 3855 35  0000 L CNN
F 2 "AllModules:ViaVE_12x32-1011" H 6300 3900 50  0001 C CNN
F 3 "~" H 6300 3900 50  0001 C CNN
	1    6300 3900
	1    0    0    -1  
$EndComp
$Comp
L V_Connector:Via V126
U 1 1 5EBC024E
P 7800 2200
F 0 "V126" H 7849 2235 50  0000 L CNN
F 1 "GND" H 7849 2155 35  0000 L CNN
F 2 "AllModules:ViaVE_12x32" H 7800 2200 50  0001 C CNN
F 3 "~" H 7800 2200 50  0001 C CNN
	1    7800 2200
	1    0    0    -1  
$EndComp
$Comp
L V_Connector:Via V127
U 1 1 5EBC0258
P 7800 2400
F 0 "V127" H 7849 2435 50  0000 L CNN
F 1 "GND" H 7849 2355 35  0000 L CNN
F 2 "AllModules:ViaVE_12x32" H 7800 2400 50  0001 C CNN
F 3 "~" H 7800 2400 50  0001 C CNN
	1    7800 2400
	1    0    0    -1  
$EndComp
$Comp
L V_Connector:Via V128
U 1 1 5EBC0262
P 7800 2600
F 0 "V128" H 7849 2635 50  0000 L CNN
F 1 "GND" H 7849 2555 35  0000 L CNN
F 2 "AllModules:ViaVE_12x32" H 7800 2600 50  0001 C CNN
F 3 "~" H 7800 2600 50  0001 C CNN
	1    7800 2600
	1    0    0    -1  
$EndComp
$Comp
L V_Connector:Via V129
U 1 1 5EBC026C
P 7800 2800
F 0 "V129" H 7849 2835 50  0000 L CNN
F 1 "GND" H 7849 2755 35  0000 L CNN
F 2 "AllModules:ViaVE_12x32" H 7800 2800 50  0001 C CNN
F 3 "~" H 7800 2800 50  0001 C CNN
	1    7800 2800
	1    0    0    -1  
$EndComp
$Comp
L V_Connector:Via V130
U 1 1 5EBC0276
P 7800 3000
F 0 "V130" H 7849 3035 50  0000 L CNN
F 1 "GND" H 7849 2955 35  0000 L CNN
F 2 "AllModules:ViaVE_12x32" H 7800 3000 50  0001 C CNN
F 3 "~" H 7800 3000 50  0001 C CNN
	1    7800 3000
	1    0    0    -1  
$EndComp
$Comp
L V_Connector:Via V146
U 1 1 5EBC0280
P 3600 4500
F 0 "V146" H 3649 4535 50  0000 L CNN
F 1 "BUZ-ACT" H 3649 4455 35  0000 L CNN
F 2 "AllModules:ViaVE_12x32-1011" H 3600 4500 50  0001 C CNN
F 3 "~" H 3600 4500 50  0001 C CNN
	1    3600 4500
	1    0    0    -1  
$EndComp
$Comp
L V_Connector:Via V147
U 1 1 5EBC028A
P 7200 2600
F 0 "V147" H 7249 2635 50  0000 L CNN
F 1 "GND" H 7249 2555 35  0000 L CNN
F 2 "AllModules:ViaVE_12x32" H 7200 2600 50  0001 C CNN
F 3 "~" H 7200 2600 50  0001 C CNN
	1    7200 2600
	1    0    0    -1  
$EndComp
$Comp
L V_Connector:Via V148
U 1 1 5EBC0294
P 7200 2800
F 0 "V148" H 7249 2835 50  0000 L CNN
F 1 "GND" H 7249 2755 35  0000 L CNN
F 2 "AllModules:ViaVE_12x32" H 7200 2800 50  0001 C CNN
F 3 "~" H 7200 2800 50  0001 C CNN
	1    7200 2800
	1    0    0    -1  
$EndComp
$Comp
L V_Connector:Via V149
U 1 1 5EBC029E
P 5900 5200
F 0 "V149" H 5949 5235 50  0000 L CNN
F 1 "N$10" H 5949 5155 35  0000 L CNN
F 2 "AllModules:ViaVE_12x32-1011" H 5900 5200 50  0001 C CNN
F 3 "~" H 5900 5200 50  0001 C CNN
	1    5900 5200
	1    0    0    -1  
$EndComp
$Comp
L V_Connector:Via V150
U 1 1 5EBC02A8
P 5900 5000
F 0 "V150" H 5949 5035 50  0000 L CNN
F 1 "N$10" H 5949 4955 35  0000 L CNN
F 2 "AllModules:ViaVE_12x32-1011" H 5900 5000 50  0001 C CNN
F 3 "~" H 5900 5000 50  0001 C CNN
	1    5900 5000
	1    0    0    -1  
$EndComp
$Comp
L V_Connector:Via V131
U 1 1 5EBC02B2
P 7800 3200
F 0 "V131" H 7849 3235 50  0000 L CNN
F 1 "GND" H 7849 3155 35  0000 L CNN
F 2 "AllModules:ViaVE_12x32" H 7800 3200 50  0001 C CNN
F 3 "~" H 7800 3200 50  0001 C CNN
	1    7800 3200
	1    0    0    -1  
$EndComp
$Comp
L V_Connector:Via V132
U 1 1 5EBC02BC
P 7800 3400
F 0 "V132" H 7849 3435 50  0000 L CNN
F 1 "GND" H 7849 3355 35  0000 L CNN
F 2 "AllModules:ViaVE_12x32" H 7800 3400 50  0001 C CNN
F 3 "~" H 7800 3400 50  0001 C CNN
	1    7800 3400
	1    0    0    -1  
$EndComp
$Comp
L V_Connector:Via V133
U 1 1 5EBC02C6
P 7800 3600
F 0 "V133" H 7849 3635 50  0000 L CNN
F 1 "GND" H 7849 3555 35  0000 L CNN
F 2 "AllModules:ViaVE_12x32" H 7800 3600 50  0001 C CNN
F 3 "~" H 7800 3600 50  0001 C CNN
	1    7800 3600
	1    0    0    -1  
$EndComp
$Comp
L V_Connector:Via V134
U 1 1 5EBC02D0
P 7800 3800
F 0 "V134" H 7849 3835 50  0000 L CNN
F 1 "GND" H 7849 3755 35  0000 L CNN
F 2 "AllModules:ViaVE_12x32" H 7800 3800 50  0001 C CNN
F 3 "~" H 7800 3800 50  0001 C CNN
	1    7800 3800
	1    0    0    -1  
$EndComp
$Comp
L V_Connector:Via V135
U 1 1 5EBC02DA
P 7800 4000
F 0 "V135" H 7849 4035 50  0000 L CNN
F 1 "GND" H 7849 3955 35  0000 L CNN
F 2 "AllModules:ViaVE_12x32" H 7800 4000 50  0001 C CNN
F 3 "~" H 7800 4000 50  0001 C CNN
	1    7800 4000
	1    0    0    -1  
$EndComp
$Comp
L V_Connector:Via V151
U 1 1 5EBC02E4
P 5900 4800
F 0 "V151" H 5949 4835 50  0000 L CNN
F 1 "N$10" H 5949 4755 35  0000 L CNN
F 2 "AllModules:ViaVE_12x32-1011" H 5900 4800 50  0001 C CNN
F 3 "~" H 5900 4800 50  0001 C CNN
	1    5900 4800
	1    0    0    -1  
$EndComp
$Comp
L V_Connector:Via V152
U 1 1 5EBC02EE
P 5900 4200
F 0 "V152" H 5949 4235 50  0000 L CNN
F 1 "N$10" H 5949 4155 35  0000 L CNN
F 2 "AllModules:ViaVE_12x32-1011" H 5900 4200 50  0001 C CNN
F 3 "~" H 5900 4200 50  0001 C CNN
	1    5900 4200
	1    0    0    -1  
$EndComp
$Comp
L V_Connector:Via V153
U 1 1 5EBC02F8
P 5900 4400
F 0 "V153" H 5949 4435 50  0000 L CNN
F 1 "N$10" H 5949 4355 35  0000 L CNN
F 2 "AllModules:ViaVE_12x32-1011" H 5900 4400 50  0001 C CNN
F 3 "~" H 5900 4400 50  0001 C CNN
	1    5900 4400
	1    0    0    -1  
$EndComp
$Comp
L V_Connector:Via V154
U 1 1 5EBC0302
P 5900 4600
F 0 "V154" H 5949 4635 50  0000 L CNN
F 1 "N$10" H 5949 4555 35  0000 L CNN
F 2 "AllModules:ViaVE_12x32-1011" H 5900 4600 50  0001 C CNN
F 3 "~" H 5900 4600 50  0001 C CNN
	1    5900 4600
	1    0    0    -1  
$EndComp
$Comp
L V_Connector:Via V155
U 1 1 5EBC030C
P 5050 4550
F 0 "V155" H 5099 4585 50  0000 L CNN
F 1 "SHDN1" H 5099 4505 35  0000 L CNN
F 2 "AllModules:ViaVE_12x32-1001" H 5050 4550 50  0001 C CNN
F 3 "~" H 5050 4550 50  0001 C CNN
	1    5050 4550
	1    0    0    -1  
$EndComp
$Comp
L V_Connector:Via V136
U 1 1 5EBC0316
P 7800 4200
F 0 "V136" H 7849 4235 50  0000 L CNN
F 1 "GND" H 7849 4155 35  0000 L CNN
F 2 "AllModules:ViaVE_12x32" H 7800 4200 50  0001 C CNN
F 3 "~" H 7800 4200 50  0001 C CNN
	1    7800 4200
	1    0    0    -1  
$EndComp
$Comp
L V_Connector:Via V137
U 1 1 5EBC0320
P 7800 4400
F 0 "V137" H 7849 4435 50  0000 L CNN
F 1 "GND" H 7849 4355 35  0000 L CNN
F 2 "AllModules:ViaVE_12x32" H 7800 4400 50  0001 C CNN
F 3 "~" H 7800 4400 50  0001 C CNN
	1    7800 4400
	1    0    0    -1  
$EndComp
$Comp
L V_Connector:Via V138
U 1 1 5EBC032A
P 7800 4600
F 0 "V138" H 7849 4635 50  0000 L CNN
F 1 "GND" H 7849 4555 35  0000 L CNN
F 2 "AllModules:ViaVE_12x32" H 7800 4600 50  0001 C CNN
F 3 "~" H 7800 4600 50  0001 C CNN
	1    7800 4600
	1    0    0    -1  
$EndComp
$Comp
L V_Connector:Via V139
U 1 1 5EBC0334
P 3400 2600
F 0 "V139" H 3449 2635 50  0000 L CNN
F 1 "N$58" H 3449 2555 35  0000 L CNN
F 2 "AllModules:ViaVE_12x32-1011" H 3400 2600 50  0001 C CNN
F 3 "~" H 3400 2600 50  0001 C CNN
	1    3400 2600
	1    0    0    -1  
$EndComp
$Comp
L V_Connector:Via V140
U 1 1 5EBC033E
P 7800 4800
F 0 "V140" H 7849 4835 50  0000 L CNN
F 1 "GND" H 7849 4755 35  0000 L CNN
F 2 "AllModules:ViaVE_12x32" H 7800 4800 50  0001 C CNN
F 3 "~" H 7800 4800 50  0001 C CNN
	1    7800 4800
	1    0    0    -1  
$EndComp
$Comp
L V_Connector:Via V156
U 1 1 5EBC0348
P 5050 5100
F 0 "V156" H 5099 5135 50  0000 L CNN
F 1 "SHDN2" H 5099 5055 35  0000 L CNN
F 2 "AllModules:ViaVE_12x32-1001" H 5050 5100 50  0001 C CNN
F 3 "~" H 5050 5100 50  0001 C CNN
	1    5050 5100
	1    0    0    -1  
$EndComp
$Comp
L V_Connector:Via V157
U 1 1 5EBC0352
P 7200 1800
F 0 "V157" H 7249 1835 50  0000 L CNN
F 1 "GND" H 7249 1755 35  0000 L CNN
F 2 "AllModules:ViaVE_12x32" H 7200 1800 50  0001 C CNN
F 3 "~" H 7200 1800 50  0001 C CNN
	1    7200 1800
	1    0    0    -1  
$EndComp
$Comp
L V_Connector:Via V158
U 1 1 5EBC035C
P 7200 2000
F 0 "V158" H 7249 2035 50  0000 L CNN
F 1 "GND" H 7249 1955 35  0000 L CNN
F 2 "AllModules:ViaVE_12x32" H 7200 2000 50  0001 C CNN
F 3 "~" H 7200 2000 50  0001 C CNN
	1    7200 2000
	1    0    0    -1  
$EndComp
$Comp
L V_Connector:Via V159
U 1 1 5EBC0366
P 6300 4200
F 0 "V159" H 6349 4235 50  0000 L CNN
F 1 "N$10" H 6349 4155 35  0000 L CNN
F 2 "AllModules:ViaVE_12x32-1001" H 6300 4200 50  0001 C CNN
F 3 "~" H 6300 4200 50  0001 C CNN
	1    6300 4200
	1    0    0    -1  
$EndComp
$Comp
L V_Connector:Via V160
U 1 1 5EBC0370
P 5050 4900
F 0 "V160" H 5099 4935 50  0000 L CNN
F 1 "SHDN2" H 5099 4855 35  0000 L CNN
F 2 "AllModules:ViaVE_12x32-1001" H 5050 4900 50  0001 C CNN
F 3 "~" H 5050 4900 50  0001 C CNN
	1    5050 4900
	1    0    0    -1  
$EndComp
$Comp
L V_Connector:Via V161
U 1 1 5EBD966A
P 5050 4350
F 0 "V161" H 5099 4385 50  0000 L CNN
F 1 "SHDN1" H 5099 4305 35  0000 L CNN
F 2 "AllModules:ViaVE_12x32-1001" H 5050 4350 50  0001 C CNN
F 3 "~" H 5050 4350 50  0001 C CNN
	1    5050 4350
	1    0    0    -1  
$EndComp
$Comp
L V_Connector:Via V162
U 1 1 5EBD9674
P 7200 4400
F 0 "V162" H 7249 4435 50  0000 L CNN
F 1 "GND" H 7249 4355 35  0000 L CNN
F 2 "AllModules:ViaVE_12x32" H 7200 4400 50  0001 C CNN
F 3 "~" H 7200 4400 50  0001 C CNN
	1    7200 4400
	1    0    0    -1  
$EndComp
$Comp
L V_Connector:Via V163
U 1 1 5EBD967E
P 7200 4600
F 0 "V163" H 7249 4635 50  0000 L CNN
F 1 "GND" H 7249 4555 35  0000 L CNN
F 2 "AllModules:ViaVE_12x32" H 7200 4600 50  0001 C CNN
F 3 "~" H 7200 4600 50  0001 C CNN
	1    7200 4600
	1    0    0    -1  
$EndComp
$Comp
L V_Connector:Via V164
U 1 1 5EBD9688
P 3400 2300
F 0 "V164" H 3449 2335 50  0000 L CNN
F 1 "N$58" H 3449 2255 35  0000 L CNN
F 2 "AllModules:ViaVE_12x32-1011" H 3400 2300 50  0001 C CNN
F 3 "~" H 3400 2300 50  0001 C CNN
	1    3400 2300
	1    0    0    -1  
$EndComp
$Comp
L V_Connector:Via V165
U 1 1 5EBD9692
P 5900 900
F 0 "V165" H 5949 935 50  0000 L CNN
F 1 "VCHARG" H 5949 855 35  0000 L CNN
F 2 "AllModules:Via_12x32-1011" H 5900 900 50  0001 C CNN
F 3 "~" H 5900 900 50  0001 C CNN
	1    5900 900 
	1    0    0    -1  
$EndComp
$Comp
L V_Connector:Via V171
U 1 1 5EBD969C
P 5900 1100
F 0 "V171" H 5949 1135 50  0000 L CNN
F 1 "VCHARG" H 5949 1055 35  0000 L CNN
F 2 "AllModules:Via_12x32-1011" H 5900 1100 50  0001 C CNN
F 3 "~" H 5900 1100 50  0001 C CNN
	1    5900 1100
	1    0    0    -1  
$EndComp
$Comp
L V_Connector:Via V167
U 1 1 5EBD96D8
P 2900 1700
F 0 "V167" H 2949 1735 50  0000 L CNN
F 1 "+5V" H 2949 1655 35  0000 L CNN
F 2 "AllModules:Via_12x32-1011" H 2900 1700 50  0001 C CNN
F 3 "~" H 2900 1700 50  0001 C CNN
	1    2900 1700
	1    0    0    -1  
$EndComp
$Comp
L V_Connector:Via V168
U 1 1 5EBD96E2
P 1600 3700
F 0 "V168" H 1649 3735 50  0000 L CNN
F 1 "INHIB-STOP-INV" H 1649 3655 35  0000 L CNN
F 2 "AllModules:Via_12x32-1011" H 1600 3700 50  0001 C CNN
F 3 "~" H 1600 3700 50  0001 C CNN
	1    1600 3700
	1    0    0    -1  
$EndComp
$Comp
L V_Connector:Via V169
U 1 1 5EBD96EC
P 7200 4800
F 0 "V169" H 7249 4835 50  0000 L CNN
F 1 "GND" H 7249 4755 35  0000 L CNN
F 2 "AllModules:ViaVE_12x32" H 7200 4800 50  0001 C CNN
F 3 "~" H 7200 4800 50  0001 C CNN
	1    7200 4800
	1    0    0    -1  
$EndComp
$Comp
L V_Connector:Via V170
U 1 1 5EBD96F6
P 7200 5000
F 0 "V170" H 7249 5035 50  0000 L CNN
F 1 "GND" H 7249 4955 35  0000 L CNN
F 2 "AllModules:ViaVE_12x32" H 7200 5000 50  0001 C CNN
F 3 "~" H 7200 5000 50  0001 C CNN
	1    7200 5000
	1    0    0    -1  
$EndComp
Wire Wire Line
	7200 2200 7200 2400
Wire Wire Line
	3600 4500 3600 4700
Wire Wire Line
	7200 2600 7200 2800
Wire Wire Line
	5900 4800 5900 5000
Wire Wire Line
	5900 4200 5900 4400
Connection ~ 5900 4400
Wire Wire Line
	5900 4400 5900 4600
Connection ~ 5900 4600
Wire Wire Line
	5900 4600 5900 4800
Wire Wire Line
	7200 1800 7200 2000
Wire Wire Line
	7200 3000 7200 3200
Connection ~ 7200 3200
Wire Wire Line
	7200 3200 7200 3400
Connection ~ 7200 3400
Wire Wire Line
	7200 3400 7200 3600
Connection ~ 7200 3600
Wire Wire Line
	7200 3600 7200 3800
Connection ~ 7800 2000
Wire Wire Line
	7800 2000 7800 1800
Connection ~ 7800 2200
Wire Wire Line
	7800 2200 7800 2000
Wire Wire Line
	7800 2400 7800 2200
Connection ~ 7800 2600
Wire Wire Line
	7800 2600 7800 2400
Connection ~ 7800 2800
Wire Wire Line
	7800 2800 7800 2600
Connection ~ 7800 3000
Wire Wire Line
	7800 3000 7800 2800
Connection ~ 7800 3200
Wire Wire Line
	7800 3200 7800 3000
Connection ~ 7800 3400
Wire Wire Line
	7800 3400 7800 3200
Connection ~ 7800 3600
Wire Wire Line
	7800 3600 7800 3400
Connection ~ 7800 3800
Wire Wire Line
	7800 3800 7800 3600
Connection ~ 7800 4000
Wire Wire Line
	7800 4000 7800 3800
Connection ~ 7800 4200
Wire Wire Line
	7800 4200 7800 4000
Connection ~ 7800 4400
Wire Wire Line
	7800 4400 7800 4200
Connection ~ 7800 4600
Wire Wire Line
	7800 4800 7800 4600
Wire Wire Line
	7200 4000 7200 4200
Connection ~ 8400 2200
Wire Wire Line
	8400 2200 8400 2400
Wire Wire Line
	8400 2600 8400 2800
Wire Wire Line
	8400 2800 8400 3000
Connection ~ 8400 3000
Wire Wire Line
	8400 3000 8400 3200
Connection ~ 8400 3200
Wire Wire Line
	8400 3200 8400 3400
Connection ~ 8400 3400
Wire Wire Line
	8400 3400 8400 3600
Wire Wire Line
	8400 3600 8400 3800
Connection ~ 8400 3800
Wire Wire Line
	8400 3800 8400 4000
Connection ~ 8400 4000
Wire Wire Line
	8400 4000 8400 4200
Connection ~ 8400 4200
Wire Wire Line
	8400 4200 8400 4400
Connection ~ 8400 4400
Wire Wire Line
	8400 4400 8400 4600
Connection ~ 8400 4600
Wire Wire Line
	8400 4600 8400 4800
Connection ~ 8400 4800
Wire Wire Line
	8400 4800 8400 5000
Wire Wire Line
	9000 4000 9000 4200
Connection ~ 9000 4200
Wire Wire Line
	9000 4200 9000 4400
Connection ~ 9000 4400
Wire Wire Line
	9000 2800 9000 3000
Connection ~ 9000 3000
Wire Wire Line
	9000 3000 9000 3200
Wire Wire Line
	9600 5000 9600 5100
Wire Wire Line
	9000 1800 9000 2000
Connection ~ 9000 2000
Wire Wire Line
	9000 2000 9000 2200
Connection ~ 9000 2200
Wire Wire Line
	9000 2200 9000 2400
Wire Wire Line
	9000 2600 9000 2800
Wire Wire Line
	9000 3600 9000 3800
Connection ~ 9000 3800
Wire Wire Line
	9000 3800 9000 4000
Connection ~ 9000 5000
Wire Wire Line
	9000 5000 9000 5100
Wire Wire Line
	8400 1600 8400 1800
Connection ~ 8400 1800
Wire Wire Line
	8400 1800 8400 2000
Wire Wire Line
	7200 4400 7200 4600
Wire Wire Line
	5900 900  5900 1100
Wire Wire Line
	1600 3900 1600 4100
Wire Wire Line
	1600 3700 1600 3900
Wire Wire Line
	7200 4800 7200 5000
Wire Wire Line
	1700 1850 1700 1650
Connection ~ 1700 1450
Wire Wire Line
	1700 1450 1700 1250
Connection ~ 1700 1650
Wire Wire Line
	1700 1650 1700 1450
Wire Wire Line
	2300 850  2300 1050
Connection ~ 2300 1050
Wire Wire Line
	2300 1050 2300 1250
Connection ~ 2300 1250
Wire Wire Line
	2300 1250 2300 1450
Connection ~ 2300 1450
Wire Wire Line
	2300 1450 2300 1650
Connection ~ 2300 1650
Wire Wire Line
	2300 1650 2300 1850
Wire Wire Line
	4600 2300 4600 2500
Connection ~ 4600 2500
Wire Wire Line
	4600 2500 4600 2700
Connection ~ 4600 2700
Wire Wire Line
	4600 2700 4600 2900
Connection ~ 4600 2900
Wire Wire Line
	4600 2900 4600 3100
Wire Wire Line
	6150 2150 6150 2350
Wire Wire Line
	4900 850  4900 1050
Connection ~ 4900 1050
Wire Wire Line
	4900 1050 4900 1250
Wire Wire Line
	2500 2500 2500 2700
Wire Wire Line
	3400 2900 3400 3100
Wire Wire Line
	1600 4100 1600 4300
Wire Wire Line
	1600 4700 1600 4900
Wire Wire Line
	3600 4700 3600 4900
Connection ~ 3600 4900
Wire Wire Line
	3600 4900 3600 5100
Text GLabel 3050 7250 0    50   Input ~ 0
N$18
Wire Wire Line
	3050 7250 3350 7250
Text Label 3350 7250 2    50   ~ 0
N$18
Text GLabel 1700 7250 0    50   Input ~ 0
STOP-INV
Wire Wire Line
	1700 7250 2500 7250
Text Label 2500 7250 2    50   ~ 0
STOP-INV
Text GLabel 3850 6950 0    50   Input ~ 0
GT1
Wire Wire Line
	3850 6950 4250 6950
Text Label 4250 6950 2    50   ~ 0
GT1
Text GLabel 3850 7100 0    50   Input ~ 0
BUZ-ACT
Wire Wire Line
	3850 7100 4250 7100
Text Label 4250 7100 2    50   ~ 0
BUZ-ACT
Text GLabel 1700 7100 0    50   Input ~ 0
INHIB-STOP-INV
Wire Wire Line
	1700 7100 2500 7100
Text Label 2500 7100 2    50   ~ 0
INHIB-STOP-INV
Text GLabel 3050 7100 0    50   Input ~ 0
N$10
Wire Wire Line
	1600 4300 900  4300
Text Label 900  4300 0    50   ~ 0
INHIB-STOP-INV
Connection ~ 1600 4300
Wire Wire Line
	1600 4900 900  4900
Text Label 900  4900 0    50   ~ 0
STOP-INV
Connection ~ 1600 4900
Wire Wire Line
	2800 4300 2600 4300
Text Label 2600 4300 0    50   ~ 0
GT1
Wire Wire Line
	3600 5100 3200 5100
Connection ~ 3600 5100
Text Label 3200 5100 0    50   ~ 0
BUZ-ACT
Wire Wire Line
	6300 5200 6300 5400
Connection ~ 6300 5200
Wire Wire Line
	6300 5000 6300 5200
Connection ~ 6300 5000
Wire Wire Line
	6300 4800 6300 5000
Connection ~ 6300 4800
Wire Wire Line
	6300 4600 6300 4800
Connection ~ 6300 4600
Wire Wire Line
	6300 4400 6300 4600
$Comp
L V_Connector:Via V123
U 1 1 5EBC01FE
P 6300 4400
F 0 "V123" H 6349 4435 50  0000 L CNN
F 1 "N$10" H 6349 4355 35  0000 L CNN
F 2 "AllModules:ViaVE_12x32-1011" H 6300 4400 50  0001 C CNN
F 3 "~" H 6300 4400 50  0001 C CNN
	1    6300 4400
	1    0    0    -1  
$EndComp
$Comp
L V_Connector:Via V120
U 1 1 5EBC01E0
P 6300 5400
F 0 "V120" H 6349 5435 50  0000 L CNN
F 1 "N$10" H 6349 5355 35  0000 L CNN
F 2 "AllModules:ViaVE_12x32-1011" H 6300 5400 50  0001 C CNN
F 3 "~" H 6300 5400 50  0001 C CNN
	1    6300 5400
	1    0    0    -1  
$EndComp
$Comp
L V_Connector:Via V115
U 1 1 5EBC017C
P 6300 5200
F 0 "V115" H 6349 5235 50  0000 L CNN
F 1 "N$10" H 6349 5155 35  0000 L CNN
F 2 "AllModules:ViaVE_12x32-1011" H 6300 5200 50  0001 C CNN
F 3 "~" H 6300 5200 50  0001 C CNN
	1    6300 5200
	1    0    0    -1  
$EndComp
$Comp
L V_Connector:Via V110
U 1 1 5EBC0118
P 6300 5000
F 0 "V110" H 6349 5035 50  0000 L CNN
F 1 "N$10" H 6349 4955 35  0000 L CNN
F 2 "AllModules:ViaVE_12x32-1011" H 6300 5000 50  0001 C CNN
F 3 "~" H 6300 5000 50  0001 C CNN
	1    6300 5000
	1    0    0    -1  
$EndComp
$Comp
L V_Connector:Via V105
U 1 1 5EBC00B4
P 6300 4800
F 0 "V105" H 6349 4835 50  0000 L CNN
F 1 "N$10" H 6349 4755 35  0000 L CNN
F 2 "AllModules:ViaVE_12x32-1011" H 6300 4800 50  0001 C CNN
F 3 "~" H 6300 4800 50  0001 C CNN
	1    6300 4800
	1    0    0    -1  
$EndComp
$Comp
L V_Connector:Via V102
U 1 1 5EBC0096
P 6300 4600
F 0 "V102" H 6349 4635 50  0000 L CNN
F 1 "N$10" H 6349 4555 35  0000 L CNN
F 2 "AllModules:ViaVE_12x32-1011" H 6300 4600 50  0001 C CNN
F 3 "~" H 6300 4600 50  0001 C CNN
	1    6300 4600
	1    0    0    -1  
$EndComp
Text Label 3350 7100 2    50   ~ 0
N$10
Wire Wire Line
	3050 7100 3350 7100
Text Label 5600 5500 0    50   ~ 0
N$10
Wire Wire Line
	5900 5500 5600 5500
Wire Wire Line
	2200 2700 2500 2700
Text Label 2200 2700 0    50   ~ 0
N$18
Connection ~ 2500 2700
Text GLabel 3050 6950 0    50   Input ~ 0
N$31
Wire Wire Line
	3050 6950 3350 6950
Text Label 3350 6950 2    50   ~ 0
N$31
Text GLabel 3050 7400 0    50   Input ~ 0
N$19
Text Label 3350 7400 2    50   ~ 0
N$19
Wire Wire Line
	3050 7400 3350 7400
Text Label 2200 3000 0    50   ~ 0
N$19
Wire Wire Line
	2500 3000 2200 3000
Text Label 2200 3250 0    50   ~ 0
N$31
Wire Wire Line
	2500 3250 2200 3250
Text Label 3100 2700 0    50   ~ 0
N$58
Wire Wire Line
	3400 2700 3100 2700
Text Label 3100 3100 0    50   ~ 0
N$78
Wire Wire Line
	3400 3100 3100 3100
Connection ~ 3400 3100
Text GLabel 3050 6800 0    50   Input ~ 0
N$78
Wire Wire Line
	3050 6800 3350 6800
Text Label 3350 6800 2    50   ~ 0
N$78
Text GLabel 3050 6650 0    50   Input ~ 0
N$58
Text Label 3350 6650 2    50   ~ 0
N$58
Wire Wire Line
	3050 6650 3350 6650
$Comp
L V_Power:-12V #PWR?
U 1 1 5EF16EB7
P 1700 1950
AR Path="/5EF16EB7" Ref="#PWR?"  Part="1" 
AR Path="/5EBD289A/5EF16EB7" Ref="#PWR0109"  Part="1" 
F 0 "#PWR0109" H 1700 2050 50  0001 C CNN
F 1 "-12V" H 1700 2100 50  0000 C CNN
F 2 "" H 1700 1950 50  0001 C CNN
F 3 "" H 1700 1950 50  0001 C CNN
	1    1700 1950
	-1   0    0    1   
$EndComp
$Comp
L V_Power:+12V #PWR?
U 1 1 5EF17215
P 2300 800
AR Path="/5EF17215" Ref="#PWR?"  Part="1" 
AR Path="/5EBD289A/5EF17215" Ref="#PWR0110"  Part="1" 
F 0 "#PWR0110" H 2300 650 50  0001 C CNN
F 1 "+12V" H 2315 973 50  0000 C CNN
F 2 "" H 2300 800 50  0001 C CNN
F 3 "" H 2300 800 50  0001 C CNN
	1    2300 800 
	1    0    0    -1  
$EndComp
Wire Wire Line
	2300 850  2300 800 
Connection ~ 2300 850 
Wire Wire Line
	1700 1950 1700 1850
Connection ~ 1700 1850
Wire Wire Line
	4600 3100 4000 3100
Text Label 4000 3100 0    50   ~ 0
SUPPLY-BUZ
Wire Wire Line
	6150 2400 5400 2400
Text Label 5400 2400 0    50   ~ 0
SUPPLY-BUZ-CPU
Connection ~ 4600 3100
Wire Wire Line
	6150 2400 6150 2350
Connection ~ 6150 2350
Text GLabel 1700 6950 0    50   Input ~ 0
SUPPLY-BUZ-CPU
Wire Wire Line
	1700 6950 2500 6950
Text Label 2500 6950 2    50   ~ 0
SUPPLY-BUZ-CPU
Text GLabel 1700 7400 0    50   Input ~ 0
SUPPLY-BUZ
Text Label 2500 7400 2    50   ~ 0
SUPPLY-BUZ
Wire Wire Line
	1700 7400 2500 7400
Text GLabel 3850 6800 0    50   Input ~ 0
VCHARG
Wire Wire Line
	3850 6800 4250 6800
Text Label 4250 6800 2    50   ~ 0
VCHARG
Text GLabel 3850 6650 0    50   Input ~ 0
VBAT
Text Label 4250 6650 2    50   ~ 0
VBAT
Wire Wire Line
	3850 6650 4250 6650
$Comp
L V_Power:+5V #PWR?
U 1 1 5F064BB0
P 2900 800
AR Path="/5F064BB0" Ref="#PWR?"  Part="1" 
AR Path="/5EBD289A/5F064BB0" Ref="#PWR0111"  Part="1" 
F 0 "#PWR0111" H 2900 650 50  0001 C CNN
F 1 "+5V" H 2915 973 50  0000 C CNN
F 2 "" H 2900 800 50  0001 C CNN
F 3 "" H 2900 800 50  0001 C CNN
	1    2900 800 
	1    0    0    -1  
$EndComp
Wire Wire Line
	2900 800  2900 900 
Connection ~ 2900 900 
Wire Wire Line
	2900 900  2900 1100
Connection ~ 2900 1100
Wire Wire Line
	2900 1100 2900 1300
Connection ~ 2900 1300
Wire Wire Line
	2900 1300 2900 1500
Text Label 4600 1250 0    50   ~ 0
VBAT
Wire Wire Line
	4900 1250 4600 1250
Connection ~ 4900 1250
Wire Wire Line
	5900 1600 5600 1600
Text Label 5600 1600 0    50   ~ 0
VCHARG
$Comp
L V_Power:GND #PWR?
U 1 1 5F1351E5
P 7200 5300
AR Path="/5F1351E5" Ref="#PWR?"  Part="1" 
AR Path="/5EBD289A/5F1351E5" Ref="#PWR0112"  Part="1" 
F 0 "#PWR0112" H 7200 5050 50  0001 C CNN
F 1 "GND" H 7205 5127 50  0000 C CNN
F 2 "" H 7200 5300 50  0001 C CNN
F 3 "" H 7200 5300 50  0001 C CNN
	1    7200 5300
	1    0    0    -1  
$EndComp
Wire Wire Line
	7200 5100 7200 5000
Connection ~ 7200 5000
$Comp
L V_Connector:Via V173
U 1 1 5F373711
P 5900 1300
F 0 "V173" H 5949 1335 50  0000 L CNN
F 1 "VCHARG" H 5949 1255 35  0000 L CNN
F 2 "AllModules:Via_12x32-1001" H 5900 1300 50  0001 C CNN
F 3 "~" H 5900 1300 50  0001 C CNN
	1    5900 1300
	1    0    0    -1  
$EndComp
Wire Wire Line
	5900 1600 5900 1500
Wire Wire Line
	5900 1500 5900 1300
Connection ~ 5900 1500
$Comp
L V_Connector:Via V172
U 1 1 5F3D87AA
P 3500 900
F 0 "V172" H 3549 935 50  0000 L CNN
F 1 "+BATTV" H 3549 855 35  0000 L CNN
F 2 "AllModules:Via_12x32-1001" H 3500 900 50  0001 C CNN
F 3 "~" H 3500 900 50  0001 C CNN
	1    3500 900 
	1    0    0    -1  
$EndComp
Wire Wire Line
	2800 4150 2800 4300
Connection ~ 2800 4300
Wire Wire Line
	5900 1100 5900 1300
Connection ~ 5900 1300
Wire Wire Line
	6300 3900 6300 4200
Connection ~ 3600 4700
Connection ~ 5900 1100
Connection ~ 1600 4100
Wire Wire Line
	2900 1700 2900 1500
Connection ~ 6300 4400
Wire Wire Line
	5900 5500 5900 5200
Connection ~ 5900 4800
Wire Wire Line
	5900 5200 5900 5000
Connection ~ 5900 5200
Connection ~ 5900 5000
Wire Wire Line
	5900 5500 6300 5500
Wire Wire Line
	6300 5500 6300 5400
Connection ~ 5900 5500
Connection ~ 6300 5400
Connection ~ 6300 4200
Wire Wire Line
	6300 4200 6300 4400
Text Label 4750 4650 0    50   ~ 0
SHDN1
Wire Wire Line
	5050 4650 4750 4650
Text Label 4750 5200 0    50   ~ 0
SHDN2
Wire Wire Line
	5050 5200 4750 5200
Text Label 5050 6950 2    50   ~ 0
SHDN1
Wire Wire Line
	4750 6950 5050 6950
Text Label 5050 6800 2    50   ~ 0
SHDN2
Wire Wire Line
	4750 6800 5050 6800
Text GLabel 4750 6950 0    50   Input ~ 0
SHDN1
Text GLabel 4750 6800 0    50   Input ~ 0
SHDN2
Connection ~ 1600 3900
Wire Wire Line
	7200 4000 7200 3800
Connection ~ 7200 3800
Wire Wire Line
	5050 4650 5050 4550
Connection ~ 5050 4550
Wire Wire Line
	5050 4550 5050 4350
Wire Wire Line
	5050 5200 5050 5100
Connection ~ 5050 5100
Wire Wire Line
	5050 5100 5050 4900
Connection ~ 2900 1500
Wire Wire Line
	7200 4800 7200 4600
Connection ~ 7200 4800
Connection ~ 7200 4600
Wire Wire Line
	3400 2300 3400 2600
Connection ~ 3400 2600
Wire Wire Line
	3400 2600 3400 2700
$Comp
L V_Power:+BATTV #PWR0113
U 1 1 5EE1FBFF
P 3500 800
F 0 "#PWR0113" H 3500 650 50  0001 C CNN
F 1 "+BATTV" H 3500 940 50  0000 C CNN
F 2 "" H 3500 800 50  0001 C CNN
F 3 "" H 3500 800 50  0001 C CNN
	1    3500 800 
	1    0    0    -1  
$EndComp
Wire Wire Line
	3500 800  3500 900 
Connection ~ 7800 2400
Connection ~ 8400 3600
Connection ~ 7200 4000
Wire Wire Line
	7200 2800 7200 3000
Connection ~ 7200 2800
Connection ~ 7200 3000
Wire Wire Line
	7200 2400 7200 2600
Connection ~ 7200 2400
Connection ~ 7200 2600
Wire Wire Line
	7200 2000 7200 2200
Connection ~ 7200 2000
Connection ~ 7200 2200
Connection ~ 8400 2000
Wire Wire Line
	9000 3200 9000 3400
Connection ~ 9000 3200
Wire Wire Line
	7200 5100 7200 5300
Connection ~ 7200 5100
$Comp
L V_Connector:Via V166
U 1 1 5EBD96CE
P 1600 3900
F 0 "V166" H 1649 3935 50  0000 L CNN
F 1 "INHIB-STOP-INV" H 1649 3855 35  0000 L CNN
F 2 "AllModules:Via_12x32-1011" H 1600 3900 50  0001 C CNN
F 3 "~" H 1600 3900 50  0001 C CNN
	1    1600 3900
	1    0    0    -1  
$EndComp
Connection ~ 9600 4200
Wire Wire Line
	9600 4200 9600 4400
Connection ~ 9600 3200
Wire Wire Line
	9600 3200 9600 3000
Wire Wire Line
	9600 3000 9600 2800
Connection ~ 9600 3000
Wire Wire Line
	9600 2800 9600 2600
Connection ~ 9600 2800
Wire Wire Line
	9600 2600 9600 2400
Connection ~ 9600 2600
Wire Wire Line
	9600 2400 9600 2200
Connection ~ 9600 2400
Wire Wire Line
	9600 2200 9600 2000
Connection ~ 9600 2200
Wire Wire Line
	9600 2000 9600 1800
Connection ~ 9600 2000
Wire Wire Line
	9600 4200 9600 4000
Wire Wire Line
	9600 4000 9600 3800
Connection ~ 9600 4000
Wire Wire Line
	9600 3800 9600 3600
Connection ~ 9600 3800
Wire Wire Line
	9600 3600 9600 3400
Connection ~ 9600 3600
Wire Wire Line
	9600 3400 9600 3200
Connection ~ 9600 3400
$Comp
L V_Connector:Via V40
U 1 1 5EBB17F8
P 9600 4200
F 0 "V40" H 9649 4235 50  0000 L CNN
F 1 "GND" H 9649 4155 35  0000 L CNN
F 2 "AllModules:ViaVE_12x32" H 9600 4200 50  0001 C CNN
F 3 "~" H 9600 4200 50  0001 C CNN
	1    9600 4200
	1    0    0    -1  
$EndComp
$Comp
L V_Connector:Via V39
U 1 1 5EBB17EE
P 9600 4000
F 0 "V39" H 9649 4035 50  0000 L CNN
F 1 "GND" H 9649 3955 35  0000 L CNN
F 2 "AllModules:ViaVE_12x32" H 9600 4000 50  0001 C CNN
F 3 "~" H 9600 4000 50  0001 C CNN
	1    9600 4000
	1    0    0    -1  
$EndComp
$Comp
L V_Connector:Via V36
U 1 1 5EBB17D0
P 9600 3800
F 0 "V36" H 9649 3835 50  0000 L CNN
F 1 "GND" H 9649 3755 35  0000 L CNN
F 2 "AllModules:ViaVE_12x32" H 9600 3800 50  0001 C CNN
F 3 "~" H 9600 3800 50  0001 C CNN
	1    9600 3800
	1    0    0    -1  
$EndComp
$Comp
L V_Connector:Via V34
U 1 1 5EBB178A
P 9600 3600
F 0 "V34" H 9649 3635 50  0000 L CNN
F 1 "GND" H 9649 3555 35  0000 L CNN
F 2 "AllModules:ViaVE_12x32" H 9600 3600 50  0001 C CNN
F 3 "~" H 9600 3600 50  0001 C CNN
	1    9600 3600
	1    0    0    -1  
$EndComp
$Comp
L V_Connector:Via V33
U 1 1 5EBB1780
P 9600 3400
F 0 "V33" H 9649 3435 50  0000 L CNN
F 1 "GND" H 9649 3355 35  0000 L CNN
F 2 "AllModules:ViaVE_12x32" H 9600 3400 50  0001 C CNN
F 3 "~" H 9600 3400 50  0001 C CNN
	1    9600 3400
	1    0    0    -1  
$EndComp
$Comp
L V_Connector:Via V32
U 1 1 5EBB1776
P 9600 3200
F 0 "V32" H 9649 3235 50  0000 L CNN
F 1 "GND" H 9649 3155 35  0000 L CNN
F 2 "AllModules:ViaVE_12x32" H 9600 3200 50  0001 C CNN
F 3 "~" H 9600 3200 50  0001 C CNN
	1    9600 3200
	1    0    0    -1  
$EndComp
$Comp
L V_Connector:Via V29
U 1 1 5EBAE052
P 9600 3000
F 0 "V29" H 9649 3035 50  0000 L CNN
F 1 "GND" H 9649 2955 35  0000 L CNN
F 2 "AllModules:ViaVE_12x32" H 9600 3000 50  0001 C CNN
F 3 "~" H 9600 3000 50  0001 C CNN
	1    9600 3000
	1    0    0    -1  
$EndComp
$Comp
L V_Connector:Via V28
U 1 1 5EBAE048
P 9600 2800
F 0 "V28" H 9649 2835 50  0000 L CNN
F 1 "GND" H 9649 2755 35  0000 L CNN
F 2 "AllModules:ViaVE_12x32" H 9600 2800 50  0001 C CNN
F 3 "~" H 9600 2800 50  0001 C CNN
	1    9600 2800
	1    0    0    -1  
$EndComp
$Comp
L V_Connector:Via V26
U 1 1 5EBAE034
P 9600 2600
F 0 "V26" H 9649 2635 50  0000 L CNN
F 1 "GND" H 9649 2555 35  0000 L CNN
F 2 "AllModules:ViaVE_12x32" H 9600 2600 50  0001 C CNN
F 3 "~" H 9600 2600 50  0001 C CNN
	1    9600 2600
	1    0    0    -1  
$EndComp
$Comp
L V_Connector:Via V25
U 1 1 5EBAAA9E
P 9600 2400
F 0 "V25" H 9649 2435 50  0000 L CNN
F 1 "GND" H 9649 2355 35  0000 L CNN
F 2 "AllModules:ViaVE_12x32" H 9600 2400 50  0001 C CNN
F 3 "~" H 9600 2400 50  0001 C CNN
	1    9600 2400
	1    0    0    -1  
$EndComp
$Comp
L V_Connector:Via V24
U 1 1 5EBAAA94
P 9600 2200
F 0 "V24" H 9649 2235 50  0000 L CNN
F 1 "GND" H 9649 2155 35  0000 L CNN
F 2 "AllModules:ViaVE_12x32" H 9600 2200 50  0001 C CNN
F 3 "~" H 9600 2200 50  0001 C CNN
	1    9600 2200
	1    0    0    -1  
$EndComp
$Comp
L V_Connector:Via V23
U 1 1 5EBAAA8A
P 9600 2000
F 0 "V23" H 9649 2035 50  0000 L CNN
F 1 "GND" H 9649 1955 35  0000 L CNN
F 2 "AllModules:ViaVE_12x32" H 9600 2000 50  0001 C CNN
F 3 "~" H 9600 2000 50  0001 C CNN
	1    9600 2000
	1    0    0    -1  
$EndComp
$Comp
L V_Connector:Via V22
U 1 1 5EBAAA80
P 9600 1800
F 0 "V22" H 9649 1835 50  0000 L CNN
F 1 "GND" H 9649 1755 35  0000 L CNN
F 2 "AllModules:ViaVE_12x32" H 9600 1800 50  0001 C CNN
F 3 "~" H 9600 1800 50  0001 C CNN
	1    9600 1800
	1    0    0    -1  
$EndComp
Connection ~ 9600 5000
Wire Wire Line
	9600 4800 9600 5000
Wire Wire Line
	9600 4600 9600 4800
Connection ~ 9600 4600
Wire Wire Line
	9600 4400 9600 4600
$Comp
L V_Connector:Via V43
U 1 1 5EBB77E4
P 9600 4800
F 0 "V43" H 9649 4835 50  0000 L CNN
F 1 "GND" H 9649 4755 35  0000 L CNN
F 2 "AllModules:ViaVE_12x32" H 9600 4800 50  0001 C CNN
F 3 "~" H 9600 4800 50  0001 C CNN
	1    9600 4800
	1    0    0    -1  
$EndComp
$Comp
L V_Connector:Via V42
U 1 1 5EBB77DA
P 9600 4600
F 0 "V42" H 9649 4635 50  0000 L CNN
F 1 "GND" H 9649 4555 35  0000 L CNN
F 2 "AllModules:ViaVE_12x32" H 9600 4600 50  0001 C CNN
F 3 "~" H 9600 4600 50  0001 C CNN
	1    9600 4600
	1    0    0    -1  
$EndComp
$Comp
L V_Connector:Via V41
U 1 1 5EBB77D0
P 9600 4400
F 0 "V41" H 9649 4435 50  0000 L CNN
F 1 "GND" H 9649 4355 35  0000 L CNN
F 2 "AllModules:ViaVE_12x32" H 9600 4400 50  0001 C CNN
F 3 "~" H 9600 4400 50  0001 C CNN
	1    9600 4400
	1    0    0    -1  
$EndComp
Connection ~ 10200 4200
Connection ~ 10200 4400
Wire Wire Line
	10200 4400 10200 4200
Connection ~ 10200 3800
Wire Wire Line
	10200 4800 10200 4600
Wire Wire Line
	10200 4600 10200 4400
Connection ~ 10200 4600
Wire Wire Line
	10200 4200 10200 4000
Wire Wire Line
	10200 4000 10200 3800
Connection ~ 10200 4000
Wire Wire Line
	10200 3800 10200 3600
Wire Wire Line
	10200 3600 10200 3400
Connection ~ 10200 3600
Wire Wire Line
	10200 3400 10200 3200
Connection ~ 10200 3400
Wire Wire Line
	10200 3200 10200 3000
Connection ~ 10200 3200
Wire Wire Line
	10200 3000 10200 2800
Connection ~ 10200 3000
Wire Wire Line
	10200 2800 10200 2600
Connection ~ 10200 2800
Wire Wire Line
	10200 2600 10200 2400
Connection ~ 10200 2600
Wire Wire Line
	10200 2400 10200 2200
Connection ~ 10200 2400
Wire Wire Line
	10200 2200 10200 2000
Connection ~ 10200 2200
Wire Wire Line
	10200 2000 10200 1800
Connection ~ 10200 2000
Wire Wire Line
	10200 1800 10200 1600
Connection ~ 10200 1800
$Comp
L V_Connector:Via V19
U 1 1 5EBB17BC
P 10200 4800
F 0 "V19" H 10249 4835 50  0000 L CNN
F 1 "GND" H 10249 4755 35  0000 L CNN
F 2 "AllModules:ViaVE_12x32" H 10200 4800 50  0001 C CNN
F 3 "~" H 10200 4800 50  0001 C CNN
	1    10200 4800
	1    0    0    -1  
$EndComp
$Comp
L V_Connector:Via V18
U 1 1 5EBB17B2
P 10200 4600
F 0 "V18" H 10249 4635 50  0000 L CNN
F 1 "GND" H 10249 4555 35  0000 L CNN
F 2 "AllModules:ViaVE_12x32" H 10200 4600 50  0001 C CNN
F 3 "~" H 10200 4600 50  0001 C CNN
	1    10200 4600
	1    0    0    -1  
$EndComp
$Comp
L V_Connector:Via V17
U 1 1 5EBB17A8
P 10200 4400
F 0 "V17" H 10249 4435 50  0000 L CNN
F 1 "GND" H 10249 4355 35  0000 L CNN
F 2 "AllModules:ViaVE_12x32" H 10200 4400 50  0001 C CNN
F 3 "~" H 10200 4400 50  0001 C CNN
	1    10200 4400
	1    0    0    -1  
$EndComp
$Comp
L V_Connector:Via V14
U 1 1 5EBB1758
P 10200 4200
F 0 "V14" H 10249 4235 50  0000 L CNN
F 1 "GND" H 10249 4155 35  0000 L CNN
F 2 "AllModules:ViaVE_12x32" H 10200 4200 50  0001 C CNN
F 3 "~" H 10200 4200 50  0001 C CNN
	1    10200 4200
	1    0    0    -1  
$EndComp
$Comp
L V_Connector:Via V13
U 1 1 5EBB174E
P 10200 4000
F 0 "V13" H 10249 4035 50  0000 L CNN
F 1 "GND" H 10249 3955 35  0000 L CNN
F 2 "AllModules:ViaVE_12x32" H 10200 4000 50  0001 C CNN
F 3 "~" H 10200 4000 50  0001 C CNN
	1    10200 4000
	1    0    0    -1  
$EndComp
$Comp
L V_Connector:Via V12
U 1 1 5EBB1744
P 10200 3800
F 0 "V12" H 10249 3835 50  0000 L CNN
F 1 "GND" H 10249 3755 35  0000 L CNN
F 2 "AllModules:ViaVE_12x32" H 10200 3800 50  0001 C CNN
F 3 "~" H 10200 3800 50  0001 C CNN
	1    10200 3800
	1    0    0    -1  
$EndComp
$Comp
L V_Connector:Via V11
U 1 1 5EBB173A
P 10200 3600
F 0 "V11" H 10249 3635 50  0000 L CNN
F 1 "GND" H 10249 3555 35  0000 L CNN
F 2 "AllModules:ViaVE_12x32" H 10200 3600 50  0001 C CNN
F 3 "~" H 10200 3600 50  0001 C CNN
	1    10200 3600
	1    0    0    -1  
$EndComp
$Comp
L V_Connector:Via V10
U 1 1 5EBAE02A
P 10200 3400
F 0 "V10" H 10249 3435 50  0000 L CNN
F 1 "GND" H 10249 3355 35  0000 L CNN
F 2 "AllModules:ViaVE_12x32" H 10200 3400 50  0001 C CNN
F 3 "~" H 10200 3400 50  0001 C CNN
	1    10200 3400
	1    0    0    -1  
$EndComp
$Comp
L V_Connector:Via V9
U 1 1 5EBAE020
P 10200 3200
F 0 "V9" H 10249 3235 50  0000 L CNN
F 1 "GND" H 10249 3155 35  0000 L CNN
F 2 "AllModules:ViaVE_12x32" H 10200 3200 50  0001 C CNN
F 3 "~" H 10200 3200 50  0001 C CNN
	1    10200 3200
	1    0    0    -1  
$EndComp
$Comp
L V_Connector:Via V8
U 1 1 5EBAE016
P 10200 3000
F 0 "V8" H 10249 3035 50  0000 L CNN
F 1 "GND" H 10249 2955 35  0000 L CNN
F 2 "AllModules:ViaVE_12x32" H 10200 3000 50  0001 C CNN
F 3 "~" H 10200 3000 50  0001 C CNN
	1    10200 3000
	1    0    0    -1  
$EndComp
$Comp
L V_Connector:Via V7
U 1 1 5EBAE00C
P 10200 2800
F 0 "V7" H 10249 2835 50  0000 L CNN
F 1 "GND" H 10249 2755 35  0000 L CNN
F 2 "AllModules:ViaVE_12x32" H 10200 2800 50  0001 C CNN
F 3 "~" H 10200 2800 50  0001 C CNN
	1    10200 2800
	1    0    0    -1  
$EndComp
$Comp
L V_Connector:Via V6
U 1 1 5EBAE002
P 10200 2600
F 0 "V6" H 10249 2635 50  0000 L CNN
F 1 "GND" H 10249 2555 35  0000 L CNN
F 2 "AllModules:ViaVE_12x32" H 10200 2600 50  0001 C CNN
F 3 "~" H 10200 2600 50  0001 C CNN
	1    10200 2600
	1    0    0    -1  
$EndComp
$Comp
L V_Connector:Via V5
U 1 1 5EBA9ADE
P 10200 2400
F 0 "V5" H 10249 2435 50  0000 L CNN
F 1 "GND" H 10249 2355 35  0000 L CNN
F 2 "AllModules:ViaVE_12x32" H 10200 2400 50  0001 C CNN
F 3 "~" H 10200 2400 50  0001 C CNN
	1    10200 2400
	1    0    0    -1  
$EndComp
$Comp
L V_Connector:Via V4
U 1 1 5EBA9AD4
P 10200 2200
F 0 "V4" H 10249 2235 50  0000 L CNN
F 1 "GND" H 10249 2155 35  0000 L CNN
F 2 "AllModules:ViaVE_12x32" H 10200 2200 50  0001 C CNN
F 3 "~" H 10200 2200 50  0001 C CNN
	1    10200 2200
	1    0    0    -1  
$EndComp
$Comp
L V_Connector:Via V3
U 1 1 5EBA9ACA
P 10200 2000
F 0 "V3" H 10249 2035 50  0000 L CNN
F 1 "GND" H 10249 1955 35  0000 L CNN
F 2 "AllModules:ViaVE_12x32" H 10200 2000 50  0001 C CNN
F 3 "~" H 10200 2000 50  0001 C CNN
	1    10200 2000
	1    0    0    -1  
$EndComp
$Comp
L V_Connector:Via V2
U 1 1 5EBA9AC0
P 10200 1800
F 0 "V2" H 10249 1835 50  0000 L CNN
F 1 "GND" H 10249 1755 35  0000 L CNN
F 2 "AllModules:ViaVE_12x32" H 10200 1800 50  0001 C CNN
F 3 "~" H 10200 1800 50  0001 C CNN
	1    10200 1800
	1    0    0    -1  
$EndComp
$Comp
L V_Connector:Via V1
U 1 1 5EBA9AB6
P 10200 1600
F 0 "V1" H 10249 1635 50  0000 L CNN
F 1 "GND" H 10249 1555 35  0000 L CNN
F 2 "AllModules:ViaVE_12x32" H 10200 1600 50  0001 C CNN
F 3 "~" H 10200 1600 50  0001 C CNN
	1    10200 1600
	1    0    0    -1  
$EndComp
Wire Wire Line
	10200 5000 10200 4800
$Comp
L V_Connector:Via V20
U 1 1 5EBB17C6
P 10200 5000
F 0 "V20" H 10249 5035 50  0000 L CNN
F 1 "GND" H 10249 4955 35  0000 L CNN
F 2 "AllModules:ViaVE_12x32" H 10200 5000 50  0001 C CNN
F 3 "~" H 10200 5000 50  0001 C CNN
	1    10200 5000
	1    0    0    -1  
$EndComp
Wire Wire Line
	9600 1600 9600 1800
Connection ~ 9600 1800
Connection ~ 10200 4800
Connection ~ 9600 4400
Connection ~ 9000 4000
Connection ~ 9000 2800
Wire Wire Line
	9000 4600 9000 4800
Connection ~ 8400 2800
Wire Wire Line
	8400 2000 8400 2200
Wire Wire Line
	10200 5100 10200 5000
Connection ~ 10200 5000
Connection ~ 9600 4800
Connection ~ 9600 5100
Wire Wire Line
	9600 5100 10200 5100
Connection ~ 9000 4600
Wire Wire Line
	9000 5100 9600 5100
Connection ~ 9000 4800
Wire Wire Line
	9000 4800 9000 5000
Wire Wire Line
	9000 2400 9000 2600
Connection ~ 9000 2400
Connection ~ 9000 2600
Wire Wire Line
	9000 3600 9000 3400
Connection ~ 9000 3600
Connection ~ 9000 3400
Wire Wire Line
	8400 2400 8400 2600
Connection ~ 8400 2600
Connection ~ 8400 2400
Connection ~ 9000 5100
Wire Wire Line
	7800 4400 7800 4600
Wire Wire Line
	9000 4400 9000 4600
Wire Wire Line
	8400 5000 8400 5100
Connection ~ 8400 5000
Connection ~ 8400 5100
Wire Wire Line
	8400 5100 9000 5100
Wire Wire Line
	7800 1600 7800 1800
Connection ~ 7800 1800
Wire Wire Line
	7200 5100 7800 5100
Wire Wire Line
	7200 4200 7200 4400
Connection ~ 7200 4200
Connection ~ 7200 4400
Wire Wire Line
	7800 4800 7800 5100
Connection ~ 7800 4800
Connection ~ 7800 5100
Wire Wire Line
	7800 5100 8400 5100
$EndSCHEMATC
