EESchema Schematic File Version 4
EELAYER 30 0
EELAYER END
$Descr A2 23386 16535
encoding utf-8
Sheet 2 2
Title ""
Date ""
Rev ""
Comp ""
Comment1 ""
Comment2 ""
Comment3 ""
Comment4 ""
$EndDescr
$Comp
L V_Connector:Via V?
U 1 1 5EC9F2E6
P 3575 1550
AR Path="/5EC941E5/5EC9F2E6" Ref="V?"  Part="1" 
AR Path="/5EBEB280/5EC9F2E6" Ref="V1"  Part="1" 
F 0 "V1" H 3600 1600 50  0000 L CNN
F 1 "Via" H 3575 1550 50  0001 C CNN
F 2 "10096315 Blower Driver:VIA-091X03-VE_1011" H 3575 1550 50  0001 C CNN
F 3 "" H 3575 1550 50  0001 C CNN
	1    3575 1550
	1    0    0    -1  
$EndComp
$Comp
L V_Connector:Via V?
U 1 1 5EC9F2EC
P 3575 1750
AR Path="/5EC941E5/5EC9F2EC" Ref="V?"  Part="1" 
AR Path="/5EBEB280/5EC9F2EC" Ref="V3"  Part="1" 
F 0 "V3" H 3600 1800 50  0000 L CNN
F 1 "Via" H 3575 1750 50  0001 C CNN
F 2 "10096315 Blower Driver:VIA-091X03-VE_1001" H 3575 1750 50  0001 C CNN
F 3 "" H 3575 1750 50  0001 C CNN
	1    3575 1750
	1    0    0    -1  
$EndComp
$Comp
L V_Connector:Via V?
U 1 1 5EC9F2F2
P 3575 1650
AR Path="/5EC941E5/5EC9F2F2" Ref="V?"  Part="1" 
AR Path="/5EBEB280/5EC9F2F2" Ref="V2"  Part="1" 
F 0 "V2" H 3600 1700 50  0000 L CNN
F 1 "Via" H 3575 1650 50  0001 C CNN
F 2 "10096315 Blower Driver:VIA-091X03-VE_1011" H 3575 1650 50  0001 C CNN
F 3 "" H 3575 1650 50  0001 C CNN
	1    3575 1650
	1    0    0    -1  
$EndComp
$Comp
L V_Connector:Via V?
U 1 1 5EC9F2F8
P 8275 4500
AR Path="/5EC941E5/5EC9F2F8" Ref="V?"  Part="1" 
AR Path="/5EBEB280/5EC9F2F8" Ref="V4"  Part="1" 
F 0 "V4" H 8300 4550 50  0000 L CNN
F 1 "Via" H 8275 4500 50  0001 C CNN
F 2 "10096315 Blower Driver:VIA-091X03-VE_1011" H 8275 4500 50  0001 C CNN
F 3 "" H 8275 4500 50  0001 C CNN
	1    8275 4500
	1    0    0    -1  
$EndComp
$Comp
L V_Connector:Via V?
U 1 1 5EC9F2FE
P 8275 4625
AR Path="/5EC941E5/5EC9F2FE" Ref="V?"  Part="1" 
AR Path="/5EBEB280/5EC9F2FE" Ref="V5"  Part="1" 
F 0 "V5" H 8300 4675 50  0000 L CNN
F 1 "Via" H 8275 4625 50  0001 C CNN
F 2 "10096315 Blower Driver:VIA-091X03-VE_1011" H 8275 4625 50  0001 C CNN
F 3 "" H 8275 4625 50  0001 C CNN
	1    8275 4625
	1    0    0    -1  
$EndComp
$Comp
L V_Connector:Via V?
U 1 1 5EC9F304
P 1950 4500
AR Path="/5EC941E5/5EC9F304" Ref="V?"  Part="1" 
AR Path="/5EBEB280/5EC9F304" Ref="V7"  Part="1" 
F 0 "V7" H 1975 4550 50  0000 L CNN
F 1 "Via" H 1950 4500 50  0001 C CNN
F 2 "10096315 Blower Driver:VIA-091X03-VE_1011" H 1950 4500 50  0001 C CNN
F 3 "" H 1950 4500 50  0001 C CNN
	1    1950 4500
	1    0    0    -1  
$EndComp
$Comp
L V_Connector:Via V?
U 1 1 5EC9F30A
P 8275 4750
AR Path="/5EC941E5/5EC9F30A" Ref="V?"  Part="1" 
AR Path="/5EBEB280/5EC9F30A" Ref="V6"  Part="1" 
F 0 "V6" H 8300 4800 50  0000 L CNN
F 1 "Via" H 8275 4750 50  0001 C CNN
F 2 "10096315 Blower Driver:VIA-091X03-VE_1011" H 8275 4750 50  0001 C CNN
F 3 "" H 8275 4750 50  0001 C CNN
	1    8275 4750
	1    0    0    -1  
$EndComp
$Comp
L V_Connector:Via V?
U 1 1 5EC9F310
P 1950 4625
AR Path="/5EC941E5/5EC9F310" Ref="V?"  Part="1" 
AR Path="/5EBEB280/5EC9F310" Ref="V8"  Part="1" 
F 0 "V8" H 1975 4675 50  0000 L CNN
F 1 "Via" H 1950 4625 50  0001 C CNN
F 2 "10096315 Blower Driver:VIA-091X03-VE_1011" H 1950 4625 50  0001 C CNN
F 3 "" H 1950 4625 50  0001 C CNN
	1    1950 4625
	1    0    0    -1  
$EndComp
$Comp
L V_Connector:Via V?
U 1 1 5EC9F316
P 1225 2675
AR Path="/5EC941E5/5EC9F316" Ref="V?"  Part="1" 
AR Path="/5EBEB280/5EC9F316" Ref="V9"  Part="1" 
F 0 "V9" H 1250 2725 50  0000 L CNN
F 1 "Via" H 1225 2675 50  0001 C CNN
F 2 "10096315 Blower Driver:VIA-091X03-VE_1101" H 1225 2675 50  0001 C CNN
F 3 "" H 1225 2675 50  0001 C CNN
	1    1225 2675
	1    0    0    -1  
$EndComp
$Comp
L V_Connector:Via V?
U 1 1 5EC9F31C
P 8150 1875
AR Path="/5EC941E5/5EC9F31C" Ref="V?"  Part="1" 
AR Path="/5EBEB280/5EC9F31C" Ref="V11"  Part="1" 
F 0 "V11" H 8175 1925 50  0000 L CNN
F 1 "Via" H 8150 1875 50  0001 C CNN
F 2 "10096315 Blower Driver:VIA-091X03-VE_1011" H 8150 1875 50  0001 C CNN
F 3 "" H 8150 1875 50  0001 C CNN
	1    8150 1875
	1    0    0    -1  
$EndComp
$Comp
L V_Connector:Via V?
U 1 1 5EC9F322
P 1950 4750
AR Path="/5EC941E5/5EC9F322" Ref="V?"  Part="1" 
AR Path="/5EBEB280/5EC9F322" Ref="V10"  Part="1" 
F 0 "V10" H 1975 4800 50  0000 L CNN
F 1 "Via" H 1950 4750 50  0001 C CNN
F 2 "10096315 Blower Driver:VIA-091X03-VE_1011" H 1950 4750 50  0001 C CNN
F 3 "" H 1950 4750 50  0001 C CNN
	1    1950 4750
	1    0    0    -1  
$EndComp
$Comp
L V_Connector:Via V?
U 1 1 5EC9F328
P 8150 2300
AR Path="/5EC941E5/5EC9F328" Ref="V?"  Part="1" 
AR Path="/5EBEB280/5EC9F328" Ref="V12"  Part="1" 
F 0 "V12" H 8175 2350 50  0000 L CNN
F 1 "Via" H 8150 2300 50  0001 C CNN
F 2 "10096315 Blower Driver:VIA-091X03-VE_1011" H 8150 2300 50  0001 C CNN
F 3 "" H 8150 2300 50  0001 C CNN
	1    8150 2300
	1    0    0    -1  
$EndComp
$Comp
L V_Connector:Via V?
U 1 1 5EC9F32E
P 8150 2800
AR Path="/5EC941E5/5EC9F32E" Ref="V?"  Part="1" 
AR Path="/5EBEB280/5EC9F32E" Ref="V13"  Part="1" 
F 0 "V13" H 8175 2850 50  0000 L CNN
F 1 "Via" H 8150 2800 50  0001 C CNN
F 2 "10096315 Blower Driver:VIA-091X03-VE_1011" H 8150 2800 50  0001 C CNN
F 3 "" H 8150 2800 50  0001 C CNN
	1    8150 2800
	1    0    0    -1  
$EndComp
$Comp
L V_Connector:Via V?
U 1 1 5EC9F334
P 6075 1825
AR Path="/5EC941E5/5EC9F334" Ref="V?"  Part="1" 
AR Path="/5EBEB280/5EC9F334" Ref="V15"  Part="1" 
F 0 "V15" H 6100 1875 50  0000 L CNN
F 1 "Via" H 6075 1825 50  0001 C CNN
F 2 "10096315 Blower Driver:VIA-091X03-VE_1011" H 6075 1825 50  0001 C CNN
F 3 "" H 6075 1825 50  0001 C CNN
	1    6075 1825
	1    0    0    -1  
$EndComp
$Comp
L V_Connector:Via V?
U 1 1 5EC9F33A
P 1425 2675
AR Path="/5EC941E5/5EC9F33A" Ref="V?"  Part="1" 
AR Path="/5EBEB280/5EC9F33A" Ref="V14"  Part="1" 
F 0 "V14" H 1450 2725 50  0000 L CNN
F 1 "Via" H 1425 2675 50  0001 C CNN
F 2 "10096315 Blower Driver:VIA-091X03-VE_1101" H 1425 2675 50  0001 C CNN
F 3 "" H 1425 2675 50  0001 C CNN
	1    1425 2675
	1    0    0    -1  
$EndComp
$Comp
L V_Connector:Via V?
U 1 1 5EC9F340
P 6075 1975
AR Path="/5EC941E5/5EC9F340" Ref="V?"  Part="1" 
AR Path="/5EBEB280/5EC9F340" Ref="V16"  Part="1" 
F 0 "V16" H 6100 2025 50  0000 L CNN
F 1 "Via" H 6075 1975 50  0001 C CNN
F 2 "10096315 Blower Driver:VIA-091X03-VE_1011" H 6075 1975 50  0001 C CNN
F 3 "" H 6075 1975 50  0001 C CNN
	1    6075 1975
	1    0    0    -1  
$EndComp
$Comp
L V_Connector:Via V?
U 1 1 5EC9F346
P 1650 2675
AR Path="/5EC941E5/5EC9F346" Ref="V?"  Part="1" 
AR Path="/5EBEB280/5EC9F346" Ref="V17"  Part="1" 
F 0 "V17" H 1675 2725 50  0000 L CNN
F 1 "Via" H 1650 2675 50  0001 C CNN
F 2 "10096315 Blower Driver:VIA-091X03-VE_1101" H 1650 2675 50  0001 C CNN
F 3 "" H 1650 2675 50  0001 C CNN
	1    1650 2675
	1    0    0    -1  
$EndComp
$Comp
L V_Connector:Via V?
U 1 1 5EC9F34C
P 8150 2000
AR Path="/5EC941E5/5EC9F34C" Ref="V?"  Part="1" 
AR Path="/5EBEB280/5EC9F34C" Ref="V19"  Part="1" 
F 0 "V19" H 8175 2050 50  0000 L CNN
F 1 "Via" H 8150 2000 50  0001 C CNN
F 2 "10096315 Blower Driver:VIA-091X03-VE_1011" H 8150 2000 50  0001 C CNN
F 3 "" H 8150 2000 50  0001 C CNN
	1    8150 2000
	1    0    0    -1  
$EndComp
$Comp
L V_Connector:Via V?
U 1 1 5EC9F352
P 1850 2675
AR Path="/5EC941E5/5EC9F352" Ref="V?"  Part="1" 
AR Path="/5EBEB280/5EC9F352" Ref="V18"  Part="1" 
F 0 "V18" H 1875 2725 50  0000 L CNN
F 1 "Via" H 1850 2675 50  0001 C CNN
F 2 "10096315 Blower Driver:VIA-091X03-VE_1101" H 1850 2675 50  0001 C CNN
F 3 "" H 1850 2675 50  0001 C CNN
	1    1850 2675
	1    0    0    -1  
$EndComp
$Comp
L V_Connector:Via V?
U 1 1 5EC9F358
P 6075 2125
AR Path="/5EC941E5/5EC9F358" Ref="V?"  Part="1" 
AR Path="/5EBEB280/5EC9F358" Ref="V20"  Part="1" 
F 0 "V20" H 6100 2175 50  0000 L CNN
F 1 "Via" H 6075 2125 50  0001 C CNN
F 2 "10096315 Blower Driver:VIA-091X03-VE_1011" H 6075 2125 50  0001 C CNN
F 3 "" H 6075 2125 50  0001 C CNN
	1    6075 2125
	1    0    0    -1  
$EndComp
Wire Wire Line
	1125 3050 1125 2925
Connection ~ 1125 2800
Wire Wire Line
	1125 2800 1125 2675
Connection ~ 1125 2925
Wire Wire Line
	1125 2925 1125 2800
Wire Wire Line
	2525 3050 2525 3100
$Comp
L V_Power:GND #PWR?
U 1 1 5ECFE26F
P 2525 3100
AR Path="/5ECFE26F" Ref="#PWR?"  Part="1" 
AR Path="/5EBEB280/5ECFE26F" Ref="#PWR01"  Part="1" 
F 0 "#PWR01" H 2665 3050 50  0001 C CNN
F 1 "GND" H 2525 2926 50  0000 C CNN
F 2 "" H 2525 3000 50  0001 C CNN
F 3 "" H 2525 3000 50  0001 C CNN
	1    2525 3100
	1    0    0    -1  
$EndComp
Wire Wire Line
	2350 2675 2350 2800
Connection ~ 2350 2800
Wire Wire Line
	2350 2800 2350 2925
Connection ~ 2350 2925
Wire Wire Line
	2350 2925 2350 3050
Wire Wire Line
	2350 3050 2525 3050
Connection ~ 2350 3050
$Comp
L V_Connector:Via V?
U 1 1 5ED12638
P 2050 2675
AR Path="/5EC941E5/5ED12638" Ref="V?"  Part="1" 
AR Path="/5EBEB280/5ED12638" Ref="V21"  Part="1" 
F 0 "V21" H 2075 2725 50  0000 L CNN
F 1 "Via" H 2050 2675 50  0001 C CNN
F 2 "10096315 Blower Driver:VIA-091X03-VE_1101" H 2050 2675 50  0001 C CNN
F 3 "" H 2050 2675 50  0001 C CNN
	1    2050 2675
	1    0    0    -1  
$EndComp
$Comp
L V_Connector:Via V?
U 1 1 5ED12642
P 8150 2950
AR Path="/5EC941E5/5ED12642" Ref="V?"  Part="1" 
AR Path="/5EBEB280/5ED12642" Ref="V23"  Part="1" 
F 0 "V23" H 8175 3000 50  0000 L CNN
F 1 "Via" H 8150 2950 50  0001 C CNN
F 2 "10096315 Blower Driver:VIA-091X03-VE_1011" H 8150 2950 50  0001 C CNN
F 3 "" H 8150 2950 50  0001 C CNN
	1    8150 2950
	1    0    0    -1  
$EndComp
$Comp
L V_Connector:Via V?
U 1 1 5ED1264C
P 8150 2475
AR Path="/5EC941E5/5ED1264C" Ref="V?"  Part="1" 
AR Path="/5EBEB280/5ED1264C" Ref="V22"  Part="1" 
F 0 "V22" H 8175 2525 50  0000 L CNN
F 1 "Via" H 8150 2475 50  0001 C CNN
F 2 "10096315 Blower Driver:VIA-091X03-VE_1011" H 8150 2475 50  0001 C CNN
F 3 "" H 8150 2475 50  0001 C CNN
	1    8150 2475
	1    0    0    -1  
$EndComp
$Comp
L V_Connector:Via V?
U 1 1 5ED12656
P 1225 2800
AR Path="/5EC941E5/5ED12656" Ref="V?"  Part="1" 
AR Path="/5EBEB280/5ED12656" Ref="V24"  Part="1" 
F 0 "V24" H 1250 2850 50  0000 L CNN
F 1 "Via" H 1225 2800 50  0001 C CNN
F 2 "10096315 Blower Driver:VIA-091X03-VE_1101" H 1225 2800 50  0001 C CNN
F 3 "" H 1225 2800 50  0001 C CNN
	1    1225 2800
	1    0    0    -1  
$EndComp
$Comp
L V_Connector:Via V?
U 1 1 5ED12660
P 6075 2300
AR Path="/5EC941E5/5ED12660" Ref="V?"  Part="1" 
AR Path="/5EBEB280/5ED12660" Ref="V33"  Part="1" 
F 0 "V33" H 6100 2350 50  0000 L CNN
F 1 "Via" H 6075 2300 50  0001 C CNN
F 2 "10096315 Blower Driver:VIA-091X03-VE_1011" H 6075 2300 50  0001 C CNN
F 3 "" H 6075 2300 50  0001 C CNN
	1    6075 2300
	1    0    0    -1  
$EndComp
$Comp
L V_Connector:Via V?
U 1 1 5ED1266A
P 3675 3825
AR Path="/5EC941E5/5ED1266A" Ref="V?"  Part="1" 
AR Path="/5EBEB280/5ED1266A" Ref="V35"  Part="1" 
F 0 "V35" H 3700 3875 50  0000 L CNN
F 1 "Via" H 3675 3825 50  0001 C CNN
F 2 "10096315 Blower Driver:VIA-091X03-VE_1011" H 3675 3825 50  0001 C CNN
F 3 "" H 3675 3825 50  0001 C CNN
	1    3675 3825
	1    0    0    -1  
$EndComp
$Comp
L V_Connector:Via V?
U 1 1 5ED12674
P 1850 2800
AR Path="/5EC941E5/5ED12674" Ref="V?"  Part="1" 
AR Path="/5EBEB280/5ED12674" Ref="V34"  Part="1" 
F 0 "V34" H 1875 2850 50  0000 L CNN
F 1 "Via" H 1850 2800 50  0001 C CNN
F 2 "10096315 Blower Driver:VIA-091X03-VE_1101" H 1850 2800 50  0001 C CNN
F 3 "" H 1850 2800 50  0001 C CNN
	1    1850 2800
	1    0    0    -1  
$EndComp
$Comp
L V_Connector:Via V?
U 1 1 5ED1267E
P 2050 2800
AR Path="/5EC941E5/5ED1267E" Ref="V?"  Part="1" 
AR Path="/5EBEB280/5ED1267E" Ref="V36"  Part="1" 
F 0 "V36" H 2075 2850 50  0000 L CNN
F 1 "Via" H 2050 2800 50  0001 C CNN
F 2 "10096315 Blower Driver:VIA-091X03-VE_1101" H 2050 2800 50  0001 C CNN
F 3 "" H 2050 2800 50  0001 C CNN
	1    2050 2800
	1    0    0    -1  
$EndComp
$Comp
L V_Connector:Via V?
U 1 1 5ED12688
P 6125 3150
AR Path="/5EC941E5/5ED12688" Ref="V?"  Part="1" 
AR Path="/5EBEB280/5ED12688" Ref="V45"  Part="1" 
F 0 "V45" H 6150 3200 50  0000 L CNN
F 1 "Via" H 6125 3150 50  0001 C CNN
F 2 "10096315 Blower Driver:VIA-091X03-VE_1001" H 6125 3150 50  0001 C CNN
F 3 "" H 6125 3150 50  0001 C CNN
	1    6125 3150
	1    0    0    -1  
$EndComp
$Comp
L V_Connector:Via V?
U 1 1 5ED12692
P 3625 3050
AR Path="/5EC941E5/5ED12692" Ref="V?"  Part="1" 
AR Path="/5EBEB280/5ED12692" Ref="V47"  Part="1" 
F 0 "V47" H 3650 3100 50  0000 L CNN
F 1 "Via" H 3625 3050 50  0001 C CNN
F 2 "10096315 Blower Driver:VIA-091X03-VE_1011" H 3625 3050 50  0001 C CNN
F 3 "" H 3625 3050 50  0001 C CNN
	1    3625 3050
	1    0    0    -1  
$EndComp
$Comp
L V_Connector:Via V?
U 1 1 5ED1269C
P 1650 2925
AR Path="/5EC941E5/5ED1269C" Ref="V?"  Part="1" 
AR Path="/5EBEB280/5ED1269C" Ref="V46"  Part="1" 
F 0 "V46" H 1675 2975 50  0000 L CNN
F 1 "Via" H 1650 2925 50  0001 C CNN
F 2 "10096315 Blower Driver:VIA-091X03-VE_1101" H 1650 2925 50  0001 C CNN
F 3 "" H 1650 2925 50  0001 C CNN
	1    1650 2925
	1    0    0    -1  
$EndComp
$Comp
L V_Connector:Via V?
U 1 1 5ED126A6
P 1850 2925
AR Path="/5EC941E5/5ED126A6" Ref="V?"  Part="1" 
AR Path="/5EBEB280/5ED126A6" Ref="V48"  Part="1" 
F 0 "V48" H 1875 2975 50  0000 L CNN
F 1 "Via" H 1850 2925 50  0001 C CNN
F 2 "10096315 Blower Driver:VIA-091X03-VE_1101" H 1850 2925 50  0001 C CNN
F 3 "" H 1850 2925 50  0001 C CNN
	1    1850 2925
	1    0    0    -1  
$EndComp
$Comp
L V_Connector:Via V?
U 1 1 5ED126B0
P 1225 3525
AR Path="/5EC941E5/5ED126B0" Ref="V?"  Part="1" 
AR Path="/5EBEB280/5ED126B0" Ref="V57"  Part="1" 
F 0 "V57" H 1250 3575 50  0000 L CNN
F 1 "Via" H 1225 3525 50  0001 C CNN
F 2 "10096315 Blower Driver:VIA-091X03-VE_1101" H 1225 3525 50  0001 C CNN
F 3 "" H 1225 3525 50  0001 C CNN
	1    1225 3525
	1    0    0    -1  
$EndComp
$Comp
L V_Connector:Via V?
U 1 1 5ED126BA
P 1625 3525
AR Path="/5EC941E5/5ED126BA" Ref="V?"  Part="1" 
AR Path="/5EBEB280/5ED126BA" Ref="V59"  Part="1" 
F 0 "V59" H 1650 3575 50  0000 L CNN
F 1 "Via" H 1625 3525 50  0001 C CNN
F 2 "10096315 Blower Driver:VIA-091X03-VE_1101" H 1625 3525 50  0001 C CNN
F 3 "" H 1625 3525 50  0001 C CNN
	1    1625 3525
	1    0    0    -1  
$EndComp
$Comp
L V_Connector:Via V?
U 1 1 5ED126C4
P 1400 3525
AR Path="/5EC941E5/5ED126C4" Ref="V?"  Part="1" 
AR Path="/5EBEB280/5ED126C4" Ref="V58"  Part="1" 
F 0 "V58" H 1425 3575 50  0000 L CNN
F 1 "Via" H 1400 3525 50  0001 C CNN
F 2 "10096315 Blower Driver:VIA-091X03-VE_1101" H 1400 3525 50  0001 C CNN
F 3 "" H 1400 3525 50  0001 C CNN
	1    1400 3525
	1    0    0    -1  
$EndComp
$Comp
L V_Connector:Via V?
U 1 1 5ED126CE
P 1825 3525
AR Path="/5EC941E5/5ED126CE" Ref="V?"  Part="1" 
AR Path="/5EBEB280/5ED126CE" Ref="V60"  Part="1" 
F 0 "V60" H 1850 3575 50  0000 L CNN
F 1 "Via" H 1825 3525 50  0001 C CNN
F 2 "10096315 Blower Driver:VIA-091X03-VE_1101" H 1825 3525 50  0001 C CNN
F 3 "" H 1825 3525 50  0001 C CNN
	1    1825 3525
	1    0    0    -1  
$EndComp
$Comp
L V_Connector:Via V?
U 1 1 5ED126D8
P 9625 2175
AR Path="/5EC941E5/5ED126D8" Ref="V?"  Part="1" 
AR Path="/5EBEB280/5ED126D8" Ref="V69"  Part="1" 
F 0 "V69" H 9650 2225 50  0000 L CNN
F 1 "Via" H 9625 2175 50  0001 C CNN
F 2 "10096315 Blower Driver:VIA-091X03-VE_1011" H 9625 2175 50  0001 C CNN
F 3 "" H 9625 2175 50  0001 C CNN
	1    9625 2175
	1    0    0    -1  
$EndComp
$Comp
L V_Connector:Via V?
U 1 1 5ED126E2
P 1625 3650
AR Path="/5EC941E5/5ED126E2" Ref="V?"  Part="1" 
AR Path="/5EBEB280/5ED126E2" Ref="V71"  Part="1" 
F 0 "V71" H 1650 3700 50  0000 L CNN
F 1 "Via" H 1625 3650 50  0001 C CNN
F 2 "10096315 Blower Driver:VIA-091X03-VE_1101" H 1625 3650 50  0001 C CNN
F 3 "" H 1625 3650 50  0001 C CNN
	1    1625 3650
	1    0    0    -1  
$EndComp
$Comp
L V_Connector:Via V?
U 1 1 5ED126EC
P 9650 1200
AR Path="/5EC941E5/5ED126EC" Ref="V?"  Part="1" 
AR Path="/5EBEB280/5ED126EC" Ref="V70"  Part="1" 
F 0 "V70" H 9675 1250 50  0000 L CNN
F 1 "Via" H 9650 1200 50  0001 C CNN
F 2 "10096315 Blower Driver:VIA-091X03-VE_1011" H 9650 1200 50  0001 C CNN
F 3 "" H 9650 1200 50  0001 C CNN
	1    9650 1200
	1    0    0    -1  
$EndComp
$Comp
L V_Connector:Via V?
U 1 1 5ED126F6
P 1825 3650
AR Path="/5EC941E5/5ED126F6" Ref="V?"  Part="1" 
AR Path="/5EBEB280/5ED126F6" Ref="V72"  Part="1" 
F 0 "V72" H 1850 3700 50  0000 L CNN
F 1 "Via" H 1825 3650 50  0001 C CNN
F 2 "10096315 Blower Driver:VIA-091X03-VE_1101" H 1825 3650 50  0001 C CNN
F 3 "" H 1825 3650 50  0001 C CNN
	1    1825 3650
	1    0    0    -1  
$EndComp
Connection ~ 1125 3650
Wire Wire Line
	1125 3650 1125 3525
Wire Wire Line
	1125 3775 1125 3650
Wire Wire Line
	2600 3775 2600 3825
$Comp
L V_Power:GND #PWR?
U 1 1 5ED12728
P 2600 3825
AR Path="/5ED12728" Ref="#PWR?"  Part="1" 
AR Path="/5EBEB280/5ED12728" Ref="#PWR02"  Part="1" 
F 0 "#PWR02" H 2740 3775 50  0001 C CNN
F 1 "GND" H 2600 3651 50  0000 C CNN
F 2 "" H 2600 3725 50  0001 C CNN
F 3 "" H 2600 3725 50  0001 C CNN
	1    2600 3825
	1    0    0    -1  
$EndComp
Wire Wire Line
	2350 3525 2350 3650
Connection ~ 2350 3650
Wire Wire Line
	2350 3650 2350 3775
Connection ~ 2350 3775
$Comp
L V_Connector:Via V?
U 1 1 5ED17FB1
P 1425 2800
AR Path="/5EC941E5/5ED17FB1" Ref="V?"  Part="1" 
AR Path="/5EBEB280/5ED17FB1" Ref="V25"  Part="1" 
F 0 "V25" H 1450 2850 50  0000 L CNN
F 1 "Via" H 1425 2800 50  0001 C CNN
F 2 "10096315 Blower Driver:VIA-091X03-VE_1101" H 1425 2800 50  0001 C CNN
F 3 "" H 1425 2800 50  0001 C CNN
	1    1425 2800
	1    0    0    -1  
$EndComp
$Comp
L V_Connector:Via V?
U 1 1 5ED17FBB
P 8250 5075
AR Path="/5EC941E5/5ED17FBB" Ref="V?"  Part="1" 
AR Path="/5EBEB280/5ED17FBB" Ref="V27"  Part="1" 
F 0 "V27" H 8275 5125 50  0000 L CNN
F 1 "Via" H 8250 5075 50  0001 C CNN
F 2 "10096315 Blower Driver:VIA-091X03-VE_1011" H 8250 5075 50  0001 C CNN
F 3 "" H 8250 5075 50  0001 C CNN
	1    8250 5075
	1    0    0    -1  
$EndComp
$Comp
L V_Connector:Via V?
U 1 1 5ED17FC5
P 9700 1500
AR Path="/5EC941E5/5ED17FC5" Ref="V?"  Part="1" 
AR Path="/5EBEB280/5ED17FC5" Ref="V26"  Part="1" 
F 0 "V26" H 9725 1550 50  0000 L CNN
F 1 "Via" H 9700 1500 50  0001 C CNN
F 2 "10096315 Blower Driver:VIA-091X03-VE_1011" H 9700 1500 50  0001 C CNN
F 3 "" H 9700 1500 50  0001 C CNN
	1    9700 1500
	1    0    0    -1  
$EndComp
$Comp
L V_Connector:Via V?
U 1 1 5ED17FCF
P 8250 5250
AR Path="/5EC941E5/5ED17FCF" Ref="V?"  Part="1" 
AR Path="/5EBEB280/5ED17FCF" Ref="V28"  Part="1" 
F 0 "V28" H 8275 5300 50  0000 L CNN
F 1 "Via" H 8250 5250 50  0001 C CNN
F 2 "10096315 Blower Driver:VIA-091X03-VE_1011" H 8250 5250 50  0001 C CNN
F 3 "" H 8250 5250 50  0001 C CNN
	1    8250 5250
	1    0    0    -1  
$EndComp
$Comp
L V_Connector:Via V?
U 1 1 5ED17FD9
P 1225 2925
AR Path="/5EC941E5/5ED17FD9" Ref="V?"  Part="1" 
AR Path="/5EBEB280/5ED17FD9" Ref="V37"  Part="1" 
F 0 "V37" H 1250 2975 50  0000 L CNN
F 1 "Via" H 1225 2925 50  0001 C CNN
F 2 "10096315 Blower Driver:VIA-091X03-VE_1101" H 1225 2925 50  0001 C CNN
F 3 "" H 1225 2925 50  0001 C CNN
	1    1225 2925
	1    0    0    -1  
$EndComp
$Comp
L V_Connector:Via V?
U 1 1 5ED17FE3
P 3675 3950
AR Path="/5EC941E5/5ED17FE3" Ref="V?"  Part="1" 
AR Path="/5EBEB280/5ED17FE3" Ref="V39"  Part="1" 
F 0 "V39" H 3700 4000 50  0000 L CNN
F 1 "Via" H 3675 3950 50  0001 C CNN
F 2 "10096315 Blower Driver:VIA-091X03-VE_1011" H 3675 3950 50  0001 C CNN
F 3 "" H 3675 3950 50  0001 C CNN
	1    3675 3950
	1    0    0    -1  
$EndComp
$Comp
L V_Connector:Via V?
U 1 1 5ED17FED
P 1950 5050
AR Path="/5EC941E5/5ED17FED" Ref="V?"  Part="1" 
AR Path="/5EBEB280/5ED17FED" Ref="V38"  Part="1" 
F 0 "V38" H 1975 5100 50  0000 L CNN
F 1 "Via" H 1950 5050 50  0001 C CNN
F 2 "10096315 Blower Driver:VIA-091X03-VE_1011" H 1950 5050 50  0001 C CNN
F 3 "" H 1950 5050 50  0001 C CNN
	1    1950 5050
	1    0    0    -1  
$EndComp
$Comp
L V_Connector:Via V?
U 1 1 5ED17FF7
P 1425 2925
AR Path="/5EC941E5/5ED17FF7" Ref="V?"  Part="1" 
AR Path="/5EBEB280/5ED17FF7" Ref="V40"  Part="1" 
F 0 "V40" H 1450 2975 50  0000 L CNN
F 1 "Via" H 1425 2925 50  0001 C CNN
F 2 "10096315 Blower Driver:VIA-091X03-VE_1101" H 1425 2925 50  0001 C CNN
F 3 "" H 1425 2925 50  0001 C CNN
	1    1425 2925
	1    0    0    -1  
$EndComp
$Comp
L V_Connector:Via V?
U 1 1 5ED18001
P 2050 2925
AR Path="/5EC941E5/5ED18001" Ref="V?"  Part="1" 
AR Path="/5EBEB280/5ED18001" Ref="V49"  Part="1" 
F 0 "V49" H 2075 2975 50  0000 L CNN
F 1 "Via" H 2050 2925 50  0001 C CNN
F 2 "10096315 Blower Driver:VIA-091X03-VE_1101" H 2050 2925 50  0001 C CNN
F 3 "" H 2050 2925 50  0001 C CNN
	1    2050 2925
	1    0    0    -1  
$EndComp
$Comp
L V_Connector:Via V?
U 1 1 5ED1800B
P 1225 3050
AR Path="/5EC941E5/5ED1800B" Ref="V?"  Part="1" 
AR Path="/5EBEB280/5ED1800B" Ref="V51"  Part="1" 
F 0 "V51" H 1250 3100 50  0000 L CNN
F 1 "Via" H 1225 3050 50  0001 C CNN
F 2 "10096315 Blower Driver:VIA-091X03-VE_1101" H 1225 3050 50  0001 C CNN
F 3 "" H 1225 3050 50  0001 C CNN
	1    1225 3050
	1    0    0    -1  
$EndComp
$Comp
L V_Connector:Via V?
U 1 1 5ED18015
P 8175 1325
AR Path="/5EC941E5/5ED18015" Ref="V?"  Part="1" 
AR Path="/5EBEB280/5ED18015" Ref="V50"  Part="1" 
F 0 "V50" H 8200 1375 50  0000 L CNN
F 1 "Via" H 8175 1325 50  0001 C CNN
F 2 "10096315 Blower Driver:VIA-091X03-VE_1011" H 8175 1325 50  0001 C CNN
F 3 "" H 8175 1325 50  0001 C CNN
	1    8175 1325
	1    0    0    -1  
$EndComp
$Comp
L V_Connector:Via V?
U 1 1 5ED1801F
P 9650 1025
AR Path="/5EC941E5/5ED1801F" Ref="V?"  Part="1" 
AR Path="/5EBEB280/5ED1801F" Ref="V52"  Part="1" 
F 0 "V52" H 9675 1075 50  0000 L CNN
F 1 "Via" H 9650 1025 50  0001 C CNN
F 2 "10096315 Blower Driver:VIA-091X03-VE_1011" H 9650 1025 50  0001 C CNN
F 3 "" H 9650 1025 50  0001 C CNN
	1    9650 1025
	1    0    0    -1  
$EndComp
$Comp
L V_Connector:Via V?
U 1 1 5ED18029
P 2025 3525
AR Path="/5EC941E5/5ED18029" Ref="V?"  Part="1" 
AR Path="/5EBEB280/5ED18029" Ref="V61"  Part="1" 
F 0 "V61" H 2050 3575 50  0000 L CNN
F 1 "Via" H 2025 3525 50  0001 C CNN
F 2 "10096315 Blower Driver:VIA-091X03-VE_1101" H 2025 3525 50  0001 C CNN
F 3 "" H 2025 3525 50  0001 C CNN
	1    2025 3525
	1    0    0    -1  
$EndComp
$Comp
L V_Connector:Via V?
U 1 1 5ED18033
P 1400 3650
AR Path="/5EC941E5/5ED18033" Ref="V?"  Part="1" 
AR Path="/5EBEB280/5ED18033" Ref="V63"  Part="1" 
F 0 "V63" H 1425 3700 50  0000 L CNN
F 1 "Via" H 1400 3650 50  0001 C CNN
F 2 "10096315 Blower Driver:VIA-091X03-VE_1101" H 1400 3650 50  0001 C CNN
F 3 "" H 1400 3650 50  0001 C CNN
	1    1400 3650
	1    0    0    -1  
$EndComp
$Comp
L V_Connector:Via V?
U 1 1 5ED1803D
P 1225 3650
AR Path="/5EC941E5/5ED1803D" Ref="V?"  Part="1" 
AR Path="/5EBEB280/5ED1803D" Ref="V62"  Part="1" 
F 0 "V62" H 1250 3700 50  0000 L CNN
F 1 "Via" H 1225 3650 50  0001 C CNN
F 2 "10096315 Blower Driver:VIA-091X03-VE_1101" H 1225 3650 50  0001 C CNN
F 3 "" H 1225 3650 50  0001 C CNN
	1    1225 3650
	1    0    0    -1  
$EndComp
$Comp
L V_Connector:Via V?
U 1 1 5ED18047
P 3575 2200
AR Path="/5EC941E5/5ED18047" Ref="V?"  Part="1" 
AR Path="/5EBEB280/5ED18047" Ref="V64"  Part="1" 
F 0 "V64" H 3600 2250 50  0000 L CNN
F 1 "Via" H 3575 2200 50  0001 C CNN
F 2 "10096315 Blower Driver:VIA-091X03-VE_1011" H 3575 2200 50  0001 C CNN
F 3 "" H 3575 2200 50  0001 C CNN
	1    3575 2200
	1    0    0    -1  
$EndComp
$Comp
L V_Connector:Via V?
U 1 1 5ED18051
P 2025 3650
AR Path="/5EC941E5/5ED18051" Ref="V?"  Part="1" 
AR Path="/5EBEB280/5ED18051" Ref="V73"  Part="1" 
F 0 "V73" H 2050 3700 50  0000 L CNN
F 1 "Via" H 2025 3650 50  0001 C CNN
F 2 "10096315 Blower Driver:VIA-091X03-VE_1101" H 2025 3650 50  0001 C CNN
F 3 "" H 2025 3650 50  0001 C CNN
	1    2025 3650
	1    0    0    -1  
$EndComp
$Comp
L V_Connector:Via V?
U 1 1 5ED1805B
P 6075 2650
AR Path="/5EC941E5/5ED1805B" Ref="V?"  Part="1" 
AR Path="/5EBEB280/5ED1805B" Ref="V75"  Part="1" 
F 0 "V75" H 6100 2700 50  0000 L CNN
F 1 "Via" H 6075 2650 50  0001 C CNN
F 2 "10096315 Blower Driver:VIA-091X03-VE_1011" H 6075 2650 50  0001 C CNN
F 3 "" H 6075 2650 50  0001 C CNN
	1    6075 2650
	1    0    0    -1  
$EndComp
$Comp
L V_Connector:Via V?
U 1 1 5ED18065
P 1225 3775
AR Path="/5EC941E5/5ED18065" Ref="V?"  Part="1" 
AR Path="/5EBEB280/5ED18065" Ref="V74"  Part="1" 
F 0 "V74" H 1250 3825 50  0000 L CNN
F 1 "Via" H 1225 3775 50  0001 C CNN
F 2 "10096315 Blower Driver:VIA-091X03-VE_1101" H 1225 3775 50  0001 C CNN
F 3 "" H 1225 3775 50  0001 C CNN
	1    1225 3775
	1    0    0    -1  
$EndComp
$Comp
L V_Connector:Via V?
U 1 1 5ED1806F
P 6075 2825
AR Path="/5EC941E5/5ED1806F" Ref="V?"  Part="1" 
AR Path="/5EBEB280/5ED1806F" Ref="V76"  Part="1" 
F 0 "V76" H 6100 2875 50  0000 L CNN
F 1 "Via" H 6075 2825 50  0001 C CNN
F 2 "10096315 Blower Driver:VIA-091X03-VE_1011" H 6075 2825 50  0001 C CNN
F 3 "" H 6075 2825 50  0001 C CNN
	1    6075 2825
	1    0    0    -1  
$EndComp
$Comp
L V_Connector:Via V?
U 1 1 5ED180B7
P 3575 2050
AR Path="/5EC941E5/5ED180B7" Ref="V?"  Part="1" 
AR Path="/5EBEB280/5ED180B7" Ref="V29"  Part="1" 
F 0 "V29" H 3600 2100 50  0000 L CNN
F 1 "Via" H 3575 2050 50  0001 C CNN
F 2 "10096315 Blower Driver:VIA-091X03-VE_1011" H 3575 2050 50  0001 C CNN
F 3 "" H 3575 2050 50  0001 C CNN
	1    3575 2050
	1    0    0    -1  
$EndComp
$Comp
L V_Connector:Via V?
U 1 1 5ED180C1
P 9625 2375
AR Path="/5EC941E5/5ED180C1" Ref="V?"  Part="1" 
AR Path="/5EBEB280/5ED180C1" Ref="V31"  Part="1" 
F 0 "V31" H 9650 2425 50  0000 L CNN
F 1 "Via" H 9625 2375 50  0001 C CNN
F 2 "10096315 Blower Driver:VIA-091X03-VE_1011" H 9625 2375 50  0001 C CNN
F 3 "" H 9625 2375 50  0001 C CNN
	1    9625 2375
	1    0    0    -1  
$EndComp
$Comp
L V_Connector:Via V?
U 1 1 5ED180CB
P 1650 2800
AR Path="/5EC941E5/5ED180CB" Ref="V?"  Part="1" 
AR Path="/5EBEB280/5ED180CB" Ref="V30"  Part="1" 
F 0 "V30" H 1675 2850 50  0000 L CNN
F 1 "Via" H 1650 2800 50  0001 C CNN
F 2 "10096315 Blower Driver:VIA-091X03-VE_1101" H 1650 2800 50  0001 C CNN
F 3 "" H 1650 2800 50  0001 C CNN
	1    1650 2800
	1    0    0    -1  
$EndComp
$Comp
L V_Connector:Via V?
U 1 1 5ED180D5
P 1950 4900
AR Path="/5EC941E5/5ED180D5" Ref="V?"  Part="1" 
AR Path="/5EBEB280/5ED180D5" Ref="V32"  Part="1" 
F 0 "V32" H 1975 4950 50  0000 L CNN
F 1 "Via" H 1950 4900 50  0001 C CNN
F 2 "10096315 Blower Driver:VIA-091X03-VE_1011" H 1950 4900 50  0001 C CNN
F 3 "" H 1950 4900 50  0001 C CNN
	1    1950 4900
	1    0    0    -1  
$EndComp
$Comp
L V_Connector:Via V?
U 1 1 5ED180DF
P 8200 3300
AR Path="/5EC941E5/5ED180DF" Ref="V?"  Part="1" 
AR Path="/5EBEB280/5ED180DF" Ref="V41"  Part="1" 
F 0 "V41" H 8225 3350 50  0000 L CNN
F 1 "Via" H 8200 3300 50  0001 C CNN
F 2 "10096315 Blower Driver:VIA-091X03-VE_1011" H 8200 3300 50  0001 C CNN
F 3 "" H 8200 3300 50  0001 C CNN
	1    8200 3300
	1    0    0    -1  
$EndComp
$Comp
L V_Connector:Via V?
U 1 1 5ED180E9
P 8200 3975
AR Path="/5EC941E5/5ED180E9" Ref="V?"  Part="1" 
AR Path="/5EBEB280/5ED180E9" Ref="V43"  Part="1" 
F 0 "V43" H 8225 4025 50  0000 L CNN
F 1 "Via" H 8200 3975 50  0001 C CNN
F 2 "10096315 Blower Driver:VIA-091X03-VE_1011" H 8200 3975 50  0001 C CNN
F 3 "" H 8200 3975 50  0001 C CNN
	1    8200 3975
	1    0    0    -1  
$EndComp
$Comp
L V_Connector:Via V?
U 1 1 5ED180F3
P 8200 3700
AR Path="/5EC941E5/5ED180F3" Ref="V?"  Part="1" 
AR Path="/5EBEB280/5ED180F3" Ref="V42"  Part="1" 
F 0 "V42" H 8225 3750 50  0000 L CNN
F 1 "Via" H 8200 3700 50  0001 C CNN
F 2 "10096315 Blower Driver:VIA-091X03-VE_1011" H 8200 3700 50  0001 C CNN
F 3 "" H 8200 3700 50  0001 C CNN
	1    8200 3700
	1    0    0    -1  
$EndComp
$Comp
L V_Connector:Via V?
U 1 1 5ED180FD
P 6075 2475
AR Path="/5EC941E5/5ED180FD" Ref="V?"  Part="1" 
AR Path="/5EBEB280/5ED180FD" Ref="V44"  Part="1" 
F 0 "V44" H 6100 2525 50  0000 L CNN
F 1 "Via" H 6075 2475 50  0001 C CNN
F 2 "10096315 Blower Driver:VIA-091X03-VE_1001" H 6075 2475 50  0001 C CNN
F 3 "" H 6075 2475 50  0001 C CNN
	1    6075 2475
	1    0    0    -1  
$EndComp
$Comp
L V_Connector:Via V?
U 1 1 5ED18107
P 1425 3050
AR Path="/5EC941E5/5ED18107" Ref="V?"  Part="1" 
AR Path="/5EBEB280/5ED18107" Ref="V53"  Part="1" 
F 0 "V53" H 1450 3100 50  0000 L CNN
F 1 "Via" H 1425 3050 50  0001 C CNN
F 2 "10096315 Blower Driver:VIA-091X03-VE_1101" H 1425 3050 50  0001 C CNN
F 3 "" H 1425 3050 50  0001 C CNN
	1    1425 3050
	1    0    0    -1  
$EndComp
$Comp
L V_Connector:Via V?
U 1 1 5ED18111
P 1850 3050
AR Path="/5EC941E5/5ED18111" Ref="V?"  Part="1" 
AR Path="/5EBEB280/5ED18111" Ref="V55"  Part="1" 
F 0 "V55" H 1875 3100 50  0000 L CNN
F 1 "Via" H 1850 3050 50  0001 C CNN
F 2 "10096315 Blower Driver:VIA-091X03-VE_1101" H 1850 3050 50  0001 C CNN
F 3 "" H 1850 3050 50  0001 C CNN
	1    1850 3050
	1    0    0    -1  
$EndComp
$Comp
L V_Connector:Via V?
U 1 1 5ED1811B
P 1650 3050
AR Path="/5EC941E5/5ED1811B" Ref="V?"  Part="1" 
AR Path="/5EBEB280/5ED1811B" Ref="V54"  Part="1" 
F 0 "V54" H 1675 3100 50  0000 L CNN
F 1 "Via" H 1650 3050 50  0001 C CNN
F 2 "10096315 Blower Driver:VIA-091X03-VE_1101" H 1650 3050 50  0001 C CNN
F 3 "" H 1650 3050 50  0001 C CNN
	1    1650 3050
	1    0    0    -1  
$EndComp
$Comp
L V_Connector:Via V?
U 1 1 5ED18125
P 2050 3050
AR Path="/5EC941E5/5ED18125" Ref="V?"  Part="1" 
AR Path="/5EBEB280/5ED18125" Ref="V56"  Part="1" 
F 0 "V56" H 2075 3100 50  0000 L CNN
F 1 "Via" H 2050 3050 50  0001 C CNN
F 2 "10096315 Blower Driver:VIA-091X03-VE_1101" H 2050 3050 50  0001 C CNN
F 3 "" H 2050 3050 50  0001 C CNN
	1    2050 3050
	1    0    0    -1  
$EndComp
$Comp
L V_Connector:Via V?
U 1 1 5ED1812F
P 3600 3600
AR Path="/5EC941E5/5ED1812F" Ref="V?"  Part="1" 
AR Path="/5EBEB280/5ED1812F" Ref="V65"  Part="1" 
F 0 "V65" H 3625 3650 50  0000 L CNN
F 1 "Via" H 3600 3600 50  0001 C CNN
F 2 "10096315 Blower Driver:VIA-091X03-VE_1001" H 3600 3600 50  0001 C CNN
F 3 "" H 3600 3600 50  0001 C CNN
	1    3600 3600
	1    0    0    -1  
$EndComp
$Comp
L V_Connector:Via V?
U 1 1 5ED18139
P 8225 900
AR Path="/5EC941E5/5ED18139" Ref="V?"  Part="1" 
AR Path="/5EBEB280/5ED18139" Ref="V67"  Part="1" 
F 0 "V67" H 8250 950 50  0000 L CNN
F 1 "Via" H 8225 900 50  0001 C CNN
F 2 "10096315 Blower Driver:VIA-091X03-VE_1011" H 8225 900 50  0001 C CNN
F 3 "" H 8225 900 50  0001 C CNN
	1    8225 900 
	1    0    0    -1  
$EndComp
$Comp
L V_Connector:Via V?
U 1 1 5ED18143
P 8175 1475
AR Path="/5EC941E5/5ED18143" Ref="V?"  Part="1" 
AR Path="/5EBEB280/5ED18143" Ref="V66"  Part="1" 
F 0 "V66" H 8200 1525 50  0000 L CNN
F 1 "Via" H 8175 1475 50  0001 C CNN
F 2 "10096315 Blower Driver:VIA-091X03-VE_1011" H 8175 1475 50  0001 C CNN
F 3 "" H 8175 1475 50  0001 C CNN
	1    8175 1475
	1    0    0    -1  
$EndComp
$Comp
L V_Connector:Via V?
U 1 1 5ED1814D
P 9625 2025
AR Path="/5EC941E5/5ED1814D" Ref="V?"  Part="1" 
AR Path="/5EBEB280/5ED1814D" Ref="V68"  Part="1" 
F 0 "V68" H 9650 2075 50  0000 L CNN
F 1 "Via" H 9625 2025 50  0001 C CNN
F 2 "10096315 Blower Driver:VIA-091X03-VE_1011" H 9625 2025 50  0001 C CNN
F 3 "" H 9625 2025 50  0001 C CNN
	1    9625 2025
	1    0    0    -1  
$EndComp
$Comp
L V_Connector:Via V?
U 1 1 5ED18157
P 3625 3225
AR Path="/5EC941E5/5ED18157" Ref="V?"  Part="1" 
AR Path="/5EBEB280/5ED18157" Ref="V77"  Part="1" 
F 0 "V77" H 3650 3275 50  0000 L CNN
F 1 "Via" H 3625 3225 50  0001 C CNN
F 2 "10096315 Blower Driver:VIA-091X03-VE_1011" H 3625 3225 50  0001 C CNN
F 3 "" H 3625 3225 50  0001 C CNN
	1    3625 3225
	1    0    0    -1  
$EndComp
$Comp
L V_Connector:Via V?
U 1 1 5ED18161
P 8200 3825
AR Path="/5EC941E5/5ED18161" Ref="V?"  Part="1" 
AR Path="/5EBEB280/5ED18161" Ref="V79"  Part="1" 
F 0 "V79" H 8225 3875 50  0000 L CNN
F 1 "Via" H 8200 3825 50  0001 C CNN
F 2 "10096315 Blower Driver:VIA-091X03-VE_1011" H 8200 3825 50  0001 C CNN
F 3 "" H 8200 3825 50  0001 C CNN
	1    8200 3825
	1    0    0    -1  
$EndComp
$Comp
L V_Connector:Via V?
U 1 1 5ED1816B
P 8200 4125
AR Path="/5EC941E5/5ED1816B" Ref="V?"  Part="1" 
AR Path="/5EBEB280/5ED1816B" Ref="V78"  Part="1" 
F 0 "V78" H 8225 4175 50  0000 L CNN
F 1 "Via" H 8200 4125 50  0001 C CNN
F 2 "10096315 Blower Driver:VIA-091X03-VE_1011" H 8200 4125 50  0001 C CNN
F 3 "" H 8200 4125 50  0001 C CNN
	1    8200 4125
	1    0    0    -1  
$EndComp
$Comp
L V_Connector:Via V?
U 1 1 5ED18175
P 8200 3450
AR Path="/5EC941E5/5ED18175" Ref="V?"  Part="1" 
AR Path="/5EBEB280/5ED18175" Ref="V80"  Part="1" 
F 0 "V80" H 8225 3500 50  0000 L CNN
F 1 "Via" H 8200 3450 50  0001 C CNN
F 2 "10096315 Blower Driver:VIA-091X03-VE_1011" H 8200 3450 50  0001 C CNN
F 3 "" H 8200 3450 50  0001 C CNN
	1    8200 3450
	1    0    0    -1  
$EndComp
$Comp
L V_Connector:Via V?
U 1 1 5ED28B09
P 9700 1650
AR Path="/5EC941E5/5ED28B09" Ref="V?"  Part="1" 
AR Path="/5EBEB280/5ED28B09" Ref="V81"  Part="1" 
F 0 "V81" H 9725 1700 50  0000 L CNN
F 1 "Via" H 9700 1650 50  0001 C CNN
F 2 "10096315 Blower Driver:VIA-091X03-VE_1011" H 9700 1650 50  0001 C CNN
F 3 "" H 9700 1650 50  0001 C CNN
	1    9700 1650
	1    0    0    -1  
$EndComp
$Comp
L V_Connector:Via V?
U 1 1 5ED28B31
P 8275 5425
AR Path="/5EC941E5/5ED28B31" Ref="V?"  Part="1" 
AR Path="/5EBEB280/5ED28B31" Ref="V82"  Part="1" 
F 0 "V82" H 8300 5475 50  0000 L CNN
F 1 "Via" H 8275 5425 50  0001 C CNN
F 2 "10096315 Blower Driver:VIA-091X03-VE_1011" H 8275 5425 50  0001 C CNN
F 3 "" H 8275 5425 50  0001 C CNN
	1    8275 5425
	1    0    0    -1  
$EndComp
$Comp
L V_Connector:Via V?
U 1 1 5ED28B59
P 1400 3775
AR Path="/5EC941E5/5ED28B59" Ref="V?"  Part="1" 
AR Path="/5EBEB280/5ED28B59" Ref="V83"  Part="1" 
F 0 "V83" H 1425 3825 50  0000 L CNN
F 1 "Via" H 1400 3775 50  0001 C CNN
F 2 "10096315 Blower Driver:VIA-091X03-VE_1101" H 1400 3775 50  0001 C CNN
F 3 "" H 1400 3775 50  0001 C CNN
	1    1400 3775
	1    0    0    -1  
$EndComp
$Comp
L V_Connector:Via V?
U 1 1 5ED28B6D
P 8225 1025
AR Path="/5EC941E5/5ED28B6D" Ref="V?"  Part="1" 
AR Path="/5EBEB280/5ED28B6D" Ref="V84"  Part="1" 
F 0 "V84" H 8250 1075 50  0000 L CNN
F 1 "Via" H 8225 1025 50  0001 C CNN
F 2 "10096315 Blower Driver:VIA-091X03-VE_1011" H 8225 1025 50  0001 C CNN
F 3 "" H 8225 1025 50  0001 C CNN
	1    8225 1025
	1    0    0    -1  
$EndComp
$Comp
L V_Connector:Via V?
U 1 1 5ED28B81
P 3600 2475
AR Path="/5EC941E5/5ED28B81" Ref="V?"  Part="1" 
AR Path="/5EBEB280/5ED28B81" Ref="V85"  Part="1" 
F 0 "V85" H 3625 2525 50  0000 L CNN
F 1 "Via" H 3600 2475 50  0001 C CNN
F 2 "10096315 Blower Driver:VIA-091X03-VE_1001" H 3600 2475 50  0001 C CNN
F 3 "" H 3600 2475 50  0001 C CNN
	1    3600 2475
	1    0    0    -1  
$EndComp
$Comp
L V_Connector:Via V?
U 1 1 5ED28B95
P 3600 2650
AR Path="/5EC941E5/5ED28B95" Ref="V?"  Part="1" 
AR Path="/5EBEB280/5ED28B95" Ref="V86"  Part="1" 
F 0 "V86" H 3625 2700 50  0000 L CNN
F 1 "Via" H 3600 2650 50  0001 C CNN
F 2 "10096315 Blower Driver:VIA-091X03-VE_1001" H 3600 2650 50  0001 C CNN
F 3 "" H 3600 2650 50  0001 C CNN
	1    3600 2650
	1    0    0    -1  
$EndComp
$Comp
L V_Connector:Via V?
U 1 1 5ED28BA9
P 3600 2800
AR Path="/5EC941E5/5ED28BA9" Ref="V?"  Part="1" 
AR Path="/5EBEB280/5ED28BA9" Ref="V87"  Part="1" 
F 0 "V87" H 3625 2850 50  0000 L CNN
F 1 "Via" H 3600 2800 50  0001 C CNN
F 2 "10096315 Blower Driver:VIA-091X03-VE_1001" H 3600 2800 50  0001 C CNN
F 3 "" H 3600 2800 50  0001 C CNN
	1    3600 2800
	1    0    0    -1  
$EndComp
Wire Wire Line
	3575 1550 3800 1550
Text Label 4000 1550 2    50   ~ 0
N10
Wire Wire Line
	3575 1650 3800 1650
Wire Wire Line
	3800 1650 3800 1550
Connection ~ 3800 1550
Wire Wire Line
	3800 1550 4000 1550
Wire Wire Line
	3575 1750 3800 1750
Wire Wire Line
	3800 1750 3800 1650
Connection ~ 3800 1650
Wire Wire Line
	8275 4500 8450 4500
Text Label 8675 4500 2    50   ~ 0
ISENS
Wire Wire Line
	8275 4625 8450 4625
Wire Wire Line
	8450 4625 8450 4500
Wire Wire Line
	1125 2675 1225 2675
Connection ~ 8450 4500
Wire Wire Line
	8450 4500 8675 4500
Wire Wire Line
	8275 4750 8450 4750
Wire Wire Line
	8450 4750 8450 4625
Connection ~ 8450 4625
Wire Wire Line
	1950 4500 2150 4500
Wire Wire Line
	1950 4625 2150 4625
Wire Wire Line
	2150 4625 2150 4500
Connection ~ 2150 4500
Wire Wire Line
	2150 4500 2575 4500
Text Label 2575 4500 2    50   ~ 0
GND-PUIS
Wire Wire Line
	1950 4750 2150 4750
Wire Wire Line
	2150 4750 2150 4625
Connection ~ 2150 4625
Wire Wire Line
	8150 1875 8350 1875
Text Label 8775 1875 2    50   ~ 0
TOP-DR-C
Wire Wire Line
	8150 2300 8350 2300
Text Label 8775 2300 2    50   ~ 0
TOP-DR-B
Wire Wire Line
	8150 2800 8350 2800
Text Label 8775 2800 2    50   ~ 0
TOP-DR-A
Wire Wire Line
	6075 1825 6325 1825
Text Label 6700 1825 2    50   ~ 0
+15V
Wire Wire Line
	6075 1975 6325 1975
Wire Wire Line
	6325 1975 6325 1825
Connection ~ 6325 1825
Wire Wire Line
	6325 1825 6700 1825
Wire Wire Line
	1125 2925 1225 2925
Wire Wire Line
	8150 2000 8350 2000
Wire Wire Line
	8350 2000 8350 1875
Connection ~ 8350 1875
Wire Wire Line
	8350 1875 8775 1875
Wire Wire Line
	6075 2125 6325 2125
Wire Wire Line
	6325 2125 6325 1975
Wire Wire Line
	1125 3050 1225 3050
Connection ~ 6325 1975
Wire Wire Line
	8150 2475 8350 2475
Wire Wire Line
	8350 2475 8350 2300
Connection ~ 8350 2300
Wire Wire Line
	8350 2300 8775 2300
Wire Wire Line
	8150 2950 8350 2950
Wire Wire Line
	8350 2950 8350 2800
Connection ~ 8350 2800
Wire Wire Line
	8350 2800 8775 2800
Wire Wire Line
	9700 1500 9900 1500
Text Label 10300 1500 2    50   ~ 0
V-REF-M
Wire Wire Line
	8250 5075 8825 5075
Text Label 8825 5075 2    50   ~ 0
SENSOR1
Wire Wire Line
	8250 5250 8825 5250
Text Label 8825 5250 2    50   ~ 0
SENSOR2
Wire Wire Line
	3575 2050 3800 2050
Text Label 4125 2050 2    50   ~ 0
N8
Wire Wire Line
	9625 2375 10175 2375
Text Label 10175 2375 2    50   ~ 0
OE
Wire Wire Line
	1950 4900 2150 4900
Wire Wire Line
	2150 4900 2150 4750
Connection ~ 2150 4750
Wire Wire Line
	6075 2300 6325 2300
Wire Wire Line
	6325 2300 6325 2125
Connection ~ 6325 2125
Wire Wire Line
	3675 3825 3900 3825
Text Label 4200 3825 2    50   ~ 0
N56
Wire Wire Line
	1950 5050 2150 5050
Wire Wire Line
	2150 5050 2150 4900
Connection ~ 2150 4900
Wire Wire Line
	3675 3950 3900 3950
Wire Wire Line
	3900 3950 3900 3825
Connection ~ 3900 3825
Wire Wire Line
	3900 3825 4200 3825
Wire Wire Line
	8200 3300 8425 3300
Text Label 8875 3300 2    50   ~ 0
BOT-DR-A
Wire Wire Line
	8200 3700 8425 3700
Text Label 8875 3700 2    50   ~ 0
BOT-DR-B
Wire Wire Line
	8200 3975 8425 3975
Text Label 8875 3975 2    50   ~ 0
BOT-DR-C
Wire Wire Line
	6075 2475 6325 2475
Wire Wire Line
	6325 2475 6325 2300
Connection ~ 6325 2300
Wire Wire Line
	6125 3150 6700 3150
Wire Wire Line
	1125 3525 1225 3525
Text Label 6700 3150 2    50   ~ 0
+24V
Wire Wire Line
	3625 3050 3850 3050
Wire Wire Line
	1125 3775 1225 3775
Text Label 4200 3050 2    50   ~ 0
N14
Wire Wire Line
	8175 1325 8450 1325
Text Label 8750 1325 2    50   ~ 0
~FAULT~
Wire Wire Line
	9650 1025 10475 1025
Text Label 10475 1025 2    50   ~ 0
TEMPMEASURE+
Wire Wire Line
	3575 2200 3800 2200
Wire Wire Line
	3800 2200 3800 2050
Connection ~ 3800 2050
Wire Wire Line
	3800 2050 4125 2050
Wire Wire Line
	3600 3600 4150 3600
Text Label 4150 3600 2    50   ~ 0
N1
Wire Wire Line
	8175 1475 8450 1475
Wire Wire Line
	8450 1475 8450 1325
Connection ~ 8450 1325
Wire Wire Line
	8450 1325 8750 1325
Wire Wire Line
	8225 900  8450 900 
Text Label 8775 900  2    50   ~ 0
~BRAKE~
Wire Wire Line
	9625 2025 9850 2025
Text Label 10525 2025 2    50   ~ 0
SPEED-SETPOINT
Wire Wire Line
	9625 2175 9850 2175
Wire Wire Line
	9850 2175 9850 2025
Connection ~ 9850 2025
Wire Wire Line
	9850 2025 10525 2025
Wire Wire Line
	9650 1200 10475 1200
Text Label 10475 1200 2    50   ~ 0
TEMPMEASURE-
Wire Wire Line
	6075 2650 6325 2650
Wire Wire Line
	6325 2650 6325 2475
Connection ~ 6325 2475
Wire Wire Line
	6075 2825 6325 2825
Wire Wire Line
	6325 2825 6325 2650
Connection ~ 6325 2650
Wire Wire Line
	3625 3225 3850 3225
Wire Wire Line
	3850 3225 3850 3050
Connection ~ 3850 3050
Wire Wire Line
	3850 3050 4200 3050
Wire Wire Line
	8200 4125 8425 4125
Wire Wire Line
	8425 4125 8425 3975
Connection ~ 8425 3975
Wire Wire Line
	8425 3975 8875 3975
Wire Wire Line
	8200 3825 8425 3825
Wire Wire Line
	8425 3825 8425 3700
Connection ~ 8425 3700
Wire Wire Line
	8425 3700 8875 3700
Wire Wire Line
	8200 3450 8425 3450
Wire Wire Line
	8425 3450 8425 3300
Connection ~ 8425 3300
Wire Wire Line
	8425 3300 8875 3300
Wire Wire Line
	9700 1650 9900 1650
Wire Wire Line
	9900 1650 9900 1500
Connection ~ 9900 1500
Wire Wire Line
	9900 1500 10300 1500
Wire Wire Line
	8275 5425 8850 5425
Text Label 8850 5425 2    50   ~ 0
SENSOR3
Wire Wire Line
	8225 1025 8450 1025
Wire Wire Line
	8450 1025 8450 900 
Connection ~ 8450 900 
Wire Wire Line
	8450 900  8775 900 
Wire Wire Line
	3600 2475 4125 2475
Text Label 4125 2475 2    50   ~ 0
N70
Wire Wire Line
	3600 2650 4125 2650
Text Label 4125 2650 2    50   ~ 0
N65
Wire Wire Line
	3600 2800 4125 2800
Text Label 4125 2800 2    50   ~ 0
N63
Connection ~ 1225 2675
Wire Wire Line
	1225 2675 1425 2675
Connection ~ 1425 2675
Wire Wire Line
	1425 2675 1650 2675
Connection ~ 1650 2675
Wire Wire Line
	1650 2675 1850 2675
Connection ~ 1850 2675
Wire Wire Line
	1850 2675 2050 2675
Wire Wire Line
	1125 2800 1225 2800
Connection ~ 2050 2675
Connection ~ 1425 2800
Wire Wire Line
	1425 2800 1650 2800
Connection ~ 1225 2800
Wire Wire Line
	1225 2800 1425 2800
Connection ~ 1650 2800
Wire Wire Line
	1650 2800 1850 2800
Connection ~ 1850 2800
Wire Wire Line
	1850 2800 2050 2800
Connection ~ 2050 2800
Wire Wire Line
	2050 2800 2350 2800
Connection ~ 1225 2925
Wire Wire Line
	1225 2925 1425 2925
Connection ~ 1425 2925
Wire Wire Line
	1425 2925 1650 2925
Connection ~ 1650 2925
Wire Wire Line
	1650 2925 1850 2925
Connection ~ 1850 2925
Wire Wire Line
	1850 2925 2050 2925
Connection ~ 2050 2925
Wire Wire Line
	2050 2925 2350 2925
Connection ~ 1225 3050
Wire Wire Line
	1225 3050 1425 3050
Connection ~ 1425 3050
Wire Wire Line
	1425 3050 1650 3050
Connection ~ 1650 3050
Wire Wire Line
	1650 3050 1850 3050
Connection ~ 1850 3050
Wire Wire Line
	1850 3050 2050 3050
Connection ~ 2050 3050
Wire Wire Line
	2050 3050 2350 3050
Connection ~ 1225 3525
Wire Wire Line
	1225 3525 1400 3525
Connection ~ 1400 3525
Wire Wire Line
	1400 3525 1625 3525
Wire Wire Line
	1125 3650 1225 3650
Connection ~ 1625 3525
Wire Wire Line
	1625 3525 1825 3525
Connection ~ 1825 3525
Wire Wire Line
	1825 3525 2025 3525
Connection ~ 2025 3525
Wire Wire Line
	2025 3525 2350 3525
Connection ~ 1225 3650
Wire Wire Line
	1225 3650 1400 3650
Connection ~ 1400 3650
Wire Wire Line
	1400 3650 1625 3650
Connection ~ 1625 3650
Wire Wire Line
	1625 3650 1825 3650
Connection ~ 1825 3650
Wire Wire Line
	1825 3650 2025 3650
Connection ~ 2025 3650
Wire Wire Line
	2025 3650 2350 3650
Connection ~ 1225 3775
Wire Wire Line
	1225 3775 1400 3775
Connection ~ 1400 3775
Wire Wire Line
	1400 3775 2350 3775
Wire Wire Line
	2050 2675 2350 2675
Wire Wire Line
	2350 3775 2600 3775
$Comp
L V_Power:PGND #PWR0147
U 1 1 5EBADB1C
P 2575 4550
F 0 "#PWR0147" H 2715 4500 50  0001 C CNN
F 1 "PGND" H 2575 4376 50  0000 C CNN
F 2 "" H 2575 4450 50  0001 C CNN
F 3 "" H 2575 4450 50  0001 C CNN
	1    2575 4550
	1    0    0    -1  
$EndComp
Wire Wire Line
	2575 4550 2575 4500
Text Label 4375 7375 0    50   ~ 0
~FAULT~
Wire Wire Line
	4375 7375 4675 7375
Text GLabel 4675 7375 2    50   Input ~ 0
~FAULT~
Text Label 4375 7500 0    50   ~ 0
~BRAKE~
Wire Wire Line
	4375 7500 4675 7500
Text GLabel 4675 7500 2    50   Input ~ 0
~BRAKE~
Text Label 4375 7650 0    50   ~ 0
ISENS
Wire Wire Line
	4375 7650 4675 7650
Text GLabel 4675 7650 2    50   Input ~ 0
ISENS
Text GLabel 5625 7575 2    50   Input ~ 0
TOP-DR-C
Text GLabel 5625 7700 2    50   Input ~ 0
BOT-DR-A
Text GLabel 5625 7475 2    50   Input ~ 0
TOP-DR-B
Text GLabel 5625 7375 2    50   Input ~ 0
TOP-DR-A
Text GLabel 5625 7825 2    50   Input ~ 0
BOT-DR-B
Text GLabel 5625 7950 2    50   Input ~ 0
BOT-DR-C
Wire Wire Line
	5625 7375 5150 7375
Wire Wire Line
	5625 7475 5150 7475
Wire Wire Line
	5625 7575 5150 7575
Wire Wire Line
	5625 7700 5150 7700
Text Label 5150 7375 0    50   ~ 0
TOP-DR-A
Text Label 5150 7475 0    50   ~ 0
TOP-DR-B
Text Label 5150 7575 0    50   ~ 0
TOP-DR-C
Text Label 5150 7700 0    50   ~ 0
BOT-DR-A
Wire Wire Line
	5625 7825 5150 7825
Wire Wire Line
	5625 7950 5150 7950
Text Label 5150 7825 0    50   ~ 0
BOT-DR-B
Text Label 5150 7950 0    50   ~ 0
BOT-DR-C
Text GLabel 6925 7375 2    50   Input ~ 0
SENSOR1
Wire Wire Line
	6925 7375 6450 7375
Text Label 6450 7375 0    50   ~ 0
SENSOR1
Text GLabel 6925 7500 2    50   Input ~ 0
SENSOR2
Wire Wire Line
	6925 7500 6450 7500
Text Label 6450 7500 0    50   ~ 0
SENSOR2
Text GLabel 6925 7650 2    50   Input ~ 0
SENSOR3
Wire Wire Line
	6925 7650 6450 7650
Text Label 6450 7650 0    50   ~ 0
SENSOR3
Text GLabel 3525 7550 2    50   Input ~ 0
V-REF-M
Text GLabel 3525 7675 2    50   Input ~ 0
SPEED-SETPOINT
Text GLabel 3525 7450 2    50   Input ~ 0
TEMPMEASURE-
Text GLabel 3525 7350 2    50   Input ~ 0
TEMPMEASURE+
Text GLabel 4675 7825 2    50   Input ~ 0
OE
Text GLabel 2425 7325 2    50   Input ~ 0
N10
Wire Wire Line
	3525 7350 2875 7350
Wire Wire Line
	3525 7450 2875 7450
Wire Wire Line
	3525 7550 2875 7550
Wire Wire Line
	3525 7675 2875 7675
Text Label 2875 7350 0    50   ~ 0
TEMPMEASURE+
Text Label 2875 7450 0    50   ~ 0
TEMPMEASURE-
Text Label 2875 7550 0    50   ~ 0
V-REF-M
Text Label 2875 7675 0    50   ~ 0
SPEED-SETPOINT
Wire Wire Line
	4675 7825 4475 7825
Wire Wire Line
	2425 7325 2175 7325
Text Label 4475 7825 0    50   ~ 0
OE
Text Label 2175 7325 0    50   ~ 0
N10
Text GLabel 2425 7450 2    50   Input ~ 0
N8
Wire Wire Line
	2425 7450 2175 7450
Text Label 2175 7450 0    50   ~ 0
N8
Text GLabel 2425 7575 2    50   Input ~ 0
N70
Wire Wire Line
	2425 7575 2175 7575
Text Label 2175 7575 0    50   ~ 0
N70
Text GLabel 2425 7700 2    50   Input ~ 0
N65
Wire Wire Line
	2425 7700 2175 7700
Text Label 2175 7700 0    50   ~ 0
N65
Text GLabel 2425 7825 2    50   Input ~ 0
N63
Wire Wire Line
	2425 7825 2175 7825
Text Label 2175 7825 0    50   ~ 0
N63
Text GLabel 2425 7950 2    50   Input ~ 0
N14
Wire Wire Line
	2425 7950 2175 7950
Text Label 2175 7950 0    50   ~ 0
N14
Text GLabel 2425 8075 2    50   Input ~ 0
N1
Wire Wire Line
	2425 8075 2175 8075
Text Label 2175 8075 0    50   ~ 0
N1
Text GLabel 2425 8200 2    50   Input ~ 0
N56
Wire Wire Line
	2425 8200 2175 8200
Text Label 2175 8200 0    50   ~ 0
N56
Text GLabel 4675 8150 2    50   Input ~ 0
GND-PUIS
Wire Wire Line
	4675 8150 4275 8150
Text Label 4275 8150 0    50   ~ 0
GND-PUIS
$EndSCHEMATC
