EESchema Schematic File Version 4
EELAYER 30 0
EELAYER END
$Descr A3 16535 11693
encoding utf-8
Sheet 4 9
Title ""
Date ""
Rev ""
Comp ""
Comment1 ""
Comment2 ""
Comment3 ""
Comment4 ""
$EndDescr
$Comp
L V_Inductor:Ferrite_Bead_Small_10022911 L5
U 1 1 5E9D7DED
P 9650 3250
F 0 "L5" V 9305 3250 50  0000 C CNN
F 1 "74279218" V 9396 3250 50  0000 C CNN
F 2 "powersupply-c:RC1206" V 9580 3250 50  0001 C CNN
F 3 "https://katalog.we-online.de/pbs/datasheet/74279218.pdf" H 9650 3250 50  0001 C CNN
F 4 "SMD FERRITE, 1A,1206" H 9650 3250 50  0001 C CNN "Description"
F 5 "10022911" V 9650 3250 50  0001 C CNN "Item Number"
F 6 "WURTH ELEKTRONIK GMBH" H 0   0   50  0001 C CNN "Manufacturer"
F 7 "74279218" H 0   0   50  0001 C CNN "Manufacturer_No"
	1    9650 3250
	0    -1   -1   0   
$EndComp
$Comp
L V_Inductor:Ferrite_Bead_Small_10022911 L61
U 1 1 5E9D8545
P 9650 2250
F 0 "L61" V 9995 2250 50  0000 C CNN
F 1 "74279218" V 9904 2250 50  0000 C CNN
F 2 "powersupply-c:RC1206" V 9580 2250 50  0001 C CNN
F 3 "https://katalog.we-online.de/pbs/datasheet/74279218.pdf" H 9650 2250 50  0001 C CNN
F 4 "SMD FERRITE, 1A,1206" H 9650 2250 50  0001 C CNN "Description"
F 5 "10022911" V 9650 2250 50  0001 C CNN "Item Number"
F 6 "WURTH ELEKTRONIK GMBH" H 0   0   50  0001 C CNN "Manufacturer"
F 7 "74279218" H 0   0   50  0001 C CNN "Manufacturer_No"
	1    9650 2250
	0    -1   -1   0   
$EndComp
$Comp
L V_Inductor:Ferrite_Bead_Small_10022907 L50
U 1 1 5E9D8DF1
P 10050 2350
F 0 "L50" V 10287 2350 50  0000 C CNN
F 1 "74279266" V 10196 2350 50  0000 C CNN
F 2 "powersupply-c:C0603" V 9980 2350 50  0001 C CNN
F 3 "" H 10050 2350 50  0001 C CNN
F 4 "SMD FERRITE 200MA" H 10050 2350 50  0001 C CNN "Description"
F 5 "10022907" H 10050 2350 50  0001 C CNN "Item Number"
F 6 "WURTH ELEKTRONIK GMBH" H 0   0   50  0001 C CNN "Manufacturer"
F 7 "74279266" H 0   0   50  0001 C CNN "Manufacturer_No"
	1    10050 2350
	0    -1   -1   0   
$EndComp
$Comp
L V_Connector:Conn_02x13_Odd_Even J7
U 1 1 5E9D960E
P 8950 2750
F 0 "J7" H 9000 1925 50  0000 C CNN
F 1 "CPU BOARD" H 9000 2016 50  0000 C CNN
F 2 "powersupply-c:BP2X13D_0xc6386f86186186186186186186186186186fc63" H 8950 2750 50  0001 C CNN
F 3 "" H 8950 2750 50  0001 C CNN
F 4 "HEADER CONNECTOR, VERTICAL, 26 PINS" H 0   0   50  0001 C CNN "Description"
F 5 "10052332" H 0   0   50  0001 C CNN "Item Number"
F 6 "FCI/BERG" H 0   0   50  0001 C CNN "Manufacturer"
F 7 "FCI/BERG" H 0   0   50  0001 C CNN "Manufacturer2"
F 8 "75869-105LF" H 0   0   50  0001 C CNN "Manufacturer_No"
F 9 "88880-013LF" H 0   0   50  0001 C CNN "Manufacturer_No2"
	1    8950 2750
	-1   0    0    1   
$EndComp
Wire Wire Line
	9150 3250 9550 3250
Text Label 9200 3250 0    50   ~ 0
J7-BR3
Wire Wire Line
	9150 2250 9550 2250
Text Label 9200 2250 0    50   ~ 0
J7-BR23
$Comp
L V_Inductor:Ferrite_Bead_Small_10022907 L49
U 1 1 5EA74213
P 10450 2450
F 0 "L49" V 10750 2450 50  0000 C CNN
F 1 "74279266" V 10650 2450 50  0000 C CNN
F 2 "powersupply-c:C0603" V 10380 2450 50  0001 C CNN
F 3 "" H 10450 2450 50  0001 C CNN
F 4 "SMD FERRITE 200MA" H 10450 2450 50  0001 C CNN "Description"
F 5 "10022907" H 10450 2450 50  0001 C CNN "Item Number"
F 6 "WURTH ELEKTRONIK GMBH" H 0   0   50  0001 C CNN "Manufacturer"
F 7 "74279266" H 0   0   50  0001 C CNN "Manufacturer_No"
	1    10450 2450
	0    -1   -1   0   
$EndComp
$Comp
L V_Inductor:Ferrite_Bead_Small_10022907 L48
U 1 1 5E9F70D0
P 10850 2550
F 0 "L48" V 11150 2550 50  0000 C CNN
F 1 "74279266" V 11050 2550 50  0000 C CNN
F 2 "powersupply-c:C0603" V 10780 2550 50  0001 C CNN
F 3 "" H 10850 2550 50  0001 C CNN
F 4 "SMD FERRITE 200MA" H 10850 2550 50  0001 C CNN "Description"
F 5 "10022907" H 10850 2550 50  0001 C CNN "Item Number"
F 6 "WURTH ELEKTRONIK GMBH" H 0   0   50  0001 C CNN "Manufacturer"
F 7 "74279266" H 0   0   50  0001 C CNN "Manufacturer_No"
	1    10850 2550
	0    -1   -1   0   
$EndComp
$Comp
L V_Inductor:Ferrite_Bead_Small_10022907 L47
U 1 1 5E9F744C
P 11250 2650
F 0 "L47" V 11550 2650 50  0000 C CNN
F 1 "74279266" V 11450 2650 50  0000 C CNN
F 2 "powersupply-c:C0603" V 11180 2650 50  0001 C CNN
F 3 "" H 11250 2650 50  0001 C CNN
F 4 "SMD FERRITE 200MA" H 11250 2650 50  0001 C CNN "Description"
F 5 "10022907" H 11250 2650 50  0001 C CNN "Item Number"
F 6 "WURTH ELEKTRONIK GMBH" H 0   0   50  0001 C CNN "Manufacturer"
F 7 "74279266" H 0   0   50  0001 C CNN "Manufacturer_No"
	1    11250 2650
	0    -1   -1   0   
$EndComp
$Comp
L V_Inductor:Ferrite_Bead_Small_10022907 L46
U 1 1 5E9FB98A
P 11650 2750
F 0 "L46" V 11950 2750 50  0000 C CNN
F 1 "74279266" V 11850 2750 50  0000 C CNN
F 2 "powersupply-c:C0603" V 11580 2750 50  0001 C CNN
F 3 "" H 11650 2750 50  0001 C CNN
F 4 "SMD FERRITE 200MA" H 11650 2750 50  0001 C CNN "Description"
F 5 "10022907" H 11650 2750 50  0001 C CNN "Item Number"
F 6 "WURTH ELEKTRONIK GMBH" H 0   0   50  0001 C CNN "Manufacturer"
F 7 "74279266" H 0   0   50  0001 C CNN "Manufacturer_No"
	1    11650 2750
	0    -1   -1   0   
$EndComp
$Comp
L V_Inductor:Ferrite_Bead_Small_10022907 L45
U 1 1 5E9FB996
P 10050 2850
F 0 "L45" V 10287 2850 50  0000 C CNN
F 1 "74279266" V 10196 2850 50  0000 C CNN
F 2 "powersupply-c:C0603" V 9980 2850 50  0001 C CNN
F 3 "" H 10050 2850 50  0001 C CNN
F 4 "SMD FERRITE 200MA" H 10050 2850 50  0001 C CNN "Description"
F 5 "10022907" H 10050 2850 50  0001 C CNN "Item Number"
F 6 "WURTH ELEKTRONIK GMBH" H 0   0   50  0001 C CNN "Manufacturer"
F 7 "74279266" H 0   0   50  0001 C CNN "Manufacturer_No"
	1    10050 2850
	0    -1   -1   0   
$EndComp
$Comp
L V_Inductor:Ferrite_Bead_Small_10022907 L44
U 1 1 5E9FB9A2
P 10450 2950
F 0 "L44" V 10750 2950 50  0000 C CNN
F 1 "74279266" V 10650 2950 50  0000 C CNN
F 2 "powersupply-c:C0603" V 10380 2950 50  0001 C CNN
F 3 "" H 10450 2950 50  0001 C CNN
F 4 "SMD FERRITE 200MA" H 10450 2950 50  0001 C CNN "Description"
F 5 "10022907" H 10450 2950 50  0001 C CNN "Item Number"
F 6 "WURTH ELEKTRONIK GMBH" H 0   0   50  0001 C CNN "Manufacturer"
F 7 "74279266" H 0   0   50  0001 C CNN "Manufacturer_No"
	1    10450 2950
	0    -1   -1   0   
$EndComp
$Comp
L V_Inductor:Ferrite_Bead_Small_10022907 L43
U 1 1 5E9FB9AE
P 10850 3050
F 0 "L43" V 11150 3050 50  0000 C CNN
F 1 "74279266" V 11050 3050 50  0000 C CNN
F 2 "powersupply-c:C0603" V 10780 3050 50  0001 C CNN
F 3 "" H 10850 3050 50  0001 C CNN
F 4 "SMD FERRITE 200MA" H 10850 3050 50  0001 C CNN "Description"
F 5 "10022907" H 10850 3050 50  0001 C CNN "Item Number"
F 6 "WURTH ELEKTRONIK GMBH" H 0   0   50  0001 C CNN "Manufacturer"
F 7 "74279266" H 0   0   50  0001 C CNN "Manufacturer_No"
	1    10850 3050
	0    -1   -1   0   
$EndComp
Text Label 9200 2350 0    50   ~ 0
J7-BR21
Text Label 9200 2450 0    50   ~ 0
J7-BR19
Text Label 9200 2550 0    50   ~ 0
J7-BR17
Text Label 9200 2650 0    50   ~ 0
J7-BR15
$Comp
L V_Inductor:Ferrite_Bead_Small_10022907 L6
U 1 1 5EA0EB0B
P 11250 3150
F 0 "L6" V 11395 3150 50  0000 C CNN
F 1 "74279266" V 11486 3150 50  0000 C CNN
F 2 "powersupply-c:C0603" V 11180 3150 50  0001 C CNN
F 3 "" H 11250 3150 50  0001 C CNN
F 4 "SMD FERRITE 200MA" H 11250 3150 50  0001 C CNN "Description"
F 5 "10022907" H 11250 3150 50  0001 C CNN "Item Number"
F 6 "WURTH ELEKTRONIK GMBH" H 0   0   50  0001 C CNN "Manufacturer"
F 7 "74279266" H 0   0   50  0001 C CNN "Manufacturer_No"
	1    11250 3150
	0    1    1    0   
$EndComp
$Comp
L V_Inductor:Ferrite_Bead_Small_10022907 L23
U 1 1 5EA0EB17
P 8150 3150
F 0 "L23" V 8387 3150 50  0000 C CNN
F 1 "74279266" V 8296 3150 50  0000 C CNN
F 2 "powersupply-c:C0603" V 8080 3150 50  0001 C CNN
F 3 "" H 8150 3150 50  0001 C CNN
F 4 "SMD FERRITE 200MA" H 8150 3150 50  0001 C CNN "Description"
F 5 "10022907" H 8150 3150 50  0001 C CNN "Item Number"
F 6 "WURTH ELEKTRONIK GMBH" H 0   0   50  0001 C CNN "Manufacturer"
F 7 "74279266" H 0   0   50  0001 C CNN "Manufacturer_No"
	1    8150 3150
	0    -1   -1   0   
$EndComp
Wire Wire Line
	9750 3250 9850 3250
Wire Wire Line
	9850 3250 9850 2250
Wire Wire Line
	9750 2250 9850 2250
Connection ~ 9850 2250
Wire Wire Line
	9850 2250 9850 1650
Wire Wire Line
	9950 2850 9150 2850
Text Label 9200 2850 0    50   ~ 0
J7-BR11
Text Label 9200 2950 0    50   ~ 0
J7-BR9
Text Label 9200 3050 0    50   ~ 0
J7-BR7
Text Label 9200 3150 0    50   ~ 0
J7-BR5
$Comp
L V_Power:+24VUTIL #PWR0137
U 1 1 5EA7421C
P 9850 1650
F 0 "#PWR0137" H 9850 1500 50  0001 C CNN
F 1 "+24VUTIL" H 9865 1849 50  0000 C CNN
F 2 "" H 9850 1650 50  0001 C CNN
F 3 "" H 9850 1650 50  0001 C CNN
	1    9850 1650
	1    0    0    -1  
$EndComp
Text Label 9200 2750 0    50   ~ 0
J7-BR13
Wire Wire Line
	8250 3150 8650 3150
$Comp
L V_Power:PGND #PWR0138
U 1 1 5EA7421D
P 9350 3450
F 0 "#PWR0138" H 9350 3200 50  0001 C CNN
F 1 "PGND" H 9355 3277 50  0000 C CNN
F 2 "" H 9350 3450 50  0001 C CNN
F 3 "" H 9350 3450 50  0001 C CNN
	1    9350 3450
	1    0    0    -1  
$EndComp
Wire Wire Line
	9150 3350 9350 3350
Wire Wire Line
	9350 3350 9350 3450
$Comp
L V_Power:0VANA #PWR0139
U 1 1 5EA2E99C
P 8550 3450
F 0 "#PWR0139" H 8550 3200 50  0001 C CNN
F 1 "0VANA" H 8555 3277 50  0000 C CNN
F 2 "" H 8550 3450 50  0001 C CNN
F 3 "" H 8550 3450 50  0001 C CNN
	1    8550 3450
	1    0    0    -1  
$EndComp
$Comp
L V_Power:GND #PWR0140
U 1 1 5EA2ECFD
P 8250 3450
F 0 "#PWR0140" H 8250 3200 50  0001 C CNN
F 1 "GND" H 8255 3277 50  0000 C CNN
F 2 "" H 8250 3450 50  0001 C CNN
F 3 "" H 8250 3450 50  0001 C CNN
	1    8250 3450
	1    0    0    -1  
$EndComp
Wire Wire Line
	8550 3450 8550 3350
Wire Wire Line
	8550 3350 8650 3350
Wire Wire Line
	8250 3450 8250 3250
Wire Wire Line
	8250 3250 8650 3250
$Comp
L V_Power:PGND #PWR0141
U 1 1 5EA74220
P 9350 1650
F 0 "#PWR0141" H 9350 1400 50  0001 C CNN
F 1 "PGND" H 9355 1477 50  0000 C CNN
F 2 "" H 9350 1650 50  0001 C CNN
F 3 "" H 9350 1650 50  0001 C CNN
	1    9350 1650
	1    0    0    -1  
$EndComp
Wire Wire Line
	9350 1650 9350 1550
Wire Wire Line
	9350 1550 9250 1550
Wire Wire Line
	9250 2150 9150 2150
$Comp
L V_Inductor:Ferrite_Bead_Small_10022907 L20
U 1 1 5EA74223
P 6950 2850
F 0 "L20" V 7250 2850 50  0000 C CNN
F 1 "74279266" V 7150 2850 50  0000 C CNN
F 2 "powersupply-c:C0603" V 6880 2850 50  0001 C CNN
F 3 "" H 6950 2850 50  0001 C CNN
F 4 "SMD FERRITE 200MA" H 6950 2850 50  0001 C CNN "Description"
F 5 "10022907" H 6950 2850 50  0001 C CNN "Item Number"
F 6 "WURTH ELEKTRONIK GMBH" H 0   0   50  0001 C CNN "Manufacturer"
F 7 "74279266" H 0   0   50  0001 C CNN "Manufacturer_No"
	1    6950 2850
	0    -1   -1   0   
$EndComp
$Comp
L V_Inductor:Ferrite_Bead_Small_10022907 L21
U 1 1 5EA74224
P 7350 2950
F 0 "L21" V 7650 2950 50  0000 C CNN
F 1 "74279266" V 7550 2950 50  0000 C CNN
F 2 "powersupply-c:C0603" V 7280 2950 50  0001 C CNN
F 3 "" H 7350 2950 50  0001 C CNN
F 4 "SMD FERRITE 200MA" H 7350 2950 50  0001 C CNN "Description"
F 5 "10022907" H 7350 2950 50  0001 C CNN "Item Number"
F 6 "WURTH ELEKTRONIK GMBH" H 0   0   50  0001 C CNN "Manufacturer"
F 7 "74279266" H 0   0   50  0001 C CNN "Manufacturer_No"
	1    7350 2950
	0    -1   -1   0   
$EndComp
$Comp
L V_Inductor:Ferrite_Bead_Small_10022907 L22
U 1 1 5EA3C144
P 7750 3050
F 0 "L22" V 8050 3050 50  0000 C CNN
F 1 "74279266" V 7950 3050 50  0000 C CNN
F 2 "powersupply-c:C0603" V 7680 3050 50  0001 C CNN
F 3 "" H 7750 3050 50  0001 C CNN
F 4 "SMD FERRITE 200MA" H 7750 3050 50  0001 C CNN "Description"
F 5 "10022907" H 7750 3050 50  0001 C CNN "Item Number"
F 6 "WURTH ELEKTRONIK GMBH" H 0   0   50  0001 C CNN "Manufacturer"
F 7 "74279266" H 0   0   50  0001 C CNN "Manufacturer_No"
	1    7750 3050
	0    -1   -1   0   
$EndComp
Wire Wire Line
	8250 2650 8650 2650
Text Label 8300 2950 0    50   ~ 0
J7-BR10
Text Label 8300 3050 0    50   ~ 0
J7-BR8
Text Label 8300 3150 0    50   ~ 0
J7-BR6
Text Label 8300 2850 0    50   ~ 0
J7-BR12
Text Label 8300 2750 0    50   ~ 0
J7-BR14
Text Label 8300 2650 0    50   ~ 0
J7-BR16
Text Label 8300 2550 0    50   ~ 0
J7-BR18
Text Label 8300 2450 0    50   ~ 0
J7-BR20
Text Label 8300 2350 0    50   ~ 0
J7-BR22
Wire Wire Line
	8650 2250 8250 2250
Wire Wire Line
	8250 2250 8250 1550
Wire Wire Line
	8250 1550 8150 1550
Wire Wire Line
	8150 1550 8150 1650
Wire Wire Line
	8650 2150 8350 2150
Wire Wire Line
	8350 2150 8350 1550
Wire Wire Line
	8350 1550 8550 1550
Wire Wire Line
	8550 1550 8550 1650
$Comp
L V_Power:0VANA #PWR0142
U 1 1 5EA74229
P 8550 1650
F 0 "#PWR0142" H 8550 1400 50  0001 C CNN
F 1 "0VANA" H 8555 1477 50  0000 C CNN
F 2 "" H 8550 1650 50  0001 C CNN
F 3 "" H 8550 1650 50  0001 C CNN
	1    8550 1650
	1    0    0    -1  
$EndComp
$Comp
L V_Power:GND #PWR0143
U 1 1 5EA62B37
P 8150 1650
F 0 "#PWR0143" H 8150 1400 50  0001 C CNN
F 1 "GND" H 8155 1477 50  0000 C CNN
F 2 "" H 8150 1650 50  0001 C CNN
F 3 "" H 8150 1650 50  0001 C CNN
	1    8150 1650
	1    0    0    -1  
$EndComp
Wire Wire Line
	9250 1550 9250 2150
Wire Wire Line
	4550 4050 3850 4050
Wire Wire Line
	4550 3350 3850 3350
Wire Wire Line
	4550 2650 3850 2650
Wire Wire Line
	4550 1950 3850 1950
Text Label 3850 3750 0    50   ~ 0
J7-BR10
Text Label 3850 4050 0    50   ~ 0
J7-BR8
Text Label 3850 4450 0    50   ~ 0
J7-BR6
Text Label 3850 3350 0    50   ~ 0
J7-BR12
Text Label 3850 3050 0    50   ~ 0
J7-BR14
Text Label 3850 2650 0    50   ~ 0
J7-BR16
Text Label 3850 2350 0    50   ~ 0
J7-BR18
Text Label 3850 1950 0    50   ~ 0
J7-BR20
Text Label 3850 1650 0    50   ~ 0
J7-BR22
Wire Wire Line
	3850 4750 4550 4750
Text Label 3850 4750 0    50   ~ 0
J7-BR3
Wire Wire Line
	3850 1550 4550 1550
Text Label 3850 1550 0    50   ~ 0
J7-BR23
Wire Wire Line
	4550 2250 3850 2250
Wire Wire Line
	4550 2950 3850 2950
Text Label 3850 1850 0    50   ~ 0
J7-BR21
Text Label 3850 2250 0    50   ~ 0
J7-BR19
Text Label 3850 2550 0    50   ~ 0
J7-BR17
Text Label 3850 2950 0    50   ~ 0
J7-BR15
Wire Wire Line
	3850 4350 4550 4350
Wire Wire Line
	4550 3650 3850 3650
Text Label 3850 3650 0    50   ~ 0
J7-BR11
Text Label 3850 3950 0    50   ~ 0
J7-BR9
Text Label 3850 4350 0    50   ~ 0
J7-BR7
Text Label 3850 4650 0    50   ~ 0
J7-BR5
Text Label 3850 3250 0    50   ~ 0
J7-BR13
$Comp
L V_Capacitor:47pF_array C62
U 1 1 5EA7420A
P 4650 3850
F 0 "C62" H 4850 3900 50  0000 C CNN
F 1 "47pF" H 4850 3800 50  0000 C CNN
F 2 "powersupply-c:C0612-4" V 4650 3925 50  0001 C CNN
F 3 "https://www.yageo.com/upload/media/product/productsearch/datasheet/mlcc/UPY-4C-Array_16V-to-50V_5.pdf" V 4650 3925 50  0001 C CNN
F 4 "CAPACITOR ARRAY, 47PF, 50V, +/-10%,NPO,0612" V 4650 3825 50  0001 C CNN "Description"
F 5 "10022136" H 4650 3850 50  0001 C CNN "Item Number"
F 6 "YAGEO_RMS1" H 0   0   50  0001 C CNN "Manufacturer"
F 7 "AVX_RMS1" H 0   0   50  0001 C CNN "Manufacturer2"
F 8 "CA0612KRNPO9BN470" H 0   0   50  0001 C CNN "Manufacturer_No"
F 9 "W3A45A470KAT2A" H 0   0   50  0001 C CNN "Manufacturer_No2"
	1    4650 3850
	1    0    0    -1  
$EndComp
$Comp
L V_Capacitor:47pF_array C98
U 1 1 5E9C3D44
P 4650 3150
F 0 "C98" H 4900 3200 50  0000 R CNN
F 1 "47pF" H 4750 3100 50  0000 L CNN
F 2 "powersupply-c:C0612-4" V 4650 3225 50  0001 C CNN
F 3 "https://www.yageo.com/upload/media/product/productsearch/datasheet/mlcc/UPY-4C-Array_16V-to-50V_5.pdf" V 4650 3225 50  0001 C CNN
F 4 "CAPACITOR ARRAY, 47PF, 50V, +/-10%,NPO,0612" V 4650 3125 50  0001 C CNN "Description"
F 5 "10022136" H 4650 3150 50  0001 C CNN "Item Number"
F 6 "YAGEO_RMS1" H 0   0   50  0001 C CNN "Manufacturer"
F 7 "AVX_RMS1" H 0   0   50  0001 C CNN "Manufacturer2"
F 8 "CA0612KRNPO9BN470" H 0   0   50  0001 C CNN "Manufacturer_No"
F 9 "W3A45A470KAT2A" H 0   0   50  0001 C CNN "Manufacturer_No2"
	1    4650 3150
	1    0    0    -1  
$EndComp
$Comp
L V_Power:GND #PWR0144
U 1 1 5EA7420E
P 5050 4950
F 0 "#PWR0144" H 5050 4700 50  0001 C CNN
F 1 "GND" H 5050 4800 50  0000 C CNN
F 2 "" H 5050 4950 50  0001 C CNN
F 3 "" H 5050 4950 50  0001 C CNN
	1    5050 4950
	1    0    0    -1  
$EndComp
Wire Wire Line
	5050 1550 4750 1550
Connection ~ 5050 1850
Wire Wire Line
	4750 1950 5050 1950
Connection ~ 5050 1950
Wire Wire Line
	5050 1950 5050 1850
Wire Wire Line
	5050 2250 4750 2250
Wire Wire Line
	4750 2650 5050 2650
Connection ~ 5050 2250
Wire Wire Line
	5050 2250 5050 1950
Connection ~ 5050 2350
Wire Wire Line
	5050 2350 5050 2250
Connection ~ 5050 2550
Wire Wire Line
	5050 2550 5050 2350
Wire Wire Line
	5050 2650 5050 2550
Wire Wire Line
	5050 2950 4750 2950
Wire Wire Line
	4750 3350 5050 3350
Wire Wire Line
	5050 3650 4750 3650
Wire Wire Line
	4750 4050 5050 4050
Wire Wire Line
	5050 4350 4750 4350
Wire Wire Line
	4750 4750 5050 4750
Wire Wire Line
	5050 4950 5050 4750
Connection ~ 5050 2650
Connection ~ 5050 2950
Wire Wire Line
	5050 2950 5050 2650
Connection ~ 5050 3050
Wire Wire Line
	5050 3050 5050 2950
Connection ~ 5050 3250
Wire Wire Line
	5050 3250 5050 3050
Connection ~ 5050 3350
Wire Wire Line
	5050 3350 5050 3250
Connection ~ 5050 3650
Wire Wire Line
	5050 3650 5050 3350
Connection ~ 5050 3750
Wire Wire Line
	5050 3750 5050 3650
Connection ~ 5050 3950
Wire Wire Line
	5050 3950 5050 3750
Connection ~ 5050 4050
Wire Wire Line
	5050 4050 5050 3950
Connection ~ 5050 4350
Wire Wire Line
	5050 4350 5050 4050
Connection ~ 5050 4450
Wire Wire Line
	5050 4450 5050 4350
Connection ~ 5050 4650
Wire Wire Line
	5050 4650 5050 4450
Connection ~ 5050 4750
Wire Wire Line
	5050 4750 5050 4650
Wire Wire Line
	6050 2350 6850 2350
Wire Wire Line
	12150 3150 11350 3150
Wire Wire Line
	11950 2750 11750 2750
Wire Notes Line
	5550 3850 13250 3850
Wire Notes Line
	13250 3850 13250 1350
Wire Notes Line
	13250 1350 3750 1350
Wire Notes Line
	3750 1350 3750 5250
Wire Notes Line
	3750 5250 5550 5250
Wire Notes Line
	5550 5250 5550 3850
Text Notes 3750 1325 0    79   ~ 0
CPU BOARD CONNECTOR
Wire Wire Line
	11950 1950 11950 2750
$Comp
L V_Power:+5V #PWR0166
U 1 1 5EA706C2
P 11950 1950
F 0 "#PWR0166" H 11950 1800 50  0001 C CNN
F 1 "+5V" H 11950 2090 50  0000 C CNN
F 2 "" H 11950 1950 50  0001 C CNN
F 3 "" H 11950 1950 50  0001 C CNN
	1    11950 1950
	1    0    0    -1  
$EndComp
$Comp
L V_Connector:Conn_01x10_Female J10
U 1 1 5EAA7A9F
P 2900 6600
F 0 "J10" H 2900 7100 50  0000 C CNN
F 1 "BATTERY" H 2900 6000 50  0000 C CNN
F 2 "powersupply-c:BARRET2X5F_110001110001110001110001100001100001100001100001100001100001" H 2900 6600 50  0001 C CNN
F 3 "https://cdn.harwin.com/pdfs/M20-783.pdf" H 2900 6600 50  0001 C CNN
F 4 "CONNECTOR FEMALE,2.54MM SPACING,8.5MM +/-0.15" H 0   0   50  0001 C CNN "Description"
F 5 "10022875" H 0   0   50  0001 C CNN "Item Number"
F 6 "HARWIN                          (012775)" H 0   0   50  0001 C CNN "Manufacturer"
F 7 "MOLEX_RMS1" H 0   0   50  0001 C CNN "Manufacturer2"
F 8 "M20-7830546" H 0   0   50  0001 C CNN "Manufacturer_No"
F 9 "90151-2210 " H 0   0   50  0001 C CNN "Manufacturer_No2"
	1    2900 6600
	-1   0    0    1   
$EndComp
Wire Wire Line
	3100 6100 3200 6100
Wire Wire Line
	3200 6100 3200 6200
Wire Wire Line
	3200 6400 3100 6400
Wire Wire Line
	3100 6300 3200 6300
Connection ~ 3200 6300
Wire Wire Line
	3200 6300 3200 6400
Wire Wire Line
	3100 6200 3200 6200
Connection ~ 3200 6200
Wire Wire Line
	3200 6200 3200 6300
Wire Wire Line
	3100 6700 3200 6700
Wire Wire Line
	3200 6700 3200 6800
Wire Wire Line
	3200 7000 3100 7000
Wire Wire Line
	3100 6900 3200 6900
Connection ~ 3200 6900
Wire Wire Line
	3200 6900 3200 7000
Wire Wire Line
	3100 6800 3200 6800
Connection ~ 3200 6800
Wire Wire Line
	3200 6800 3200 6900
$Comp
L V_Varistor:Varistor_10022926 ML2
U 1 1 5EA7422D
P 3450 7050
F 0 "ML2" H 3329 7050 50  0000 R CNN
F 1 "B72500T0040M060" H 3650 7050 50  0001 R CNN
F 2 "powersupply-c:R0603" V 3380 7050 50  0001 C CNN
F 3 "" H 3450 7050 50  0001 C CNN
F 4 "SMD VARISTOR, 5.5V,C0603" H 3450 7050 50  0001 C CNN "Description"
F 5 "10022926" H 3450 7050 50  0001 C CNN "Item Number"
F 6 "EPCOS_RMS1" H 0   0   50  0001 C CNN "Manufacturer"
F 7 "B72500T0040M060" H 0   0   50  0001 C CNN "Manufacturer_No"
	1    3450 7050
	-1   0    0    1   
$EndComp
Wire Wire Line
	3450 7200 3450 7300
Connection ~ 3200 7000
Wire Wire Line
	3100 6600 3450 6600
Wire Wire Line
	3450 6900 3450 6600
Connection ~ 3450 6600
Wire Wire Line
	3450 6600 3550 6600
Wire Wire Line
	4200 6900 4200 6500
Connection ~ 4200 6500
Wire Wire Line
	4200 6500 4300 6500
Wire Wire Line
	3550 6300 3550 6600
Wire Wire Line
	3550 6600 4300 6600
Wire Notes Line
	2700 8150 6000 8150
Wire Notes Line
	6000 5650 2700 5650
Text Notes 2700 5625 0    79   ~ 0
BATTERY CONTACT CONNECTOR
$Comp
L V_Power:PGND #PWR0171
U 1 1 5EC14757
P 3450 10200
F 0 "#PWR0171" H 3450 9950 50  0001 C CNN
F 1 "PGND" H 3450 10050 50  0000 C CNN
F 2 "" H 3450 10200 50  0001 C CNN
F 3 "" H 3450 10200 50  0001 C CNN
	1    3450 10200
	1    0    0    -1  
$EndComp
Wire Wire Line
	3750 10000 3750 10100
Wire Wire Line
	3750 9600 3750 9700
Wire Notes Line
	2650 9200 2650 10600
Wire Notes Line
	2650 10600 4850 10600
Wire Notes Line
	4850 10600 4850 9200
Wire Notes Line
	4850 9200 2650 9200
Text Notes 2650 9175 0    79   ~ 0
POWER SUPPLY BLOWER BOARD CONNECTOR
$Comp
L V_Power:+24VUTIL #PWR0172
U 1 1 5EA7423C
P 3650 9500
F 0 "#PWR0172" H 3650 9350 50  0001 C CNN
F 1 "+24VUTIL" H 3650 9665 50  0000 C CNN
F 2 "" H 3650 9500 50  0001 C CNN
F 3 "" H 3650 9500 50  0001 C CNN
	1    3650 9500
	1    0    0    -1  
$EndComp
Wire Wire Line
	3350 9600 3650 9600
Wire Wire Line
	4450 9600 4450 9700
Wire Wire Line
	3750 9600 4450 9600
Wire Wire Line
	3650 9500 3650 9600
Connection ~ 3650 9600
Wire Wire Line
	3650 9600 3750 9600
Wire Wire Line
	3350 9700 3450 9700
Wire Wire Line
	3450 9700 3450 10100
Wire Wire Line
	3450 10100 3750 10100
Wire Wire Line
	4450 10100 4450 10000
Connection ~ 3450 10100
Wire Wire Line
	3450 10100 3450 10200
Connection ~ 3750 10100
Wire Wire Line
	3750 10100 4450 10100
$Comp
L V_Power:VBAT #PWR0173
U 1 1 5EA7423E
P 6250 1950
F 0 "#PWR0173" H 6250 1800 50  0001 C CNN
F 1 "VBAT" H 6250 2115 50  0000 C CNN
F 2 "" H 6250 1950 50  0001 C CNN
F 3 "" H 6250 1950 50  0001 C CNN
	1    6250 1950
	1    0    0    -1  
$EndComp
Wire Wire Line
	6250 1950 6250 2750
Wire Wire Line
	6250 2750 6450 2750
Text Notes 2750 8550 0    79   ~ 0
BAT-EEPROM changed to an input.\nwas output in original schematic.
$Comp
L V_Transistor:IRLML2803TRPBF T23
U 1 1 5ED42F62
P 9550 8350
F 0 "T23" H 9754 8396 50  0000 L CNN
F 1 "IRLML2803" H 9754 8305 50  0000 L CNN
F 2 "powersupply-c:SOT23-GSD" H 10500 8275 50  0001 C CIN
F 3 "https://www.infineon.com/dgdl/irlml2803pbf.pdf?fileId=5546d462533600a4015356682aff260f" H 9875 8050 50  0001 L CNN
F 4 "TRANSISTOR MOSFET, 30V, 0.93A, 0.25 OHM, N CHANNEL" H 10350 8275 50  0001 C CNN "Description"
F 5 "10022558" H 9550 8350 50  0001 C CNN "Item Number"
F 6 "INTERNATIONAL RECTIFIER_RMS1" H 0   0   50  0001 C CNN "Manufacturer"
F 7 "INTERNATIONAL RECTIFIER_RMS1" H 0   0   50  0001 C CNN "Manufacturer2"
F 8 "IRLML2803PBF" H 0   0   50  0001 C CNN "Manufacturer_No"
F 9 "IRLML2803TRPBF" H 0   0   50  0001 C CNN "Manufacturer_No2"
	1    9550 8350
	1    0    0    -1  
$EndComp
$Comp
L V_Transistor:IRLML5103TRPBF T31
U 1 1 5EAE8197
P 10050 7150
F 0 "T31" V 10392 7150 50  0000 C CNN
F 1 "IRLML5103" V 10301 7150 50  0000 C CNN
F 2 "powersupply-c:SOT23-GSD" H 10250 7075 50  0001 L CIN
F 3 "https://www.infineon.com/dgdl/irlml5103pbf.pdf?fileId=5546d462533600a401535668505d2617" H 10050 7150 50  0001 L CNN
F 4 "RSPTRANSISTOR MOSFET, P CHANNEL, 30V,0.6A" H 10925 7075 50  0001 C CNN "Description"
F 5 "10022933" H 10050 7150 50  0001 C CNN "Item Number"
F 6 "INTERNATIONAL RECTIFIER_RMS1" H 0   0   50  0001 C CNN "Manufacturer"
F 7 "IRLML5103TRPBF" H 0   0   50  0001 C CNN "Manufacturer_No"
	1    10050 7150
	0    1    -1   0   
$EndComp
$Comp
L V_IC:LM78M05_TO252 IC25
U 1 1 5ED463F1
P 7300 7150
F 0 "IC25" H 7150 7275 50  0000 C CNN
F 1 "L78M24CDT" H 7300 7275 50  0000 L CNN
F 2 "powersupply-c:DPAK" H 7300 7375 50  0001 C CIN
F 3 "" H 7300 7100 50  0001 C CNN
F 4 "IC,REGULATOR, 24V +/-4%, 500MA, DPACK" H 0   0   50  0001 C CNN "Description"
F 5 "10022904" H 0   0   50  0001 C CNN "Item Number"
F 6 "ST MICROELECTRONIC" H 0   0   50  0001 C CNN "Manufacturer"
F 7 "ST MICROELECTRONIC" H 0   0   50  0001 C CNN "Manufacturer2"
F 8 "L78M24CDT-TR" H 0   0   50  0001 C CNN "Manufacturer_No"
F 9 "L78M24CDT" H 0   0   50  0001 C CNN "Manufacturer_No2"
	1    7300 7150
	1    0    0    -1  
$EndComp
$Comp
L V_Power:+24VUTIL #PWR0174
U 1 1 5ED566AD
P 8250 6750
F 0 "#PWR0174" H 8250 6600 50  0001 C CNN
F 1 "+24VUTIL" H 8250 6915 50  0000 C CNN
F 2 "" H 8250 6750 50  0001 C CNN
F 3 "" H 8250 6750 50  0001 C CNN
	1    8250 6750
	1    0    0    -1  
$EndComp
$Comp
L V_Power:GND #PWR0175
U 1 1 5ED56BA6
P 7600 7850
F 0 "#PWR0175" H 7600 7600 50  0001 C CNN
F 1 "GND" H 7600 7700 50  0000 C CNN
F 2 "" H 7600 7850 50  0001 C CNN
F 3 "" H 7600 7850 50  0001 C CNN
	1    7600 7850
	1    0    0    -1  
$EndComp
$Comp
L V_Power:VACDC #PWR0176
U 1 1 5ED5B3D2
P 6650 6750
F 0 "#PWR0176" H 6650 6600 50  0001 C CNN
F 1 "VACDC" H 6650 6915 50  0000 C CNN
F 2 "" H 6650 6750 50  0001 C CNN
F 3 "" H 6650 6750 50  0001 C CNN
	1    6650 6750
	1    0    0    -1  
$EndComp
Wire Wire Line
	7600 7150 7700 7150
Wire Wire Line
	8550 6950 8250 6950
Wire Wire Line
	8250 6950 8250 6750
Wire Wire Line
	6650 6750 6650 7150
Wire Wire Line
	6650 7150 7000 7150
Connection ~ 6650 7150
Wire Wire Line
	6650 7650 6650 7750
Wire Wire Line
	8450 7750 8450 7650
Wire Wire Line
	7600 7750 7600 7850
Wire Wire Line
	6650 7750 7300 7750
Connection ~ 7600 7750
Wire Wire Line
	7600 7750 7700 7750
Wire Wire Line
	7700 7750 7700 7650
Connection ~ 7700 7750
Wire Wire Line
	7700 7750 8450 7750
Wire Wire Line
	6650 7150 6650 7350
Wire Wire Line
	7700 7350 7700 7150
Wire Wire Line
	7700 7150 8450 7150
Wire Wire Line
	8450 7350 8450 7150
Wire Wire Line
	8450 7150 8550 7150
Connection ~ 7700 7150
$Comp
L V_Capacitor:C_4u7F_10% C139
U 1 1 5EAE819F
P 9150 7500
F 0 "C139" H 9264 7454 50  0000 L CNN
F 1 "DNP" H 9264 7545 50  0000 L CNN
F 2 "powersupply-c:C1210" H 9188 7350 50  0001 C CNN
F 3 "" H 9150 7500 50  0001 C CNN
F 4 "CAPACITOR CERAMIC, 4.7UF,+/-10%,50V" H 9150 7500 50  0001 C CNN "Description"
F 5 "10039582" H 9150 7500 50  0001 C CNN "Item Number"
F 6 "KEMET" H 9150 7500 50  0001 C CNN "Manufacturer"
F 7 "TDK" H 9150 7500 50  0001 C CNN "Manufacturer2"
F 8 "KEMET_RMS1" H 9150 7500 50  0001 C CNN "Manufacturer3"
F 9 "C1210C475K5RACAUTO" H 9150 7500 50  0001 C CNN "Manufacturer_No"
F 10 "CNA6P1X7R1H475K250AE" H 9150 7500 50  0001 C CNN "Manufacturer_No2"
F 11 "C1210C475K5RAC" H 9150 7500 50  0001 C CNN "Manufacturer_No3"
	1    9150 7500
	-1   0    0    1   
$EndComp
$Comp
L V_Diode:BAT54C D14
U 1 1 5EAE81A0
P 8850 7050
F 0 "D14" H 8800 7465 50  0000 C CNN
F 1 "BAT54C" H 8800 7374 50  0000 C CNN
F 2 "powersupply-c:SOT23-1G" H 8575 6575 50  0001 L CNN
F 3 "https://assets.nexperia.com/documents/data-sheet/BAT54_SER.pdf" H 8770 7150 50  0001 C CNN
F 4 "DIODE SCHOTTKY DOUBLE,30V, 200MA,SOT23" H 9175 6875 60  0001 C CNN "Description"
F 5 "10022653" H 8850 7050 50  0001 C CNN "Item Number"
F 6 "NXP SEMICONDUCTORS_RMS1" H 0   0   50  0001 C CNN "Manufacturer"
F 7 "NXP SEMICONDUCTORS_RMS1" H 0   0   50  0001 C CNN "Manufacturer2"
F 8 "BAT54C,215" H 0   0   50  0001 C CNN "Manufacturer_No"
F 9 "BAT54C" H 0   0   50  0001 C CNN "Manufacturer_No2"
	1    8850 7050
	1    0    0    -1  
$EndComp
Wire Wire Line
	8450 7750 9150 7750
Wire Wire Line
	9150 7750 9150 7650
Wire Wire Line
	9150 7350 9150 7050
Wire Wire Line
	9150 7050 9050 7050
Wire Wire Line
	8450 8350 8950 8350
Wire Wire Line
	8950 8450 8950 8350
Connection ~ 8950 8350
Wire Wire Line
	9150 7050 9650 7050
Wire Wire Line
	9650 7050 9650 7150
Connection ~ 9150 7050
Wire Wire Line
	9650 7450 9650 7550
Wire Wire Line
	8950 8350 9350 8350
Wire Wire Line
	9650 7950 9650 8150
Wire Wire Line
	9650 7050 9850 7050
Connection ~ 9650 7050
Wire Wire Line
	10050 7350 10050 7550
Wire Wire Line
	10050 7550 9650 7550
Connection ~ 9650 7550
Wire Wire Line
	9650 7550 9650 7650
$Comp
L V_Diode:BAT54C D7
U 1 1 5EAE8187
P 10350 7550
F 0 "D7" V 10391 7372 50  0000 R CNN
F 1 "BAT54C" V 10300 7372 50  0000 R CNN
F 2 "powersupply-c:SOT23-1G" H 10075 7075 50  0001 L CNN
F 3 "https://assets.nexperia.com/documents/data-sheet/BAT54_SER.pdf" H 10270 7650 50  0001 C CNN
F 4 "DIODE SCHOTTKY DOUBLE,30V, 200MA,SOT23" H 10675 7375 60  0001 C CNN "Description"
F 5 "10022653" H 10350 7550 50  0001 C CNN "Item Number"
F 6 "NXP SEMICONDUCTORS_RMS1" H 0   0   50  0001 C CNN "Manufacturer"
F 7 "NXP SEMICONDUCTORS_RMS1" H 0   0   50  0001 C CNN "Manufacturer2"
F 8 "BAT54C,215" H 0   0   50  0001 C CNN "Manufacturer_No"
F 9 "BAT54C" H 0   0   50  0001 C CNN "Manufacturer_No2"
	1    10350 7550
	0    -1   -1   0   
$EndComp
Wire Wire Line
	8950 8750 8950 8850
Wire Wire Line
	8950 8850 9650 8850
Wire Wire Line
	10250 7850 10350 7850
Wire Wire Line
	10350 7850 10350 8850
Connection ~ 10350 7850
Wire Wire Line
	10350 7850 10450 7850
Wire Wire Line
	10250 7050 10350 7050
Wire Wire Line
	10350 7050 10350 7350
Text Label 9650 8100 1    50   ~ 0
N$58
Text Label 9700 7550 0    50   ~ 0
N$31
Text Label 9200 7050 0    50   ~ 0
N$59
Text Label 10450 7050 0    50   ~ 0
N$63
$Comp
L V_Inductor:L_Core_Iron_10022910 L4
U 1 1 5E92DD9B
P 10900 7050
F 0 "L4" V 11125 7050 50  0000 C CNN
F 1 "220uH" V 11034 7050 50  0000 C CNN
F 2 "powersupply-c:WEPD4-S" H 10900 7050 50  0001 C CNN
F 3 "" H 10900 7050 50  0001 C CNN
F 4 "INDUCTOR, MINIATURE, 220UH, 220MA,WE-TPC" H 0   0   50  0001 C CNN "Description"
F 5 "10022910" H 0   0   50  0001 C CNN "Item Number"
F 6 "WURTH ELEKTRONIK GMBH" H 0   0   50  0001 C CNN "Manufacturer"
F 7 "74455222" H 0   0   50  0001 C CNN "Manufacturer_No"
	1    10900 7050
	0    -1   -1   0   
$EndComp
Wire Wire Line
	11050 7050 11150 7050
Wire Wire Line
	11600 7050 11600 7350
Wire Wire Line
	11150 7350 11150 7050
Wire Wire Line
	11600 7650 11600 7850
Wire Wire Line
	11600 7850 11150 7850
Wire Wire Line
	9650 8550 9650 8850
Connection ~ 9650 8850
Wire Wire Line
	9650 8850 10350 8850
Wire Wire Line
	12100 7050 12100 7350
Wire Wire Line
	12100 7650 12100 8050
Wire Wire Line
	11350 8050 11350 8250
Wire Wire Line
	11350 8550 11350 8850
Wire Wire Line
	12350 8050 12100 8050
Wire Wire Line
	12350 7050 12100 7050
Wire Wire Line
	12350 7050 12350 7550
Wire Wire Line
	12350 7550 12450 7550
Wire Wire Line
	12350 8050 12350 7950
Wire Wire Line
	12350 7650 12450 7650
$Comp
L V_Diode:BZX84C5V1_10022657 D10
U 1 1 5E965749
P 11750 8400
F 0 "D10" V 11704 8479 50  0000 L CNN
F 1 "BZX84C5V1" V 11795 8479 50  0000 L CNN
F 2 "powersupply-c:SOT23-1DIODE" H 11800 8100 50  0001 C CNN
F 3 "" H 11750 8400 50  0001 C CNN
F 4 "DIODE ZENER, 0.35,5.1V, SOT23" H 11750 8200 50  0001 C CNN "Description"
F 5 "10022657" H 11750 8400 50  0001 C CNN "Item Number"
F 6 "NXP SEMICONDUCTORS_RMS1" H 0   0   50  0001 C CNN "Manufacturer"
F 7 "NXP SEMICONDUCTORS_RMS1" H 0   0   50  0001 C CNN "Manufacturer2"
F 8 "BZX84-C5V1" H 0   0   50  0001 C CNN "Manufacturer_No"
F 9 "BZX84-C5V1,215" H 0   0   50  0001 C CNN "Manufacturer_No2"
	1    11750 8400
	0    1    1    0   
$EndComp
Wire Wire Line
	11750 8250 11750 8050
Connection ~ 11750 8050
Wire Wire Line
	11750 8050 11350 8050
Wire Wire Line
	11750 8550 11750 8850
Connection ~ 11750 8850
Wire Wire Line
	11750 8850 12350 8850
Wire Wire Line
	12350 8150 12350 8050
Connection ~ 12350 8050
Wire Wire Line
	12350 8650 12350 8850
Text Label 11650 7050 0    50   ~ 0
N$75
Wire Wire Line
	13450 8350 13450 8450
Wire Wire Line
	13450 8450 13350 8450
$Comp
L V_Power:GND #PWR0177
U 1 1 5E9216EC
P 10700 8950
F 0 "#PWR0177" H 10700 8700 50  0001 C CNN
F 1 "GND" H 10700 8800 50  0000 C CNN
F 2 "" H 10700 8950 50  0001 C CNN
F 3 "" H 10700 8950 50  0001 C CNN
	1    10700 8950
	1    0    0    -1  
$EndComp
Wire Wire Line
	10700 8850 10700 8950
Connection ~ 10700 8850
Wire Wire Line
	10700 8850 11150 8850
$Comp
L V_Power:GND #PWR0178
U 1 1 5E928161
P 13550 8450
F 0 "#PWR0178" H 13550 8200 50  0001 C CNN
F 1 "GND" H 13550 8300 50  0000 C CNN
F 2 "" H 13550 8450 50  0001 C CNN
F 3 "" H 13550 8450 50  0001 C CNN
	1    13550 8450
	1    0    0    -1  
$EndComp
Wire Wire Line
	13550 8350 13550 8450
$Comp
L V_Power:GND #PWR0179
U 1 1 5EAE818E
P 13850 7750
F 0 "#PWR0179" H 13850 7500 50  0001 C CNN
F 1 "GND" H 13850 7600 50  0000 C CNN
F 2 "" H 13850 7750 50  0001 C CNN
F 3 "" H 13850 7750 50  0001 C CNN
	1    13850 7750
	1    0    0    -1  
$EndComp
Wire Wire Line
	13850 7650 13850 7750
$Comp
L V_Power:+5V #PWR0180
U 1 1 5E94B026
P 13450 7450
F 0 "#PWR0180" H 13450 7300 50  0001 C CNN
F 1 "+5V" H 13450 7590 50  0000 C CNN
F 2 "" H 13450 7450 50  0001 C CNN
F 3 "" H 13450 7450 50  0001 C CNN
	1    13450 7450
	1    0    0    -1  
$EndComp
Wire Wire Line
	13450 7450 13450 7550
Wire Wire Line
	13450 7550 13650 7550
Wire Wire Line
	13650 7550 13650 7250
Wire Wire Line
	13650 7250 13850 7250
Connection ~ 13450 7550
Wire Wire Line
	13450 7550 13450 7750
Wire Wire Line
	13250 7950 12950 7950
Connection ~ 12350 7950
Wire Wire Line
	12350 7950 12350 7650
Wire Wire Line
	12950 8150 12950 8450
Wire Wire Line
	12950 8650 13650 8650
Wire Wire Line
	13850 8050 14200 8050
Wire Wire Line
	14200 8050 14200 8650
Wire Wire Line
	14200 8650 13950 8650
$Comp
L V_Resistor:R0603_100k_1%_10022549 R13
U 1 1 5EAE8193
P 13300 7150
F 0 "R13" V 13093 7150 50  0000 C CNN
F 1 "DNP" V 13184 7150 50  0000 C CNN
F 2 "powersupply-c:R0603" V 13230 7150 50  0001 C CNN
F 3 "" H 13300 7150 50  0001 C CNN
F 4 "RESISTOR,100KOHM,0.063W,+/-1%,0603" H 13300 7150 50  0001 C CNN "Description"
F 5 "10022549" H 13300 7150 50  0001 C CNN "Item Number"
F 6 "YAGEO_RMS1" H 13300 7150 50  0001 C CNN "Manufacturer"
F 7 "BOURNS_RMS1" H 13300 7150 50  0001 C CNN "Manufacturer2"
F 8 "YAGEO_RMS1" H 13300 7150 50  0001 C CNN "Manufacturer3"
F 9 "RC0603FR-07100KL" H 13300 7150 50  0001 C CNN "Manufacturer_No"
F 10 "CR0603-FX-1003ELF" H 13300 7150 50  0001 C CNN "Manufacturer_No2"
F 11 "RC0603FR-07100KL" H 13300 7150 50  0001 C CNN "Manufacturer_No3"
	1    13300 7150
	0    1    1    0   
$EndComp
Wire Wire Line
	12950 7950 12950 7150
Wire Wire Line
	12950 7150 13150 7150
Connection ~ 12950 7950
Wire Wire Line
	12950 7950 12350 7950
Wire Wire Line
	13450 7150 14300 7150
Wire Wire Line
	14300 7150 14300 8050
Wire Wire Line
	14450 8050 14300 8050
Connection ~ 14200 8050
Connection ~ 14300 8050
Wire Wire Line
	14300 8050 14200 8050
Wire Notes Line
	6450 6500 15100 6500
Wire Notes Line
	15100 6500 15100 9150
Wire Notes Line
	15100 9150 6450 9150
Wire Notes Line
	6450 9150 6450 6500
Text Notes 6500 6475 0    79   ~ 0
COOLING FAN
Wire Wire Line
	3850 3750 4550 3750
Wire Wire Line
	3850 3950 4550 3950
Wire Wire Line
	4750 2350 5050 2350
Wire Wire Line
	4750 2550 5050 2550
Wire Wire Line
	3850 3050 4550 3050
Wire Wire Line
	3850 3250 4550 3250
Wire Wire Line
	4750 3050 5050 3050
Wire Wire Line
	4750 3250 5050 3250
Wire Wire Line
	3850 1650 4550 1650
Wire Wire Line
	3850 1850 4550 1850
Wire Wire Line
	4750 4450 5050 4450
Wire Wire Line
	4750 4650 5050 4650
Wire Wire Line
	3850 2550 4550 2550
Wire Wire Line
	4750 3750 5050 3750
Wire Wire Line
	4750 3950 5050 3950
Wire Wire Line
	3850 2350 4550 2350
$Comp
L V_Capacitor:47pF_array C61
U 1 1 5EA7420C
P 4650 2450
F 0 "C61" H 4900 2500 50  0000 R CNN
F 1 "47pF" H 4750 2400 50  0000 L CNN
F 2 "powersupply-c:C0612-4" V 4650 2525 50  0001 C CNN
F 3 "https://www.yageo.com/upload/media/product/productsearch/datasheet/mlcc/UPY-4C-Array_16V-to-50V_5.pdf" V 4650 2525 50  0001 C CNN
F 4 "CAPACITOR ARRAY, 47PF, 50V, +/-10%,NPO,0612" V 4650 2425 50  0001 C CNN "Description"
F 5 "10022136" H 4650 2450 50  0001 C CNN "Item Number"
F 6 "YAGEO_RMS1" H 0   0   50  0001 C CNN "Manufacturer"
F 7 "AVX_RMS1" H 0   0   50  0001 C CNN "Manufacturer2"
F 8 "CA0612KRNPO9BN470" H 0   0   50  0001 C CNN "Manufacturer_No"
F 9 "W3A45A470KAT2A" H 0   0   50  0001 C CNN "Manufacturer_No2"
	1    4650 2450
	1    0    0    -1  
$EndComp
$Comp
L V_Capacitor:47pF_array C53
U 1 1 5EA7420D
P 4650 1750
F 0 "C53" H 4900 1800 50  0000 R CNN
F 1 "47pF" H 4750 1700 50  0000 L CNN
F 2 "powersupply-c:C0612-4" V 4650 1825 50  0001 C CNN
F 3 "https://www.yageo.com/upload/media/product/productsearch/datasheet/mlcc/UPY-4C-Array_16V-to-50V_5.pdf" V 4650 1825 50  0001 C CNN
F 4 "CAPACITOR ARRAY, 47PF, 50V, +/-10%,NPO,0612" V 4650 1725 50  0001 C CNN "Description"
F 5 "10022136" H 4650 1750 50  0001 C CNN "Item Number"
F 6 "YAGEO_RMS1" H 0   0   50  0001 C CNN "Manufacturer"
F 7 "AVX_RMS1" H 0   0   50  0001 C CNN "Manufacturer2"
F 8 "CA0612KRNPO9BN470" H 0   0   50  0001 C CNN "Manufacturer_No"
F 9 "W3A45A470KAT2A" H 0   0   50  0001 C CNN "Manufacturer_No2"
	1    4650 1750
	1    0    0    -1  
$EndComp
Text GLabel 6050 2350 0    50   Input ~ 0
MTSR-SPI-1
Text GLabel 6050 2450 0    50   Output ~ 0
RX-UART-ST
Text GLabel 6050 2550 0    50   Output ~ 0
MRST-SPI-1
Text GLabel 6050 2650 0    50   Input ~ 0
LED-DC-PRESENCE
Text GLabel 6050 2850 0    50   Input ~ 0
USB-BUSY
Text GLabel 6050 2950 0    50   Output ~ 0
CE-SPI-USB
Text GLabel 6050 3050 0    50   Output ~ 0
CE-SPI-PIC
Text GLabel 6050 3150 0    50   Output ~ 0
SCLK-SPI-0
Text GLabel 12150 2350 2    50   Input ~ 0
RTS-UART-ST
Text GLabel 12150 2450 2    50   Output ~ 0
TX-UART-ST
Text GLabel 12150 2550 2    50   Input ~ 0
LED-BATTERY-STATUS
Text GLabel 12150 2650 2    50   Input ~ 0
LED-AC-PRESENCE
Text GLabel 12150 2850 2    50   Output ~ 0
USB-RESET
Text GLabel 12150 2950 2    50   Input ~ 0
MRST-SPI-0
Text GLabel 12150 3050 2    50   Output ~ 0
MTSR-SPI-0
Text GLabel 12150 3150 2    50   Output ~ 0
SCLK-SPI-1
Text GLabel 8450 8350 0    50   Input ~ 0
CMD-FAN
Text GLabel 14450 8050 2    50   Output ~ 0
FAN-SPEED
Text GLabel 4300 6500 2    50   Input ~ 0
BAT-EEPROM
Text GLabel 4300 6600 2    50   Output ~ 0
BATTERY-TEMP
Wire Wire Line
	13050 8450 12950 8450
Connection ~ 12950 8450
Wire Wire Line
	12950 8450 12950 8650
Connection ~ 5050 1650
Wire Wire Line
	5050 1650 5050 1550
Wire Wire Line
	5050 1850 5050 1650
Wire Wire Line
	4750 1850 5050 1850
Wire Wire Line
	3850 4450 4550 4450
Wire Wire Line
	3850 4650 4550 4650
Wire Wire Line
	4750 1650 5050 1650
$Comp
L V_Capacitor:47pF_array C100
U 1 1 5E999B39
P 4650 4550
F 0 "C100" H 4850 4600 50  0000 C CNN
F 1 "47pF" H 4850 4500 50  0000 C CNN
F 2 "powersupply-c:C0612-4" V 4650 4625 50  0001 C CNN
F 3 "https://www.yageo.com/upload/media/product/productsearch/datasheet/mlcc/UPY-4C-Array_16V-to-50V_5.pdf" V 4650 4625 50  0001 C CNN
F 4 "CAPACITOR ARRAY, 47PF, 50V, +/-10%,NPO,0612" V 4650 4525 50  0001 C CNN "Description"
F 5 "10022136" H 4650 4550 50  0001 C CNN "Item Number"
F 6 "YAGEO_RMS1" H 0   0   50  0001 C CNN "Manufacturer"
F 7 "AVX_RMS1" H 0   0   50  0001 C CNN "Manufacturer2"
F 8 "CA0612KRNPO9BN470" H 0   0   50  0001 C CNN "Manufacturer_No"
F 9 "W3A45A470KAT2A" H 0   0   50  0001 C CNN "Manufacturer_No2"
	1    4650 4550
	1    0    0    -1  
$EndComp
$Comp
L V_Inductor:Ferrite_Bead_Small_10022907 L19
U 1 1 5EA74222
P 6550 2750
F 0 "L19" V 6850 2750 50  0000 C CNN
F 1 "74279266" V 6750 2750 50  0000 C CNN
F 2 "powersupply-c:C0603" V 6480 2750 50  0001 C CNN
F 3 "" H 6550 2750 50  0001 C CNN
F 4 "SMD FERRITE 200MA" H 6550 2750 50  0001 C CNN "Description"
F 5 "10022907" H 6550 2750 50  0001 C CNN "Item Number"
F 6 "WURTH ELEKTRONIK GMBH" H 0   0   50  0001 C CNN "Manufacturer"
F 7 "74279266" H 0   0   50  0001 C CNN "Manufacturer_No"
	1    6550 2750
	0    -1   -1   0   
$EndComp
$Comp
L V_Inductor:Ferrite_Bead_Small_10022907 L18
U 1 1 5EA74221
P 8150 2650
F 0 "L18" V 8387 2650 50  0000 C CNN
F 1 "74279266" V 8296 2650 50  0000 C CNN
F 2 "powersupply-c:C0603" V 8080 2650 50  0001 C CNN
F 3 "" H 8150 2650 50  0001 C CNN
F 4 "SMD FERRITE 200MA" H 8150 2650 50  0001 C CNN "Description"
F 5 "10022907" H 8150 2650 50  0001 C CNN "Item Number"
F 6 "WURTH ELEKTRONIK GMBH" H 0   0   50  0001 C CNN "Manufacturer"
F 7 "74279266" H 0   0   50  0001 C CNN "Manufacturer_No"
	1    8150 2650
	0    -1   -1   0   
$EndComp
$Comp
L V_Inductor:Ferrite_Bead_Small_10022907 L16
U 1 1 5EA41929
P 7350 2450
F 0 "L16" V 7650 2450 50  0000 C CNN
F 1 "74279266" V 7550 2450 50  0000 C CNN
F 2 "powersupply-c:C0603" V 7280 2450 50  0001 C CNN
F 3 "" H 7350 2450 50  0001 C CNN
F 4 "SMD FERRITE 200MA" H 7350 2450 50  0001 C CNN "Description"
F 5 "10022907" H 7350 2450 50  0001 C CNN "Item Number"
F 6 "WURTH ELEKTRONIK GMBH" H 0   0   50  0001 C CNN "Manufacturer"
F 7 "74279266" H 0   0   50  0001 C CNN "Manufacturer_No"
	1    7350 2450
	0    -1   -1   0   
$EndComp
$Comp
L V_Inductor:Ferrite_Bead_Small_10022907 L17
U 1 1 5EA41935
P 7750 2550
F 0 "L17" V 8050 2550 50  0000 C CNN
F 1 "74279266" V 7950 2550 50  0000 C CNN
F 2 "powersupply-c:C0603" V 7680 2550 50  0001 C CNN
F 3 "" H 7750 2550 50  0001 C CNN
F 4 "SMD FERRITE 200MA" H 7750 2550 50  0001 C CNN "Description"
F 5 "10022907" H 7750 2550 50  0001 C CNN "Item Number"
F 6 "WURTH ELEKTRONIK GMBH" H 0   0   50  0001 C CNN "Manufacturer"
F 7 "74279266" H 0   0   50  0001 C CNN "Manufacturer_No"
	1    7750 2550
	0    -1   -1   0   
$EndComp
$Comp
L V_Inductor:Ferrite_Bead_Small_10022907 L15
U 1 1 5EA4191D
P 6950 2350
F 0 "L15" V 7187 2350 50  0000 C CNN
F 1 "74279266" V 7096 2350 50  0000 C CNN
F 2 "powersupply-c:C0603" V 6880 2350 50  0001 C CNN
F 3 "" H 6950 2350 50  0001 C CNN
F 4 "SMD FERRITE 200MA" H 6950 2350 50  0001 C CNN "Description"
F 5 "10022907" V 6950 2350 50  0001 C CNN "Item Number"
F 6 "WURTH ELEKTRONIK GMBH" H 0   0   50  0001 C CNN "Manufacturer"
F 7 "74279266" H 0   0   50  0001 C CNN "Manufacturer_No"
	1    6950 2350
	0    -1   -1   0   
$EndComp
Wire Wire Line
	7850 3050 8650 3050
Wire Wire Line
	7450 2950 8650 2950
Wire Wire Line
	6050 3150 8050 3150
Wire Wire Line
	7050 2850 8650 2850
Wire Wire Line
	6050 3050 7650 3050
Wire Wire Line
	6050 2950 7250 2950
Wire Wire Line
	6050 2850 6850 2850
Wire Wire Line
	6050 2450 7250 2450
Wire Wire Line
	7050 2350 8650 2350
Wire Wire Line
	6050 2550 7650 2550
Wire Wire Line
	7450 2450 8650 2450
Wire Wire Line
	6050 2650 8050 2650
Wire Wire Line
	7850 2550 8650 2550
Wire Wire Line
	6650 2750 8650 2750
Wire Wire Line
	9150 2350 9950 2350
Wire Wire Line
	10550 2950 12150 2950
Wire Wire Line
	9150 3150 11150 3150
Wire Wire Line
	9150 3050 10750 3050
Wire Wire Line
	9150 2950 10350 2950
Wire Wire Line
	11350 2650 12150 2650
Wire Wire Line
	10150 2850 12150 2850
Wire Wire Line
	10950 2550 12150 2550
Wire Wire Line
	9150 2750 11550 2750
Wire Wire Line
	9150 2650 11150 2650
Wire Wire Line
	10550 2450 12150 2450
Wire Wire Line
	9150 2550 10750 2550
Wire Wire Line
	10150 2350 12150 2350
Wire Wire Line
	9150 2450 10350 2450
Wire Wire Line
	10950 3050 12150 3050
$Comp
L V_Resistor:R0603_10k_0.1%_10022701 R78
U 1 1 5EFF6E45
P 3550 6150
F 0 "R78" H 3480 6104 50  0000 R CNN
F 1 "10k" H 3480 6195 50  0000 R CNN
F 2 "powersupply-c:R0603" V 3480 6150 50  0001 C CNN
F 3 "" H 3550 6150 50  0001 C CNN
F 4 "RESISTOR, PRECISION,10K OHM, 0.063W,+/-0.1%,0603" H 3550 6150 50  0001 C CNN "Description"
F 5 "10022701" H 3550 6150 50  0001 C CNN "Item Number"
F 6 "SUSUMU CO" H 0   0   50  0001 C CNN "Manufacturer"
F 7 "YAGEO_RMS1" H 0   0   50  0001 C CNN "Manufacturer2"
F 8 "SUSUMU CO" H 0   0   50  0001 C CNN "Manufacturer3"
F 9 "RG1608P-103-B-T1" H 0   0   50  0001 C CNN "Manufacturer_No"
F 10 "RT0603BRB0710KL" H 0   0   50  0001 C CNN "Manufacturer_No2"
F 11 "RG1608P-103-B-T5" H 0   0   50  0001 C CNN "Manufacturer_No3"
	1    3550 6150
	-1   0    0    1   
$EndComp
Wire Wire Line
	3550 5900 3550 6000
Wire Wire Line
	3100 6500 4200 6500
$Comp
L V_Varistor:Varistor_10022926 ML3
U 1 1 5EA7422E
P 4200 7050
F 0 "ML3" H 4079 7050 50  0000 R CNN
F 1 "B72500T0040M060" H 4400 7050 50  0001 R CNN
F 2 "powersupply-c:R0603" V 4130 7050 50  0001 C CNN
F 3 "" H 4200 7050 50  0001 C CNN
F 4 "SMD VARISTOR, 5.5V,C0603" H 4200 7050 50  0001 C CNN "Description"
F 5 "10022926" H 4200 7050 50  0001 C CNN "Item Number"
F 6 "EPCOS_RMS1" H 0   0   50  0001 C CNN "Manufacturer"
F 7 "B72500T0040M060" H 0   0   50  0001 C CNN "Manufacturer_No"
	1    4200 7050
	-1   0    0    1   
$EndComp
Connection ~ 3550 6600
Connection ~ 5500 6400
Wire Wire Line
	5500 6400 5500 6200
$Comp
L V_Power:VBAT #PWR0170
U 1 1 5EB948E8
P 5500 6200
F 0 "#PWR0170" H 5500 6050 50  0001 C CNN
F 1 "VBAT" H 5500 6365 50  0000 C CNN
F 2 "" H 5500 6200 50  0001 C CNN
F 3 "" H 5500 6200 50  0001 C CNN
	1    5500 6200
	1    0    0    -1  
$EndComp
Connection ~ 5500 6800
Wire Wire Line
	5500 6800 5500 6900
Wire Wire Line
	4850 6800 4850 6900
Wire Wire Line
	5500 6800 4850 6800
Wire Wire Line
	5500 6400 5500 6800
Wire Wire Line
	3200 6400 5500 6400
Wire Wire Line
	4850 7300 5500 7300
Wire Wire Line
	4850 7200 4850 7300
Wire Wire Line
	5500 7300 5500 7200
$Comp
L V_Diode:SZ1SMB D21
U 1 1 5EA74236
P 5500 7050
F 0 "D21" V 5454 7129 50  0000 L CNN
F 1 "1SMB36" V 5545 7129 50  0000 L CNN
F 2 "powersupply-c:SMB-AIROX" H 5500 7050 50  0001 C CNN
F 3 "" H 5500 7050 50  0001 C CNN
F 4 "DIODE TRANSIENT 600W,36V" H 5500 7050 50  0001 C CNN "Description"
F 5 "10022654" H 5500 7050 50  0001 C CNN "Item Number"
F 6 "LITTLEFUSE" H 0   0   50  0001 C CNN "Manufacturer"
F 7 "LITTLEFUSE" H 0   0   50  0001 C CNN "Manufacturer2"
F 8 "ON SEMICONDUCTOR_RMS1" H 0   0   50  0001 C CNN "Manufacturer3"
F 9 "SZ1SMB36AT3G" H 0   0   50  0001 C CNN "Manufacturer_No"
F 10 "1SMB36AT3G" H 0   0   50  0001 C CNN "Manufacturer_No2"
F 11 "1SMB36AT3G" H 0   0   50  0001 C CNN "Manufacturer_No3"
	1    5500 7050
	0    1    1    0   
$EndComp
$Comp
L V_Capacitor:C0805_100nF_50V_10% C109
U 1 1 5F2FE5DB
P 4850 7050
F 0 "C109" H 4735 7004 50  0000 R CNN
F 1 "100nF" H 4735 7095 50  0000 R CNN
F 2 "powersupply-c:C0805" H 4888 6900 50  0001 C CNN
F 3 "https://www.yageo.com/upload/media/product/productsearch/datasheet/mlcc/UPY-GPHC_X7R_6.3V-to-50V_18.pdf" H 4850 7050 50  0001 C CNN
F 4 "CAPACITOR CERAMIC, 100NF, +/-10%, 50V, X7R,0805" H 4850 7050 50  0001 C CNN "Description"
F 5 "10022135" H 4850 7050 50  0001 C CNN "Item Number"
F 6 "YAGEO_RMS1" H 0   0   50  0001 C CNN "Manufacturer"
F 7 "MURATA MANUFACTURING CO., LTD." H 0   0   50  0001 C CNN "Manufacturer2"
F 8 "YAGEO_RMS1" H 0   0   50  0001 C CNN "Manufacturer3"
F 9 "CC0805KRX7R9BB104" H 0   0   50  0001 C CNN "Manufacturer_No"
F 10 "GRM21BR71H104KA01L" H 0   0   50  0001 C CNN "Manufacturer_No2"
F 11 "CC0805KRX7R9BB104" H 0   0   50  0001 C CNN "Manufacturer_No3"
	1    4850 7050
	-1   0    0    1   
$EndComp
Connection ~ 4850 7300
Connection ~ 3200 6400
$Comp
L V_Capacitor:C0805_100nF_50V_10% C110
U 1 1 5F497A72
P 3750 9850
F 0 "C110" H 3865 9804 50  0000 L CNN
F 1 "100nF" H 3865 9895 50  0000 L CNN
F 2 "powersupply-c:C0805" H 3788 9700 50  0001 C CNN
F 3 "https://www.yageo.com/upload/media/product/productsearch/datasheet/mlcc/UPY-GPHC_X7R_6.3V-to-50V_18.pdf" H 3750 9850 50  0001 C CNN
F 4 "CAPACITOR CERAMIC, 100NF, +/-10%, 50V, X7R,0805" H 3750 9850 50  0001 C CNN "Description"
F 5 "10022135" H 3750 9850 50  0001 C CNN "Item Number"
F 6 "YAGEO_RMS1" H 0   0   50  0001 C CNN "Manufacturer"
F 7 "MURATA MANUFACTURING CO., LTD." H 0   0   50  0001 C CNN "Manufacturer2"
F 8 "YAGEO_RMS1" H 0   0   50  0001 C CNN "Manufacturer3"
F 9 "CC0805KRX7R9BB104" H 0   0   50  0001 C CNN "Manufacturer_No"
F 10 "GRM21BR71H104KA01L" H 0   0   50  0001 C CNN "Manufacturer_No2"
F 11 "CC0805KRX7R9BB104" H 0   0   50  0001 C CNN "Manufacturer_No3"
	1    3750 9850
	1    0    0    1   
$EndComp
$Comp
L V_Capacitor:C_10uF_50V_10% C10
U 1 1 5F4F3C94
P 4450 9850
F 0 "C10" H 4335 9804 50  0000 R CNN
F 1 "10uF" H 4335 9895 50  0000 R CNN
F 2 "powersupply-c:C2220" H 4488 9700 50  0001 C CNN
F 3 "" H 4450 9850 50  0001 C CNN
F 4 "CAPACITOR CERAMIC, 10UF,+/-10%,50V 2220" H 4450 9850 50  0001 C CNN "Description"
F 5 "10039581" H 4450 9850 50  0001 C CNN "Item Number"
F 6 "AVX" H 4450 9850 50  0001 C CNN "Manufacturer"
F 7 "22205C106K4Z4A" H 4450 9850 50  0001 C CNN "Manufacturer_No"
F 8 "KEMET_RMS1" H 0   0   50  0001 C CNN "Manufacturer2"
F 9 "KEMET_RMS1" H 0   0   50  0001 C CNN "Manufacturer3"
F 10 "C2220X106K5RACAUTO" H 0   0   50  0001 C CNN "Manufacturer_No2"
F 11 "C2220X106K5RAC" H 0   0   50  0001 C CNN "Manufacturer_No3"
	1    4450 9850
	-1   0    0    1   
$EndComp
Connection ~ 3750 9600
$Comp
L V_Connector:Conn_01x04_Male J9
U 1 1 5F54DE80
P 3150 9600
F 0 "J9" H 3150 9800 50  0000 C CNN
F 1 "TURBINE" H 3150 9300 50  0000 C CNN
F 2 "powersupply-c:MOL43650-02D" H 3150 9600 50  0001 C CNN
F 3 "https://www.molex.com/pdm_docs/sd/436500224_sd.pdf" H 3150 9600 50  0001 C CNN
F 4 "CONNECTOR MICRO-FIT, 2 CIRCUITS,3MM,5A,250V" H 3150 9600 50  0001 C CNN "Description"
F 5 "10022874" H 3150 9600 50  0001 C CNN "Item Number"
F 6 "MOLEX_RMS1" H 3150 9600 50  0001 C CNN "Manufacturer"
F 7 "43650-0224" H 3150 9600 50  0001 C CNN "Manufacturer_No"
	1    3150 9600
	1    0    0    1   
$EndComp
NoConn ~ 3350 9400
NoConn ~ 3350 9500
$Comp
L V_Capacitor:C0805_100nF_50V_10% C113
U 1 1 5E9551E3
P 6650 7500
F 0 "C113" H 6535 7409 50  0000 R CNN
F 1 "100nF" H 6535 7500 50  0000 R CNN
F 2 "powersupply-c:C0805" H 6688 7350 50  0001 C CNN
F 3 "https://www.yageo.com/upload/media/product/productsearch/datasheet/mlcc/UPY-GPHC_X7R_6.3V-to-50V_18.pdf" H 6650 7500 50  0001 C CNN
F 4 "CAPACITOR CERAMIC, 100NF, +/-10%, 50V, X7R,0805" H 6650 7500 50  0001 C CNN "Description"
F 5 "10022135" H 6650 7500 50  0001 C CNN "Item Number"
F 6 "YAGEO_RMS1" H 0   0   50  0001 C CNN "Manufacturer"
F 7 "MURATA MANUFACTURING CO., LTD." H 0   0   50  0001 C CNN "Manufacturer2"
F 8 "YAGEO_RMS1" H 0   0   50  0001 C CNN "Manufacturer3"
F 9 "CC0805KRX7R9BB104" H 0   0   50  0001 C CNN "Manufacturer_No"
F 10 "GRM21BR71H104KA01L" H 0   0   50  0001 C CNN "Manufacturer_No2"
F 11 "CC0805KRX7R9BB104" H 0   0   50  0001 C CNN "Manufacturer_No3"
	1    6650 7500
	-1   0    0    1   
$EndComp
$Comp
L V_Capacitor:C0805_100nF_50V_10% C112
U 1 1 5E9585A3
P 7700 7500
F 0 "C112" H 7585 7409 50  0000 R CNN
F 1 "100nF" H 7585 7500 50  0000 R CNN
F 2 "powersupply-c:C0805" H 7738 7350 50  0001 C CNN
F 3 "https://www.yageo.com/upload/media/product/productsearch/datasheet/mlcc/UPY-GPHC_X7R_6.3V-to-50V_18.pdf" H 7700 7500 50  0001 C CNN
F 4 "CAPACITOR CERAMIC, 100NF, +/-10%, 50V, X7R,0805" H 7700 7500 50  0001 C CNN "Description"
F 5 "10022135" H 7700 7500 50  0001 C CNN "Item Number"
F 6 "YAGEO_RMS1" H 0   0   50  0001 C CNN "Manufacturer"
F 7 "MURATA MANUFACTURING CO., LTD." H 0   0   50  0001 C CNN "Manufacturer2"
F 8 "YAGEO_RMS1" H 0   0   50  0001 C CNN "Manufacturer3"
F 9 "CC0805KRX7R9BB104" H 0   0   50  0001 C CNN "Manufacturer_No"
F 10 "GRM21BR71H104KA01L" H 0   0   50  0001 C CNN "Manufacturer_No2"
F 11 "CC0805KRX7R9BB104" H 0   0   50  0001 C CNN "Manufacturer_No3"
	1    7700 7500
	-1   0    0    1   
$EndComp
$Comp
L V_Capacitor:C_10uF_50V_10% C114
U 1 1 5E959638
P 8450 7500
F 0 "C114" H 8335 7409 50  0000 R CNN
F 1 "10uF" H 8335 7500 50  0000 R CNN
F 2 "powersupply-c:C2220" H 8488 7350 50  0001 C CNN
F 3 "" H 8450 7500 50  0001 C CNN
F 4 "CAPACITOR CERAMIC, 10UF,+/-10%,50V 2220" H 8450 7500 50  0001 C CNN "Description"
F 5 "10039581" H 8450 7500 50  0001 C CNN "Item Number"
F 6 "AVX" H 8450 7500 50  0001 C CNN "Manufacturer"
F 7 "22205C106K4Z4A" H 8450 7500 50  0001 C CNN "Manufacturer_No"
F 8 "KEMET_RMS1" H 0   0   50  0001 C CNN "Manufacturer2"
F 9 "KEMET_RMS1" H 0   0   50  0001 C CNN "Manufacturer3"
F 10 "C2220X106K5RACAUTO" H 0   0   50  0001 C CNN "Manufacturer_No2"
F 11 "C2220X106K5RAC" H 0   0   50  0001 C CNN "Manufacturer_No3"
	1    8450 7500
	-1   0    0    1   
$EndComp
$Comp
L V_Resistor:R1206_1k5_1% R114
U 1 1 5E962F48
P 9650 7800
F 0 "R114" H 9720 7891 50  0000 L CNN
F 1 "1.5k" H 9720 7800 50  0000 L CNN
F 2 "powersupply-c:RC1206" V 9580 7800 50  0001 C CNN
F 3 "" H 9650 7800 50  0001 C CNN
F 4 "RESISTOR,1.5K OHM,0.250W,+/-1%,1206" H 9650 7800 50  0001 C CNN "Description"
F 5 "10022740" H 9650 7800 50  0001 C CNN "Item Number"
F 6 "YAGEO_RMS1" H 0   0   50  0001 C CNN "Manufacturer"
F 7 "BOURNS_RMS1" H 0   0   50  0001 C CNN "Manufacturer2"
F 8 "YAGEO_RMS1" H 0   0   50  0001 C CNN "Manufacturer3"
F 9 "RC1206FR-071K5L" H 0   0   50  0001 C CNN "Manufacturer_No"
F 10 "CR1206-FX-1501ELF" H 0   0   50  0001 C CNN "Manufacturer_No2"
F 11 "RC1206FR-071K5L" H 0   0   50  0001 C CNN "Manufacturer_No3"
	1    9650 7800
	1    0    0    -1  
$EndComp
$Comp
L V_Resistor:R0603_10k_1%_10022548 R77
U 1 1 5E96494F
P 8950 8600
F 0 "R77" H 9020 8691 50  0000 L CNN
F 1 "10k" H 9020 8600 50  0000 L CNN
F 2 "powersupply-c:R0603" V 8880 8600 50  0001 C CNN
F 3 "" H 8950 8600 50  0001 C CNN
F 4 "RESISTOR,10K OHM.0.063W,+/-1%,0603" H 8950 8600 50  0001 C CNN "Description"
F 5 "10022548" H 0   0   50  0001 C CNN "Item Number"
F 6 "YAGEO_RMS1" H 0   0   50  0001 C CNN "Manufacturer"
F 7 "SAMSUNG_RMS1" H 0   0   50  0001 C CNN "Manufacturer2"
F 8 "BOURNS_RMS1" H 0   0   50  0001 C CNN "Manufacturer3"
F 9 "RC0603FR-0710KL" H 0   0   50  0001 C CNN "Manufacturer_No"
F 10 "RC1608F103CS" H 0   0   50  0001 C CNN "Manufacturer_No2"
F 11 "CR0603-FX-1002ELF" H 0   0   50  0001 C CNN "Manufacturer_No3"
	1    8950 8600
	1    0    0    -1  
$EndComp
$Comp
L V_Capacitor:C_10uF_50V_10% C60
U 1 1 5E96FC65
P 11150 7500
F 0 "C60" H 11265 7409 50  0000 L CNN
F 1 "10uF" H 11265 7500 50  0000 L CNN
F 2 "powersupply-c:C2220" H 11188 7350 50  0001 C CNN
F 3 "" H 11150 7500 50  0001 C CNN
F 4 "CAPACITOR CERAMIC, 10UF,+/-10%,50V 2220" H 11150 7500 50  0001 C CNN "Description"
F 5 "10039581" H 11150 7500 50  0001 C CNN "Item Number"
F 6 "AVX" H 11150 7500 50  0001 C CNN "Manufacturer"
F 7 "22205C106K4Z4A" H 11150 7500 50  0001 C CNN "Manufacturer_No"
F 8 "KEMET_RMS1" H 0   0   50  0001 C CNN "Manufacturer2"
F 9 "KEMET_RMS1" H 0   0   50  0001 C CNN "Manufacturer3"
F 10 "C2220X106K5RACAUTO" H 0   0   50  0001 C CNN "Manufacturer_No2"
F 11 "C2220X106K5RAC" H 0   0   50  0001 C CNN "Manufacturer_No3"
	1    11150 7500
	-1   0    0    1   
$EndComp
$Comp
L V_Capacitor:C_10uF_50V_10% C14
U 1 1 5E9771FD
P 11600 7500
F 0 "C14" H 11715 7409 50  0000 L CNN
F 1 "10uF" H 11715 7500 50  0000 L CNN
F 2 "powersupply-c:C2220" H 11638 7350 50  0001 C CNN
F 3 "" H 11600 7500 50  0001 C CNN
F 4 "CAPACITOR CERAMIC, 10UF,+/-10%,50V 2220" H 11600 7500 50  0001 C CNN "Description"
F 5 "10039581" H 11600 7500 50  0001 C CNN "Item Number"
F 6 "AVX" H 11600 7500 50  0001 C CNN "Manufacturer"
F 7 "22205C106K4Z4A" H 11600 7500 50  0001 C CNN "Manufacturer_No"
F 8 "KEMET_RMS1" H 0   0   50  0001 C CNN "Manufacturer2"
F 9 "KEMET_RMS1" H 0   0   50  0001 C CNN "Manufacturer3"
F 10 "C2220X106K5RACAUTO" H 0   0   50  0001 C CNN "Manufacturer_No2"
F 11 "C2220X106K5RAC" H 0   0   50  0001 C CNN "Manufacturer_No3"
	1    11600 7500
	-1   0    0    1   
$EndComp
$Comp
L V_Resistor:R1206_100R_1% R116
U 1 1 5E9958F4
P 11350 8400
F 0 "R116" H 11420 8491 50  0000 L CNN
F 1 "100" H 11420 8400 50  0000 L CNN
F 2 "powersupply-c:RC1206" V 11280 8400 50  0001 C CNN
F 3 "" H 11350 8400 50  0001 C CNN
F 4 "RESISTOR,100 OHM,0.25W,+/-1%,1206" H 11350 8400 50  0001 C CNN "Description"
F 5 "10022742" H 11350 8400 50  0001 C CNN "Item Number"
F 6 "YAGEO/PHYCOMP_RMS1" H 11350 8400 50  0001 C CNN "Manufacturer"
F 7 "BOURNS_RMS1" H 0   0   50  0001 C CNN "Manufacturer2"
F 8 "YAGEO/PHYCOMP_RMS1" H 0   0   50  0001 C CNN "Manufacturer3"
F 9 "RC1206FR-07100RL" H 0   0   50  0001 C CNN "Manufacturer_No"
F 10 "CR1206-FX-1000ELF " H 0   0   50  0001 C CNN "Manufacturer_No2"
F 11 "RC1206FR-07100RL" H 0   0   50  0001 C CNN "Manufacturer_No3"
	1    11350 8400
	1    0    0    -1  
$EndComp
$Comp
L V_Resistor:R0603_10k_1%_10022548 R12
U 1 1 5E99F2E7
P 13200 8450
F 0 "R12" V 13100 8450 50  0000 C CNN
F 1 "10k" V 13000 8450 50  0000 C CNN
F 2 "powersupply-c:R0603" V 13130 8450 50  0001 C CNN
F 3 "" H 13200 8450 50  0001 C CNN
F 4 "RESISTOR,10K OHM.0.063W,+/-1%,0603" H 13200 8450 50  0001 C CNN "Description"
F 5 "10022548" H 0   0   50  0001 C CNN "Item Number"
F 6 "YAGEO_RMS1" H 0   0   50  0001 C CNN "Manufacturer"
F 7 "SAMSUNG_RMS1" H 0   0   50  0001 C CNN "Manufacturer2"
F 8 "BOURNS_RMS1" H 0   0   50  0001 C CNN "Manufacturer3"
F 9 "RC0603FR-0710KL" H 0   0   50  0001 C CNN "Manufacturer_No"
F 10 "RC1608F103CS" H 0   0   50  0001 C CNN "Manufacturer_No2"
F 11 "CR0603-FX-1002ELF" H 0   0   50  0001 C CNN "Manufacturer_No3"
	1    13200 8450
	0    -1   -1   0   
$EndComp
$Comp
L V_Resistor:R0603_100k_1%_10022549 R20
U 1 1 5E9A3AD2
P 13800 8650
F 0 "R20" V 13685 8650 50  0000 C CNN
F 1 "100k" V 13594 8650 50  0000 C CNN
F 2 "powersupply-c:R0603" V 13730 8650 50  0001 C CNN
F 3 "" H 13800 8650 50  0001 C CNN
F 4 "RESISTOR,100KOHM,0.063W,+/-1%,0603" H 13800 8650 50  0001 C CNN "Description"
F 5 "10022549" H 0   0   50  0001 C CNN "Item Number"
F 6 "YAGEO_RMS1" H 0   0   50  0001 C CNN "Manufacturer"
F 7 "BOURNS_RMS1" H 0   0   50  0001 C CNN "Manufacturer2"
F 8 "YAGEO_RMS1" H 0   0   50  0001 C CNN "Manufacturer3"
F 9 "RC0603FR-07100KL" H 0   0   50  0001 C CNN "Manufacturer_No"
F 10 "CR0603-FX-1003ELF" H 0   0   50  0001 C CNN "Manufacturer_No2"
F 11 "RC0603FR-07100KL" H 0   0   50  0001 C CNN "Manufacturer_No3"
	1    13800 8650
	0    -1   -1   0   
$EndComp
Wire Wire Line
	13850 7250 13850 7350
$Comp
L V_Connector:Conn_01x02_Male J6
U 1 1 5E94A06E
P 12650 7550
F 0 "J6" H 12622 7524 50  0000 R CNN
F 1 "FAN" H 12622 7433 50  0000 R CNN
F 2 "powersupply-c:MOL6410-2_100001101001" H 12650 7550 50  0001 C CNN
F 3 "https://www.molex.com/pdm_docs/sd/022272021_sd.pdf" H 12650 7550 50  0001 C CNN
F 4 "CONNECTOR HEADER, 2 CIRCUITS, 2.54MM, 4A, 250V" H 0   0   50  0001 C CNN "Description"
F 5 "10022872" H 0   0   50  0001 C CNN "Item Number"
F 6 "MOLEX_RMS1" H 0   0   50  0001 C CNN "Manufacturer"
F 7 "22-27-2021" H 0   0   50  0001 C CNN "Manufacturer_No"
	1    12650 7550
	-1   0    0    -1  
$EndComp
Connection ~ 11150 7050
Connection ~ 11150 8850
Wire Wire Line
	11150 8850 11350 8850
Connection ~ 11600 7050
Wire Wire Line
	11150 7650 11150 7850
Wire Wire Line
	11150 7050 11600 7050
Connection ~ 11150 7850
Wire Wire Line
	11150 7850 11150 8850
$Comp
L V_Capacitor:C0603_10nF_50V_10% C111
U 1 1 5E978A34
P 12100 7500
F 0 "C111" H 12214 7409 50  0000 L CNN
F 1 "0.01uF" H 12214 7500 50  0000 L CNN
F 2 "powersupply-c:C0603" H 12138 7350 50  0001 C CNN
F 3 "" H 12100 7500 50  0001 C CNN
F 4 "CAPACITOR CERAMIC,10NF,+/-10%,50V,0603" H 12100 7500 50  0001 C CNN "Description"
F 5 "10022508" H 0   0   50  0001 C CNN "Item Number"
F 6 "YAGEO_RMS1" H 0   0   50  0001 C CNN "Manufacturer"
F 7 "YAGEO_RMS1" H 0   0   50  0001 C CNN "Manufacturer2"
F 8 "KEMET_RMS1" H 0   0   50  0001 C CNN "Manufacturer3"
F 9 "CC0603KRX7R9BB103" H 0   0   50  0001 C CNN "Manufacturer_No"
F 10 "CC0603KRX7R9BB104" H 0   0   50  0001 C CNN "Manufacturer_No2"
F 11 "C0603C103K5RACTU" H 0   0   50  0001 C CNN "Manufacturer_No3"
	1    12100 7500
	-1   0    0    1   
$EndComp
Connection ~ 12100 7050
Connection ~ 12100 8050
Wire Wire Line
	11750 8050 12100 8050
Wire Wire Line
	11600 7050 12100 7050
Connection ~ 11350 8850
Wire Wire Line
	11350 8850 11750 8850
Connection ~ 10350 7050
Connection ~ 10350 8850
Wire Wire Line
	10350 8850 10700 8850
Wire Wire Line
	10350 7050 10750 7050
Wire Wire Line
	7300 7750 7600 7750
Wire Wire Line
	7300 7450 7300 7750
Connection ~ 7300 7750
Connection ~ 8450 7750
Connection ~ 8450 7150
Wire Wire Line
	13250 8150 12950 8150
$Comp
L V_IC:TLV3012AIDBV IC6
U 1 1 5E918693
P 13450 8050
F 0 "IC6" H 13600 8250 50  0000 C CNN
F 1 "TLV3012AIDBV" H 13900 7950 50  0000 C CNN
F 2 "powersupply-c:SOT23-6" H 13650 8050 50  0001 C CNN
F 3 "" H 13450 8050 50  0001 C CNN
F 4 "IC, COMPARATOR, SOT23-6" H 13450 8050 50  0001 C CNN "Description"
F 5 "10022739" H 13450 8050 50  0001 C CNN "Item Number"
F 6 "TEXAS INSTRUMENTS_RMS1" H 13450 8050 50  0001 C CNN "Manufacturer"
F 7 "TLV3012AIDBVR" H 13450 8050 50  0001 C CNN "Manufacturer_No"
F 8 "TEXAS INSTRUMENTS_RMS1" H 0   0   50  0001 C CNN "Manufacturer2"
F 9 "TLV3012AIDBVTG4" H 0   0   50  0001 C CNN "Manufacturer_No2"
	1    13450 8050
	1    0    0    -1  
$EndComp
$Comp
L V_Capacitor:C0402_100nF_16V_10% C9
U 1 1 5E9B0C90
P 13850 7500
F 0 "C9" H 13965 7546 50  0000 L CNN
F 1 "100nF" H 13965 7455 50  0000 L CNN
F 2 "powersupply-c:C0402" H 13888 7350 50  0001 C CNN
F 3 "https://www.yageo.com/upload/media/product/productsearch/datasheet/mlcc/UPY-GPHC_X7R_6.3V-to-50V_18.pdf" H 13850 7500 50  0001 C CNN
F 4 "CAPACITOR,100NF,16V,+/-10%,X7R,0402" H 13850 7500 50  0001 C CNN "Description"
F 5 "10022607" H 13850 7500 50  0001 C CNN "Item Number"
F 6 "YAGEO_RMS1" H 13850 7500 50  0001 C CNN "Manufacturer"
F 7 "CC0402KRX7R7BB104" H 13850 7500 50  0001 C CNN "Manufacturer_No"
F 8 "YAGEO_RMS1" H 0   0   50  0001 C CNN "Manufacturer2"
F 9 "MURATA MANUFACTURING CO., LTD." H 0   0   50  0001 C CNN "Manufacturer3"
F 10 "223878715649" H 0   0   50  0001 C CNN "Manufacturer_No2"
F 11 "GRM155R71C104KA88D" H 0   0   50  0001 C CNN "Manufacturer_No3"
	1    13850 7500
	1    0    0    -1  
$EndComp
$Comp
L V_Resistor:R1206_1k_1%_10022557 R115
U 1 1 5E962213
P 9650 7300
F 0 "R115" H 9581 7391 50  0000 R CNN
F 1 "1k" H 9581 7300 50  0000 R CNN
F 2 "powersupply-c:RC1206" V 9580 7300 50  0001 C CNN
F 3 "" H 9650 7300 50  0001 C CNN
F 4 "RESISTOR,1 KOHM,0.25W,+/-1%,1206" H 9650 7300 50  0001 C CNN "Description"
F 5 "10022557" H 9650 7300 50  0001 C CNN "Item Number"
F 6 "SAMSUNG_RMS1" H 0   0   50  0001 C CNN "Manufacturer"
F 7 "YAGEO_RMS1" H 0   0   50  0001 C CNN "Manufacturer2"
F 8 "YAGEO_RMS1" H 0   0   50  0001 C CNN "Manufacturer3"
F 9 "RC3216F1001CS" H 0   0   50  0001 C CNN "Manufacturer_No"
F 10 "RC1206FR-071KL" H 0   0   50  0001 C CNN "Manufacturer_No2"
F 11 "RC1206FR-071KL" H 0   0   50  0001 C CNN "Manufacturer_No3"
	1    9650 7300
	1    0    0    -1  
$EndComp
Text Notes 3700 1050 0    50   ~ 0
ideally, a couple of the pins might be bypassed to PGND instead of GND,\nbut it doesn't really matter because the CPU board combines the grounds.
$Comp
L V_Power:+3.0VREF #PWR0286
U 1 1 5EA1946D
P 3550 5900
F 0 "#PWR0286" H 3550 5750 50  0001 C CNN
F 1 "+3.0VREF" H 3565 6073 50  0000 C CNN
F 2 "" H 3550 5900 50  0001 C CNN
F 3 "" H 3550 5900 50  0001 C CNN
	1    3550 5900
	1    0    0    -1  
$EndComp
Wire Notes Line
	6000 5650 6000 8150
Wire Notes Line
	2700 5650 2700 8150
Wire Wire Line
	4200 7300 4850 7300
Wire Wire Line
	4200 7300 4200 7200
Connection ~ 4200 7300
Wire Wire Line
	4200 7300 3450 7300
Connection ~ 3450 7300
Wire Wire Line
	3450 7300 3200 7300
Connection ~ 3200 7300
Wire Wire Line
	3200 7300 3200 7000
Wire Wire Line
	3200 7300 3200 7400
$Comp
L V_Power:PGND #PWR0167
U 1 1 5EE6252B
P 5500 7350
F 0 "#PWR0167" H 5500 7100 50  0001 C CNN
F 1 "PGND" H 5500 7200 50  0000 C CNN
F 2 "" H 5500 7350 50  0001 C CNN
F 3 "" H 5500 7350 50  0001 C CNN
	1    5500 7350
	1    0    0    -1  
$EndComp
Wire Wire Line
	5500 7350 5500 7300
Connection ~ 5500 7300
$Comp
L V_Diode:BAT54 D20
U 1 1 5EAE8195
P 12450 8350
F 0 "D20" V 12450 8300 50  0000 R CNN
F 1 "BAT54" V 12350 8300 50  0000 R CNN
F 2 "powersupply-c:SOT23-1G" H 12220 8188 50  0001 L CNN
F 3 "https://assets.nexperia.com/documents/data-sheet/BAT54_SER.pdf" H 12370 8450 50  0001 C CNN
F 4 "DIODE SCHOTTKY, 30V, 200MA" H 12775 8175 60  0001 C CNN "Description"
F 5 "10022652" H 12450 8300 50  0001 C CNN "Item Number"
F 6 "NXP SEMICONDUCTORS_RMS1" H 0   0   50  0001 C CNN "Manufacturer"
F 7 "NXP SEMICONDUCTORS_RMS1" H 0   0   50  0001 C CNN "Manufacturer2"
F 8 "BAT54,215" H 0   0   50  0001 C CNN "Manufacturer_No"
F 9 "BAT54" H 0   0   50  0001 C CNN "Manufacturer_No2"
	1    12450 8350
	0    -1   -1   0   
$EndComp
Wire Wire Line
	4200 7875 4300 7875
Wire Wire Line
	3550 7850 3550 7900
Wire Wire Line
	3550 7400 4200 7400
Connection ~ 3550 7400
Wire Wire Line
	3550 7450 3550 7400
Wire Wire Line
	3200 7400 3550 7400
$Comp
L V_Jumper:JUMP_0U JPL2
U 1 1 5EA74230
P 3550 7650
F 0 "JPL2" V 3504 7724 50  0000 L CNN
F 1 "LINK" V 3595 7724 50  0000 L CNN
F 2 "powersupply-c:GDCAFE-F_FERME" H 3550 7650 50  0001 C CNN
F 3 "RoHS3 Compliant with exemptions" H 3550 7650 50  0001 C CNN
F 4 "RESISTANCE, 0 OHM,0603" H 0   0   50  0001 C CNN "Description"
F 5 "10023185" H 0   0   50  0001 C CNN "Item Number"
F 6 "YAGEO_RMS1" H 0   0   50  0001 C CNN "Manufacturer"
F 7 "YAGEO_RMS1" H 0   0   50  0001 C CNN "Manufacturer2"
F 8 "YAGEO_RMS1" H 0   0   50  0001 C CNN "Manufacturer3"
F 9 "RC0603JR-070RL" H 0   0   50  0001 C CNN "Manufacturer_No"
F 10 "RC0603JR-070RL" H 0   0   50  0001 C CNN "Manufacturer_No2"
F 11 "RC0603JR-070RL" H 0   0   50  0001 C CNN "Manufacturer_No3"
	1    3550 7650
	0    1    1    0   
$EndComp
Wire Wire Line
	4200 7875 4200 7900
Connection ~ 4200 7875
$Comp
L V_Jumper:JUMP_0U JPL3
U 1 1 5EB10713
P 4200 7650
F 0 "JPL3" V 4154 7602 50  0000 R CNN
F 1 "LINK" V 4245 7602 50  0000 R CNN
F 2 "powersupply-c:GDCAFE-F_FERME" H 4200 7650 50  0001 C CNN
F 3 "RoHS3 Compliant with exemptions" H 4200 7650 50  0001 C CNN
F 4 "RESISTANCE, 0 OHM,0603" H 0   0   50  0001 C CNN "Description"
F 5 "10023185" H 0   0   50  0001 C CNN "Item Number"
F 6 "YAGEO_RMS1" H 0   0   50  0001 C CNN "Manufacturer"
F 7 "YAGEO_RMS1" H 0   0   50  0001 C CNN "Manufacturer2"
F 8 "YAGEO_RMS1" H 0   0   50  0001 C CNN "Manufacturer3"
F 9 "RC0603JR-070RL" H 0   0   50  0001 C CNN "Manufacturer_No"
F 10 "RC0603JR-070RL" H 0   0   50  0001 C CNN "Manufacturer_No2"
F 11 "RC0603JR-070RL" H 0   0   50  0001 C CNN "Manufacturer_No3"
	1    4200 7650
	0    1    1    0   
$EndComp
Wire Wire Line
	4200 7450 4200 7400
Wire Wire Line
	4200 7850 4200 7875
$Comp
L V_Power:0VANA #PWR0169
U 1 1 5EB2DA0B
P 4200 7900
F 0 "#PWR0169" H 4200 7650 50  0001 C CNN
F 1 "0VANA" H 4200 7750 50  0000 C CNN
F 2 "" H 4200 7900 50  0001 C CNN
F 3 "" H 4200 7900 50  0001 C CNN
	1    4200 7900
	1    0    0    -1  
$EndComp
$Comp
L V_Connector:TestPoint_2 PT1
U 1 1 5EB70271
P 4300 7875
F 0 "PT1" V 4300 8125 50  0000 C CNN
F 1 "TestPoint" H 4300 8075 50  0001 C CNN
F 2 "powersupply-c:C12000" H 4500 7875 50  0001 C CNN
F 3 "" H 4500 7875 50  0001 C CNN
F 4 "TEST POINT" H 0   0   50  0001 C CNN "Description"
F 5 "10022924" H 0   0   50  0001 C CNN "Item Number"
F 6 "NICOMATIC_RMS1" H 0   0   50  0001 C CNN "Manufacturer"
F 7 "KEYSTONE ELECTRONICS CORP" H 0   0   50  0001 C CNN "Manufacturer2"
F 8 "C12000B" H 0   0   50  0001 C CNN "Manufacturer_No"
F 9 "5015" H 0   0   50  0001 C CNN "Manufacturer_No2"
	1    4300 7875
	0    1    1    0   
$EndComp
$Comp
L V_Power:GND #PWR0168
U 1 1 5EA74232
P 3550 7900
F 0 "#PWR0168" H 3550 7650 50  0001 C CNN
F 1 "GND" H 3550 7750 50  0000 C CNN
F 2 "" H 3550 7900 50  0001 C CNN
F 3 "" H 3550 7900 50  0001 C CNN
	1    3550 7900
	1    0    0    -1  
$EndComp
Text Label 7850 7150 0    50   ~ 0
N$94
Text Label 11450 8050 0    50   ~ 0
N$91
Text Label 13000 8150 0    50   ~ 0
N$104
Text Label 13375 8450 0    50   ~ 0
N$99
Text Label 9775 10025 0    50   ~ 0
N$59
Text GLabel 9775 10025 0    50   Input ~ 0
N$59
Text Label 8350 10100 0    50   ~ 0
N$91
Text GLabel 8350 10100 0    50   Input ~ 0
N$91
Text Label 9800 10925 0    50   ~ 0
MRST-SPI-0
Text GLabel 9800 10925 0    50   Input ~ 0
MRST-SPI-0
Text Label 9800 11025 0    50   ~ 0
MTSR-SPI-0
Text GLabel 9800 11025 0    50   Input ~ 0
MTSR-SPI-0
Text Label 9775 10825 0    50   ~ 0
SCLK-SPI-1
Text GLabel 9775 10825 0    50   Input ~ 0
SCLK-SPI-1
Text GLabel 9775 10725 0    50   Input ~ 0
CE-SPI-PIC
Text Label 9775 10725 0    50   ~ 0
CE-SPI-PIC
Text Label 9775 10625 0    50   ~ 0
USB-RESET
Text GLabel 9775 10625 0    50   Input ~ 0
USB-RESET
Text Label 9775 10525 0    50   ~ 0
CE-SPI-USB
Text GLabel 9775 10525 0    50   Input ~ 0
CE-SPI-USB
Text Label 8350 10800 0    50   ~ 0
TX-UART-ST
Text GLabel 8350 10800 0    50   Input ~ 0
TX-UART-ST
Text Label 8350 10900 0    50   ~ 0
RTS-UART-ST
Text GLabel 8350 10900 0    50   Input ~ 0
RTS-UART-ST
Text Label 8350 11000 0    50   ~ 0
RX-UART-ST
Text GLabel 8350 11000 0    50   Input ~ 0
RX-UART-ST
Text Label 8350 10700 0    50   ~ 0
BAT-EEPROM
Text GLabel 8350 10700 0    50   Input ~ 0
BAT-EEPROM
Text GLabel 8350 10500 0    50   Input ~ 0
LED-DC-PRESENCE
Text Label 8350 10600 0    50   ~ 0
LED-AC-PRESENCE
Text GLabel 8350 10600 0    50   Input ~ 0
LED-AC-PRESENCE
Text Label 8350 10500 0    50   ~ 0
LED-DC-PRESENCE
Text Label 9775 10425 0    50   ~ 0
CMD-FAN
Text GLabel 9775 10425 0    50   Input ~ 0
CMD-FAN
Text Label 8350 10400 0    50   ~ 0
MRST-SPI-1
Text GLabel 8350 10400 0    50   Input ~ 0
MRST-SPI-1
Text Label 8350 10300 0    50   ~ 0
LED-BATTERY-STATUS
Text GLabel 8350 10300 0    50   Input ~ 0
LED-BATTERY-STATUS
Text Label 9775 10325 0    50   ~ 0
USB-BUSY
Text GLabel 9775 10325 0    50   Input ~ 0
USB-BUSY
Text Label 9775 10225 0    50   ~ 0
SCLK-SPI-0
Text GLabel 9775 10225 0    50   Input ~ 0
SCLK-SPI-0
Text Label 8350 10200 0    50   ~ 0
BATTERY-TEMP
Text GLabel 8350 10200 0    50   Input ~ 0
BATTERY-TEMP
Text Label 9775 10125 0    50   ~ 0
MTSR-SPI-1
Text GLabel 9775 10125 0    50   Input ~ 0
MTSR-SPI-1
$EndSCHEMATC
