EESchema Schematic File Version 4
EELAYER 30 0
EELAYER END
$Descr A3 16535 11693
encoding utf-8
Sheet 6 9
Title ""
Date ""
Rev ""
Comp ""
Comment1 ""
Comment2 ""
Comment3 ""
Comment4 ""
$EndDescr
$Comp
L V_Power:VACDC #PWR0205
U 1 1 5E9388D2
P 1300 3000
F 0 "#PWR0205" H 1300 2850 50  0001 C CNN
F 1 "VACDC" H 1300 3165 50  0000 C CNN
F 2 "" H 1300 3000 50  0001 C CNN
F 3 "" H 1300 3000 50  0001 C CNN
	1    1300 3000
	1    0    0    -1  
$EndComp
$Comp
L V_Power:PGND #PWR0206
U 1 1 5E955002
P 1300 3700
F 0 "#PWR0206" H 1300 3450 50  0001 C CNN
F 1 "PGND" H 1300 3550 50  0000 C CNN
F 2 "" H 1300 3700 50  0001 C CNN
F 3 "" H 1300 3700 50  0001 C CNN
	1    1300 3700
	1    0    0    -1  
$EndComp
Wire Wire Line
	1300 3200 1300 3100
Wire Wire Line
	1300 3100 1700 3100
Wire Wire Line
	3200 3100 3200 3500
Connection ~ 1300 3100
Wire Wire Line
	1300 3100 1300 3000
Text GLabel 1600 5600 0    50   Input ~ 0
ICHARGE-SETTING
$Comp
L V_Resistor:R0603_1M5_1% R79
U 1 1 5E95C8F2
P 3200 3650
F 0 "R79" H 3270 3696 50  0000 L CNN
F 1 "1.5M" H 3270 3605 50  0000 L CNN
F 2 "powersupply-c:R0603" V 3130 3650 50  0001 C CNN
F 3 "" H 3200 3650 50  0001 C CNN
F 4 "RESISTOR,1.5M OHM,0.063W,+/-1%,0603" H 3200 3650 50  0001 C CNN "Description"
F 5 "10022722" H 0   0   50  0001 C CNN "Item Number"
F 6 "YAGEO_RMS1" H 0   0   50  0001 C CNN "Manufacturer"
F 7 "VISHAY_RMS1" H 0   0   50  0001 C CNN "Manufacturer2"
F 8 "YAGEO_RMS1" H 0   0   50  0001 C CNN "Manufacturer3"
F 9 "RC0603FR-071M5L" H 0   0   50  0001 C CNN "Manufacturer_No"
F 10 "CRCW06031M50FKEA" H 0   0   50  0001 C CNN "Manufacturer_No2"
F 11 "RC0603FR-071M5L" H 0   0   50  0001 C CNN "Manufacturer_No3"
	1    3200 3650
	1    0    0    -1  
$EndComp
$Comp
L V_Resistor:R0603_16k2_0.1% R91
U 1 1 5E95D4BD
P 1450 5200
F 0 "R91" V 1335 5200 50  0000 C CNN
F 1 "16.2k" V 1244 5200 50  0000 C CNN
F 2 "powersupply-c:R0603" V 1380 5200 50  0001 C CNN
F 3 "" H 1450 5200 50  0001 C CNN
F 4 "RESISTOR,16.2K OHM,0.063W,+/-0.1%,0603" H 1450 5200 50  0001 C CNN "Description"
F 5 "10022730" H 0   0   50  0001 C CNN "Item Number"
F 6 "YAGEO_RMS1" H 0   0   50  0001 C CNN "Manufacturer"
F 7 "PANASONIC_RMS1" H 0   0   50  0001 C CNN "Manufacturer2"
F 8 "VISHAY_RMS1" H 0   0   50  0001 C CNN "Manufacturer3"
F 9 "RT0603BRD0716K2L" H 0   0   50  0001 C CNN "Manufacturer_No"
F 10 "ERA-3AEB1622V " H 0   0   50  0001 C CNN "Manufacturer_No2"
F 11 "TNPW060316K2BEEA" H 0   0   50  0001 C CNN "Manufacturer_No3"
	1    1450 5200
	0    -1   -1   0   
$EndComp
Wire Wire Line
	1300 3500 1300 3600
Wire Wire Line
	1300 3600 1700 3600
Wire Wire Line
	2900 3600 2900 3500
Connection ~ 1300 3600
Wire Wire Line
	1300 3600 1300 3700
Wire Wire Line
	1700 3500 1700 3600
Connection ~ 1700 3600
Wire Wire Line
	1700 3600 2100 3600
Wire Wire Line
	2100 3500 2100 3600
Connection ~ 2100 3600
Wire Wire Line
	2100 3600 2500 3600
Wire Wire Line
	2100 3200 2100 3100
Wire Wire Line
	1700 3100 1700 3200
Connection ~ 1700 3100
Wire Wire Line
	1700 3100 2100 3100
Wire Wire Line
	2900 3200 2900 3100
Wire Wire Line
	2500 3100 2500 3200
Wire Wire Line
	2500 3500 2500 3600
Connection ~ 2500 3600
Wire Wire Line
	2500 3600 2900 3600
Wire Wire Line
	2100 3100 2500 3100
Connection ~ 2100 3100
Connection ~ 2500 3100
Wire Wire Line
	2500 3100 2900 3100
Connection ~ 2900 3100
Wire Wire Line
	2900 3100 3200 3100
$Comp
L V_IC:LT1620CMS8 IC14
U 1 1 5E97706E
P 2350 4900
F 0 "IC14" H 2000 5350 50  0000 R CNN
F 1 "LT1620CMS8" H 2000 5450 50  0000 R CNN
F 2 "powersupply-c:uSO08" H 2450 5000 50  0001 C CNN
F 3 "" H 2450 5000 50  0001 C CNN
F 4 "IC,CURRENT AMPLIFIER,MSOP" H 2450 5000 50  0001 C CNN "Description"
F 5 "10022893" H 2450 5000 50  0001 C CNN "Item Number"
F 6 "LINEAR TECHNOLOGY_RMS1" H 2450 5000 50  0001 C CNN "Manufacturer"
F 7 "LT1620CMS8#TRPBF" H 2450 5000 50  0001 C CNN "Manufacturer_No"
F 8 "LINEAR TECHNOLOGY_RMS1" H 0   0   50  0001 C CNN "Manufacturer2"
F 9 "LT1620CMS8#PBF" H 0   0   50  0001 C CNN "Manufacturer_No2"
	1    2350 4900
	-1   0    0    1   
$EndComp
Wire Wire Line
	2650 5400 2650 5500
Wire Wire Line
	2250 5400 2250 5500
Wire Wire Line
	2250 5500 2300 5500
Connection ~ 2250 5500
Wire Wire Line
	2250 5500 2250 6100
Wire Wire Line
	2600 5500 2650 5500
Connection ~ 2650 5500
Wire Wire Line
	2650 5500 2650 6100
Text Label 2250 6100 1    50   ~ 0
-ISENSE
Text Label 2650 6100 1    50   ~ 0
+ISENSE
Wire Wire Line
	9800 3800 9800 3200
Wire Wire Line
	9300 3800 9300 3200
Text Label 9800 3200 3    50   ~ 0
-ISENSE
Text Label 9300 3200 3    50   ~ 0
+ISENSE
Wire Wire Line
	2650 4200 2650 4100
Wire Wire Line
	2650 4100 2600 4100
Wire Wire Line
	2250 4200 2250 4100
Wire Wire Line
	2250 4100 2300 4100
$Comp
L V_Power:GND #PWR0207
U 1 1 5E984F6F
P 2050 4000
F 0 "#PWR0207" H 2050 3750 50  0001 C CNN
F 1 "GND" H 2050 3850 50  0000 C CNN
F 2 "" H 2050 4000 50  0001 C CNN
F 3 "" H 2050 4000 50  0001 C CNN
	1    2050 4000
	1    0    0    -1  
$EndComp
Wire Wire Line
	2050 4000 2050 3900
Wire Wire Line
	2050 3900 2250 3900
Wire Wire Line
	2250 3900 2250 4100
Connection ~ 2250 4100
Wire Wire Line
	2650 4100 2650 3800
Wire Wire Line
	2650 3800 1600 3800
Wire Wire Line
	1600 3800 1600 4200
Connection ~ 2650 4100
$Comp
L V_Resistor:R0603_2k87_0.1% R85
U 1 1 5E987A09
P 1250 4650
F 0 "R85" H 1180 4604 50  0000 R CNN
F 1 "2.87k" H 1180 4695 50  0000 R CNN
F 2 "powersupply-c:R0603" V 1180 4650 50  0001 C CNN
F 3 "" H 1250 4650 50  0001 C CNN
F 4 "RESISTOR,2.87K OHM,0.063W,+/-0.1%,0603" H 1250 4650 50  0001 C CNN "Description"
F 5 "10022726" H 0   0   50  0001 C CNN "Item Number"
F 6 "WELWYN" H 0   0   50  0001 C CNN "Manufacturer"
F 7 "YAGEO_RMS1" H 0   0   50  0001 C CNN "Manufacturer2"
F 8 "YAGEO_RMS1" H 0   0   50  0001 C CNN "Manufacturer3"
F 9 "PCF0603R-2K87BI" H 0   0   50  0001 C CNN "Manufacturer_No"
F 10 "RT0603BRD072K87L" H 0   0   50  0001 C CNN "Manufacturer_No2"
F 11 "RT0603BRD072K87L" H 0   0   50  0001 C CNN "Manufacturer_No3"
	1    1250 4650
	-1   0    0    1   
$EndComp
Wire Wire Line
	1000 4500 1000 4200
Wire Wire Line
	1000 4200 1250 4200
Connection ~ 1600 4200
Wire Wire Line
	1600 4200 1600 4300
Wire Wire Line
	1250 4500 1250 4200
Connection ~ 1250 4200
Wire Wire Line
	1250 4200 1600 4200
Text Label 1000 4200 0    50   ~ 0
INTVCC-2
Wire Wire Line
	1850 5000 1250 5000
Wire Wire Line
	1000 5000 1000 4800
Wire Wire Line
	1250 4800 1250 5000
Connection ~ 1250 5000
Wire Wire Line
	1250 5000 1000 5000
Wire Wire Line
	1000 5000 1000 5200
Wire Wire Line
	1000 5200 1300 5200
Connection ~ 1000 5000
Wire Wire Line
	1600 5200 1700 5200
Wire Wire Line
	1700 5200 1700 5600
Wire Wire Line
	1700 5600 1600 5600
Text Label 1000 5000 0    50   ~ 0
N$53
$Comp
L V_IC:LTC1435CS IC13
U 1 1 5E9A46CA
P 6300 4500
F 0 "IC13" H 5900 5300 50  0000 C CNN
F 1 "LTC1435CS" H 6450 5300 50  0000 L CNN
F 2 "powersupply-c:SSOP16" V 6250 4550 50  0001 C CNN
F 3 "https://www.analog.com/media/en/technical-documentation/data-sheets/1435f.pdf" H 6300 4500 50  0001 C CNN
F 4 "IC,SWITCHING REGULATOR,SSOP" H 6300 4500 50  0001 C CNN "Description"
F 5 "10022897" H 6300 4500 50  0001 C CNN "Item Number"
F 6 "LINEAR TECHNOLOGY_RMS1" H 6300 4500 50  0001 C CNN "Manufacturer"
F 7 "LTC1435IG#TRPBF" H 6300 4500 50  0001 C CNN "Manufacturer_No"
F 8 "LINEAR TECHNOLOGY_RMS1" H 0   0   50  0001 C CNN "Manufacturer2"
F 9 "LINEAR TECHNOLOGY_RMS1" H 0   0   50  0001 C CNN "Manufacturer3"
F 10 "LTC1435IG#PBF" H 0   0   50  0001 C CNN "Manufacturer_No2"
F 11 "LTC1435IG#PBF" H 0   0   50  0001 C CNN "Manufacturer_No3"
	1    6300 4500
	1    0    0    -1  
$EndComp
Wire Wire Line
	5700 4900 4700 4900
Wire Wire Line
	3200 3800 3200 4900
Connection ~ 3200 4900
Wire Wire Line
	3200 4900 3100 4900
Text Label 5200 5100 0    50   ~ 0
INTVCC-2
Text Label 5150 4700 0    50   ~ 0
VOSENSE-2
Wire Wire Line
	6100 5400 6100 5500
Wire Wire Line
	4200 5500 4200 5300
Wire Wire Line
	4200 4700 4200 5000
Wire Wire Line
	4700 5300 4700 5400
Wire Wire Line
	4700 4900 4700 5000
Connection ~ 4700 4900
Wire Wire Line
	4700 4900 3200 4900
Wire Wire Line
	5200 4500 5700 4500
Text Label 5200 4500 0    50   ~ 0
INTVCC-2
Wire Wire Line
	4700 3800 4700 4100
Wire Wire Line
	4700 4100 5700 4100
Wire Wire Line
	5700 3900 5100 3900
Wire Wire Line
	5100 3900 5100 3800
$Comp
L V_Power:GND #PWR0208
U 1 1 5E9C9BAD
P 4300 3400
F 0 "#PWR0208" H 4300 3150 50  0001 C CNN
F 1 "GND" H 4300 3250 50  0000 C CNN
F 2 "" H 4300 3400 50  0001 C CNN
F 3 "" H 4300 3400 50  0001 C CNN
	1    4300 3400
	1    0    0    -1  
$EndComp
Wire Wire Line
	4300 3400 4300 3300
Wire Wire Line
	4300 3300 4700 3300
Wire Wire Line
	4700 3300 4700 3500
Wire Wire Line
	4700 3300 5100 3300
Wire Wire Line
	5100 3300 5100 3500
Connection ~ 4700 3300
$Comp
L V_Power:GND #PWR0209
U 1 1 5E9CDE4D
P 6100 5600
F 0 "#PWR0209" H 6100 5350 50  0001 C CNN
F 1 "GND" H 6100 5450 50  0000 C CNN
F 2 "" H 6100 5600 50  0001 C CNN
F 3 "" H 6100 5600 50  0001 C CNN
	1    6100 5600
	1    0    0    -1  
$EndComp
$Comp
L V_Power:PGND #PWR0210
U 1 1 5E9CFB35
P 8500 5600
F 0 "#PWR0210" H 8500 5350 50  0001 C CNN
F 1 "PGND" H 8500 5450 50  0000 C CNN
F 2 "" H 8500 5600 50  0001 C CNN
F 3 "" H 8500 5600 50  0001 C CNN
	1    8500 5600
	1    0    0    -1  
$EndComp
Wire Wire Line
	6400 5400 6400 5500
Wire Wire Line
	6100 5600 6100 5500
Connection ~ 6100 5500
Wire Wire Line
	4500 4300 4600 4300
Wire Wire Line
	4200 4300 4000 4300
Wire Wire Line
	4000 4300 4000 4400
Wire Wire Line
	4000 4700 4000 5500
Wire Wire Line
	4000 5500 4200 5500
$Comp
L V_Resistor:R0603_1k_1%_10022554 R82
U 1 1 5E9DD03B
P 3700 4550
F 0 "R82" H 3630 4641 50  0000 R CNN
F 1 "1k" H 3630 4550 50  0000 R CNN
F 2 "powersupply-c:R0603" V 3630 4550 50  0001 C CNN
F 3 "" H 3700 4550 50  0001 C CNN
F 4 "RESISTOR, 1K OHM, 0.063W,+/-1%, 0603" H 3700 4550 50  0001 C CNN "Description"
F 5 "10022554" H 0   0   50  0001 C CNN "Item Number"
F 6 "BOURNS_RMS1" H 0   0   50  0001 C CNN "Manufacturer"
F 7 "VISHAY_RMS1" H 0   0   50  0001 C CNN "Manufacturer2"
F 8 "YAGEO_RMS1" H 0   0   50  0001 C CNN "Manufacturer3"
F 9 "CR0603-FX-1001ELF" H 0   0   50  0001 C CNN "Manufacturer_No"
F 10 "CRCW06031K00FKEA" H 0   0   50  0001 C CNN "Manufacturer_No2"
F 11 "RC0603FR-071KL" H 0   0   50  0001 C CNN "Manufacturer_No3"
	1    3700 4550
	1    0    0    -1  
$EndComp
Wire Wire Line
	4000 4300 3700 4300
Wire Wire Line
	3700 4300 3700 4400
Connection ~ 4000 4300
Wire Wire Line
	3700 4700 3700 5500
Wire Wire Line
	3700 5500 4000 5500
Connection ~ 4000 5500
Wire Wire Line
	3000 4600 3400 4600
Wire Wire Line
	3400 4600 3400 4100
Wire Wire Line
	3400 4100 4600 4100
Wire Wire Line
	4600 4100 4600 4300
Connection ~ 4600 4300
Wire Wire Line
	4600 4300 5700 4300
Text Label 3725 4300 0    50   ~ 0
N$140
NoConn ~ 6150 3600
Wire Wire Line
	3200 3100 6400 3100
Wire Wire Line
	6400 3100 6400 3600
Connection ~ 3200 3100
$Comp
L V_Power:PGND #PWR0211
U 1 1 5E9F0A22
P 7000 3600
F 0 "#PWR0211" H 7000 3350 50  0001 C CNN
F 1 "PGND" H 7000 3450 50  0000 C CNN
F 2 "" H 7000 3600 50  0001 C CNN
F 3 "" H 7000 3600 50  0001 C CNN
	1    7000 3600
	1    0    0    -1  
$EndComp
Wire Wire Line
	6400 3100 7000 3100
Wire Wire Line
	7000 3100 7000 3200
Connection ~ 6400 3100
Wire Wire Line
	7000 3500 7000 3600
Wire Wire Line
	6900 4500 7300 4500
Text Label 6900 4500 0    50   ~ 0
INTVCC-2
Wire Wire Line
	6900 4700 7900 4700
Wire Wire Line
	7900 4700 7900 4500
Wire Wire Line
	7900 4500 7800 4500
Wire Wire Line
	7900 4500 8000 4500
Connection ~ 7900 4500
Wire Wire Line
	6400 5500 7300 5500
Wire Wire Line
	7300 5500 7300 5400
Wire Wire Line
	8500 5500 8500 5600
Wire Wire Line
	7300 5100 7300 4500
Connection ~ 7300 4500
Wire Wire Line
	7300 4500 7500 4500
$Comp
L V_Diode:PMEG4005ET D8
U 1 1 5EA2258B
P 7650 4200
F 0 "D8" H 7650 4300 50  0000 C CNN
F 1 "PMEG4005ET" H 7650 4100 50  0000 C CNN
F 2 "powersupply-c:SOT23-1G" H 7650 4025 50  0001 C CNN
F 3 "" H 7650 4200 50  0001 C CNN
F 4 "DIODE SCHOTTKY, 40V, 500MA" H 7650 4200 50  0001 C CNN "Description"
F 5 "10039586" H 7650 4200 50  0001 C CNN "Item Number"
F 6 "PHILIPS" H 7650 4200 50  0001 C CNN "Manufacturer"
F 7 "PMEG4005ET" H 7650 4200 50  0001 C CNN "Manufacturer_No"
	1    7650 4200
	1    0    0    -1  
$EndComp
Wire Wire Line
	6900 4100 7400 4100
Wire Wire Line
	7400 4100 7400 4200
Wire Wire Line
	7400 4200 7500 4200
Wire Wire Line
	7400 4100 7400 3900
Wire Wire Line
	7400 3900 7500 3900
Connection ~ 7400 4100
$Comp
L V_Transistor:IRFR024NTRPBF T24
U 1 1 5EA3C34E
P 8400 3550
F 0 "T24" H 8605 3596 50  0000 L CNN
F 1 "IRFR024NTRPBF" H 8605 3505 50  0000 L CNN
F 2 "powersupply-c:DPAK-GDS" H 9250 3475 50  0001 C CIN
F 3 "https://www.infineon.com/dgdl/irfr024npbf.pdf?fileId=5546d462533600a40153562cf721203c" H 8725 3250 50  0001 L CNN
F 4 "TRANSISTOR MOSFET, 60V, 16.7A,  N CHANNEL" H 9200 3475 50  0001 C CNN "Description"
F 5 "10022559" H 8400 3550 50  0001 C CNN "Item Number"
F 6 "INTERNATIONAL RECTIFIER_RMS1" H 0   0   50  0001 C CNN "Manufacturer"
F 7 "IRFR024NTRPBF" H 0   0   50  0001 C CNN "Manufacturer_No"
	1    8400 3550
	1    0    0    -1  
$EndComp
Wire Wire Line
	7000 3100 8500 3100
Wire Wire Line
	8500 3100 8500 3350
Connection ~ 7000 3100
Wire Wire Line
	8200 3550 7200 3550
Wire Wire Line
	7200 3550 7200 3900
Wire Wire Line
	7200 3900 6900 3900
Wire Wire Line
	8500 3750 8500 3900
Wire Wire Line
	8500 4500 8300 4500
$Comp
L V_Transistor:IRFR024NTRPBF T27
U 1 1 5EA4B749
P 8400 5000
F 0 "T27" H 8600 5075 50  0000 L CNN
F 1 "IRFR024NTRPBF" H 8600 5000 50  0000 L CNN
F 2 "powersupply-c:DPAK-GDS" H 9250 4925 50  0001 C CIN
F 3 "https://www.infineon.com/dgdl/irfr024npbf.pdf?fileId=5546d462533600a40153562cf721203c" H 8725 4700 50  0001 L CNN
F 4 "TRANSISTOR MOSFET, 60V, 16.7A,  N CHANNEL" H 9200 4925 50  0001 C CNN "Description"
F 5 "10022559" H 8400 5000 50  0001 C CNN "Item Number"
F 6 "INTERNATIONAL RECTIFIER_RMS1" H 0   0   50  0001 C CNN "Manufacturer"
F 7 "IRFR024NTRPBF" H 0   0   50  0001 C CNN "Manufacturer_No"
	1    8400 5000
	1    0    0    -1  
$EndComp
Wire Wire Line
	6900 5000 8200 5000
Wire Wire Line
	7800 4200 8100 4200
Connection ~ 8500 4200
Wire Wire Line
	8500 4200 8500 4500
Wire Wire Line
	7800 3900 8100 3900
Wire Wire Line
	8100 3900 8100 4200
Connection ~ 8100 4200
Wire Wire Line
	8100 4200 8500 4200
Wire Wire Line
	8500 4800 8500 4500
Connection ~ 8500 4500
Wire Wire Line
	8500 5200 8500 5500
Wire Wire Line
	8500 5500 7300 5500
Connection ~ 7300 5500
Connection ~ 8500 5500
$Comp
L V_Inductor:L_Core_Iron_10022912 L?
U 1 1 5E93C62C
P 9050 3900
AR Path="/5FB0520C/5E93C62C" Ref="L?"  Part="1" 
AR Path="/5FEC1BCD/5E93C62C" Ref="L12"  Part="1" 
F 0 "L12" V 9275 3900 50  0000 C CNN
F 1 "47uH" V 9184 3900 50  0000 C CNN
F 2 "powersupply-c:WEPD-XXL" H 9050 3900 50  0001 C CNN
F 3 "" H 9050 3900 50  0001 C CNN
F 4 "INDUCTOR, 47UH +/-20%,3.8A,WE-PD-XXL" H 0   0   50  0001 C CNN "Description"
F 5 "10022912" H 0   0   50  0001 C CNN "Item Number"
F 6 "WURTH ELEKTRONIK GMBH" H 0   0   50  0001 C CNN "Manufacturer"
F 7 "7447709470" H 0   0   50  0001 C CNN "Manufacturer_No"
	1    9050 3900
	0    -1   -1   0   
$EndComp
$Comp
L V_Resistor:R2010_50m_1% R80
U 1 1 5E9442A8
P 9550 3900
F 0 "R80" V 9665 3900 50  0000 C CNN
F 1 "0.05_2010" V 9750 3900 50  0000 C CNN
F 2 "powersupply-c:R2010" V 9480 3900 50  0001 C CNN
F 3 "http://www.vishay.com/docs/30138/wslt2010.pdf" H 9550 3900 50  0001 C CNN
F 4 "RESISTOR,0.05 OHM,1W,+/-1%,2010" H 9550 3900 50  0001 C CNN "Description"
F 5 "10022723" V 9550 3900 50  0001 C CNN "Item Number"
F 6 "VISHAY_RMS1" H 0   0   50  0001 C CNN "Manufacturer"
F 7 "WELWYN" H 0   0   50  0001 C CNN "Manufacturer2"
F 8 "WELWYN" H 0   0   50  0001 C CNN "Manufacturer3"
F 9 "WSLT2010R0500FEB18" H 0   0   50  0001 C CNN "Manufacturer_No"
F 10 "LRC-LR2010LF-01-R050-F" H 0   0   50  0001 C CNN "Manufacturer_No2"
F 11 "LR2010-R05FW" H 0   0   50  0001 C CNN "Manufacturer_No3"
	1    9550 3900
	0    -1   -1   0   
$EndComp
Wire Wire Line
	9400 3900 9300 3800
Wire Wire Line
	9700 3900 9800 3800
Wire Wire Line
	8900 3900 8500 3900
Connection ~ 8500 3900
Wire Wire Line
	8500 3900 8500 4200
Wire Wire Line
	10700 4400 10700 4300
Wire Wire Line
	9900 4300 9900 4400
Wire Wire Line
	9900 4000 9900 3900
Wire Wire Line
	10700 4000 10700 3900
Wire Wire Line
	10300 3900 10300 4000
Wire Wire Line
	10300 4300 10300 4400
Connection ~ 10300 4400
Wire Wire Line
	10300 4400 10700 4400
$Comp
L V_Power:PGND #PWR0212
U 1 1 5E964DD2
P 9900 4500
F 0 "#PWR0212" H 9900 4250 50  0001 C CNN
F 1 "PGND" H 9900 4350 50  0000 C CNN
F 2 "" H 9900 4500 50  0001 C CNN
F 3 "" H 9900 4500 50  0001 C CNN
	1    9900 4500
	1    0    0    -1  
$EndComp
Wire Wire Line
	9900 4400 9900 4500
Connection ~ 9900 4400
Wire Wire Line
	9900 4400 10300 4400
$Comp
L V_Resistor:R0603_13k7_0.1% R81
U 1 1 5E9724D0
P 11100 4150
F 0 "R81" H 11030 4104 50  0000 R CNN
F 1 "13.7k" H 11030 4195 50  0000 R CNN
F 2 "powersupply-c:R0603" V 11030 4150 50  0001 C CNN
F 3 "" H 11100 4150 50  0001 C CNN
F 4 "RESISTOR,13.7K OHM,0.063W,+/-0.1%,0603" H 11100 4150 50  0001 C CNN "Description"
F 5 "10022724" H 0   0   50  0001 C CNN "Item Number"
F 6 "TYCO ELECTRONICS" H 0   0   50  0001 C CNN "Manufacturer"
F 7 "TYCO ELECTRONICS" H 0   0   50  0001 C CNN "Manufacturer2"
F 8 "VISHAY_RMS1" H 0   0   50  0001 C CNN "Manufacturer3"
F 9 "CPF0603B13K7E" H 0   0   50  0001 C CNN "Manufacturer_No"
F 10 "2-1879220-0" H 0   0   50  0001 C CNN "Manufacturer_No2"
F 11 "TNPW060313K7BEEA" H 0   0   50  0001 C CNN "Manufacturer_No3"
	1    11100 4150
	-1   0    0    1   
$EndComp
$Comp
L V_Resistor:R0603_1k37_0.1%_10022729 R90
U 1 1 5E973CFC
P 11100 4650
F 0 "R90" H 11030 4604 50  0000 R CNN
F 1 "1.37k" H 11030 4695 50  0000 R CNN
F 2 "powersupply-c:R0603" V 11030 4650 50  0001 C CNN
F 3 "" H 11100 4650 50  0001 C CNN
F 4 "RESISTOR,1.37K OHM,0.063W,+/-0.1%,0603" H 11100 4650 50  0001 C CNN "Description"
F 5 "10022729" H 0   0   50  0001 C CNN "Item Number"
F 6 "TYCO ELECTRONICS" H 0   0   50  0001 C CNN "Manufacturer"
F 7 "TYCO ELECTRONICS" H 0   0   50  0001 C CNN "Manufacturer2"
F 8 "VISHAY_RMS1" H 0   0   50  0001 C CNN "Manufacturer3"
F 9 "3-1879219-4" H 0   0   50  0001 C CNN "Manufacturer_No"
F 10 "CPF0603B1K37E" H 0   0   50  0001 C CNN "Manufacturer_No2"
F 11 "TNPW06031K37BEEA" H 0   0   50  0001 C CNN "Manufacturer_No3"
	1    11100 4650
	-1   0    0    1   
$EndComp
Text GLabel 11300 4400 2    50   Output ~ 0
MES-VCHARGE
Wire Wire Line
	11100 4300 11100 4400
Wire Wire Line
	9700 3900 9900 3900
Wire Wire Line
	11100 3900 11100 4000
Connection ~ 9900 3900
Wire Wire Line
	9900 3900 10300 3900
Connection ~ 10300 3900
Wire Wire Line
	10300 3900 10700 3900
Connection ~ 10700 3900
Wire Wire Line
	10700 3900 11100 3900
Wire Wire Line
	11100 4400 11300 4400
Connection ~ 11100 4400
Wire Wire Line
	11100 4400 11100 4500
$Comp
L V_Power:GND #PWR0213
U 1 1 5E98398D
P 11100 4900
F 0 "#PWR0213" H 11100 4650 50  0001 C CNN
F 1 "GND" H 11100 4750 50  0000 C CNN
F 2 "" H 11100 4900 50  0001 C CNN
F 3 "" H 11100 4900 50  0001 C CNN
	1    11100 4900
	1    0    0    -1  
$EndComp
Wire Wire Line
	11100 4900 11100 4800
$Comp
L V_Resistor:R0603_86k6_1% R87
U 1 1 5E9889ED
P 12000 3950
F 0 "R87" H 12069 3859 50  0000 L CNN
F 1 "86.6k" H 12069 3950 50  0000 L CNN
F 2 "powersupply-c:R0603" V 11930 3950 50  0001 C CNN
F 3 "https://www.yageo.com/upload/media/product/productsearch/datasheet/rchip/PYu-RC_Group_51_RoHS_L_10.pdf" H 12000 3950 50  0001 C CNN
F 4 "RESISTOR,86.6K OHM,0.063W,+/-1%,0603" H 12000 3950 50  0001 C CNN "Description"
F 5 "10022727" H 0   0   50  0001 C CNN "Item Number"
F 6 "YAGEO_RMS1" H 0   0   50  0001 C CNN "Manufacturer"
F 7 "PANASONIC_RMS1" H 0   0   50  0001 C CNN "Manufacturer2"
F 8 "RC0603FR-0786K6L" H 0   0   50  0001 C CNN "Manufacturer_No"
F 9 "ERJ-3EKF8662V" H 0   0   50  0001 C CNN "Manufacturer_No2"
	1    12000 3950
	-1   0    0    1   
$EndComp
$Comp
L V_Resistor:R0603_3k3_1% R92
U 1 1 5E98B144
P 12000 4650
F 0 "R92" H 11930 4604 50  0000 R CNN
F 1 "3.3k" H 11930 4695 50  0000 R CNN
F 2 "powersupply-c:R0603" V 11930 4650 50  0001 C CNN
F 3 "" H 12000 4650 50  0001 C CNN
F 4 "RESISTOR,3.3K OHM,0.063W,+/-1%,0603" H 12000 4650 50  0001 C CNN "Description"
F 5 "10022731" H 0   0   50  0001 C CNN "Item Number"
F 6 "YAGEO_RMS1" H 0   0   50  0001 C CNN "Manufacturer"
F 7 "YAGEO_RMS1" H 0   0   50  0001 C CNN "Manufacturer2"
F 8 "BOURNS_RMS1" H 0   0   50  0001 C CNN "Manufacturer3"
F 9 "RC0603FR-073K3L" H 0   0   50  0001 C CNN "Manufacturer_No"
F 10 "RC0603FR-073K3L" H 0   0   50  0001 C CNN "Manufacturer_No2"
F 11 "CR0603-FX-3301ELF" H 0   0   50  0001 C CNN "Manufacturer_No3"
	1    12000 4650
	-1   0    0    1   
$EndComp
$Comp
L V_Resistor:R0603_33R_1% R95
U 1 1 5E98BB58
P 12000 5150
F 0 "R95" H 11930 5104 50  0000 R CNN
F 1 "33" H 11930 5195 50  0000 R CNN
F 2 "powersupply-c:R0603" V 11930 5150 50  0001 C CNN
F 3 "" H 12000 5150 50  0001 C CNN
F 4 "RESISTOR,33 OHM,0.063W,+/-1%,0603" H 12000 5150 50  0001 C CNN "Description"
F 5 "10022733" H 0   0   50  0001 C CNN "Item Number"
F 6 "YAGEO_RMS1" H 0   0   50  0001 C CNN "Manufacturer"
F 7 "YAGEO_RMS1" H 0   0   50  0001 C CNN "Manufacturer2"
F 8 "BOURNS_RMS1" H 0   0   50  0001 C CNN "Manufacturer3"
F 9 "RC0603FR-0733RL" H 0   0   50  0001 C CNN "Manufacturer_No"
F 10 "RC0603FR-0733RL" H 0   0   50  0001 C CNN "Manufacturer_No2"
F 11 "CR0603-FX-33R0ELF" H 0   0   50  0001 C CNN "Manufacturer_No3"
	1    12000 5150
	-1   0    0    1   
$EndComp
Wire Wire Line
	12000 4800 12000 4900
Wire Wire Line
	12000 4100 12000 4300
Wire Wire Line
	12000 3800 12000 3700
Wire Wire Line
	12000 3700 11600 3700
Wire Wire Line
	11600 3700 11600 3900
Wire Wire Line
	11600 3900 11100 3900
Connection ~ 11100 3900
Text Label 11500 4300 0    50   ~ 0
VOSENSE-2
Wire Wire Line
	11500 4300 12000 4300
Connection ~ 12000 4300
Wire Wire Line
	12000 4300 12000 4500
$Comp
L V_Resistor:R_390R_5% R88
U 1 1 5E9EAD9B
P 12200 4250
F 0 "R88" H 12270 4296 50  0000 L CNN
F 1 "390_2616" H 12270 4205 50  0000 L CNN
F 2 "powersupply-c:SM2" V 12130 4250 50  0001 C CNN
F 3 "" H 12200 4250 50  0001 C CNN
F 4 "RESISTOR,390 OHM,2W,+.-5%,SM2" H 12200 4250 50  0001 C CNN "Description"
F 5 "10022728" H 0   0   50  0001 C CNN "Item Number"
F 6 "TYCO ELECTRONICS" H 0   0   50  0001 C CNN "Manufacturer"
F 7 "SMF2390RJT" H 0   0   50  0001 C CNN "Manufacturer_No"
	1    12200 4250
	1    0    0    -1  
$EndComp
$Comp
L V_Resistor:R_390R_5% R126
U 1 1 5E9EBAF9
P 12700 4250
F 0 "R126" H 12770 4296 50  0000 L CNN
F 1 "390_2616" H 12770 4205 50  0000 L CNN
F 2 "powersupply-c:SM2" V 12630 4250 50  0001 C CNN
F 3 "" H 12700 4250 50  0001 C CNN
F 4 "RESISTOR,390 OHM,2W,+.-5%,SM2" H 12700 4250 50  0001 C CNN "Description"
F 5 "10022728" H 0   0   50  0001 C CNN "Item Number"
F 6 "TYCO ELECTRONICS" H 0   0   50  0001 C CNN "Manufacturer"
F 7 "SMF2390RJT" H 0   0   50  0001 C CNN "Manufacturer_No"
	1    12700 4250
	1    0    0    -1  
$EndComp
Wire Wire Line
	12000 3700 12200 3700
Wire Wire Line
	12700 3700 12700 4100
Connection ~ 12000 3700
Wire Wire Line
	12200 4100 12200 3700
Connection ~ 12200 3700
Wire Wire Line
	12200 3700 12700 3700
Wire Wire Line
	12200 4400 12200 4500
Wire Wire Line
	12200 4500 12300 4500
Wire Wire Line
	12700 4500 12700 4400
Wire Wire Line
	11600 5300 11600 5400
Wire Wire Line
	12000 5400 12000 5300
$Comp
L V_Power:PGND #PWR0214
U 1 1 5EA1062A
P 11600 5500
F 0 "#PWR0214" H 11600 5250 50  0001 C CNN
F 1 "PGND" H 11600 5350 50  0000 C CNN
F 2 "" H 11600 5500 50  0001 C CNN
F 3 "" H 11600 5500 50  0001 C CNN
	1    11600 5500
	1    0    0    -1  
$EndComp
Wire Wire Line
	11600 5400 11600 5500
Wire Wire Line
	11600 4900 11600 5000
Connection ~ 12000 4900
Wire Wire Line
	12000 4900 12000 5000
$Comp
L V_Resistor:R0603_1k_1%_10022554 R93
U 1 1 5EA1CAFD
P 11050 5300
F 0 "R93" V 11165 5300 50  0000 C CNN
F 1 "1k" V 11256 5300 50  0000 C CNN
F 2 "powersupply-c:R0603" V 10980 5300 50  0001 C CNN
F 3 "" H 11050 5300 50  0001 C CNN
F 4 "RESISTOR, 1K OHM, 0.063W,+/-1%, 0603" H 11050 5300 50  0001 C CNN "Description"
F 5 "10022554" H 0   0   50  0001 C CNN "Item Number"
F 6 "BOURNS_RMS1" H 0   0   50  0001 C CNN "Manufacturer"
F 7 "VISHAY_RMS1" H 0   0   50  0001 C CNN "Manufacturer2"
F 8 "YAGEO_RMS1" H 0   0   50  0001 C CNN "Manufacturer3"
F 9 "CR0603-FX-1001ELF" H 0   0   50  0001 C CNN "Manufacturer_No"
F 10 "CRCW06031K00FKEA" H 0   0   50  0001 C CNN "Manufacturer_No2"
F 11 "RC0603FR-071KL" H 0   0   50  0001 C CNN "Manufacturer_No3"
	1    11050 5300
	0    1    1    0   
$EndComp
Wire Wire Line
	11200 5300 11400 5300
Wire Wire Line
	11400 5300 11400 4900
Wire Wire Line
	11400 4900 11600 4900
Text GLabel 10700 5300 0    50   Input ~ 0
VCHARGE-SETTING
Wire Wire Line
	10700 5300 10900 5300
Wire Wire Line
	12300 5600 12300 4500
Connection ~ 12300 4500
Wire Wire Line
	12300 4500 12700 4500
Text GLabel 11500 5800 0    50   Input ~ 0
IFC-SWITCH
Wire Wire Line
	11500 5800 11800 5800
$Comp
L V_Resistor:R0603_100k_1%_10022549 R96
U 1 1 5EA52FC7
P 11800 6050
F 0 "R96" H 11869 6004 50  0000 L CNN
F 1 "100k" H 11869 6095 50  0000 L CNN
F 2 "powersupply-c:R0603" V 11730 6050 50  0001 C CNN
F 3 "" H 11800 6050 50  0001 C CNN
F 4 "RESISTOR,100KOHM,0.063W,+/-1%,0603" H 11800 6050 50  0001 C CNN "Description"
F 5 "10022549" H 0   0   50  0001 C CNN "Item Number"
F 6 "YAGEO_RMS1" H 0   0   50  0001 C CNN "Manufacturer"
F 7 "BOURNS_RMS1" H 0   0   50  0001 C CNN "Manufacturer2"
F 8 "YAGEO_RMS1" H 0   0   50  0001 C CNN "Manufacturer3"
F 9 "RC0603FR-07100KL" H 0   0   50  0001 C CNN "Manufacturer_No"
F 10 "CR0603-FX-1003ELF" H 0   0   50  0001 C CNN "Manufacturer_No2"
F 11 "RC0603FR-07100KL" H 0   0   50  0001 C CNN "Manufacturer_No3"
	1    11800 6050
	-1   0    0    1   
$EndComp
Wire Wire Line
	11800 5800 11800 5900
Connection ~ 11800 5800
Wire Wire Line
	11800 5800 12000 5800
Wire Wire Line
	12300 6000 12300 6300
Wire Wire Line
	11800 6300 11800 6200
$Comp
L V_Power:PGND #PWR0215
U 1 1 5EA65F7F
P 12300 6400
F 0 "#PWR0215" H 12300 6150 50  0001 C CNN
F 1 "PGND" H 12300 6250 50  0000 C CNN
F 2 "" H 12300 6400 50  0001 C CNN
F 3 "" H 12300 6400 50  0001 C CNN
	1    12300 6400
	1    0    0    -1  
$EndComp
Wire Wire Line
	12300 6300 12300 6400
Connection ~ 11600 5400
Wire Wire Line
	11600 5400 12000 5400
Connection ~ 12300 6300
Wire Wire Line
	11800 6300 12300 6300
$Comp
L V_Resistor:R0603_10k_1%_10022548 R83
U 1 1 5EA8A2F5
P 13250 4100
F 0 "R83" V 13043 4100 50  0000 C CNN
F 1 "10k" V 13134 4100 50  0000 C CNN
F 2 "powersupply-c:R0603" V 13180 4100 50  0001 C CNN
F 3 "" H 13250 4100 50  0001 C CNN
F 4 "RESISTOR,10K OHM.0.063W,+/-1%,0603" H 13250 4100 50  0001 C CNN "Description"
F 5 "10022548" H 0   0   50  0001 C CNN "Item Number"
F 6 "YAGEO_RMS1" H 0   0   50  0001 C CNN "Manufacturer"
F 7 "SAMSUNG_RMS1" H 0   0   50  0001 C CNN "Manufacturer2"
F 8 "BOURNS_RMS1" H 0   0   50  0001 C CNN "Manufacturer3"
F 9 "RC0603FR-0710KL" H 0   0   50  0001 C CNN "Manufacturer_No"
F 10 "RC1608F103CS" H 0   0   50  0001 C CNN "Manufacturer_No2"
F 11 "CR0603-FX-1002ELF" H 0   0   50  0001 C CNN "Manufacturer_No3"
	1    13250 4100
	0    1    1    0   
$EndComp
$Comp
L V_Resistor:R0603_10k_1%_10022548 R86
U 1 1 5EA8CA00
P 13600 4450
F 0 "R86" H 13530 4404 50  0000 R CNN
F 1 "10k" H 13530 4495 50  0000 R CNN
F 2 "powersupply-c:R0603" V 13530 4450 50  0001 C CNN
F 3 "" H 13600 4450 50  0001 C CNN
F 4 "RESISTOR,10K OHM.0.063W,+/-1%,0603" H 13600 4450 50  0001 C CNN "Description"
F 5 "10022548" H 0   0   50  0001 C CNN "Item Number"
F 6 "YAGEO_RMS1" H 0   0   50  0001 C CNN "Manufacturer"
F 7 "SAMSUNG_RMS1" H 0   0   50  0001 C CNN "Manufacturer2"
F 8 "BOURNS_RMS1" H 0   0   50  0001 C CNN "Manufacturer3"
F 9 "RC0603FR-0710KL" H 0   0   50  0001 C CNN "Manufacturer_No"
F 10 "RC1608F103CS" H 0   0   50  0001 C CNN "Manufacturer_No2"
F 11 "CR0603-FX-1002ELF" H 0   0   50  0001 C CNN "Manufacturer_No3"
	1    13600 4450
	-1   0    0    1   
$EndComp
$Comp
L V_Transistor:2N7002 T28
U 1 1 5EA8FD1C
P 13500 5000
F 0 "T28" H 13706 5046 50  0000 L CNN
F 1 "2N7002" H 13706 4955 50  0000 L CNN
F 2 "powersupply-c:SOT23-GSD" H 13700 4925 50  0001 L CIN
F 3 "" H 13725 4875 50  0001 L CNN
F 4 "TRANSISTOR MOSFET N CHANNEL 60V, 0.18A" H 14375 4875 50  0001 C CNN "Description"
F 5 "10022882" H 13500 5000 50  0001 C CNN "Item Number"
F 6 "ON SEMICONDUCTOR_RMS1" H 0   0   50  0001 C CNN "Manufacturer"
F 7 "NXP SEMICONDUCTORS_RMS1" H 0   0   50  0001 C CNN "Manufacturer2"
F 8 "NXP SEMICONDUCTORS_RMS1" H 0   0   50  0001 C CNN "Manufacturer3"
F 9 "2N7002LT1G" H 0   0   50  0001 C CNN "Manufacturer_No"
F 10 "2N7002" H 0   0   50  0001 C CNN "Manufacturer_No2"
F 11 "2N7002,215" H 0   0   50  0001 C CNN "Manufacturer_No3"
	1    13500 5000
	1    0    0    -1  
$EndComp
Text GLabel 13100 5000 0    50   Input ~ 0
CHARGER-SWITCH
Wire Wire Line
	13100 5000 13200 5000
$Comp
L V_Resistor:R0603_100k_1%_10022549 R94
U 1 1 5EAA0C5D
P 13200 5200
F 0 "R94" H 13131 5246 50  0000 R CNN
F 1 "100k" H 13131 5155 50  0000 R CNN
F 2 "powersupply-c:R0603" V 13130 5200 50  0001 C CNN
F 3 "" H 13200 5200 50  0001 C CNN
F 4 "RESISTOR,100KOHM,0.063W,+/-1%,0603" H 13200 5200 50  0001 C CNN "Description"
F 5 "10022549" H 0   0   50  0001 C CNN "Item Number"
F 6 "YAGEO_RMS1" H 0   0   50  0001 C CNN "Manufacturer"
F 7 "BOURNS_RMS1" H 0   0   50  0001 C CNN "Manufacturer2"
F 8 "YAGEO_RMS1" H 0   0   50  0001 C CNN "Manufacturer3"
F 9 "RC0603FR-07100KL" H 0   0   50  0001 C CNN "Manufacturer_No"
F 10 "CR0603-FX-1003ELF" H 0   0   50  0001 C CNN "Manufacturer_No2"
F 11 "RC0603FR-07100KL" H 0   0   50  0001 C CNN "Manufacturer_No3"
	1    13200 5200
	1    0    0    -1  
$EndComp
Wire Wire Line
	13200 5000 13200 5050
Connection ~ 13200 5000
Wire Wire Line
	13200 5000 13300 5000
Wire Wire Line
	13200 5350 13200 5400
Wire Wire Line
	13600 5450 13600 5400
$Comp
L V_Power:GND #PWR0216
U 1 1 5EAC8E69
P 13600 5450
F 0 "#PWR0216" H 13600 5200 50  0001 C CNN
F 1 "GND" H 13600 5300 50  0000 C CNN
F 2 "" H 13600 5450 50  0001 C CNN
F 3 "" H 13600 5450 50  0001 C CNN
	1    13600 5450
	1    0    0    -1  
$EndComp
$Comp
L V_Transistor:SUD50P06-15L-E3 T25
U 1 1 5EACB30D
P 13600 3800
F 0 "T25" V 13942 3800 50  0000 C CNN
F 1 "SUD50P06-15L" V 13851 3800 50  0000 C CNN
F 2 "powersupply-c:DPAK-GDS" H 13895 3725 50  0001 L CIN
F 3 "http://www.vishay.com/docs/72250/sud50p06.pdf" H 13600 3800 50  0001 C CNN
F 4 "TRANSISTOR MOSFET, 60V, 50A, P CHANNEL" H 14475 3725 50  0001 C CNN "Description"
F 5 "10022560" H 13600 3800 50  0001 C CNN "Item Number"
F 6 "VISHAY_RMS1" H 0   0   50  0001 C CNN "Manufacturer"
F 7 "VISHAY_RMS1" H 0   0   50  0001 C CNN "Manufacturer2"
F 8 "SUD50P06 - 15L" H 0   0   50  0001 C CNN "Manufacturer_No"
F 9 "SUD50P06-15L-E3" H 0   0   50  0001 C CNN "Manufacturer_No2"
	1    13600 3800
	0    -1   -1   0   
$EndComp
$Comp
L V_Transistor:SUD50P06-15L-E3 T26
U 1 1 5EACE576
P 14350 3800
F 0 "T26" V 14692 3800 50  0000 C CNN
F 1 "SUD50P06-15L" V 14601 3800 50  0000 C CNN
F 2 "powersupply-c:DPAK-GDS" H 14645 3725 50  0001 L CIN
F 3 "http://www.vishay.com/docs/72250/sud50p06.pdf" H 14350 3800 50  0001 C CNN
F 4 "TRANSISTOR MOSFET, 60V, 50A, P CHANNEL" H 15225 3725 50  0001 C CNN "Description"
F 5 "10022560" H 14350 3800 50  0001 C CNN "Item Number"
F 6 "VISHAY_RMS1" H 0   0   50  0001 C CNN "Manufacturer"
F 7 "VISHAY_RMS1" H 0   0   50  0001 C CNN "Manufacturer2"
F 8 "SUD50P06 - 15L" H 0   0   50  0001 C CNN "Manufacturer_No"
F 9 "SUD50P06-15L-E3" H 0   0   50  0001 C CNN "Manufacturer_No2"
	1    14350 3800
	0    1    -1   0   
$EndComp
Wire Wire Line
	12700 3700 12900 3700
Connection ~ 12700 3700
Wire Wire Line
	13600 4000 13600 4100
Wire Wire Line
	13600 4100 13400 4100
Connection ~ 13600 4100
Wire Wire Line
	13600 4100 13600 4300
Wire Wire Line
	13100 4100 12900 4100
Wire Wire Line
	12900 4100 12900 3700
Connection ~ 12900 3700
Wire Wire Line
	12900 3700 13400 3700
Wire Wire Line
	13600 4600 13600 4800
$Comp
L V_Transistor:2N7002 T30
U 1 1 5EB05587
P 14250 5800
F 0 "T30" H 14456 5846 50  0000 L CNN
F 1 "2N7002" H 14456 5755 50  0000 L CNN
F 2 "powersupply-c:SOT23-GSD" H 14450 5725 50  0001 L CIN
F 3 "" H 14475 5675 50  0001 L CNN
F 4 "TRANSISTOR MOSFET N CHANNEL 60V, 0.18A" H 15125 5675 50  0001 C CNN "Description"
F 5 "10022882" H 14250 5800 50  0001 C CNN "Item Number"
F 6 "ON SEMICONDUCTOR_RMS1" H 0   0   50  0001 C CNN "Manufacturer"
F 7 "NXP SEMICONDUCTORS_RMS1" H 0   0   50  0001 C CNN "Manufacturer2"
F 8 "NXP SEMICONDUCTORS_RMS1" H 0   0   50  0001 C CNN "Manufacturer3"
F 9 "2N7002LT1G" H 0   0   50  0001 C CNN "Manufacturer_No"
F 10 "2N7002" H 0   0   50  0001 C CNN "Manufacturer_No2"
F 11 "2N7002,215" H 0   0   50  0001 C CNN "Manufacturer_No3"
	1    14250 5800
	1    0    0    -1  
$EndComp
Text GLabel 13700 5800 0    50   Input ~ 0
SHUNT-DIODE-CH
Wire Wire Line
	13700 5800 13800 5800
$Comp
L V_Resistor:R0603_100k_1%_10022549 R97
U 1 1 5EB05597
P 13800 6050
F 0 "R97" H 13869 6004 50  0000 L CNN
F 1 "100k" H 13869 6095 50  0000 L CNN
F 2 "powersupply-c:R0603" V 13730 6050 50  0001 C CNN
F 3 "" H 13800 6050 50  0001 C CNN
F 4 "RESISTOR,100KOHM,0.063W,+/-1%,0603" H 13800 6050 50  0001 C CNN "Description"
F 5 "10022549" H 0   0   50  0001 C CNN "Item Number"
F 6 "YAGEO_RMS1" H 0   0   50  0001 C CNN "Manufacturer"
F 7 "BOURNS_RMS1" H 0   0   50  0001 C CNN "Manufacturer2"
F 8 "YAGEO_RMS1" H 0   0   50  0001 C CNN "Manufacturer3"
F 9 "RC0603FR-07100KL" H 0   0   50  0001 C CNN "Manufacturer_No"
F 10 "CR0603-FX-1003ELF" H 0   0   50  0001 C CNN "Manufacturer_No2"
F 11 "RC0603FR-07100KL" H 0   0   50  0001 C CNN "Manufacturer_No3"
	1    13800 6050
	-1   0    0    1   
$EndComp
Wire Wire Line
	13800 5800 13800 5900
Connection ~ 13800 5800
Wire Wire Line
	13800 5800 14050 5800
Wire Wire Line
	13800 6200 13800 6300
Wire Wire Line
	13800 6300 14350 6300
Wire Wire Line
	14350 6300 14350 6000
Wire Wire Line
	14350 6300 14350 6400
Connection ~ 14350 6300
$Comp
L V_Power:GND #PWR0217
U 1 1 5EB055A5
P 14350 6400
F 0 "#PWR0217" H 14350 6150 50  0001 C CNN
F 1 "GND" H 14350 6250 50  0000 C CNN
F 2 "" H 14350 6400 50  0001 C CNN
F 3 "" H 14350 6400 50  0001 C CNN
	1    14350 6400
	1    0    0    -1  
$EndComp
Connection ~ 13600 5400
Wire Wire Line
	13600 5400 13600 5200
$Comp
L V_Resistor:R0603_10k_1%_10022548 R89
U 1 1 5EB40CCA
P 14350 4650
F 0 "R89" H 14280 4604 50  0000 R CNN
F 1 "10k" H 14280 4695 50  0000 R CNN
F 2 "powersupply-c:R0603" V 14280 4650 50  0001 C CNN
F 3 "" H 14350 4650 50  0001 C CNN
F 4 "RESISTOR,10K OHM.0.063W,+/-1%,0603" H 14350 4650 50  0001 C CNN "Description"
F 5 "10022548" H 0   0   50  0001 C CNN "Item Number"
F 6 "YAGEO_RMS1" H 0   0   50  0001 C CNN "Manufacturer"
F 7 "SAMSUNG_RMS1" H 0   0   50  0001 C CNN "Manufacturer2"
F 8 "BOURNS_RMS1" H 0   0   50  0001 C CNN "Manufacturer3"
F 9 "RC0603FR-0710KL" H 0   0   50  0001 C CNN "Manufacturer_No"
F 10 "RC1608F103CS" H 0   0   50  0001 C CNN "Manufacturer_No2"
F 11 "CR0603-FX-1002ELF" H 0   0   50  0001 C CNN "Manufacturer_No3"
	1    14350 4650
	-1   0    0    1   
$EndComp
Wire Wire Line
	13800 3700 14150 3700
Wire Wire Line
	14350 5600 14350 4800
Wire Wire Line
	14350 4500 14350 4400
$Comp
L V_Resistor:R0603_10k_1%_10022548 R84
U 1 1 5EB60E3E
P 14750 4150
F 0 "R84" H 14680 4059 50  0000 R CNN
F 1 "10k" H 14680 4150 50  0000 R CNN
F 2 "powersupply-c:R0603" V 14680 4150 50  0001 C CNN
F 3 "" H 14750 4150 50  0001 C CNN
F 4 "RESISTOR,10K OHM.0.063W,+/-1%,0603" H 14750 4150 50  0001 C CNN "Description"
F 5 "10022548" H 0   0   50  0001 C CNN "Item Number"
F 6 "YAGEO_RMS1" H 0   0   50  0001 C CNN "Manufacturer"
F 7 "SAMSUNG_RMS1" H 0   0   50  0001 C CNN "Manufacturer2"
F 8 "BOURNS_RMS1" H 0   0   50  0001 C CNN "Manufacturer3"
F 9 "RC0603FR-0710KL" H 0   0   50  0001 C CNN "Manufacturer_No"
F 10 "RC1608F103CS" H 0   0   50  0001 C CNN "Manufacturer_No2"
F 11 "CR0603-FX-1002ELF" H 0   0   50  0001 C CNN "Manufacturer_No3"
	1    14750 4150
	-1   0    0    1   
$EndComp
Wire Wire Line
	14550 3700 14750 3700
Wire Wire Line
	14750 3700 14750 4000
Wire Wire Line
	14750 4300 14750 4400
Wire Wire Line
	14750 4400 14350 4400
Connection ~ 14350 4400
Wire Wire Line
	14350 4400 14350 4000
Text GLabel 14950 3700 2    50   Output ~ 0
I-CHARGE
Wire Wire Line
	14950 3700 14750 3700
Connection ~ 14750 3700
Wire Wire Line
	1850 4600 1600 4600
Wire Wire Line
	3100 4900 3100 5000
Wire Wire Line
	3100 5000 3000 5000
$Comp
L V_Capacitor:C0402_100nF_16V_10% C78
U 1 1 5E9F2BD7
P 1000 4650
F 0 "C78" H 1114 4513 50  0000 L CNN
F 1 "100nF" H 1114 4604 50  0000 L CNN
F 2 "powersupply-c:C0402" H 1038 4500 50  0001 C CNN
F 3 "https://www.yageo.com/upload/media/product/productsearch/datasheet/mlcc/UPY-GPHC_X7R_6.3V-to-50V_18.pdf" H 1000 4650 50  0001 C CNN
F 4 "CAPACITOR,100NF,16V,+/-10%,X7R,0402" H 1000 4650 50  0001 C CNN "Description"
F 5 "10022607" H 1000 4650 50  0001 C CNN "Item Number"
F 6 "YAGEO_RMS1" H 1000 4650 50  0001 C CNN "Manufacturer"
F 7 "CC0402KRX7R7BB104" H 1000 4650 50  0001 C CNN "Manufacturer_No"
F 8 "YAGEO_RMS1" H 0   0   50  0001 C CNN "Manufacturer2"
F 9 "MURATA MANUFACTURING CO., LTD." H 0   0   50  0001 C CNN "Manufacturer3"
F 10 "223878715649" H 0   0   50  0001 C CNN "Manufacturer_No2"
F 11 "GRM155R71C104KA88D" H 0   0   50  0001 C CNN "Manufacturer_No3"
	1    1000 4650
	-1   0    0    1   
$EndComp
$Comp
L V_Capacitor:C0402_100nF_16V_10% C75
U 1 1 5EA0AA5D
P 1600 4450
F 0 "C75" H 1485 4313 50  0000 R CNN
F 1 "100nF" H 1485 4404 50  0000 R CNN
F 2 "powersupply-c:C0402" H 1638 4300 50  0001 C CNN
F 3 "https://www.yageo.com/upload/media/product/productsearch/datasheet/mlcc/UPY-GPHC_X7R_6.3V-to-50V_18.pdf" H 1600 4450 50  0001 C CNN
F 4 "CAPACITOR,100NF,16V,+/-10%,X7R,0402" H 1600 4450 50  0001 C CNN "Description"
F 5 "10022607" H 1600 4450 50  0001 C CNN "Item Number"
F 6 "YAGEO_RMS1" H 1600 4450 50  0001 C CNN "Manufacturer"
F 7 "CC0402KRX7R7BB104" H 1600 4450 50  0001 C CNN "Manufacturer_No"
F 8 "YAGEO_RMS1" H 0   0   50  0001 C CNN "Manufacturer2"
F 9 "MURATA MANUFACTURING CO., LTD." H 0   0   50  0001 C CNN "Manufacturer3"
F 10 "223878715649" H 0   0   50  0001 C CNN "Manufacturer_No2"
F 11 "GRM155R71C104KA88D" H 0   0   50  0001 C CNN "Manufacturer_No3"
	1    1600 4450
	-1   0    0    1   
$EndComp
$Comp
L V_Capacitor:C0402_100nF_16V_10% C71
U 1 1 5EA0B23F
P 2450 4100
F 0 "C71" V 2884 4100 50  0000 C CNN
F 1 "100nF" V 2793 4100 50  0000 C CNN
F 2 "powersupply-c:C0402" H 2488 3950 50  0001 C CNN
F 3 "https://www.yageo.com/upload/media/product/productsearch/datasheet/mlcc/UPY-GPHC_X7R_6.3V-to-50V_18.pdf" H 2450 4100 50  0001 C CNN
F 4 "CAPACITOR,100NF,16V,+/-10%,X7R,0402" H 2450 4100 50  0001 C CNN "Description"
F 5 "10022607" H 2450 4100 50  0001 C CNN "Item Number"
F 6 "YAGEO_RMS1" H 2450 4100 50  0001 C CNN "Manufacturer"
F 7 "CC0402KRX7R7BB104" H 2450 4100 50  0001 C CNN "Manufacturer_No"
F 8 "YAGEO_RMS1" H 0   0   50  0001 C CNN "Manufacturer2"
F 9 "MURATA MANUFACTURING CO., LTD." H 0   0   50  0001 C CNN "Manufacturer3"
F 10 "223878715649" H 0   0   50  0001 C CNN "Manufacturer_No2"
F 11 "GRM155R71C104KA88D" H 0   0   50  0001 C CNN "Manufacturer_No3"
	1    2450 4100
	0    -1   -1   0   
$EndComp
$Comp
L V_Capacitor:C0603_10nF_50V_10% C83
U 1 1 5EA10664
P 2450 5500
F 0 "C83" V 2290 5500 50  0000 C CNN
F 1 "0.01uF" V 2199 5500 50  0000 C CNN
F 2 "powersupply-c:C0603" H 2488 5350 50  0001 C CNN
F 3 "" H 2450 5500 50  0001 C CNN
F 4 "CAPACITOR CERAMIC,10NF,+/-10%,50V,0603" H 2450 5500 50  0001 C CNN "Description"
F 5 "10022508" H 0   0   50  0001 C CNN "Item Number"
F 6 "YAGEO_RMS1" H 0   0   50  0001 C CNN "Manufacturer"
F 7 "YAGEO_RMS1" H 0   0   50  0001 C CNN "Manufacturer2"
F 8 "KEMET_RMS1" H 0   0   50  0001 C CNN "Manufacturer3"
F 9 "CC0603KRX7R9BB103" H 0   0   50  0001 C CNN "Manufacturer_No"
F 10 "CC0603KRX7R9BB104" H 0   0   50  0001 C CNN "Manufacturer_No2"
F 11 "C0603C103K5RACTU" H 0   0   50  0001 C CNN "Manufacturer_No3"
	1    2450 5500
	0    -1   -1   0   
$EndComp
$Comp
L V_Capacitor:C_10uF_50V_10% C66
U 1 1 5EA3A154
P 1300 3350
F 0 "C66" H 1415 3259 50  0000 L CNN
F 1 "10uF" H 1415 3350 50  0000 L CNN
F 2 "powersupply-c:C2220" H 1338 3200 50  0001 C CNN
F 3 "" H 1300 3350 50  0001 C CNN
F 4 "CAPACITOR CERAMIC, 10UF,+/-10%,50V 2220" H 1300 3350 50  0001 C CNN "Description"
F 5 "10039581" H 1300 3350 50  0001 C CNN "Item Number"
F 6 "AVX" H 1300 3350 50  0001 C CNN "Manufacturer"
F 7 "22205C106K4Z4A" H 1300 3350 50  0001 C CNN "Manufacturer_No"
F 8 "KEMET_RMS1" H 0   0   50  0001 C CNN "Manufacturer2"
F 9 "KEMET_RMS1" H 0   0   50  0001 C CNN "Manufacturer3"
F 10 "C2220X106K5RACAUTO" H 0   0   50  0001 C CNN "Manufacturer_No2"
F 11 "C2220X106K5RAC" H 0   0   50  0001 C CNN "Manufacturer_No3"
	1    1300 3350
	-1   0    0    1   
$EndComp
$Comp
L V_Capacitor:C_10uF_50V_10% C67
U 1 1 5EA3E4AC
P 1700 3350
F 0 "C67" H 1585 3259 50  0000 R CNN
F 1 "10uF" H 1585 3350 50  0000 R CNN
F 2 "powersupply-c:C2220" H 1738 3200 50  0001 C CNN
F 3 "" H 1700 3350 50  0001 C CNN
F 4 "CAPACITOR CERAMIC, 10UF,+/-10%,50V 2220" H 1700 3350 50  0001 C CNN "Description"
F 5 "10039581" H 1700 3350 50  0001 C CNN "Item Number"
F 6 "AVX" H 1700 3350 50  0001 C CNN "Manufacturer"
F 7 "22205C106K4Z4A" H 1700 3350 50  0001 C CNN "Manufacturer_No"
F 8 "KEMET_RMS1" H 0   0   50  0001 C CNN "Manufacturer2"
F 9 "KEMET_RMS1" H 0   0   50  0001 C CNN "Manufacturer3"
F 10 "C2220X106K5RACAUTO" H 0   0   50  0001 C CNN "Manufacturer_No2"
F 11 "C2220X106K5RAC" H 0   0   50  0001 C CNN "Manufacturer_No3"
	1    1700 3350
	-1   0    0    1   
$EndComp
$Comp
L V_Capacitor:C_10uF_50V_10% C11
U 1 1 5EA3EBA0
P 2100 3350
F 0 "C11" H 1985 3259 50  0000 R CNN
F 1 "10uF" H 1985 3350 50  0000 R CNN
F 2 "powersupply-c:C2220" H 2138 3200 50  0001 C CNN
F 3 "" H 2100 3350 50  0001 C CNN
F 4 "CAPACITOR CERAMIC, 10UF,+/-10%,50V 2220" H 2100 3350 50  0001 C CNN "Description"
F 5 "10039581" H 2100 3350 50  0001 C CNN "Item Number"
F 6 "AVX" H 2100 3350 50  0001 C CNN "Manufacturer"
F 7 "22205C106K4Z4A" H 2100 3350 50  0001 C CNN "Manufacturer_No"
F 8 "KEMET_RMS1" H 0   0   50  0001 C CNN "Manufacturer2"
F 9 "KEMET_RMS1" H 0   0   50  0001 C CNN "Manufacturer3"
F 10 "C2220X106K5RACAUTO" H 0   0   50  0001 C CNN "Manufacturer_No2"
F 11 "C2220X106K5RAC" H 0   0   50  0001 C CNN "Manufacturer_No3"
	1    2100 3350
	-1   0    0    1   
$EndComp
$Comp
L V_Capacitor:C_10uF_50V_10% C20
U 1 1 5EA3F14D
P 2500 3350
F 0 "C20" H 2385 3259 50  0000 R CNN
F 1 "10uF" H 2385 3350 50  0000 R CNN
F 2 "powersupply-c:C2220" H 2538 3200 50  0001 C CNN
F 3 "" H 2500 3350 50  0001 C CNN
F 4 "CAPACITOR CERAMIC, 10UF,+/-10%,50V 2220" H 2500 3350 50  0001 C CNN "Description"
F 5 "10039581" H 2500 3350 50  0001 C CNN "Item Number"
F 6 "AVX" H 2500 3350 50  0001 C CNN "Manufacturer"
F 7 "22205C106K4Z4A" H 2500 3350 50  0001 C CNN "Manufacturer_No"
F 8 "KEMET_RMS1" H 0   0   50  0001 C CNN "Manufacturer2"
F 9 "KEMET_RMS1" H 0   0   50  0001 C CNN "Manufacturer3"
F 10 "C2220X106K5RACAUTO" H 0   0   50  0001 C CNN "Manufacturer_No2"
F 11 "C2220X106K5RAC" H 0   0   50  0001 C CNN "Manufacturer_No3"
	1    2500 3350
	-1   0    0    1   
$EndComp
$Comp
L V_Capacitor:C_4u7F_10% C21
U 1 1 5EA448DF
P 2900 3350
F 0 "C21" H 2785 3259 50  0000 R CNN
F 1 "4.7uF" H 2785 3350 50  0000 R CNN
F 2 "powersupply-c:C1210" H 2938 3200 50  0001 C CNN
F 3 "" H 2900 3350 50  0001 C CNN
F 4 "CAPACITOR CERAMIC, 4.7UF,+/-10%,50V" H 2900 3350 50  0001 C CNN "Description"
F 5 "10039582" H 0   0   50  0001 C CNN "Item Number"
F 6 "KEMET" H 0   0   50  0001 C CNN "Manufacturer"
F 7 "TDK" H 0   0   50  0001 C CNN "Manufacturer2"
F 8 "KEMET_RMS1" H 0   0   50  0001 C CNN "Manufacturer3"
F 9 "C1210C475K5RACAUTO" H 0   0   50  0001 C CNN "Manufacturer_No"
F 10 "CNA6P1X7R1H475K250AE" H 0   0   50  0001 C CNN "Manufacturer_No2"
F 11 "C1210C475K5RAC" H 0   0   50  0001 C CNN "Manufacturer_No3"
	1    2900 3350
	-1   0    0    1   
$EndComp
$Comp
L V_Capacitor:C0402_100nF_16V_10% C69
U 1 1 5EAD94FD
P 4700 3650
F 0 "C69" H 4815 3787 50  0000 L CNN
F 1 "100nF" H 4815 3696 50  0000 L CNN
F 2 "powersupply-c:C0402" H 4738 3500 50  0001 C CNN
F 3 "https://www.yageo.com/upload/media/product/productsearch/datasheet/mlcc/UPY-GPHC_X7R_6.3V-to-50V_18.pdf" H 4700 3650 50  0001 C CNN
F 4 "CAPACITOR,100NF,16V,+/-10%,X7R,0402" H 4700 3650 50  0001 C CNN "Description"
F 5 "10022607" H 4700 3650 50  0001 C CNN "Item Number"
F 6 "YAGEO_RMS1" H 4700 3650 50  0001 C CNN "Manufacturer"
F 7 "CC0402KRX7R7BB104" H 4700 3650 50  0001 C CNN "Manufacturer_No"
F 8 "YAGEO_RMS1" H 0   0   50  0001 C CNN "Manufacturer2"
F 9 "MURATA MANUFACTURING CO., LTD." H 0   0   50  0001 C CNN "Manufacturer3"
F 10 "223878715649" H 0   0   50  0001 C CNN "Manufacturer_No2"
F 11 "GRM155R71C104KA88D" H 0   0   50  0001 C CNN "Manufacturer_No3"
	1    4700 3650
	1    0    0    -1  
$EndComp
$Comp
L V_Capacitor:C0603_56pF_50V_5% C68
U 1 1 5EB00C9C
P 5100 3650
F 0 "C68" H 4985 3559 50  0000 R CNN
F 1 "56pF" H 4985 3650 50  0000 R CNN
F 2 "powersupply-c:C0603" H 5138 3500 50  0001 C CNN
F 3 "" H 5100 3650 50  0001 C CNN
F 4 "CAPACITOR,56PF,50V,+/-5%,0603,NPO" H 5100 3650 50  0001 C CNN "Description"
F 5 "10022626" H 0   0   50  0001 C CNN "Item Number"
F 6 "YAGEO_RMS1" H 0   0   50  0001 C CNN "Manufacturer"
F 7 "YAGEO_RMS1" H 0   0   50  0001 C CNN "Manufacturer2"
F 8 "AVX_RMS1" H 0   0   50  0001 C CNN "Manufacturer3"
F 9 "CC0603JRNPO9BN560" H 0   0   50  0001 C CNN "Manufacturer_No"
F 10 "CC0603JRNPO9BN560" H 0   0   50  0001 C CNN "Manufacturer_No2"
F 11 "06035A560JAT2A" H 0   0   50  0001 C CNN "Manufacturer_No3"
	1    5100 3650
	-1   0    0    1   
$EndComp
$Comp
L V_Capacitor:C0402_100pF_50V_5%_10022629 C77
U 1 1 5EB08BA4
P 4200 5150
F 0 "C77" H 4315 5241 50  0000 L CNN
F 1 "100pF" H 4315 5150 50  0000 L CNN
F 2 "powersupply-c:C0402" H 4238 5000 50  0001 C CNN
F 3 "" H 4200 5150 50  0001 C CNN
F 4 "CAPACITOR,100PF,50V,+/-5%,C0G,0402" H 4200 5150 50  0001 C CNN "Description"
F 5 "10022629" H 4200 5150 50  0001 C CNN "Item Number"
F 6 "MURATA MANUFACTURING CO., LTD." H 0   0   50  0001 C CNN "Manufacturer"
F 7 "YAGEO/PHYCOMP_RMS1" H 0   0   50  0001 C CNN "Manufacturer2"
F 8 "YAGEO/PHYCOMP_RMS1" H 0   0   50  0001 C CNN "Manufacturer3"
F 9 "GRM1555C1H101JD01D" H 0   0   50  0001 C CNN "Manufacturer_No"
F 10 "CC0402JRNPO9BN101" H 0   0   50  0001 C CNN "Manufacturer_No2"
F 11 "CC0402JRNPO9BN101" H 0   0   50  0001 C CNN "Manufacturer_No3"
	1    4200 5150
	1    0    0    -1  
$EndComp
$Comp
L V_Capacitor:C0603_1nF_50V_10% C74
U 1 1 5EB59912
P 4000 4550
F 0 "C74" H 3885 4459 50  0000 R CNN
F 1 "1000pF" H 3885 4550 50  0000 R CNN
F 2 "powersupply-c:C0603" H 4038 4400 50  0001 C CNN
F 3 "" H 4000 4550 50  0001 C CNN
F 4 "CAPACITOR,1NF,+/-10%,50V,X7R,0603" H 4000 4550 50  0001 C CNN "Description"
F 5 "10022628" H 0   0   50  0001 C CNN "Item Number"
F 6 "AVX_RMS1" H 0   0   50  0001 C CNN "Manufacturer"
F 7 "MURATA MANUFACTURING CO., LTD." H 0   0   50  0001 C CNN "Manufacturer2"
F 8 "06035C102KAT2A" H 0   0   50  0001 C CNN "Manufacturer_No"
F 9 "GRM188R71H102KA01D" H 0   0   50  0001 C CNN "Manufacturer_No2"
	1    4000 4550
	-1   0    0    1   
$EndComp
$Comp
L V_Capacitor:C0603_33nF_16V_10% C72
U 1 1 5EB5EC13
P 4350 4300
F 0 "C72" V 3900 4300 50  0000 C CNN
F 1 "0.033uF" V 4000 4300 50  0000 C CNN
F 2 "powersupply-c:C0603" H 4388 4150 50  0001 C CNN
F 3 "http://datasheets.avx.com/X7RDielectric.pdf" H 4350 4300 50  0001 C CNN
F 4 "CAPACITOR,33NF,+/-10%,16V,X7R,0603" H 4350 4300 50  0001 C CNN "Description"
F 5 "10022627" H 0   0   50  0001 C CNN "Item Number"
F 6 "AVX_RMS1" H 0   0   50  0001 C CNN "Manufacturer"
F 7 "YAGEO_RMS1" H 0   0   50  0001 C CNN "Manufacturer2"
F 8 "YAGEO_RMS1" H 0   0   50  0001 C CNN "Manufacturer3"
F 9 "0603YC333KAT2A" H 0   0   50  0001 C CNN "Manufacturer_No"
F 10 "CC0603KRX7R7BB333" H 0   0   50  0001 C CNN "Manufacturer_No2"
F 11 "CC0603KRX7R7BB333" H 0   0   50  0001 C CNN "Manufacturer_No3"
	1    4350 4300
	0    1    1    0   
$EndComp
$Comp
L V_Capacitor:C0805_100nF_50V_10% C79
U 1 1 5EB6AE6E
P 7000 3350
F 0 "C79" H 6885 3259 50  0000 R CNN
F 1 "100nF" H 6885 3350 50  0000 R CNN
F 2 "powersupply-c:C0805" H 7038 3200 50  0001 C CNN
F 3 "https://www.yageo.com/upload/media/product/productsearch/datasheet/mlcc/UPY-GPHC_X7R_6.3V-to-50V_18.pdf" H 7000 3350 50  0001 C CNN
F 4 "CAPACITOR CERAMIC, 100NF, +/-10%, 50V, X7R,0805" H 7000 3350 50  0001 C CNN "Description"
F 5 "10022135" H 7000 3350 50  0001 C CNN "Item Number"
F 6 "YAGEO_RMS1" H 0   0   50  0001 C CNN "Manufacturer"
F 7 "MURATA MANUFACTURING CO., LTD." H 0   0   50  0001 C CNN "Manufacturer2"
F 8 "YAGEO_RMS1" H 0   0   50  0001 C CNN "Manufacturer3"
F 9 "CC0805KRX7R9BB104" H 0   0   50  0001 C CNN "Manufacturer_No"
F 10 "GRM21BR71H104KA01L" H 0   0   50  0001 C CNN "Manufacturer_No2"
F 11 "CC0805KRX7R9BB104" H 0   0   50  0001 C CNN "Manufacturer_No3"
	1    7000 3350
	-1   0    0    1   
$EndComp
$Comp
L V_Capacitor:C0805_4u7F_16V_10% C80
U 1 1 5EB72966
P 7300 5250
F 0 "C80" H 7185 5159 50  0000 R CNN
F 1 "4.7uF" H 7185 5250 50  0000 R CNN
F 2 "powersupply-c:C0805" H 7338 5100 50  0001 C CNN
F 3 "" H 7300 5250 50  0001 C CNN
F 4 "CAPACITOR,4.7UF,+/-10%,16V, X5R, 0805" H 7300 5250 50  0001 C CNN "Description"
F 5 "10022616" H 7300 5250 50  0001 C CNN "Item Number"
F 6 "AVX_RMS1" H 0   0   50  0001 C CNN "Manufacturer"
F 7 "KEMET_RMS1" H 0   0   50  0001 C CNN "Manufacturer2"
F 8 "KEMET_RMS1" H 0   0   50  0001 C CNN "Manufacturer3"
F 9 "0805YD475KAT2A" H 0   0   50  0001 C CNN "Manufacturer_No"
F 10 "C0805C475K4PAC" H 0   0   50  0001 C CNN "Manufacturer_No2"
F 11 "C0805C475K4PACTU" H 0   0   50  0001 C CNN "Manufacturer_No3"
	1    7300 5250
	-1   0    0    1   
$EndComp
$Comp
L V_Capacitor:C0805_100nF_50V_10% C70
U 1 1 5EB79AA8
P 7650 3900
F 0 "C70" V 7400 3900 50  0000 C CNN
F 1 "100nF" V 7475 3900 50  0000 C CNN
F 2 "powersupply-c:C0805" H 7688 3750 50  0001 C CNN
F 3 "https://www.yageo.com/upload/media/product/productsearch/datasheet/mlcc/UPY-GPHC_X7R_6.3V-to-50V_18.pdf" H 7650 3900 50  0001 C CNN
F 4 "CAPACITOR CERAMIC, 100NF, +/-10%, 50V, X7R,0805" H 7650 3900 50  0001 C CNN "Description"
F 5 "10022135" V 7650 3900 50  0001 C CNN "Item Number"
F 6 "YAGEO_RMS1" H 0   0   50  0001 C CNN "Manufacturer"
F 7 "MURATA MANUFACTURING CO., LTD." H 0   0   50  0001 C CNN "Manufacturer2"
F 8 "YAGEO_RMS1" H 0   0   50  0001 C CNN "Manufacturer3"
F 9 "CC0805KRX7R9BB104" H 0   0   50  0001 C CNN "Manufacturer_No"
F 10 "GRM21BR71H104KA01L" H 0   0   50  0001 C CNN "Manufacturer_No2"
F 11 "CC0805KRX7R9BB104" H 0   0   50  0001 C CNN "Manufacturer_No3"
	1    7650 3900
	0    1    1    0   
$EndComp
$Comp
L V_Capacitor:C0805_330nF_16V_10% C76
U 1 1 5EB893B9
P 8150 4500
F 0 "C76" V 8000 4500 50  0000 C CNN
F 1 "0.33uF" V 8275 4500 50  0000 C CNN
F 2 "powersupply-c:C0805" H 8188 4350 50  0001 C CNN
F 3 "" H 8150 4500 50  0001 C CNN
F 4 "CAPACITOR,330NF,+/-10%,16V,0805,X7R" H 8150 4500 50  0001 C CNN "Description"
F 5 "10022510" H 0   0   50  0001 C CNN "Item Number"
F 6 "YAGEO_RMS1" H 0   0   50  0001 C CNN "Manufacturer"
F 7 "AVX_RMS1" H 0   0   50  0001 C CNN "Manufacturer2"
F 8 "KEMET_RMS1" H 0   0   50  0001 C CNN "Manufacturer3"
F 9 "CC0805JKX7R7BB334" H 0   0   50  0001 C CNN "Manufacturer_No"
F 10 "0805YC334KAT2A" H 0   0   50  0001 C CNN "Manufacturer_No2"
F 11 "C0805C334K4RACTU" H 0   0   50  0001 C CNN "Manufacturer_No3"
	1    8150 4500
	0    1    1    0   
$EndComp
$Comp
L V_Capacitor:C0603_1uF_10% C84
U 1 1 5EB949C7
P 11600 5150
F 0 "C84" H 11715 5332 50  0000 L CNN
F 1 "1uF" H 11715 5241 50  0000 L CNN
F 2 "powersupply-c:C0603" H 11638 5000 50  0001 C CNN
F 3 "" H 11600 5150 50  0001 C CNN
F 4 "CAPACITOR,1UF,+/-10%,6.3V,X5R,0603" H 11600 5150 50  0001 C CNN "Description"
F 5 "10022630" H 0   0   50  0001 C CNN "Item Number"
F 6 "MURATA MANUFACTURING CO., LTD." H 0   0   50  0001 C CNN "Manufacturer"
F 7 "MURATA MANUFACTURING CO., LTD." H 0   0   50  0001 C CNN "Manufacturer2"
F 8 "AVX_RMS1" H 0   0   50  0001 C CNN "Manufacturer3"
F 9 "GRM188B11A105KA61D" H 0   0   50  0001 C CNN "Manufacturer_No"
F 10 "GRM188R60J105KA01D" H 0   0   50  0001 C CNN "Manufacturer_No2"
F 11 "06036D105KAT2A" H 0   0   50  0001 C CNN "Manufacturer_No3"
	1    11600 5150
	1    0    0    -1  
$EndComp
$Comp
L V_Diode:PMEG4005ET D9
U 1 1 5EA0347E
P 7650 4500
F 0 "D9" H 7650 4600 50  0000 C CNN
F 1 "PMEG4005ET" H 7650 4400 50  0000 C CNN
F 2 "powersupply-c:SOT23-1G" H 7650 4325 50  0001 C CNN
F 3 "" H 7650 4500 50  0001 C CNN
F 4 "DIODE SCHOTTKY, 40V, 500MA" H 7650 4500 50  0001 C CNN "Description"
F 5 "10039586" H 7650 4500 50  0001 C CNN "Item Number"
F 6 "PHILIPS" H 7650 4500 50  0001 C CNN "Manufacturer"
F 7 "PMEG4005ET" H 7650 4500 50  0001 C CNN "Manufacturer_No"
	1    7650 4500
	1    0    0    -1  
$EndComp
Connection ~ 9400 3900
Connection ~ 9700 3900
$Comp
L V_Capacitor:C_4u7F_10% C90
U 1 1 5EA78ACA
P 10700 4150
F 0 "C90" H 10815 4241 50  0000 L CNN
F 1 "4.7uF" H 10815 4150 50  0000 L CNN
F 2 "powersupply-c:C1210" H 10738 4000 50  0001 C CNN
F 3 "" H 10700 4150 50  0001 C CNN
F 4 "CAPACITOR CERAMIC, 4.7UF,+/-10%,50V" H 10700 4150 50  0001 C CNN "Description"
F 5 "10039582" H 0   0   50  0001 C CNN "Item Number"
F 6 "KEMET" H 0   0   50  0001 C CNN "Manufacturer"
F 7 "TDK" H 0   0   50  0001 C CNN "Manufacturer2"
F 8 "KEMET_RMS1" H 0   0   50  0001 C CNN "Manufacturer3"
F 9 "C1210C475K5RACAUTO" H 0   0   50  0001 C CNN "Manufacturer_No"
F 10 "CNA6P1X7R1H475K250AE" H 0   0   50  0001 C CNN "Manufacturer_No2"
F 11 "C1210C475K5RAC" H 0   0   50  0001 C CNN "Manufacturer_No3"
	1    10700 4150
	1    0    0    -1  
$EndComp
$Comp
L V_Capacitor:C_10uF_50V_10% C51
U 1 1 5EA78ABC
P 10300 4150
F 0 "C51" H 10415 4241 50  0000 L CNN
F 1 "10uF" H 10415 4150 50  0000 L CNN
F 2 "powersupply-c:C2220" H 10338 4000 50  0001 C CNN
F 3 "" H 10300 4150 50  0001 C CNN
F 4 "CAPACITOR CERAMIC, 10UF,+/-10%,50V 2220" H 10300 4150 50  0001 C CNN "Description"
F 5 "10039581" H 10300 4150 50  0001 C CNN "Item Number"
F 6 "AVX" H 10300 4150 50  0001 C CNN "Manufacturer"
F 7 "22205C106K4Z4A" H 10300 4150 50  0001 C CNN "Manufacturer_No"
F 8 "KEMET_RMS1" H 0   0   50  0001 C CNN "Manufacturer2"
F 9 "KEMET_RMS1" H 0   0   50  0001 C CNN "Manufacturer3"
F 10 "C2220X106K5RACAUTO" H 0   0   50  0001 C CNN "Manufacturer_No2"
F 11 "C2220X106K5RAC" H 0   0   50  0001 C CNN "Manufacturer_No3"
	1    10300 4150
	1    0    0    -1  
$EndComp
$Comp
L V_Capacitor:C_10uF_50V_10% C73
U 1 1 5EA78AAE
P 9900 4150
F 0 "C73" H 9800 4100 50  0000 R CNN
F 1 "10uF" H 9791 4026 50  0000 R CNN
F 2 "powersupply-c:C2220" H 9938 4000 50  0001 C CNN
F 3 "" H 9900 4150 50  0001 C CNN
F 4 "CAPACITOR CERAMIC, 10UF,+/-10%,50V 2220" H 9900 4150 50  0001 C CNN "Description"
F 5 "10039581" H 9900 4150 50  0001 C CNN "Item Number"
F 6 "AVX" H 9900 4150 50  0001 C CNN "Manufacturer"
F 7 "22205C106K4Z4A" H 9900 4150 50  0001 C CNN "Manufacturer_No"
F 8 "KEMET_RMS1" H 0   0   50  0001 C CNN "Manufacturer2"
F 9 "KEMET_RMS1" H 0   0   50  0001 C CNN "Manufacturer3"
F 10 "C2220X106K5RACAUTO" H 0   0   50  0001 C CNN "Manufacturer_No2"
F 11 "C2220X106K5RAC" H 0   0   50  0001 C CNN "Manufacturer_No3"
	1    9900 4150
	1    0    0    -1  
$EndComp
Connection ~ 11600 4900
Wire Wire Line
	11600 4900 12000 4900
$Comp
L V_Transistor:IRLML2803TRPBF T29
U 1 1 5EA312AA
P 12200 5800
F 0 "T29" H 12404 5846 50  0000 L CNN
F 1 "IRLML2803" H 12404 5755 50  0000 L CNN
F 2 "powersupply-c:SOT23-GSD" H 13150 5725 50  0001 C CIN
F 3 "https://www.infineon.com/dgdl/irlml2803pbf.pdf?fileId=5546d462533600a4015356682aff260f" H 12525 5500 50  0001 L CNN
F 4 "TRANSISTOR MOSFET, 30V, 0.93A, 0.25 OHM, N CHANNEL" H 13000 5725 50  0001 C CNN "Description"
F 5 "10022558" H 12200 5800 50  0001 C CNN "Item Number"
F 6 "INTERNATIONAL RECTIFIER_RMS1" H 0   0   50  0001 C CNN "Manufacturer"
F 7 "INTERNATIONAL RECTIFIER_RMS1" H 0   0   50  0001 C CNN "Manufacturer2"
F 8 "IRLML2803PBF" H 0   0   50  0001 C CNN "Manufacturer_No"
F 9 "IRLML2803TRPBF" H 0   0   50  0001 C CNN "Manufacturer_No2"
	1    12200 5800
	1    0    0    -1  
$EndComp
Wire Wire Line
	13200 5400 13600 5400
Wire Wire Line
	5150 5100 5150 5400
Wire Wire Line
	5150 5100 5700 5100
Wire Wire Line
	4700 5400 5150 5400
Connection ~ 4200 5500
Wire Wire Line
	4200 5500 6100 5500
Wire Wire Line
	4200 4700 5700 4700
$Comp
L V_Capacitor:C0402_100pF_50V_5%_10022629 C81
U 1 1 5E9D8460
P 4700 5150
F 0 "C81" H 4585 5104 50  0000 R CNN
F 1 "100pF" H 4585 5195 50  0000 R CNN
F 2 "powersupply-c:C0402" H 4738 5000 50  0001 C CNN
F 3 "" H 4700 5150 50  0001 C CNN
F 4 "CAPACITOR,100PF,50V,+/-5%,C0G,0402" H 4700 5150 50  0001 C CNN "Description"
F 5 "10022629" H 4700 5150 50  0001 C CNN "Item Number"
F 6 "MURATA MANUFACTURING CO., LTD." H 0   0   50  0001 C CNN "Manufacturer"
F 7 "YAGEO/PHYCOMP_RMS1" H 0   0   50  0001 C CNN "Manufacturer2"
F 8 "YAGEO/PHYCOMP_RMS1" H 0   0   50  0001 C CNN "Manufacturer3"
F 9 "GRM1555C1H101JD01D" H 0   0   50  0001 C CNN "Manufacturer_No"
F 10 "CC0402JRNPO9BN101" H 0   0   50  0001 C CNN "Manufacturer_No2"
F 11 "CC0402JRNPO9BN101" H 0   0   50  0001 C CNN "Manufacturer_No3"
	1    4700 5150
	-1   0    0    1   
$EndComp
$Comp
L V_Resistor:R2512_50m_1% ZR80
U 1 1 5E9791C3
P 9550 3900
F 0 "ZR80" V 9450 3900 50  0000 C CNN
F 1 "0.05_2512" V 9368 3891 50  0000 C CNN
F 2 "powersupply-c:R2512" V 9480 3900 50  0001 C CNN
F 3 "http://www.vishay.com/docs/30100/wsl.pdf" H 9550 3900 50  0001 C CNN
F 4 "RESISTOR,0.05 OHM,1W,+/-1%,2512" H 9550 3900 50  0001 C CNN "Description"
F 5 "10022723_A" H 9550 3900 50  0001 C CNN "Item Number"
F 6 "VISHAY_RMS1" H 0   0   50  0001 C CNN "Manufacturer"
F 7 "WSL2512R0500FEA" H 0   0   50  0001 C CNN "Manufacturer_No"
	1    9550 3900
	0    1    -1   0   
$EndComp
$Comp
L V_Resistor:R2512_390R_1% ZR88
U 1 1 5E995D45
P 12200 4250
F 0 "ZR88" H 12469 4016 50  0000 R CNN
F 1 "390_2512" H 12643 4105 50  0000 R CNN
F 2 "powersupply-c:R2512" V 12130 4250 50  0001 C CNN
F 3 "" H 12200 4250 50  0001 C CNN
F 4 "RESISTOR,390 OHM,2W,+.-5%,2512" H 12200 4250 50  0001 C CNN "Description"
F 5 "10022728_A" H 12200 4250 50  0001 C CNN "Item Number"
F 6 "TYCO ELECTRONICS" H 0   0   50  0001 C CNN "Manufacturer"
F 7 "CRGP2512F390R" H 0   0   50  0001 C CNN "Manufacturer_No"
	1    12200 4250
	1    0    0    1   
$EndComp
Connection ~ 12200 4400
Connection ~ 12200 4100
Text Label 12400 4500 0    50   ~ 0
N$21
Text Label 6925 4700 0    50   ~ 0
N$132
Text Label 6925 4100 0    50   ~ 0
N$139
Text Label 5250 4100 0    50   ~ 0
N$136
Text Label 5250 3900 0    50   ~ 0
N$135
Text Label 1625 4600 0    50   ~ 0
N$141
Text Label 3450 4100 0    50   ~ 0
N$143
Text Label 14350 5550 1    50   ~ 0
N$78
Text Label 13600 4775 1    50   ~ 0
N$38
Text Label 8500 4775 1    50   ~ 0
N$137
Text Label 7875 5000 0    50   ~ 0
N$138
Text Label 13875 3700 0    50   ~ 0
N$79
Text Label 14350 4250 1    50   ~ 0
N$72
Text Label 13600 4250 1    50   ~ 0
N$27
Text Label 7875 3550 0    50   ~ 0
N$133
Text Label 11675 4900 0    50   ~ 0
N$17
Text Label 3300 4900 0    50   ~ 0
N$134
Text Label 9800 10925 0    50   ~ 0
N$27
Text GLabel 9800 10925 0    50   Input ~ 0
N$27
Text Label 9800 10825 0    50   ~ 0
N$72
Text GLabel 9800 10825 0    50   Input ~ 0
N$72
Text Label 9800 10725 0    50   ~ 0
N$137
Text GLabel 9800 10725 0    50   Input ~ 0
N$137
Text Label 9800 10625 0    50   ~ 0
N$138
Text GLabel 9800 10625 0    50   Input ~ 0
N$138
Text Label 9800 10525 0    50   ~ 0
N$133
Text GLabel 9800 10525 0    50   Input ~ 0
N$133
Text Label 8575 10400 0    50   ~ 0
VOSENSE-2
Text GLabel 8575 10400 0    50   Input ~ 0
VOSENSE-2
Text Label 8575 10300 0    50   ~ 0
-ISENSE
Text GLabel 8575 10300 0    50   Input ~ 0
-ISENSE
Text Label 8575 10900 0    50   ~ 0
ICHARGE-SETTING
Text GLabel 8575 10900 0    50   Input ~ 0
ICHARGE-SETTING
Text Label 8575 10800 0    50   ~ 0
MES-VCHARGE
Text GLabel 8575 10800 0    50   Input ~ 0
MES-VCHARGE
Text Label 8575 10700 0    50   ~ 0
CHARGER-SWITCH
Text GLabel 8575 10700 0    50   Input ~ 0
CHARGER-SWITCH
Text Label 9800 10325 0    50   ~ 0
I-CHARGE
Text GLabel 9800 10325 0    50   Input ~ 0
I-CHARGE
Text Label 9800 10225 0    50   ~ 0
INTVCC-2
Text GLabel 9800 10225 0    50   Input ~ 0
INTVCC-2
Text Label 8575 10600 0    50   ~ 0
VCHARGE-SETTING
Text GLabel 8575 10600 0    50   Input ~ 0
VCHARGE-SETTING
Text Label 8575 10500 0    50   ~ 0
SHUNT-DIODE-CH
Text GLabel 8575 10500 0    50   Input ~ 0
SHUNT-DIODE-CH
Text Label 9800 10425 0    50   ~ 0
IFC-SWITCH
Text GLabel 9800 10425 0    50   Input ~ 0
IFC-SWITCH
Wire Wire Line
	9200 3900 9400 3900
Text GLabel 8575 10175 0    50   Input ~ 0
+ISENSE
Text Label 8575 10175 0    50   ~ 0
+ISENSE
$EndSCHEMATC
