EESchema Schematic File Version 4
EELAYER 30 0
EELAYER END
$Descr A3 16535 11693
encoding utf-8
Sheet 3 9
Title ""
Date ""
Rev ""
Comp ""
Comment1 ""
Comment2 ""
Comment3 ""
Comment4 ""
$EndDescr
$Comp
L V_IC:SN74LVC2T45 IC18
U 1 1 5E9C58BD
P 2500 2850
F 0 "IC18" H 2750 3300 50  0000 C CNN
F 1 "SN74LVC2T45" H 2800 2400 50  0000 C CNN
F 2 "powersupply-c:uSO08" H 2550 2300 50  0001 C CNN
F 3 "" H 1600 2300 50  0001 C CNN
F 4 "IC,NON INVERTING BUS TRANSCEIVER,MSOP" H 2500 2850 50  0001 C CNN "Description"
F 5 "10022901" H 2500 2850 50  0001 C CNN "Item Number"
F 6 "TEXAS INSTRUMENTS_RMS1" H 2500 2850 50  0001 C CNN "Manufacturer"
F 7 "SN74LVC2T45DCTR" H 2500 2850 50  0001 C CNN "Manufacturer_No"
F 8 "TEXAS INSTRUMENTS_RMS1" H 0   0   50  0001 C CNN "Manufacturer2"
F 9 "SN74LVC2T45DCTT" H 0   0   50  0001 C CNN "Manufacturer_No2"
	1    2500 2850
	1    0    0    -1  
$EndComp
$Comp
L V_Power:+5V #PWR0101
U 1 1 5E9CAE6B
P 2300 2150
F 0 "#PWR0101" H 2300 2000 50  0001 C CNN
F 1 "+5V" H 2315 2323 50  0000 C CNN
F 2 "" H 2300 2150 50  0001 C CNN
F 3 "" H 2300 2150 50  0001 C CNN
	1    2300 2150
	1    0    0    -1  
$EndComp
$Comp
L V_Capacitor:C0402_100nF_16V_10% C97
U 1 1 5E9D28C2
P 1950 2250
F 0 "C97" V 1698 2250 50  0000 C CNN
F 1 "100nF" V 1789 2250 50  0000 C CNN
F 2 "powersupply-c:C0402" H 1988 2100 50  0001 C CNN
F 3 "https://www.yageo.com/upload/media/product/productsearch/datasheet/mlcc/UPY-GPHC_X7R_6.3V-to-50V_18.pdf" H 1950 2250 50  0001 C CNN
F 4 "CAPACITOR,100NF,16V,+/-10%,X7R,0402" V 1950 2250 50  0001 C CNN "Description"
F 5 "10022607" V 1950 2250 50  0001 C CNN "Item Number"
F 6 "YAGEO_RMS1" V 1950 2250 50  0001 C CNN "Manufacturer"
F 7 "CC0402KRX7R7BB104" V 1950 2250 50  0001 C CNN "Manufacturer_No"
F 8 "YAGEO_RMS1" H 0   0   50  0001 C CNN "Manufacturer2"
F 9 "MURATA MANUFACTURING CO., LTD." H 0   0   50  0001 C CNN "Manufacturer3"
F 10 "223878715649" H 0   0   50  0001 C CNN "Manufacturer_No2"
F 11 "GRM155R71C104KA88D" H 0   0   50  0001 C CNN "Manufacturer_No3"
	1    1950 2250
	0    -1   1    0   
$EndComp
Wire Wire Line
	2100 2250 2300 2250
Wire Wire Line
	2400 2250 2400 2350
Wire Wire Line
	2300 2150 2300 2250
Connection ~ 2300 2250
Wire Wire Line
	2300 2250 2400 2250
$Comp
L V_Capacitor:C0402_100nF_16V_10% C105
U 1 1 5E9D59EB
P 3050 2250
F 0 "C105" V 2798 2250 50  0000 C CNN
F 1 "100nF" V 2889 2250 50  0000 C CNN
F 2 "powersupply-c:C0402" H 3088 2100 50  0001 C CNN
F 3 "https://www.yageo.com/upload/media/product/productsearch/datasheet/mlcc/UPY-GPHC_X7R_6.3V-to-50V_18.pdf" H 3050 2250 50  0001 C CNN
F 4 "CAPACITOR,100NF,16V,+/-10%,X7R,0402" V 3050 2250 50  0001 C CNN "Description"
F 5 "10022607" V 3050 2250 50  0001 C CNN "Item Number"
F 6 "YAGEO_RMS1" V 3050 2250 50  0001 C CNN "Manufacturer"
F 7 "CC0402KRX7R7BB104" V 3050 2250 50  0001 C CNN "Manufacturer_No"
F 8 "YAGEO_RMS1" H 0   0   50  0001 C CNN "Manufacturer2"
F 9 "MURATA MANUFACTURING CO., LTD." H 0   0   50  0001 C CNN "Manufacturer3"
F 10 "223878715649" H 0   0   50  0001 C CNN "Manufacturer_No2"
F 11 "GRM155R71C104KA88D" H 0   0   50  0001 C CNN "Manufacturer_No3"
	1    3050 2250
	0    -1   1    0   
$EndComp
Wire Wire Line
	2900 2250 2700 2250
Wire Wire Line
	2600 2250 2600 2350
Wire Wire Line
	2700 2150 2700 2250
Connection ~ 2700 2250
Wire Wire Line
	2700 2250 2600 2250
$Comp
L V_Power:GND #PWR0103
U 1 1 5E9D6CC2
P 1600 2350
F 0 "#PWR0103" H 1600 2100 50  0001 C CNN
F 1 "GND" H 1605 2177 50  0000 C CNN
F 2 "" H 1600 2350 50  0001 C CNN
F 3 "" H 1600 2350 50  0001 C CNN
	1    1600 2350
	1    0    0    -1  
$EndComp
Wire Wire Line
	1600 2350 1600 2250
Wire Wire Line
	1600 2250 1800 2250
$Comp
L V_Power:GND #PWR0104
U 1 1 5E9D7E01
P 3400 2350
F 0 "#PWR0104" H 3400 2100 50  0001 C CNN
F 1 "GND" H 3405 2177 50  0000 C CNN
F 2 "" H 3400 2350 50  0001 C CNN
F 3 "" H 3400 2350 50  0001 C CNN
	1    3400 2350
	-1   0    0    -1  
$EndComp
Wire Wire Line
	3400 2350 3400 2250
Wire Wire Line
	3400 2250 3200 2250
$Comp
L V_Power:GND #PWR0105
U 1 1 5E9D937D
P 2500 3400
F 0 "#PWR0105" H 2500 3150 50  0001 C CNN
F 1 "GND" H 2505 3227 50  0000 C CNN
F 2 "" H 2500 3400 50  0001 C CNN
F 3 "" H 2500 3400 50  0001 C CNN
	1    2500 3400
	1    0    0    -1  
$EndComp
Wire Wire Line
	2500 3400 2500 3350
$Comp
L V_Power:GND #PWR0106
U 1 1 5E9DA204
P 1950 3400
F 0 "#PWR0106" H 1950 3150 50  0001 C CNN
F 1 "GND" H 1955 3227 50  0000 C CNN
F 2 "" H 1950 3400 50  0001 C CNN
F 3 "" H 1950 3400 50  0001 C CNN
	1    1950 3400
	1    0    0    -1  
$EndComp
Wire Wire Line
	2100 3150 1950 3150
Wire Wire Line
	1950 3150 1950 3400
$Comp
L V_IC:SN74LVC2T45 IC19
U 1 1 5E9DD921
P 2500 4650
F 0 "IC19" H 2750 5100 50  0000 C CNN
F 1 "SN74LVC2T45" H 2800 4200 50  0000 C CNN
F 2 "powersupply-c:uSO08" H 2550 4100 50  0001 C CNN
F 3 "" H 1600 4100 50  0001 C CNN
F 4 "IC,NON INVERTING BUS TRANSCEIVER,MSOP" H 2500 4650 50  0001 C CNN "Description"
F 5 "10022901" H 2500 4650 50  0001 C CNN "Item Number"
F 6 "TEXAS INSTRUMENTS_RMS1" H 2500 4650 50  0001 C CNN "Manufacturer"
F 7 "SN74LVC2T45DCTR" H 2500 4650 50  0001 C CNN "Manufacturer_No"
F 8 "TEXAS INSTRUMENTS_RMS1" H 0   0   50  0001 C CNN "Manufacturer2"
F 9 "SN74LVC2T45DCTT" H 0   0   50  0001 C CNN "Manufacturer_No2"
	1    2500 4650
	1    0    0    -1  
$EndComp
$Comp
L V_Power:+5V #PWR0107
U 1 1 5E9DD927
P 2300 3950
F 0 "#PWR0107" H 2300 3800 50  0001 C CNN
F 1 "+5V" H 2315 4123 50  0000 C CNN
F 2 "" H 2300 3950 50  0001 C CNN
F 3 "" H 2300 3950 50  0001 C CNN
	1    2300 3950
	1    0    0    -1  
$EndComp
$Comp
L V_Capacitor:C0402_100nF_16V_10% C101
U 1 1 5E9DD931
P 1950 4050
F 0 "C101" V 1698 4050 50  0000 C CNN
F 1 "100nF" V 1789 4050 50  0000 C CNN
F 2 "powersupply-c:C0402" H 1988 3900 50  0001 C CNN
F 3 "https://www.yageo.com/upload/media/product/productsearch/datasheet/mlcc/UPY-GPHC_X7R_6.3V-to-50V_18.pdf" H 1950 4050 50  0001 C CNN
F 4 "CAPACITOR,100NF,16V,+/-10%,X7R,0402" V 1950 4050 50  0001 C CNN "Description"
F 5 "10022607" V 1950 4050 50  0001 C CNN "Item Number"
F 6 "YAGEO_RMS1" V 1950 4050 50  0001 C CNN "Manufacturer"
F 7 "CC0402KRX7R7BB104" V 1950 4050 50  0001 C CNN "Manufacturer_No"
F 8 "YAGEO_RMS1" H 0   0   50  0001 C CNN "Manufacturer2"
F 9 "MURATA MANUFACTURING CO., LTD." H 0   0   50  0001 C CNN "Manufacturer3"
F 10 "223878715649" H 0   0   50  0001 C CNN "Manufacturer_No2"
F 11 "GRM155R71C104KA88D" H 0   0   50  0001 C CNN "Manufacturer_No3"
	1    1950 4050
	0    1    1    0   
$EndComp
Wire Wire Line
	2100 4050 2300 4050
Wire Wire Line
	2400 4050 2400 4150
Wire Wire Line
	2300 3950 2300 4050
Connection ~ 2300 4050
Wire Wire Line
	2300 4050 2400 4050
$Comp
L V_Capacitor:C0402_100nF_16V_10% C104
U 1 1 5E9DD946
P 3050 4050
F 0 "C104" V 2798 4050 50  0000 C CNN
F 1 "100nF" V 2889 4050 50  0000 C CNN
F 2 "powersupply-c:C0402" H 3088 3900 50  0001 C CNN
F 3 "https://www.yageo.com/upload/media/product/productsearch/datasheet/mlcc/UPY-GPHC_X7R_6.3V-to-50V_18.pdf" H 3050 4050 50  0001 C CNN
F 4 "CAPACITOR,100NF,16V,+/-10%,X7R,0402" V 3050 4050 50  0001 C CNN "Description"
F 5 "10022607" V 3050 4050 50  0001 C CNN "Item Number"
F 6 "YAGEO_RMS1" V 3050 4050 50  0001 C CNN "Manufacturer"
F 7 "CC0402KRX7R7BB104" V 3050 4050 50  0001 C CNN "Manufacturer_No"
F 8 "YAGEO_RMS1" H 0   0   50  0001 C CNN "Manufacturer2"
F 9 "MURATA MANUFACTURING CO., LTD." H 0   0   50  0001 C CNN "Manufacturer3"
F 10 "223878715649" H 0   0   50  0001 C CNN "Manufacturer_No2"
F 11 "GRM155R71C104KA88D" H 0   0   50  0001 C CNN "Manufacturer_No3"
	1    3050 4050
	0    -1   1    0   
$EndComp
Wire Wire Line
	2900 4050 2700 4050
Wire Wire Line
	2600 4050 2600 4150
Wire Wire Line
	2700 3950 2700 4050
Connection ~ 2700 4050
Wire Wire Line
	2700 4050 2600 4050
$Comp
L V_Power:GND #PWR0109
U 1 1 5E9DD951
P 1600 4150
F 0 "#PWR0109" H 1600 3900 50  0001 C CNN
F 1 "GND" H 1605 3977 50  0000 C CNN
F 2 "" H 1600 4150 50  0001 C CNN
F 3 "" H 1600 4150 50  0001 C CNN
	1    1600 4150
	1    0    0    -1  
$EndComp
Wire Wire Line
	1600 4150 1600 4050
Wire Wire Line
	1600 4050 1800 4050
$Comp
L V_Power:GND #PWR0110
U 1 1 5E9DD959
P 3400 4150
F 0 "#PWR0110" H 3400 3900 50  0001 C CNN
F 1 "GND" H 3405 3977 50  0000 C CNN
F 2 "" H 3400 4150 50  0001 C CNN
F 3 "" H 3400 4150 50  0001 C CNN
	1    3400 4150
	-1   0    0    -1  
$EndComp
Wire Wire Line
	3400 4150 3400 4050
Wire Wire Line
	3400 4050 3200 4050
$Comp
L V_Power:GND #PWR0111
U 1 1 5E9DD961
P 2500 5200
F 0 "#PWR0111" H 2500 4950 50  0001 C CNN
F 1 "GND" H 2505 5027 50  0000 C CNN
F 2 "" H 2500 5200 50  0001 C CNN
F 3 "" H 2500 5200 50  0001 C CNN
	1    2500 5200
	1    0    0    -1  
$EndComp
Wire Wire Line
	2500 5200 2500 5150
Wire Wire Line
	2100 4950 1950 4950
$Comp
L V_IC:SN74LVC2T45 IC20
U 1 1 5E9E0D2F
P 2500 6500
F 0 "IC20" H 2750 6950 50  0000 C CNN
F 1 "SN74LVC2T45" H 2800 6050 50  0000 C CNN
F 2 "powersupply-c:uSO08" H 2550 5950 50  0001 C CNN
F 3 "" H 1600 5950 50  0001 C CNN
F 4 "IC,NON INVERTING BUS TRANSCEIVER,MSOP" H 2500 6500 50  0001 C CNN "Description"
F 5 "10022901" H 2500 6500 50  0001 C CNN "Item Number"
F 6 "TEXAS INSTRUMENTS_RMS1" H 2500 6500 50  0001 C CNN "Manufacturer"
F 7 "SN74LVC2T45DCTR" H 2500 6500 50  0001 C CNN "Manufacturer_No"
F 8 "TEXAS INSTRUMENTS_RMS1" H 0   0   50  0001 C CNN "Manufacturer2"
F 9 "SN74LVC2T45DCTT" H 0   0   50  0001 C CNN "Manufacturer_No2"
	1    2500 6500
	1    0    0    -1  
$EndComp
$Comp
L V_Power:+5V #PWR0112
U 1 1 5E9E0D35
P 2300 5800
F 0 "#PWR0112" H 2300 5650 50  0001 C CNN
F 1 "+5V" H 2315 5973 50  0000 C CNN
F 2 "" H 2300 5800 50  0001 C CNN
F 3 "" H 2300 5800 50  0001 C CNN
	1    2300 5800
	1    0    0    -1  
$EndComp
$Comp
L V_Capacitor:C0402_100nF_16V_10% C102
U 1 1 5E9E0D3F
P 1950 5900
F 0 "C102" V 1698 5900 50  0000 C CNN
F 1 "100nF" V 1789 5900 50  0000 C CNN
F 2 "powersupply-c:C0402" H 1988 5750 50  0001 C CNN
F 3 "https://www.yageo.com/upload/media/product/productsearch/datasheet/mlcc/UPY-GPHC_X7R_6.3V-to-50V_18.pdf" H 1950 5900 50  0001 C CNN
F 4 "CAPACITOR,100NF,16V,+/-10%,X7R,0402" V 1950 5900 50  0001 C CNN "Description"
F 5 "10022607" V 1950 5900 50  0001 C CNN "Item Number"
F 6 "YAGEO_RMS1" V 1950 5900 50  0001 C CNN "Manufacturer"
F 7 "CC0402KRX7R7BB104" V 1950 5900 50  0001 C CNN "Manufacturer_No"
F 8 "YAGEO_RMS1" H 0   0   50  0001 C CNN "Manufacturer2"
F 9 "MURATA MANUFACTURING CO., LTD." H 0   0   50  0001 C CNN "Manufacturer3"
F 10 "223878715649" H 0   0   50  0001 C CNN "Manufacturer_No2"
F 11 "GRM155R71C104KA88D" H 0   0   50  0001 C CNN "Manufacturer_No3"
	1    1950 5900
	0    1    1    0   
$EndComp
Wire Wire Line
	2100 5900 2300 5900
Wire Wire Line
	2400 5900 2400 6000
Wire Wire Line
	2300 5800 2300 5900
Connection ~ 2300 5900
Wire Wire Line
	2300 5900 2400 5900
$Comp
L V_Capacitor:C0402_100nF_16V_10% C103
U 1 1 5E9E0D54
P 3050 5900
F 0 "C103" V 2798 5900 50  0000 C CNN
F 1 "100nF" V 2889 5900 50  0000 C CNN
F 2 "powersupply-c:C0402" H 3088 5750 50  0001 C CNN
F 3 "https://www.yageo.com/upload/media/product/productsearch/datasheet/mlcc/UPY-GPHC_X7R_6.3V-to-50V_18.pdf" H 3050 5900 50  0001 C CNN
F 4 "CAPACITOR,100NF,16V,+/-10%,X7R,0402" V 3050 5900 50  0001 C CNN "Description"
F 5 "10022607" V 3050 5900 50  0001 C CNN "Item Number"
F 6 "YAGEO_RMS1" V 3050 5900 50  0001 C CNN "Manufacturer"
F 7 "CC0402KRX7R7BB104" V 3050 5900 50  0001 C CNN "Manufacturer_No"
F 8 "YAGEO_RMS1" H 0   0   50  0001 C CNN "Manufacturer2"
F 9 "MURATA MANUFACTURING CO., LTD." H 0   0   50  0001 C CNN "Manufacturer3"
F 10 "223878715649" H 0   0   50  0001 C CNN "Manufacturer_No2"
F 11 "GRM155R71C104KA88D" H 0   0   50  0001 C CNN "Manufacturer_No3"
	1    3050 5900
	0    -1   1    0   
$EndComp
Wire Wire Line
	2900 5900 2700 5900
Wire Wire Line
	2600 5900 2600 6000
Wire Wire Line
	2700 5800 2700 5900
Connection ~ 2700 5900
Wire Wire Line
	2700 5900 2600 5900
$Comp
L V_Power:GND #PWR0114
U 1 1 5E9E0D5F
P 1600 6000
F 0 "#PWR0114" H 1600 5750 50  0001 C CNN
F 1 "GND" H 1605 5827 50  0000 C CNN
F 2 "" H 1600 6000 50  0001 C CNN
F 3 "" H 1600 6000 50  0001 C CNN
	1    1600 6000
	1    0    0    -1  
$EndComp
Wire Wire Line
	1600 6000 1600 5900
Wire Wire Line
	1600 5900 1800 5900
$Comp
L V_Power:GND #PWR0115
U 1 1 5E9E0D67
P 3400 6000
F 0 "#PWR0115" H 3400 5750 50  0001 C CNN
F 1 "GND" H 3405 5827 50  0000 C CNN
F 2 "" H 3400 6000 50  0001 C CNN
F 3 "" H 3400 6000 50  0001 C CNN
	1    3400 6000
	-1   0    0    -1  
$EndComp
Wire Wire Line
	3400 6000 3400 5900
Wire Wire Line
	3400 5900 3200 5900
$Comp
L V_Power:GND #PWR0116
U 1 1 5E9E0D6F
P 2500 7050
F 0 "#PWR0116" H 2500 6800 50  0001 C CNN
F 1 "GND" H 2505 6877 50  0000 C CNN
F 2 "" H 2500 7050 50  0001 C CNN
F 3 "" H 2500 7050 50  0001 C CNN
	1    2500 7050
	1    0    0    -1  
$EndComp
Wire Wire Line
	2500 7050 2500 7000
Wire Wire Line
	2100 6800 1950 6800
$Comp
L V_IC:CY7C67300-100AXI IC15
U 1 1 5EA0D50B
P 7250 5600
AR Path="/5EA0D50B" Ref="IC15"  Part="1" 
AR Path="/5E9C3EF6/5EA0D50B" Ref="IC15"  Part="1" 
F 0 "IC15" H 8650 3100 60  0000 C CNN
F 1 "CY7C67300-100AXI" H 9000 3000 60  0000 C CNN
F 2 "powersupply-c:TQFP100" H 7200 5540 60  0001 C CNN
F 3 "" H 4800 4600 60  0001 C CNN
F 4 "IC,MICROCONTROLLER,TQFP100" H 7250 5600 50  0001 C CNN "Description"
F 5 "10022898" H 7250 5600 50  0001 C CNN "Item Number"
F 6 "CYPRESS SEMICONDUCTOR CORPORATION" H 7250 5600 50  0001 C CNN "Manufacturer"
F 7 "CY7C67300-100AXI" H 7250 5600 50  0001 C CNN "Manufacturer_No"
	1    7250 5600
	1    0    0    -1  
$EndComp
$Comp
L V_Power:+5V #PWR0117
U 1 1 5EA17785
P 1800 6900
F 0 "#PWR0117" H 1800 6750 50  0001 C CNN
F 1 "+5V" H 1815 7073 50  0000 C CNN
F 2 "" H 1800 6900 50  0001 C CNN
F 3 "" H 1800 6900 50  0001 C CNN
	1    1800 6900
	1    0    0    -1  
$EndComp
Wire Wire Line
	1800 6900 1800 6950
Wire Wire Line
	1800 6950 1950 6950
Wire Wire Line
	1950 6950 1950 6800
$Comp
L V_Power:+5V #PWR0118
U 1 1 5EA19B42
P 1800 5050
F 0 "#PWR0118" H 1800 4900 50  0001 C CNN
F 1 "+5V" H 1815 5223 50  0000 C CNN
F 2 "" H 1800 5050 50  0001 C CNN
F 3 "" H 1800 5050 50  0001 C CNN
	1    1800 5050
	1    0    0    -1  
$EndComp
Wire Wire Line
	1800 5050 1800 5100
Wire Wire Line
	1800 5100 1950 5100
Wire Wire Line
	1950 5100 1950 4950
Text GLabel 1750 2750 0    50   Output ~ 0
USB-BUSY
Text GLabel 1750 2950 0    50   Output ~ 0
MRST-SPI-1
Wire Wire Line
	1750 2750 2100 2750
Wire Wire Line
	1750 2950 2100 2950
Text GLabel 1750 4550 0    50   Input ~ 0
SCLK-SPI-1
Text GLabel 1750 4750 0    50   Input ~ 0
MTSR-SPI-1
Wire Wire Line
	1750 4550 2100 4550
Wire Wire Line
	1750 4750 2100 4750
Text GLabel 1250 6400 0    50   Input ~ 0
CE-SPI-USB
Text GLabel 1250 6600 0    50   Input ~ 0
USB-RESET
Wire Wire Line
	1250 6400 2100 6400
Wire Wire Line
	1250 6600 1400 6600
Wire Wire Line
	2900 6400 4050 6400
Wire Wire Line
	4050 6400 4050 5400
Wire Wire Line
	4050 5400 4800 5400
Wire Wire Line
	4800 3800 4050 3800
Wire Wire Line
	4050 3800 4050 5400
Connection ~ 4050 5400
Wire Wire Line
	2900 4750 3900 4750
Wire Wire Line
	3900 4750 3900 4000
Wire Wire Line
	3900 4000 4800 4000
Wire Wire Line
	4800 3900 3750 3900
Wire Wire Line
	3750 3900 3750 4550
Wire Wire Line
	3750 4550 2900 4550
Wire Wire Line
	6000 2550 4550 2550
Wire Wire Line
	4550 2550 4550 2950
Wire Wire Line
	4550 2950 2900 2950
Wire Wire Line
	2900 2750 4250 2750
Wire Wire Line
	4400 2750 4400 2400
Wire Wire Line
	4400 2400 6100 2400
Wire Wire Line
	6100 2400 6100 2550
Wire Wire Line
	7500 2550 7500 2450
Wire Wire Line
	7500 2450 7400 2450
Wire Wire Line
	7100 2450 7100 2550
Wire Wire Line
	7200 2550 7200 2450
Connection ~ 7200 2450
Wire Wire Line
	7200 2450 7100 2450
Wire Wire Line
	7300 2550 7300 2450
Connection ~ 7300 2450
Wire Wire Line
	7300 2450 7200 2450
Wire Wire Line
	7400 2550 7400 2450
Connection ~ 7400 2450
Wire Wire Line
	7400 2450 7300 2450
Wire Wire Line
	7300 2350 7300 2450
Wire Wire Line
	7800 2550 7800 1900
Wire Wire Line
	7800 1900 3600 1900
Wire Wire Line
	3600 1900 3600 6600
Wire Wire Line
	3600 6600 2900 6600
Connection ~ 3600 6600
$Comp
L V_Resistor:R0603_10k_1%_10022548 R?
U 1 1 5EA5E4CE
P 1400 6850
AR Path="/5E92767C/5EA5E4CE" Ref="R?"  Part="1" 
AR Path="/5E9C3EF6/5EA5E4CE" Ref="R40"  Part="1" 
F 0 "R40" H 1330 6896 50  0000 R CNN
F 1 "10k" H 1330 6805 50  0000 R CNN
F 2 "powersupply-c:R0603" V 1330 6850 50  0001 C CNN
F 3 "" H 1400 6850 50  0001 C CNN
F 4 "RESISTOR,10K OHM.0.063W,+/-1%,0603" V 1400 6850 50  0001 C CNN "Description"
F 5 "10022548" V 1400 6850 50  0001 C CNN "Item Number"
F 6 "YAGEO_RMS1" V 1400 6850 50  0001 C CNN "Manufacturer"
F 7 "RC0603FR-0710KL" V 1400 6850 50  0001 C CNN "Manufacturer_No"
F 8 "SAMSUNG_RMS1" H 0   0   50  0001 C CNN "Manufacturer2"
F 9 "BOURNS_RMS1" H 0   0   50  0001 C CNN "Manufacturer3"
F 10 "RC1608F103CS" H 0   0   50  0001 C CNN "Manufacturer_No2"
F 11 "CR0603-FX-1002ELF" H 0   0   50  0001 C CNN "Manufacturer_No3"
	1    1400 6850
	-1   0    0    -1  
$EndComp
$Comp
L V_Power:GND #PWR0120
U 1 1 5EA607AC
P 1400 7050
F 0 "#PWR0120" H 1400 6800 50  0001 C CNN
F 1 "GND" H 1405 6877 50  0000 C CNN
F 2 "" H 1400 7050 50  0001 C CNN
F 3 "" H 1400 7050 50  0001 C CNN
	1    1400 7050
	1    0    0    -1  
$EndComp
Wire Wire Line
	1400 7050 1400 7000
Wire Wire Line
	1400 6700 1400 6600
Connection ~ 1400 6600
Wire Wire Line
	1400 6600 2100 6600
$Comp
L V_Capacitor:C0402_100nF_16V_10% C85
U 1 1 5EA657A1
P 4500 1200
F 0 "C85" H 4385 1154 50  0000 R CNN
F 1 "100nF" H 4385 1245 50  0000 R CNN
F 2 "powersupply-c:C0402" H 4538 1050 50  0001 C CNN
F 3 "https://www.yageo.com/upload/media/product/productsearch/datasheet/mlcc/UPY-GPHC_X7R_6.3V-to-50V_18.pdf" H 4500 1200 50  0001 C CNN
F 4 "CAPACITOR,100NF,16V,+/-10%,X7R,0402" V 4500 1200 50  0001 C CNN "Description"
F 5 "10022607" V 4500 1200 50  0001 C CNN "Item Number"
F 6 "YAGEO_RMS1" V 4500 1200 50  0001 C CNN "Manufacturer"
F 7 "CC0402KRX7R7BB104" V 4500 1200 50  0001 C CNN "Manufacturer_No"
F 8 "YAGEO_RMS1" H 0   0   50  0001 C CNN "Manufacturer2"
F 9 "MURATA MANUFACTURING CO., LTD." H 0   0   50  0001 C CNN "Manufacturer3"
F 10 "223878715649" H 0   0   50  0001 C CNN "Manufacturer_No2"
F 11 "GRM155R71C104KA88D" H 0   0   50  0001 C CNN "Manufacturer_No3"
	1    4500 1200
	-1   0    0    1   
$EndComp
$Comp
L V_Capacitor:C0402_100nF_16V_10% C86
U 1 1 5EA68C33
P 5000 1200
F 0 "C86" H 4885 1154 50  0000 R CNN
F 1 "100nF" H 4885 1245 50  0000 R CNN
F 2 "powersupply-c:C0402" H 5038 1050 50  0001 C CNN
F 3 "https://www.yageo.com/upload/media/product/productsearch/datasheet/mlcc/UPY-GPHC_X7R_6.3V-to-50V_18.pdf" H 5000 1200 50  0001 C CNN
F 4 "CAPACITOR,100NF,16V,+/-10%,X7R,0402" V 5000 1200 50  0001 C CNN "Description"
F 5 "10022607" V 5000 1200 50  0001 C CNN "Item Number"
F 6 "YAGEO_RMS1" V 5000 1200 50  0001 C CNN "Manufacturer"
F 7 "CC0402KRX7R7BB104" V 5000 1200 50  0001 C CNN "Manufacturer_No"
F 8 "YAGEO_RMS1" H 0   0   50  0001 C CNN "Manufacturer2"
F 9 "MURATA MANUFACTURING CO., LTD." H 0   0   50  0001 C CNN "Manufacturer3"
F 10 "223878715649" H 0   0   50  0001 C CNN "Manufacturer_No2"
F 11 "GRM155R71C104KA88D" H 0   0   50  0001 C CNN "Manufacturer_No3"
	1    5000 1200
	-1   0    0    1   
$EndComp
$Comp
L V_Capacitor:C0402_100nF_16V_10% C87
U 1 1 5EA68E6E
P 5500 1200
F 0 "C87" H 5385 1154 50  0000 R CNN
F 1 "100nF" H 5385 1245 50  0000 R CNN
F 2 "powersupply-c:C0402" H 5538 1050 50  0001 C CNN
F 3 "https://www.yageo.com/upload/media/product/productsearch/datasheet/mlcc/UPY-GPHC_X7R_6.3V-to-50V_18.pdf" H 5500 1200 50  0001 C CNN
F 4 "CAPACITOR,100NF,16V,+/-10%,X7R,0402" V 5500 1200 50  0001 C CNN "Description"
F 5 "10022607" V 5500 1200 50  0001 C CNN "Item Number"
F 6 "YAGEO_RMS1" V 5500 1200 50  0001 C CNN "Manufacturer"
F 7 "CC0402KRX7R7BB104" V 5500 1200 50  0001 C CNN "Manufacturer_No"
F 8 "YAGEO_RMS1" H 0   0   50  0001 C CNN "Manufacturer2"
F 9 "MURATA MANUFACTURING CO., LTD." H 0   0   50  0001 C CNN "Manufacturer3"
F 10 "223878715649" H 0   0   50  0001 C CNN "Manufacturer_No2"
F 11 "GRM155R71C104KA88D" H 0   0   50  0001 C CNN "Manufacturer_No3"
	1    5500 1200
	-1   0    0    1   
$EndComp
$Comp
L V_Capacitor:C0402_100nF_16V_10% C88
U 1 1 5EA697E9
P 6000 1200
F 0 "C88" H 5885 1154 50  0000 R CNN
F 1 "100nF" H 5885 1245 50  0000 R CNN
F 2 "powersupply-c:C0402" H 6038 1050 50  0001 C CNN
F 3 "https://www.yageo.com/upload/media/product/productsearch/datasheet/mlcc/UPY-GPHC_X7R_6.3V-to-50V_18.pdf" H 6000 1200 50  0001 C CNN
F 4 "CAPACITOR,100NF,16V,+/-10%,X7R,0402" V 6000 1200 50  0001 C CNN "Description"
F 5 "10022607" V 6000 1200 50  0001 C CNN "Item Number"
F 6 "YAGEO_RMS1" V 6000 1200 50  0001 C CNN "Manufacturer"
F 7 "CC0402KRX7R7BB104" V 6000 1200 50  0001 C CNN "Manufacturer_No"
F 8 "YAGEO_RMS1" H 0   0   50  0001 C CNN "Manufacturer2"
F 9 "MURATA MANUFACTURING CO., LTD." H 0   0   50  0001 C CNN "Manufacturer3"
F 10 "223878715649" H 0   0   50  0001 C CNN "Manufacturer_No2"
F 11 "GRM155R71C104KA88D" H 0   0   50  0001 C CNN "Manufacturer_No3"
	1    6000 1200
	-1   0    0    1   
$EndComp
$Comp
L V_Power:GND #PWR0122
U 1 1 5EA6AE85
P 5300 1450
F 0 "#PWR0122" H 5300 1200 50  0001 C CNN
F 1 "GND" H 5305 1277 50  0000 C CNN
F 2 "" H 5300 1450 50  0001 C CNN
F 3 "" H 5300 1450 50  0001 C CNN
	1    5300 1450
	-1   0    0    -1  
$EndComp
Wire Wire Line
	6000 1050 6000 1000
Wire Wire Line
	6000 1000 5500 1000
Wire Wire Line
	4500 1000 4500 1050
Wire Wire Line
	4500 1350 4500 1400
Wire Wire Line
	4500 1400 5000 1400
Wire Wire Line
	6000 1400 6000 1350
Wire Wire Line
	5300 1450 5300 1400
Connection ~ 5300 1400
Wire Wire Line
	5300 1400 5500 1400
Wire Wire Line
	5500 1400 5500 1350
Wire Wire Line
	5500 1050 5500 1000
Connection ~ 5500 1400
Wire Wire Line
	5500 1400 6000 1400
Connection ~ 5500 1000
Wire Wire Line
	5500 1000 5300 1000
Wire Wire Line
	5000 1400 5000 1350
Wire Wire Line
	5000 1050 5000 1000
Connection ~ 5000 1400
Wire Wire Line
	5000 1400 5300 1400
Connection ~ 5000 1000
Wire Wire Line
	5000 1000 4500 1000
Wire Wire Line
	5300 950  5300 1000
Connection ~ 5300 1000
Wire Wire Line
	5300 1000 5000 1000
Wire Wire Line
	4250 5700 4800 5700
Wire Wire Line
	4250 5900 4800 5900
Wire Wire Line
	4800 6000 4250 6000
NoConn ~ 4800 4100
NoConn ~ 4800 4200
NoConn ~ 4800 4300
NoConn ~ 4800 4400
NoConn ~ 4800 4500
NoConn ~ 4800 4600
NoConn ~ 4800 4700
NoConn ~ 4800 4800
NoConn ~ 4800 4900
NoConn ~ 4800 5000
NoConn ~ 4800 5100
NoConn ~ 4800 5200
NoConn ~ 4800 5300
NoConn ~ 4800 5500
NoConn ~ 4800 5600
NoConn ~ 4800 5800
NoConn ~ 4800 6100
NoConn ~ 4800 6200
NoConn ~ 4800 6300
NoConn ~ 4800 6400
NoConn ~ 4800 6500
NoConn ~ 4800 6600
NoConn ~ 4800 7100
NoConn ~ 4800 7200
NoConn ~ 4800 7300
NoConn ~ 5950 8250
NoConn ~ 6050 8250
$Comp
L V_Power:GND #PWR0123
U 1 1 5EAEA988
P 7450 8450
F 0 "#PWR0123" H 7450 8200 50  0001 C CNN
F 1 "GND" H 7455 8277 50  0000 C CNN
F 2 "" H 7450 8450 50  0001 C CNN
F 3 "" H 7450 8450 50  0001 C CNN
	1    7450 8450
	1    0    0    -1  
$EndComp
Wire Wire Line
	7150 8250 7150 8350
Wire Wire Line
	7150 8350 7250 8350
Wire Wire Line
	7750 8350 7750 8250
Wire Wire Line
	7550 8250 7550 8350
Connection ~ 7550 8350
Wire Wire Line
	7550 8350 7650 8350
Wire Wire Line
	7450 8250 7450 8350
Connection ~ 7450 8350
Wire Wire Line
	7450 8350 7550 8350
Wire Wire Line
	7450 8450 7450 8350
Wire Wire Line
	7350 8250 7350 8350
Connection ~ 7350 8350
Wire Wire Line
	7350 8350 7450 8350
Wire Wire Line
	7250 8250 7250 8350
Connection ~ 7250 8350
Wire Wire Line
	7250 8350 7350 8350
Wire Wire Line
	7650 8250 7650 8350
Connection ~ 7650 8350
Wire Wire Line
	7650 8350 7750 8350
Wire Wire Line
	9400 5750 9650 5750
Text Label 9650 5750 2    50   ~ 0
A1
Text Label 9650 5850 2    50   ~ 0
A2
Text Label 9650 5950 2    50   ~ 0
A3
Text Label 9650 6050 2    50   ~ 0
A4
Text Label 9650 6150 2    50   ~ 0
A5
Text Label 9650 6250 2    50   ~ 0
A6
Text Label 9650 6350 2    50   ~ 0
A7
Text Label 9650 6450 2    50   ~ 0
A8
Text Label 9650 6550 2    50   ~ 0
A9
Text Label 9650 6650 2    50   ~ 0
A10
Text Label 9650 6750 2    50   ~ 0
A11
Text Label 9650 6850 2    50   ~ 0
A12
Text Label 9650 6950 2    50   ~ 0
A13
Text Label 9650 7050 2    50   ~ 0
A14
Text Label 9650 7150 2    50   ~ 0
A15
Wire Wire Line
	9650 5850 9400 5850
Wire Wire Line
	9650 5950 9400 5950
Wire Wire Line
	9650 6050 9400 6050
Wire Wire Line
	9650 6150 9400 6150
Wire Wire Line
	9650 6250 9400 6250
Wire Wire Line
	9650 6350 9400 6350
Wire Wire Line
	9650 6450 9400 6450
Wire Wire Line
	9650 6550 9400 6550
Wire Wire Line
	9650 6650 9400 6650
Wire Wire Line
	9650 6750 9400 6750
Wire Wire Line
	9650 6850 9400 6850
Wire Wire Line
	9650 6950 9400 6950
Wire Wire Line
	9650 7050 9400 7050
Wire Wire Line
	9650 7150 9400 7150
Entry Wire Line
	9650 5750 9750 5850
Entry Wire Line
	9650 5850 9750 5950
Entry Wire Line
	9650 5950 9750 6050
Entry Wire Line
	9650 6050 9750 6150
Entry Wire Line
	9650 6150 9750 6250
Entry Wire Line
	9650 6250 9750 6350
Entry Wire Line
	9650 6350 9750 6450
Entry Wire Line
	9650 6450 9750 6550
Entry Wire Line
	9650 6550 9750 6650
Entry Wire Line
	9650 6650 9750 6750
Entry Wire Line
	9650 6750 9750 6850
Entry Wire Line
	9650 6850 9750 6950
Entry Wire Line
	9650 6950 9750 7050
Entry Wire Line
	9650 7050 9750 7150
Entry Wire Line
	9650 7150 9750 7250
Wire Bus Line
	9750 7350 9850 7450
Text Label 10200 7450 2    50   ~ 0
A[1..15]
Wire Bus Line
	10200 7450 9850 7450
Wire Wire Line
	9400 3850 9650 3850
Wire Wire Line
	9650 3950 9400 3950
Wire Wire Line
	9650 4050 9400 4050
Wire Wire Line
	9650 4150 9400 4150
Wire Wire Line
	9650 4250 9400 4250
Wire Wire Line
	9650 4350 9400 4350
Wire Wire Line
	9650 4450 9400 4450
Wire Wire Line
	9650 4550 9400 4550
Wire Wire Line
	9650 4650 9400 4650
Wire Wire Line
	9650 4750 9400 4750
Wire Wire Line
	9650 4850 9400 4850
Wire Wire Line
	9650 4950 9400 4950
Wire Wire Line
	9650 5050 9400 5050
Wire Wire Line
	9650 5150 9400 5150
Wire Wire Line
	9650 5250 9400 5250
Entry Wire Line
	9650 3850 9750 3950
Entry Wire Line
	9650 3950 9750 4050
Entry Wire Line
	9650 4050 9750 4150
Entry Wire Line
	9650 4150 9750 4250
Entry Wire Line
	9650 4250 9750 4350
Entry Wire Line
	9650 4350 9750 4450
Entry Wire Line
	9650 4450 9750 4550
Entry Wire Line
	9650 4550 9750 4650
Entry Wire Line
	9650 4650 9750 4750
Entry Wire Line
	9650 4750 9750 4850
Entry Wire Line
	9650 4850 9750 4950
Entry Wire Line
	9650 4950 9750 5050
Entry Wire Line
	9650 5050 9750 5150
Entry Wire Line
	9650 5150 9750 5250
Entry Wire Line
	9650 5250 9750 5350
Wire Bus Line
	9750 5450 9850 5550
Text Label 10200 5550 2    50   ~ 0
D[0..15]
Wire Bus Line
	10200 5550 9850 5550
Entry Wire Line
	9650 5350 9750 5450
Wire Wire Line
	9650 5350 9400 5350
Text Label 9650 5350 2    50   ~ 0
D0
Text Label 9650 5250 2    50   ~ 0
D1
Text Label 9650 5150 2    50   ~ 0
D2
Text Label 9650 5050 2    50   ~ 0
D3
Text Label 9650 4950 2    50   ~ 0
D4
Text Label 9650 4850 2    50   ~ 0
D5
Text Label 9650 4750 2    50   ~ 0
D6
Text Label 9650 4650 2    50   ~ 0
D7
Text Label 9650 4550 2    50   ~ 0
D8
Text Label 9650 4450 2    50   ~ 0
D9
Text Label 9650 4350 2    50   ~ 0
D10
Text Label 9650 4250 2    50   ~ 0
D11
Text Label 9650 4150 2    50   ~ 0
D12
Text Label 9650 4050 2    50   ~ 0
D13
Text Label 9650 3950 2    50   ~ 0
D14
Text Label 9650 3850 2    50   ~ 0
D15
Wire Wire Line
	8200 2150 8200 2550
Wire Wire Line
	8100 2550 8100 2150
$Comp
L V_Connector:TestPoint PST10
U 1 1 5EC71AD7
P 8500 2275
AR Path="/5EC71AD7" Ref="PST10"  Part="1" 
AR Path="/5E9C3EF6/5EC71AD7" Ref="PST10"  Part="1" 
F 0 "PST10" V 8500 2575 50  0000 C CNN
F 1 "TestPoint" H 8500 2509 50  0001 C CNN
F 2 "powersupply-c:TEST-CMS-0.8" H 8700 2275 50  0001 C CNN
F 3 "https://nicomatic.com/product-smd_test_terminals-69-en-1-47-334.htm" H 8700 2275 50  0001 C CNN
F 4 "TEST POINT" H 0   -75 50  0001 C CNN "Description"
F 5 "10022924" H 0   -75 50  0001 C CNN "Item Number"
F 6 "NICOMATIC_RMS1" H 0   -75 50  0001 C CNN "Manufacturer"
F 7 "KEYSTONE ELECTRONICS CORP" H 0   -75 50  0001 C CNN "Manufacturer2"
F 8 "C12000B" H 0   -75 50  0001 C CNN "Manufacturer_No"
F 9 "5015" H 0   -75 50  0001 C CNN "Manufacturer_No2"
	1    8500 2275
	1    0    0    -1  
$EndComp
$Comp
L V_Connector:TestPoint PST11
U 1 1 5EC725C8
P 8600 2275
AR Path="/5EC725C8" Ref="PST11"  Part="1" 
AR Path="/5E9C3EF6/5EC725C8" Ref="PST11"  Part="1" 
F 0 "PST11" V 8600 2575 50  0000 C CNN
F 1 "TestPoint" H 8658 2302 50  0001 L CNN
F 2 "powersupply-c:TEST-CMS-0.8" H 8800 2275 50  0001 C CNN
F 3 "https://nicomatic.com/product-smd_test_terminals-69-en-1-47-334.htm" H 8800 2275 50  0001 C CNN
F 4 "TEST POINT" H 0   -75 50  0001 C CNN "Description"
F 5 "10022924" H 0   -75 50  0001 C CNN "Item Number"
F 6 "NICOMATIC_RMS1" H 0   -75 50  0001 C CNN "Manufacturer"
F 7 "KEYSTONE ELECTRONICS CORP" H 0   -75 50  0001 C CNN "Manufacturer2"
F 8 "C12000B" H 0   -75 50  0001 C CNN "Manufacturer_No"
F 9 "5015" H 0   -75 50  0001 C CNN "Manufacturer_No2"
	1    8600 2275
	1    0    0    -1  
$EndComp
Wire Wire Line
	8500 2275 8500 2550
Wire Wire Line
	8600 2275 8600 2550
$Comp
L V_Crystal:Crystal Q3
U 1 1 5EC84088
P 6800 9700
F 0 "Q3" H 6800 9968 50  0000 C CNN
F 1 "12MHz" H 6800 9877 50  0000 C CNN
F 2 "powersupply-c:HC49-4HSMX" H 6800 9700 50  0001 C CNN
F 3 "https://www.jauch.com/downloadfile/5d5283ee24bc6cf48597071bde5f675e0/jauch_datasheet_j49sml.pdf" H 6800 9700 50  0001 C CNN
F 4 "CRYSTAL,QUARTZ, 12MHZ" H 6800 9700 50  0001 C CNN "Description"
F 5 "10022923" H 6800 9700 50  0001 C CNN "Item Number"
F 6 "JAUSCH" H 6800 9700 50  0001 C CNN "Manufacturer"
F 7 "J49SML-P-G-G-K-12M0" H 6800 9700 50  0001 C CNN "Manufacturer_No"
F 8 "ABRACON" H 0   0   50  0001 C CNN "Manufacturer2"
F 9 "XTAL036839" H 0   0   50  0001 C CNN "Manufacturer_No2"
	1    6800 9700
	1    0    0    -1  
$EndComp
$Comp
L V_Resistor:R0603_1M_1% R?
U 1 1 5EC89FFA
P 6800 9200
AR Path="/5E92767C/5EC89FFA" Ref="R?"  Part="1" 
AR Path="/5E9C3EF6/5EC89FFA" Ref="R104"  Part="1" 
F 0 "R104" V 7007 9200 50  0000 C CNN
F 1 "1M" V 6916 9200 50  0000 C CNN
F 2 "powersupply-c:R0603" V 6730 9200 50  0001 C CNN
F 3 "" H 6800 9200 50  0001 C CNN
F 4 "RESISTOR,1M OHM,0.063W,+/-1%,0603" V 6800 9200 50  0001 C CNN "Description"
F 5 "10022736" V 6800 9200 50  0001 C CNN "Item Number"
F 6 "YAGEO_RMS1" V 6800 9200 50  0001 C CNN "Manufacturer"
F 7 "RC0603FR-071ML" V 6800 9200 50  0001 C CNN "Manufacturer_No"
F 8 "YAGEO_RMS1" H 0   0   50  0001 C CNN "Manufacturer2"
F 9 "VISHAY_RMS1" H 0   0   50  0001 C CNN "Manufacturer3"
F 10 "RC0603FR-071ML" H 0   0   50  0001 C CNN "Manufacturer_No2"
F 11 "CRCW06031M00FKEA" H 0   0   50  0001 C CNN "Manufacturer_No3"
	1    6800 9200
	0    1    -1   0   
$EndComp
$Comp
L V_Resistor:R0603_2k7_1% R?
U 1 1 5EC8ABF7
P 6600 8750
AR Path="/5E92767C/5EC8ABF7" Ref="R?"  Part="1" 
AR Path="/5E9C3EF6/5EC8ABF7" Ref="R103"  Part="1" 
F 0 "R103" H 6530 8704 50  0000 R CNN
F 1 "2.7k" H 6530 8795 50  0000 R CNN
F 2 "powersupply-c:R0603" V 6530 8750 50  0001 C CNN
F 3 "https://www.bourns.com/docs/Product-Datasheets/CHPREZTR.pdf" H 6600 8750 50  0001 C CNN
F 4 "RESISTOR,2.7K OHM,0.063W,+/-1%,0603" V 6600 8750 50  0001 C CNN "Description"
F 5 "10022735" V 6600 8750 50  0001 C CNN "Item Number"
F 6 "BOURNS_RMS1" V 6600 8750 50  0001 C CNN "Manufacturer"
F 7 "CR0603-FX-2701ELF" V 6600 8750 50  0001 C CNN "Manufacturer_No"
F 8 "YAGEO_RMS1" H 0   0   50  0001 C CNN "Manufacturer2"
F 9 "YAGEO_RMS1" H 0   0   50  0001 C CNN "Manufacturer3"
F 10 "RC0603FR-072K7L" H 0   0   50  0001 C CNN "Manufacturer_No2"
F 11 "RC0603FR-072K7L" H 0   0   50  0001 C CNN "Manufacturer_No3"
	1    6600 8750
	-1   0    0    1   
$EndComp
$Comp
L V_Capacitor:C0603_22pF_50V_5% C94
U 1 1 5ECA7A73
P 6600 10050
F 0 "C94" H 6486 10004 50  0000 R CNN
F 1 "22pF" H 6486 10095 50  0000 R CNN
F 2 "powersupply-c:C0603" H 6638 9900 50  0001 C CNN
F 3 "https://static6.arrow.com/aropdfconversion/8bc1e5bbd83c2f034a2b39f6d114eb01dba9a95e/cl10c220jb8nnnc-19.pdf" H 6600 10050 50  0001 C CNN
F 4 "CAPACITOR CERAMIC,22PF,+/-5%,50V,0603" V 6600 10050 50  0001 C CNN "Description"
F 5 "10022632" V 6600 10050 50  0001 C CNN "Item Number"
F 6 "SAMSUNG_RMS1" V 6600 10050 50  0001 C CNN "Manufacturer"
F 7 "CL10C220JB8NNNC" V 6600 10050 50  0001 C CNN "Manufacturer_No"
F 8 "YAGEO_RMS1" H 0   0   50  0001 C CNN "Manufacturer2"
F 9 "YAGEO_RMS1" H 0   0   50  0001 C CNN "Manufacturer3"
F 10 "CC0603JRNPO9BN220" H 0   0   50  0001 C CNN "Manufacturer_No2"
F 11 "CC0603JRNPO9BN220" H 0   0   50  0001 C CNN "Manufacturer_No3"
	1    6600 10050
	1    0    0    1   
$EndComp
$Comp
L V_Capacitor:C0603_22pF_50V_5% C95
U 1 1 5ECA87A1
P 7000 10050
F 0 "C95" H 6885 10004 50  0000 R CNN
F 1 "22pF" H 6885 10095 50  0000 R CNN
F 2 "powersupply-c:C0603" H 7038 9900 50  0001 C CNN
F 3 "https://static6.arrow.com/aropdfconversion/8bc1e5bbd83c2f034a2b39f6d114eb01dba9a95e/cl10c220jb8nnnc-19.pdf" H 7000 10050 50  0001 C CNN
F 4 "CAPACITOR CERAMIC,22PF,+/-5%,50V,0603" V 7000 10050 50  0001 C CNN "Description"
F 5 "10022632" V 7000 10050 50  0001 C CNN "Item Number"
F 6 "SAMSUNG_RMS1" V 7000 10050 50  0001 C CNN "Manufacturer"
F 7 "CL10C220JB8NNNC" V 7000 10050 50  0001 C CNN "Manufacturer_No"
F 8 "YAGEO_RMS1" H 0   0   50  0001 C CNN "Manufacturer2"
F 9 "YAGEO_RMS1" H 0   0   50  0001 C CNN "Manufacturer3"
F 10 "CC0603JRNPO9BN220" H 0   0   50  0001 C CNN "Manufacturer_No2"
F 11 "CC0603JRNPO9BN220" H 0   0   50  0001 C CNN "Manufacturer_No3"
	1    7000 10050
	-1   0    0    1   
$EndComp
$Comp
L V_Power:GND #PWR0124
U 1 1 5ECA9A26
P 6800 10350
F 0 "#PWR0124" H 6800 10100 50  0001 C CNN
F 1 "GND" H 6805 10177 50  0000 C CNN
F 2 "" H 6800 10350 50  0001 C CNN
F 3 "" H 6800 10350 50  0001 C CNN
	1    6800 10350
	1    0    0    -1  
$EndComp
Wire Wire Line
	7000 10200 7000 10300
Wire Wire Line
	7000 10300 6800 10300
Wire Wire Line
	6600 10300 6600 10200
Wire Wire Line
	6800 10350 6800 10300
Connection ~ 6800 10300
Wire Wire Line
	6800 10300 6600 10300
Wire Wire Line
	6600 9900 6600 9700
Wire Wire Line
	7000 9700 6950 9700
Wire Wire Line
	6650 9700 6600 9700
Connection ~ 7000 9700
Wire Wire Line
	7000 9700 7000 9900
Connection ~ 6600 9700
Wire Wire Line
	6600 9700 6600 9200
Wire Wire Line
	6600 9200 6650 9200
Wire Wire Line
	6950 9200 7000 9200
Connection ~ 6600 9200
Wire Wire Line
	6600 9200 6600 8900
Connection ~ 7000 9200
Wire Wire Line
	7000 9200 7000 9700
Wire Wire Line
	7000 8450 7000 9200
Wire Wire Line
	6600 8450 6600 8600
Wire Wire Line
	6750 8250 6750 8450
Wire Wire Line
	6600 8450 6750 8450
Wire Wire Line
	6850 8250 6850 8450
Wire Wire Line
	6850 8450 7000 8450
$Comp
L V_Switch:MCDM(R)-02-T SW2
U 1 1 5ED2A4CB
P 6200 9200
F 0 "SW2" V 6246 9430 50  0000 L CNN
F 1 "MCDM(R)-02-T" V 6155 9430 50  0000 L CNN
F 2 "powersupply-c:MCDMR-02T" H 6200 9200 50  0001 C CNN
F 3 "" H 6200 9200 50  0001 C CNN
F 4 "DIL SWITCH, 2 WAY, SMD, 25MA" H 6200 9200 50  0001 C CNN "Description"
F 5 "10022931" H 6200 9200 50  0001 C CNN "Item Number"
F 6 "MULTICOMP                       (920630)" H 6200 9200 50  0001 C CNN "Manufacturer"
F 7 "MCDM(R)-02-T" H 6200 9200 50  0001 C CNN "Manufacturer_No"
F 8 "APEM COMPONENTS INC" H 0   0   50  0001 C CNN "Manufacturer2"
F 9 "APEM COMPONENTS INC" H 0   0   50  0001 C CNN "Manufacturer3"
F 10 "IKD0204101" H 0   0   50  0001 C CNN "Manufacturer_No2"
F 11 "IKD0203101" H 0   0   50  0001 C CNN "Manufacturer_No3"
	1    6200 9200
	0    -1   -1   0   
$EndComp
Wire Wire Line
	6200 8500 6450 8500
Wire Wire Line
	6450 8500 6450 8250
Wire Wire Line
	6350 8400 6100 8400
Wire Wire Line
	6350 8250 6350 8400
$Comp
L V_Diode:BAT54C D15
U 1 1 5ED4DEE9
P 3200 8850
F 0 "D15" V 3059 9038 50  0000 L CNN
F 1 "BAT54C" V 3150 9038 50  0000 L CNN
F 2 "powersupply-c:SOT23-1G" H 2925 8375 50  0001 L CNN
F 3 "https://assets.nexperia.com/documents/data-sheet/BAT54_SER.pdf" H 3120 8950 50  0001 C CNN
F 4 "DIODE SCHOTTKY DOUBLE,30V, 200MA,SOT23" H 3525 8675 60  0001 C CNN "Description"
F 5 "10022653" H 3200 8850 50  0001 C CNN "Item Number"
F 6 "NXP SEMICONDUCTORS_RMS1" H 0   0   50  0001 C CNN "Manufacturer"
F 7 "NXP SEMICONDUCTORS_RMS1" H 0   0   50  0001 C CNN "Manufacturer2"
F 8 "BAT54C,215" H 0   0   50  0001 C CNN "Manufacturer_No"
F 9 "BAT54C" H 0   0   50  0001 C CNN "Manufacturer_No2"
	1    3200 8850
	0    1    1    0   
$EndComp
$Comp
L V_IC:24LC512 IC17
U 1 1 5ED62242
P 3200 10000
F 0 "IC17" H 3300 10350 50  0000 C CNN
F 1 "24LC512" H 3400 10250 50  0000 C CNN
F 2 "powersupply-c:MX.A8M" H 3200 10000 50  0001 C CNN
F 3 "" H 3200 10000 50  0001 C CNN
F 4 "IC,EEPROM,2.5V-5.5V,12C SERIES, 64KBYTES, SOIC8" H 3200 10000 50  0001 C CNN "Description"
F 5 "10022900" H 3200 10000 50  0001 C CNN "Item Number"
F 6 "MICROCHIP TECHNOLOGY_RMS1" H 3200 10000 50  0001 C CNN "Manufacturer"
F 7 "24LC512-I/SM" H 3200 10000 50  0001 C CNN "Manufacturer_No"
F 8 "MICROCHIP TECHNOLOGY_RMS1" H 0   0   50  0001 C CNN "Manufacturer2"
F 9 "24LC512T-I/SM" H 0   0   50  0001 C CNN "Manufacturer_No2"
	1    3200 10000
	1    0    0    -1  
$EndComp
$Comp
L V_Resistor:R0603_10k_1%_10022548 R?
U 1 1 5ED6E2BC
P 4100 9200
AR Path="/5E92767C/5ED6E2BC" Ref="R?"  Part="1" 
AR Path="/5E9C3EF6/5ED6E2BC" Ref="R105"  Part="1" 
F 0 "R105" H 4031 9246 50  0000 R CNN
F 1 "10k" H 4031 9155 50  0000 R CNN
F 2 "powersupply-c:R0603" V 4030 9200 50  0001 C CNN
F 3 "" H 4100 9200 50  0001 C CNN
F 4 "RESISTOR,10K OHM.0.063W,+/-1%,0603" V 4100 9200 50  0001 C CNN "Description"
F 5 "10022548" V 4100 9200 50  0001 C CNN "Item Number"
F 6 "YAGEO_RMS1" V 4100 9200 50  0001 C CNN "Manufacturer"
F 7 "RC0603FR-0710KL" V 4100 9200 50  0001 C CNN "Manufacturer_No"
F 8 "SAMSUNG_RMS1" H 0   0   50  0001 C CNN "Manufacturer2"
F 9 "BOURNS_RMS1" H 0   0   50  0001 C CNN "Manufacturer3"
F 10 "RC1608F103CS" H 0   0   50  0001 C CNN "Manufacturer_No2"
F 11 "CR0603-FX-1002ELF" H 0   0   50  0001 C CNN "Manufacturer_No3"
	1    4100 9200
	1    0    0    -1  
$EndComp
Wire Wire Line
	6100 9500 6100 10000
Wire Wire Line
	6100 10000 4400 10000
Wire Wire Line
	3600 9900 4100 9900
Wire Wire Line
	6200 9900 6200 9500
$Comp
L V_Resistor:R0603_10k_1%_10022548 R?
U 1 1 5ED93C4D
P 4400 9200
AR Path="/5E92767C/5ED93C4D" Ref="R?"  Part="1" 
AR Path="/5E9C3EF6/5ED93C4D" Ref="R106"  Part="1" 
F 0 "R106" H 4470 9246 50  0000 L CNN
F 1 "10k" H 4470 9155 50  0000 L CNN
F 2 "powersupply-c:R0603" V 4330 9200 50  0001 C CNN
F 3 "" H 4400 9200 50  0001 C CNN
F 4 "RESISTOR,10K OHM.0.063W,+/-1%,0603" V 4400 9200 50  0001 C CNN "Description"
F 5 "10022548" V 4400 9200 50  0001 C CNN "Item Number"
F 6 "YAGEO_RMS1" V 4400 9200 50  0001 C CNN "Manufacturer"
F 7 "RC0603FR-0710KL" V 4400 9200 50  0001 C CNN "Manufacturer_No"
F 8 "SAMSUNG_RMS1" H 0   0   50  0001 C CNN "Manufacturer2"
F 9 "BOURNS_RMS1" H 0   0   50  0001 C CNN "Manufacturer3"
F 10 "RC1608F103CS" H 0   0   50  0001 C CNN "Manufacturer_No2"
F 11 "CR0603-FX-1002ELF" H 0   0   50  0001 C CNN "Manufacturer_No3"
	1    4400 9200
	1    0    0    -1  
$EndComp
Wire Wire Line
	4100 9900 4100 9350
Connection ~ 4100 9900
Wire Wire Line
	4100 9900 6200 9900
Wire Wire Line
	4400 10000 4400 9350
Connection ~ 4400 10000
Wire Wire Line
	4400 10000 3600 10000
Wire Wire Line
	3600 6600 3600 8550
Connection ~ 3600 8550
Wire Wire Line
	3600 8550 3300 8550
Wire Wire Line
	4100 8550 4400 8550
Connection ~ 4100 8550
Wire Wire Line
	3200 9050 3200 9150
$Comp
L V_Power:GND #PWR0125
U 1 1 5EDCFBF0
P 3200 10400
F 0 "#PWR0125" H 3200 10150 50  0001 C CNN
F 1 "GND" H 3205 10227 50  0000 C CNN
F 2 "" H 3200 10400 50  0001 C CNN
F 3 "" H 3200 10400 50  0001 C CNN
	1    3200 10400
	1    0    0    -1  
$EndComp
Wire Wire Line
	3200 10400 3200 10300
$Comp
L V_Power:GND #PWR0126
U 1 1 5EDDA1AB
P 2600 10300
F 0 "#PWR0126" H 2600 10050 50  0001 C CNN
F 1 "GND" H 2605 10127 50  0000 C CNN
F 2 "" H 2600 10300 50  0001 C CNN
F 3 "" H 2600 10300 50  0001 C CNN
	1    2600 10300
	1    0    0    -1  
$EndComp
Wire Wire Line
	2800 9900 2600 9900
Wire Wire Line
	2600 9900 2600 10000
Wire Wire Line
	2800 10000 2600 10000
Connection ~ 2600 10000
Wire Wire Line
	2600 10000 2600 10100
Wire Wire Line
	2800 10100 2600 10100
Connection ~ 2600 10100
Wire Wire Line
	2600 10100 2600 10300
$Comp
L V_Resistor:R0603_10k_1%_10022548 R?
U 1 1 5EDFB231
P 2850 9550
AR Path="/5E92767C/5EDFB231" Ref="R?"  Part="1" 
AR Path="/5E9C3EF6/5EDFB231" Ref="R68"  Part="1" 
F 0 "R68" V 2643 9550 50  0000 C CNN
F 1 "10k" V 2734 9550 50  0000 C CNN
F 2 "powersupply-c:R0603" V 2780 9550 50  0001 C CNN
F 3 "" H 2850 9550 50  0001 C CNN
F 4 "RESISTOR,10K OHM.0.063W,+/-1%,0603" V 2850 9550 50  0001 C CNN "Description"
F 5 "10022548" V 2850 9550 50  0001 C CNN "Item Number"
F 6 "YAGEO_RMS1" V 2850 9550 50  0001 C CNN "Manufacturer"
F 7 "RC0603FR-0710KL" V 2850 9550 50  0001 C CNN "Manufacturer_No"
F 8 "SAMSUNG_RMS1" H 0   0   50  0001 C CNN "Manufacturer2"
F 9 "BOURNS_RMS1" H 0   0   50  0001 C CNN "Manufacturer3"
F 10 "RC1608F103CS" H 0   0   50  0001 C CNN "Manufacturer_No2"
F 11 "CR0603-FX-1002ELF" H 0   0   50  0001 C CNN "Manufacturer_No3"
	1    2850 9550
	0    -1   1    0   
$EndComp
$Comp
L V_Capacitor:C0402_100nF_16V_10% C93
U 1 1 5EDFCF7E
P 2850 9150
F 0 "C93" V 2598 9150 50  0000 C CNN
F 1 "100nF" V 2689 9150 50  0000 C CNN
F 2 "powersupply-c:C0402" H 2888 9000 50  0001 C CNN
F 3 "https://www.yageo.com/upload/media/product/productsearch/datasheet/mlcc/UPY-GPHC_X7R_6.3V-to-50V_18.pdf" H 2850 9150 50  0001 C CNN
F 4 "CAPACITOR,100NF,16V,+/-10%,X7R,0402" V 2850 9150 50  0001 C CNN "Description"
F 5 "10022607" V 2850 9150 50  0001 C CNN "Item Number"
F 6 "YAGEO_RMS1" V 2850 9150 50  0001 C CNN "Manufacturer"
F 7 "CC0402KRX7R7BB104" V 2850 9150 50  0001 C CNN "Manufacturer_No"
F 8 "YAGEO_RMS1" H 0   0   50  0001 C CNN "Manufacturer2"
F 9 "MURATA MANUFACTURING CO., LTD." H 0   0   50  0001 C CNN "Manufacturer3"
F 10 "223878715649" H 0   0   50  0001 C CNN "Manufacturer_No2"
F 11 "GRM155R71C104KA88D" H 0   0   50  0001 C CNN "Manufacturer_No3"
	1    2850 9150
	0    -1   1    0   
$EndComp
Wire Wire Line
	4100 8550 4100 9050
Wire Wire Line
	4400 8550 4400 9050
Wire Wire Line
	6100 8400 6100 8900
Wire Wire Line
	6200 8500 6200 8900
Wire Wire Line
	3200 9550 3000 9550
Wire Wire Line
	2600 9550 2600 9900
Wire Wire Line
	2700 9550 2600 9550
Connection ~ 3200 9550
Wire Wire Line
	3200 9550 3200 9700
Connection ~ 2600 9900
Wire Wire Line
	3200 9150 3000 9150
Wire Wire Line
	2600 9150 2600 9550
Wire Wire Line
	2700 9150 2600 9150
Connection ~ 3200 9150
Wire Wire Line
	3200 9150 3200 9300
Connection ~ 2600 9550
$Comp
L V_Connector:Conn_01x06_Male J14
U 1 1 5EEB9886
P 1550 9650
F 0 "J14" H 1523 9578 50  0000 R CNN
F 1 "EEPROM LOADER" H 1522 9623 50  0001 R CNN
F 2 "powersupply-c:B4BZR-SM3TF" H 1550 9650 50  0001 C CNN
F 3 "" H 1550 9650 50  0001 C CNN
F 4 "ZH RIGHT CONNECTOR PINS 4 / 1.5 MM 1A/50V" H 1550 9650 50  0001 C CNN "Description"
F 5 "10022877" H 1550 9650 50  0001 C CNN "Item Number"
F 6 "J.S.T. CORPORATION" H 1550 9650 50  0001 C CNN "Manufacturer"
F 7 "B4B-ZR-SM4-TF (LF)(SN)" H 1550 9650 50  0001 C CNN "Manufacturer_No"
	1    1550 9650
	1    0    0    1   
$EndComp
$Comp
L V_Power:GND #PWR0127
U 1 1 5EEBB4A4
P 3750 10300
F 0 "#PWR0127" H 3750 10050 50  0001 C CNN
F 1 "GND" H 3755 10127 50  0000 C CNN
F 2 "" H 3750 10300 50  0001 C CNN
F 3 "" H 3750 10300 50  0001 C CNN
	1    3750 10300
	1    0    0    -1  
$EndComp
Wire Wire Line
	3750 10300 3750 10100
Wire Wire Line
	3750 10100 3600 10100
Wire Wire Line
	1750 9550 2000 9550
Wire Wire Line
	2000 9550 2000 8550
Wire Wire Line
	2000 8550 3100 8550
Wire Wire Line
	1750 9750 2150 9750
Wire Wire Line
	2150 9750 2150 10800
Wire Wire Line
	2150 10800 4100 10800
Wire Wire Line
	4100 10800 4100 9900
Wire Wire Line
	1750 9650 2250 9650
Wire Wire Line
	2250 9650 2250 10700
Wire Wire Line
	2250 10700 4400 10700
Wire Wire Line
	4400 10700 4400 10000
$Comp
L V_Power:GND #PWR0128
U 1 1 5EF401F9
P 2000 10050
F 0 "#PWR0128" H 2000 9800 50  0001 C CNN
F 1 "GND" H 2005 9877 50  0000 C CNN
F 2 "" H 2000 10050 50  0001 C CNN
F 3 "" H 2000 10050 50  0001 C CNN
	1    2000 10050
	1    0    0    -1  
$EndComp
Wire Wire Line
	2000 10050 2000 9850
Wire Wire Line
	2000 9850 1750 9850
$Comp
L V_IC:CY7C1021DV33 IC16
U 1 1 5EF6FC59
P 13350 7150
F 0 "IC16" H 13800 8150 50  0000 C CNN
F 1 "CY7C1021CV33" H 14000 8050 50  0000 C CNN
F 2 "powersupply-c:TSOP2-44" H 13350 6990 50  0001 C CNN
F 3 "" H 12500 7300 50  0001 C CNN
F 4 "IC,RAM,3V3,64KX16,10NS,TSOP" H 14600 3400 50  0001 C CNN "Description"
F 5 "10022899" H 14500 3500 50  0001 C CNN "Item Number"
F 6 "CYPRESS SEMICONDUCTOR CORPORATION" H 14650 3300 50  0001 C CNN "Manufacturer"
F 7 "CY7C1021DV33-10ZSXI" H 14600 3200 50  0001 C CNN "Manufacturer_No"
F 8 "CYPRESS SEMICONDUCTOR CORPORATION" H 0   0   50  0001 C CNN "Manufacturer2"
F 9 "CYPRESS SEMICONDUCTOR CORPORATION" H 0   0   50  0001 C CNN "Manufacturer3"
F 10 "CY7C1021CV33-12ZXI" H 0   0   50  0001 C CNN "Manufacturer_No2"
F 11 "CY7C1021DV33-10ZSXA" H 0   0   50  0001 C CNN "Manufacturer_No3"
	1    13350 7150
	1    0    0    -1  
$EndComp
Wire Wire Line
	12500 6600 12250 6600
Text Label 12250 6600 0    50   ~ 0
A1
Text Label 12250 6700 0    50   ~ 0
A2
Text Label 12250 6800 0    50   ~ 0
A3
Text Label 12250 6900 0    50   ~ 0
A4
Text Label 12250 7000 0    50   ~ 0
A5
Text Label 12250 7100 0    50   ~ 0
A6
Text Label 12250 7200 0    50   ~ 0
A7
Text Label 12250 7300 0    50   ~ 0
A8
Text Label 12250 7400 0    50   ~ 0
A9
Text Label 12250 7500 0    50   ~ 0
A10
Text Label 12250 7600 0    50   ~ 0
A11
Text Label 12250 7700 0    50   ~ 0
A12
Text Label 12250 7800 0    50   ~ 0
A13
Text Label 12250 7900 0    50   ~ 0
A14
Text Label 12250 8000 0    50   ~ 0
A15
Wire Wire Line
	12250 6700 12500 6700
Wire Wire Line
	12250 6800 12500 6800
Wire Wire Line
	12250 6900 12500 6900
Wire Wire Line
	12250 7000 12500 7000
Wire Wire Line
	12250 7100 12500 7100
Wire Wire Line
	12250 7200 12500 7200
Wire Wire Line
	12250 7300 12500 7300
Wire Wire Line
	12250 7400 12500 7400
Wire Wire Line
	12250 7500 12500 7500
Wire Wire Line
	12250 7600 12500 7600
Wire Wire Line
	12250 7700 12500 7700
Wire Wire Line
	12250 7800 12500 7800
Wire Wire Line
	12250 7900 12500 7900
Wire Wire Line
	12250 8000 12300 8000
Entry Wire Line
	12250 8000 12150 7900
Entry Wire Line
	12250 7900 12150 7800
Entry Wire Line
	12250 7800 12150 7700
Entry Wire Line
	12250 7700 12150 7600
Entry Wire Line
	12250 7600 12150 7500
Entry Wire Line
	12250 7500 12150 7400
Entry Wire Line
	12250 7400 12150 7300
Entry Wire Line
	12250 7300 12150 7200
Entry Wire Line
	12250 7200 12150 7100
Entry Wire Line
	12250 7100 12150 7000
Entry Wire Line
	12250 7000 12150 6900
Entry Wire Line
	12250 6900 12150 6800
Entry Wire Line
	12250 6800 12150 6700
Entry Wire Line
	12250 6700 12150 6600
Entry Wire Line
	12250 6600 12150 6500
Wire Bus Line
	12150 6400 12050 6300
Text Label 11700 6300 0    50   ~ 0
A[1..15]
Wire Bus Line
	11700 6300 12050 6300
Wire Wire Line
	14300 8100 14550 8100
Wire Wire Line
	14550 8000 14300 8000
Wire Wire Line
	14550 7900 14300 7900
Wire Wire Line
	14550 7800 14300 7800
Wire Wire Line
	14550 7700 14300 7700
Wire Wire Line
	14550 7600 14300 7600
Wire Wire Line
	14550 7500 14300 7500
Wire Wire Line
	14550 7400 14300 7400
Wire Wire Line
	14550 7300 14300 7300
Wire Wire Line
	14550 7200 14300 7200
Wire Wire Line
	14550 7100 14300 7100
Wire Wire Line
	14550 7000 14300 7000
Wire Wire Line
	14550 6900 14300 6900
Wire Wire Line
	14550 6800 14300 6800
Wire Wire Line
	14550 6700 14300 6700
Entry Wire Line
	14550 8100 14650 8000
Entry Wire Line
	14550 8000 14650 7900
Entry Wire Line
	14550 7900 14650 7800
Entry Wire Line
	14550 7800 14650 7700
Entry Wire Line
	14550 7700 14650 7600
Entry Wire Line
	14550 7600 14650 7500
Entry Wire Line
	14550 7500 14650 7400
Entry Wire Line
	14550 7400 14650 7300
Entry Wire Line
	14550 7300 14650 7200
Entry Wire Line
	14550 7200 14650 7100
Entry Wire Line
	14550 7100 14650 7000
Entry Wire Line
	14550 7000 14650 6900
Entry Wire Line
	14550 6900 14650 6800
Entry Wire Line
	14550 6800 14650 6700
Entry Wire Line
	14550 6700 14650 6600
Wire Bus Line
	14650 6500 14750 6400
Text Label 15100 6400 2    50   ~ 0
D[0..15]
Wire Bus Line
	15100 6400 14750 6400
Entry Wire Line
	14550 6600 14650 6500
Wire Wire Line
	14550 6600 14300 6600
Text Label 14550 6600 2    50   ~ 0
D0
Text Label 14550 6700 2    50   ~ 0
D1
Text Label 14550 6800 2    50   ~ 0
D2
Text Label 14550 6900 2    50   ~ 0
D3
Text Label 14550 7000 2    50   ~ 0
D4
Text Label 14550 7100 2    50   ~ 0
D5
Text Label 14550 7200 2    50   ~ 0
D6
Text Label 14550 7300 2    50   ~ 0
D7
Text Label 14550 7400 2    50   ~ 0
D8
Text Label 14550 7500 2    50   ~ 0
D9
Text Label 14550 7600 2    50   ~ 0
D10
Text Label 14550 7700 2    50   ~ 0
D11
Text Label 14550 7800 2    50   ~ 0
D12
Text Label 14550 7900 2    50   ~ 0
D13
Text Label 14550 8000 2    50   ~ 0
D14
Text Label 14550 8100 2    50   ~ 0
D15
$Comp
L V_Power:GND #PWR0129
U 1 1 5EFB09D6
P 12450 8250
F 0 "#PWR0129" H 12450 8000 50  0001 C CNN
F 1 "GND" H 12455 8077 50  0000 C CNN
F 2 "" H 12450 8250 50  0001 C CNN
F 3 "" H 12450 8250 50  0001 C CNN
	1    12450 8250
	1    0    0    -1  
$EndComp
Wire Wire Line
	12450 8250 12450 8100
Wire Wire Line
	12450 8100 12500 8100
Wire Wire Line
	10550 7850 10550 7950
$Comp
L V_Power:GND #PWR0130
U 1 1 5EFEC3AF
P 10550 8700
F 0 "#PWR0130" H 10550 8450 50  0001 C CNN
F 1 "GND" H 10555 8527 50  0000 C CNN
F 2 "" H 10550 8700 50  0001 C CNN
F 3 "" H 10550 8700 50  0001 C CNN
	1    10550 8700
	1    0    0    -1  
$EndComp
Wire Wire Line
	10550 8700 10550 8500
$Comp
L V_IC:74AHC1G08 IC2
U 1 1 5EFD8796
P 10550 8400
F 0 "IC2" H 10650 8650 50  0000 C CNN
F 1 "SN74AHC1G08" H 10850 8550 50  0000 C CNN
F 2 "powersupply-c:SOT23-5" H 10550 8400 50  0001 C CNN
F 3 "" H 10550 8400 50  0001 C CNN
F 4 "SINGLE 2 INPUT POSITIVE AND GATE, SOT23" H 10550 8400 50  0001 C CNN "Description"
F 5 "10022887" H 10550 8400 50  0001 C CNN "Item Number"
F 6 "TEXAS INSTRUMENTS_RMS1" H 10550 8400 50  0001 C CNN "Manufacturer"
F 7 "SN74AHC1G08DBVR" H 10550 8400 50  0001 C CNN "Manufacturer_No"
	1    10550 8400
	1    0    0    -1  
$EndComp
$Comp
L V_Capacitor:C0402_100nF_16V_10% C96
U 1 1 5F0525F3
P 10900 7950
F 0 "C96" V 11152 7950 50  0000 C CNN
F 1 "100nF" V 11061 7950 50  0000 C CNN
F 2 "powersupply-c:C0402" H 10938 7800 50  0001 C CNN
F 3 "https://www.yageo.com/upload/media/product/productsearch/datasheet/mlcc/UPY-GPHC_X7R_6.3V-to-50V_18.pdf" H 10900 7950 50  0001 C CNN
F 4 "CAPACITOR,100NF,16V,+/-10%,X7R,0402" V 10900 7950 50  0001 C CNN "Description"
F 5 "10022607" V 10900 7950 50  0001 C CNN "Item Number"
F 6 "YAGEO_RMS1" V 10900 7950 50  0001 C CNN "Manufacturer"
F 7 "CC0402KRX7R7BB104" V 10900 7950 50  0001 C CNN "Manufacturer_No"
F 8 "YAGEO_RMS1" H 0   0   50  0001 C CNN "Manufacturer2"
F 9 "MURATA MANUFACTURING CO., LTD." H 0   0   50  0001 C CNN "Manufacturer3"
F 10 "223878715649" H 0   0   50  0001 C CNN "Manufacturer_No2"
F 11 "GRM155R71C104KA88D" H 0   0   50  0001 C CNN "Manufacturer_No3"
	1    10900 7950
	0    1    -1   0   
$EndComp
$Comp
L V_Power:GND #PWR0131
U 1 1 5F06943F
P 11300 8000
F 0 "#PWR0131" H 11300 7750 50  0001 C CNN
F 1 "GND" H 11305 7827 50  0000 C CNN
F 2 "" H 11300 8000 50  0001 C CNN
F 3 "" H 11300 8000 50  0001 C CNN
	1    11300 8000
	1    0    0    -1  
$EndComp
Wire Wire Line
	11300 8000 11300 7950
Wire Wire Line
	11300 7950 11050 7950
Wire Wire Line
	10750 7950 10550 7950
Connection ~ 10550 7950
Wire Wire Line
	10550 7950 10550 8300
Wire Wire Line
	10800 8400 11000 8400
Wire Wire Line
	11000 8400 11000 9000
Wire Wire Line
	11000 9000 13150 9000
Wire Wire Line
	13150 9000 13150 8900
Wire Wire Line
	12200 8200 12300 8200
Wire Wire Line
	12300 8200 12300 8000
Connection ~ 12300 8000
Wire Wire Line
	12300 8000 12500 8000
Wire Wire Line
	11800 8200 11900 8200
Wire Wire Line
	11800 8050 11800 8200
Wire Wire Line
	8400 8250 8400 8350
Wire Wire Line
	9700 8450 10250 8450
Wire Wire Line
	13550 8900 13550 9100
Wire Wire Line
	13550 9100 8300 9100
Wire Wire Line
	8300 9100 8300 8250
Wire Wire Line
	13350 8900 13350 9200
Wire Wire Line
	13350 9200 8200 9200
Wire Wire Line
	8200 9200 8200 8250
Wire Wire Line
	13250 8900 13250 9300
Wire Wire Line
	13250 9300 8100 9300
Wire Wire Line
	8100 9300 8100 8250
Wire Wire Line
	13450 8900 13450 9400
Wire Wire Line
	13450 9400 8000 9400
Wire Wire Line
	8000 9400 8000 8250
$Comp
L V_Capacitor:C0402_100nF_16V_10% C92
U 1 1 5F1C0BC1
P 13350 5800
F 0 "C92" V 13602 5800 50  0000 C CNN
F 1 "100nF" V 13511 5800 50  0000 C CNN
F 2 "powersupply-c:C0402" H 13388 5650 50  0001 C CNN
F 3 "https://www.yageo.com/upload/media/product/productsearch/datasheet/mlcc/UPY-GPHC_X7R_6.3V-to-50V_18.pdf" H 13350 5800 50  0001 C CNN
F 4 "CAPACITOR,100NF,16V,+/-10%,X7R,0402" V 13350 5800 50  0001 C CNN "Description"
F 5 "10022607" V 13350 5800 50  0001 C CNN "Item Number"
F 6 "YAGEO_RMS1" V 13350 5800 50  0001 C CNN "Manufacturer"
F 7 "CC0402KRX7R7BB104" V 13350 5800 50  0001 C CNN "Manufacturer_No"
F 8 "YAGEO_RMS1" H 0   0   50  0001 C CNN "Manufacturer2"
F 9 "MURATA MANUFACTURING CO., LTD." H 0   0   50  0001 C CNN "Manufacturer3"
F 10 "223878715649" H 0   0   50  0001 C CNN "Manufacturer_No2"
F 11 "GRM155R71C104KA88D" H 0   0   50  0001 C CNN "Manufacturer_No3"
	1    13350 5800
	0    1    -1   0   
$EndComp
$Comp
L V_Capacitor:C0402_100nF_16V_10% C91
U 1 1 5F1D77C2
P 13350 5350
F 0 "C91" V 13602 5350 50  0000 C CNN
F 1 "100nF" V 13511 5350 50  0000 C CNN
F 2 "powersupply-c:C0402" H 13388 5200 50  0001 C CNN
F 3 "https://www.yageo.com/upload/media/product/productsearch/datasheet/mlcc/UPY-GPHC_X7R_6.3V-to-50V_18.pdf" H 13350 5350 50  0001 C CNN
F 4 "CAPACITOR,100NF,16V,+/-10%,X7R,0402" V 13350 5350 50  0001 C CNN "Description"
F 5 "10022607" V 13350 5350 50  0001 C CNN "Item Number"
F 6 "YAGEO_RMS1" V 13350 5350 50  0001 C CNN "Manufacturer"
F 7 "CC0402KRX7R7BB104" V 13350 5350 50  0001 C CNN "Manufacturer_No"
F 8 "YAGEO_RMS1" H 0   0   50  0001 C CNN "Manufacturer2"
F 9 "MURATA MANUFACTURING CO., LTD." H 0   0   50  0001 C CNN "Manufacturer3"
F 10 "223878715649" H 0   0   50  0001 C CNN "Manufacturer_No2"
F 11 "GRM155R71C104KA88D" H 0   0   50  0001 C CNN "Manufacturer_No3"
	1    13350 5350
	0    1    -1   0   
$EndComp
Wire Wire Line
	13050 6000 13050 5800
Wire Wire Line
	13050 5800 13150 5800
Wire Wire Line
	13200 5350 13150 5350
Wire Wire Line
	13150 5350 13150 5800
Connection ~ 13150 5800
Wire Wire Line
	13150 5800 13200 5800
Wire Wire Line
	13150 6000 13150 5800
Wire Wire Line
	13500 5350 13550 5350
Wire Wire Line
	13550 5350 13550 5800
Wire Wire Line
	13500 5800 13550 5800
Connection ~ 13550 5800
Wire Wire Line
	13550 5800 13550 6000
Wire Wire Line
	13550 5800 13650 5800
Wire Wire Line
	13650 5800 13650 6000
$Comp
L V_Power:GND #PWR0134
U 1 1 5F2B6B52
P 12750 5850
F 0 "#PWR0134" H 12750 5600 50  0001 C CNN
F 1 "GND" H 12755 5677 50  0000 C CNN
F 2 "" H 12750 5850 50  0001 C CNN
F 3 "" H 12750 5850 50  0001 C CNN
	1    12750 5850
	1    0    0    -1  
$EndComp
Wire Wire Line
	12750 5850 12750 5800
Wire Wire Line
	12750 5800 13050 5800
Connection ~ 13050 5800
Wire Wire Line
	13800 5750 13800 5800
Wire Wire Line
	13800 5800 13650 5800
Connection ~ 13650 5800
$Comp
L V_Connector:USB_A_4shield J12
U 1 1 5F2EF52D
P 15500 1250
AR Path="/5F2EF52D" Ref="J12"  Part="1" 
AR Path="/5E9C3EF6/5F2EF52D" Ref="J12"  Part="1" 
F 0 "J12" H 15270 1239 50  0000 R CNN
F 1 "USB_A" H 15270 1148 50  0000 R CNN
F 2 "powersupply-c:MOL47500-0001_100001100001100001100001100001100001100001100001" H 15650 1200 50  0001 C CNN
F 3 "https://www.molex.com/pdm_docs/sd/673298001_sd.pdf" H 15650 1200 50  0001 C CNN
F 4 "CONNECTOR USB A" H 15500 1250 50  0001 C CNN "Description"
F 5 "10022876" H 15500 1250 50  0001 C CNN "Item Number"
F 6 "MOLEX_RMS1" H 15500 1250 50  0001 C CNN "Manufacturer"
F 7 "67329-8001" H 15500 1250 50  0001 C CNN "Manufacturer_No"
	1    15500 1250
	-1   0    0    -1  
$EndComp
$Comp
L V_Inductor:DLP31SN551ML2L L9
U 1 1 5F327EC2
P 11800 1300
F 0 "L9" H 11800 1489 50  0000 C CNN
F 1 "DLP31SN551ML2L" H 11800 1580 50  0000 C CNN
F 2 "powersupply-c:DLP31S-AIROX" H 11800 1340 50  0001 C CNN
F 3 "https://www.murata.com/en-us/products/productdata/8796756410398/EFLE0007.pdf?1441769419000" H 11800 1340 50  0001 C CNN
F 4 "COMMON MODE CHOKE COIL 550OHM" H 11800 1300 50  0001 C CNN "Description"
F 5 "10039588" H 11800 1300 50  0001 C CNN "Item Number"
F 6 "MURATA_RMS1" H 11800 1300 50  0001 C CNN "Manufacturer"
F 7 "DLP31SN551ML2L" H 11800 1300 50  0001 C CNN "Manufacturer_No"
F 8 "MURATA_RMS1" H 0   0   50  0001 C CNN "Manufacturer2"
F 9 "DLP31SN551ML2L" H 0   0   50  0001 C CNN "Manufacturer_No2"
	1    11800 1300
	1    0    0    1   
$EndComp
Wire Wire Line
	15100 1250 15200 1250
Wire Wire Line
	15200 1350 15100 1350
Wire Wire Line
	11200 1200 11600 1200
Wire Wire Line
	11200 1400 11600 1400
$Comp
L V_Capacitor:C0402_100nF_16V_10% C123
U 1 1 5F58A776
P 14100 1850
F 0 "C123" H 14215 1896 50  0000 L CNN
F 1 "100nF" H 14215 1805 50  0000 L CNN
F 2 "powersupply-c:C0402" H 14138 1700 50  0001 C CNN
F 3 "https://www.yageo.com/upload/media/product/productsearch/datasheet/mlcc/UPY-GPHC_X7R_6.3V-to-50V_18.pdf" H 14100 1850 50  0001 C CNN
F 4 "CAPACITOR,100NF,16V,+/-10%,X7R,0402" V 14100 1850 50  0001 C CNN "Description"
F 5 "10022607" V 14100 1850 50  0001 C CNN "Item Number"
F 6 "YAGEO_RMS1" V 14100 1850 50  0001 C CNN "Manufacturer"
F 7 "CC0402KRX7R7BB104" V 14100 1850 50  0001 C CNN "Manufacturer_No"
F 8 "YAGEO_RMS1" H 0   0   50  0001 C CNN "Manufacturer2"
F 9 "MURATA MANUFACTURING CO., LTD." H 0   0   50  0001 C CNN "Manufacturer3"
F 10 "223878715649" H 0   0   50  0001 C CNN "Manufacturer_No2"
F 11 "GRM155R71C104KA88D" H 0   0   50  0001 C CNN "Manufacturer_No3"
	1    14100 1850
	1    0    0    -1  
$EndComp
$Comp
L V_Inductor:L_Core_Iron_10022913 L13
U 1 1 5F5BE291
P 13400 1050
F 0 "L13" V 13625 1050 50  0000 C CNN
F 1 "470nH" V 13534 1050 50  0000 C CNN
F 2 "powersupply-c:C1210" H 13400 1050 50  0001 C CNN
F 3 "" H 13400 1050 50  0001 C CNN
F 4 "INDUCTOR,470NH,450MA +/-20%,C1206" V 13400 1050 50  0001 C CNN "Description"
F 5 "10022913" V 13400 1050 50  0001 C CNN "Item Number"
F 6 "WURTH ELEKTRONIK GMBH" V 13400 1050 50  0001 C CNN "Manufacturer"
F 7 "744764004" V 13400 1050 50  0001 C CNN "Manufacturer_No"
	1    13400 1050
	0    -1   -1   0   
$EndComp
$Comp
L V_Varistor:Varistor_10022926 ML6
U 1 1 5F5F17B5
P 14600 1850
F 0 "ML6" H 14703 1850 50  0000 L CNN
F 1 "B72500T0040M060" H 14703 1850 50  0001 L CNN
F 2 "powersupply-c:R0603" V 14530 1850 50  0001 C CNN
F 3 "" H 14600 1850 50  0001 C CNN
F 4 "SMD VARISTOR, 5.5V,C0603" H 14600 1850 50  0001 C CNN "Description"
F 5 "10022926" H 14600 1850 50  0001 C CNN "Item Number"
F 6 "EPCOS_RMS1" H 0   0   50  0001 C CNN "Manufacturer"
F 7 "B72500T0040M060" H 0   0   50  0001 C CNN "Manufacturer_No"
	1    14600 1850
	1    0    0    1   
$EndComp
$Comp
L V_Capacitor:C0402_47pF_50V_5% C130
U 1 1 5F68ABBC
P 12300 1850
F 0 "C130" H 12415 1896 50  0000 L CNN
F 1 "47pF" H 12415 1805 50  0000 L CNN
F 2 "powersupply-c:C0402" H 12338 1700 50  0001 C CNN
F 3 "" H 12300 1850 50  0001 C CNN
F 4 "CAPACITOR,47 PF,+/-5%,50V,0402" V 12300 1850 50  0001 C CNN "Description"
F 5 "10022623" V 12300 1850 50  0001 C CNN "Item Number"
F 6 "MURATA MANUFACTURING CO., LTD." V 12300 1850 50  0001 C CNN "Manufacturer"
F 7 "GRM1555C1H470JA01D" V 12300 1850 50  0001 C CNN "Manufacturer_No"
F 8 "SAMSUNG_RMS1" H 0   0   50  0001 C CNN "Manufacturer2"
F 9 "KEMET_RMS1" H 0   0   50  0001 C CNN "Manufacturer3"
F 10 "CL05C470JB5NNNC" H 0   0   50  0001 C CNN "Manufacturer_No2"
F 11 "C0402C470J5GACTU" H 0   0   50  0001 C CNN "Manufacturer_No3"
	1    12300 1850
	1    0    0    -1  
$EndComp
Wire Wire Line
	15500 2350 15500 2000
Wire Wire Line
	15600 1650 15600 1850
Wire Wire Line
	15600 1850 15500 1850
Connection ~ 15500 1850
Wire Wire Line
	15500 1850 15500 1650
Wire Wire Line
	15200 1050 15150 1050
Wire Wire Line
	13250 1050 10850 1050
Wire Wire Line
	12300 1700 12300 1550
Wire Wire Line
	12300 1550 12800 1550
Wire Wire Line
	12800 1550 12800 1700
Wire Wire Line
	13200 1700 13200 1550
Wire Wire Line
	13200 1550 13700 1550
Wire Wire Line
	13700 1550 13700 1700
Wire Wire Line
	14100 1700 14100 1550
Wire Wire Line
	14100 1550 14600 1550
Wire Wire Line
	14600 1550 14600 1700
Wire Wire Line
	14600 1550 14600 1050
Connection ~ 14600 1550
Connection ~ 14600 1050
Wire Wire Line
	14600 1050 13550 1050
Wire Wire Line
	12300 2350 12300 2000
Wire Wire Line
	12800 2000 12800 2350
Connection ~ 12800 2350
Wire Wire Line
	12800 2350 12300 2350
Wire Wire Line
	13200 2000 13200 2350
Connection ~ 13200 2350
Wire Wire Line
	13200 2350 12800 2350
Wire Wire Line
	13700 2000 13700 2350
Connection ~ 13700 2350
Wire Wire Line
	13700 2350 13200 2350
Wire Wire Line
	14100 2000 14100 2350
Connection ~ 14100 2350
Wire Wire Line
	14100 2350 13700 2350
Wire Wire Line
	14600 2000 14600 2350
Connection ~ 14600 2350
Wire Wire Line
	14600 2350 14100 2350
$Comp
L V_Diode:D_TVS_10022946 PG4
U 1 1 5F8F395A
P 12800 1850
F 0 "PG4" V 12800 1929 50  0000 L CNN
F 1 "82356050050" V 12845 1929 50  0001 L CNN
F 2 "powersupply-c:R0603" H 12800 1850 50  0001 C CNN
F 3 "" H 12800 1850 50  0001 C CNN
F 4 "VARISTOR, CMS PROTECTION ESD SURGE SUPPRESSOR,C0603" H 12800 1850 50  0001 C CNN "Description"
F 5 "10022946" H 12800 1850 50  0001 C CNN "Item Number"
F 6 "WURTH ELEKTRONIK GMBH" H 0   0   50  0001 C CNN "Manufacturer"
F 7 "82356050050" H 0   0   50  0001 C CNN "Manufacturer_No"
	1    12800 1850
	0    1    1    0   
$EndComp
$Comp
L V_Diode:D_TVS_10022946 PG3
U 1 1 5F8F54F2
P 13700 1850
F 0 "PG3" V 13700 1929 50  0000 L CNN
F 1 "82356050050" V 13745 1929 50  0001 L CNN
F 2 "powersupply-c:R0603" H 13700 1850 50  0001 C CNN
F 3 "" H 13700 1850 50  0001 C CNN
F 4 "VARISTOR, CMS PROTECTION ESD SURGE SUPPRESSOR,C0603" H 13700 1850 50  0001 C CNN "Description"
F 5 "10022946" H 13700 1850 50  0001 C CNN "Item Number"
F 6 "WURTH ELEKTRONIK GMBH" H 0   0   50  0001 C CNN "Manufacturer"
F 7 "82356050050" H 0   0   50  0001 C CNN "Manufacturer_No"
	1    13700 1850
	0    1    -1   0   
$EndComp
$Comp
L V_Inductor:Ferrite_Bead_Small_10039587 L25
U 1 1 5F8F9603
P 14950 2350
F 0 "L25" V 14676 2350 50  0000 C CNN
F 1 "220" V 14767 2350 50  0000 C CNN
F 2 "powersupply-c:C0805-AIROX-BLM21PG221SH1" V 14880 2350 50  0001 C CNN
F 3 "https://www.murata.com/en-us/products/en-us/products/productdata/8796740354078/QNFA9102.pdf" H 14950 2350 50  0001 C CNN
F 4 "FERRITE, SMD, 220OHM 0805" V 14950 2350 50  0001 C CNN "Description"
F 5 "10039587" V 14950 2350 50  0001 C CNN "Item Number"
F 6 "MURATA_RMS1" V 14950 2350 50  0001 C CNN "Manufacturer"
F 7 "BLM21PG221SH1D" V 14950 2350 50  0001 C CNN "Manufacturer_No"
F 8 "MURATA_RMS1" H 0   0   50  0001 C CNN "Manufacturer2"
F 9 "MURATA_RMS1" H 0   0   50  0001 C CNN "Manufacturer3"
F 10 "BLM21PG221SH1J" H 0   0   50  0001 C CNN "Manufacturer_No2"
F 11 "BLM21PG221SH1D" H 0   0   50  0001 C CNN "Manufacturer_No3"
	1    14950 2350
	0    -1   1    0   
$EndComp
$Comp
L V_Capacitor:C0402_47pF_50V_5% C129
U 1 1 5F8FC6C6
P 13200 1850
F 0 "C129" H 13315 1896 50  0000 L CNN
F 1 "47pF" H 13315 1805 50  0000 L CNN
F 2 "powersupply-c:C0402" H 13238 1700 50  0001 C CNN
F 3 "" H 13200 1850 50  0001 C CNN
F 4 "CAPACITOR,47 PF,+/-5%,50V,0402" V 13200 1850 50  0001 C CNN "Description"
F 5 "10022623" V 13200 1850 50  0001 C CNN "Item Number"
F 6 "MURATA MANUFACTURING CO., LTD." V 13200 1850 50  0001 C CNN "Manufacturer"
F 7 "GRM1555C1H470JA01D" V 13200 1850 50  0001 C CNN "Manufacturer_No"
F 8 "SAMSUNG_RMS1" H 0   0   50  0001 C CNN "Manufacturer2"
F 9 "KEMET_RMS1" H 0   0   50  0001 C CNN "Manufacturer3"
F 10 "CL05C470JB5NNNC" H 0   0   50  0001 C CNN "Manufacturer_No2"
F 11 "C0402C470J5GACTU" H 0   0   50  0001 C CNN "Manufacturer_No3"
	1    13200 1850
	1    0    0    -1  
$EndComp
$Comp
L V_Fuse:Polyfuse PCT1
U 1 1 5F91ED41
P 10050 1050
F 0 "PCT1" V 9825 1050 50  0000 C CNN
F 1 "MS-MSMF110" V 9916 1050 50  0000 C CNN
F 2 "powersupply-c:C1812" H 10100 850 50  0001 L CNN
F 3 "" H 10050 1050 50  0001 C CNN
F 4 "RESETTABLE FUSE, 1.1A,C1812" H 10050 1050 50  0001 C CNN "Description"
F 5 "10022928" V 10050 1050 50  0001 C CNN "Item Number"
F 6 "BOURNS_RMS1" H 0   0   50  0001 C CNN "Manufacturer"
F 7 "MF-MSMF-110-2" H 0   0   50  0001 C CNN "Manufacturer_No"
	1    10050 1050
	0    -1   1    0   
$EndComp
$Comp
L V_Power:+5V #PWR0136
U 1 1 5F9216E3
P 9450 950
F 0 "#PWR0136" H 9450 800 50  0001 C CNN
F 1 "+5V" H 9465 1123 50  0000 C CNN
F 2 "" H 9450 950 50  0001 C CNN
F 3 "" H 9450 950 50  0001 C CNN
	1    9450 950 
	1    0    0    -1  
$EndComp
Wire Wire Line
	9450 950  9450 1050
Wire Wire Line
	9450 1050 9900 1050
$Comp
L V_Connector:USB_A_4shield J13
U 1 1 5F94AF33
P 15500 3150
AR Path="/5F94AF33" Ref="J13"  Part="1" 
AR Path="/5E9C3EF6/5F94AF33" Ref="J13"  Part="1" 
F 0 "J13" H 15270 3139 50  0000 R CNN
F 1 "USB_A" H 15270 3048 50  0000 R CNN
F 2 "powersupply-c:MOL47500-0001_100001100001100001100001100001100001100001100001" H 15650 3100 50  0001 C CNN
F 3 "https://www.molex.com/pdm_docs/sd/673298001_sd.pdf" H 15650 3100 50  0001 C CNN
F 4 "CONNECTOR USB A" H 15500 3150 50  0001 C CNN "Description"
F 5 "10022876" H 15500 3150 50  0001 C CNN "Item Number"
F 6 "MOLEX_RMS1" H 15500 3150 50  0001 C CNN "Manufacturer"
F 7 "67329-8001" H 15500 3150 50  0001 C CNN "Manufacturer_No"
	1    15500 3150
	-1   0    0    -1  
$EndComp
$Comp
L V_Inductor:DLP31SN551ML2L L11
U 1 1 5F94AF3D
P 11800 3200
F 0 "L11" H 11800 3389 50  0000 C CNN
F 1 "DLP31SN551ML2L" H 11800 3480 50  0000 C CNN
F 2 "powersupply-c:DLP31S-AIROX" H 11800 3240 50  0001 C CNN
F 3 "https://www.murata.com/en-us/products/productdata/8796756410398/EFLE0007.pdf?1441769419000" H 11800 3240 50  0001 C CNN
F 4 "COMMON MODE CHOKE COIL 550OHM" H 11800 3200 50  0001 C CNN "Description"
F 5 "10039588" H 11800 3200 50  0001 C CNN "Item Number"
F 6 "MURATA_RMS1" H 11800 3200 50  0001 C CNN "Manufacturer"
F 7 "DLP31SN551ML2L" H 11800 3200 50  0001 C CNN "Manufacturer_No"
F 8 "MURATA_RMS1" H 0   0   50  0001 C CNN "Manufacturer2"
F 9 "DLP31SN551ML2L" H 0   0   50  0001 C CNN "Manufacturer_No2"
	1    11800 3200
	1    0    0    1   
$EndComp
Wire Wire Line
	12000 3300 12800 3300
Wire Wire Line
	12000 3100 13700 3100
Wire Wire Line
	15100 3150 15200 3150
Wire Wire Line
	15200 3250 15100 3250
Wire Wire Line
	11200 3100 11600 3100
Wire Wire Line
	11200 3300 11600 3300
$Comp
L V_Capacitor:C0402_100nF_16V_10% C122
U 1 1 5F94AF51
P 14100 3750
F 0 "C122" H 14215 3796 50  0000 L CNN
F 1 "100nF" H 14215 3705 50  0000 L CNN
F 2 "powersupply-c:C0402" H 14138 3600 50  0001 C CNN
F 3 "https://www.yageo.com/upload/media/product/productsearch/datasheet/mlcc/UPY-GPHC_X7R_6.3V-to-50V_18.pdf" H 14100 3750 50  0001 C CNN
F 4 "CAPACITOR,100NF,16V,+/-10%,X7R,0402" V 14100 3750 50  0001 C CNN "Description"
F 5 "10022607" V 14100 3750 50  0001 C CNN "Item Number"
F 6 "YAGEO_RMS1" V 14100 3750 50  0001 C CNN "Manufacturer"
F 7 "CC0402KRX7R7BB104" V 14100 3750 50  0001 C CNN "Manufacturer_No"
F 8 "YAGEO_RMS1" H 0   0   50  0001 C CNN "Manufacturer2"
F 9 "MURATA MANUFACTURING CO., LTD." H 0   0   50  0001 C CNN "Manufacturer3"
F 10 "223878715649" H 0   0   50  0001 C CNN "Manufacturer_No2"
F 11 "GRM155R71C104KA88D" H 0   0   50  0001 C CNN "Manufacturer_No3"
	1    14100 3750
	1    0    0    -1  
$EndComp
$Comp
L V_Inductor:Ferrite_Bead_Small_10039587 L24
U 1 1 5F94AF5B
P 14775 2950
F 0 "L24" V 14501 2950 50  0000 C CNN
F 1 "220" V 14592 2950 50  0000 C CNN
F 2 "powersupply-c:C0805-AIROX-BLM21PG221SH1" V 14705 2950 50  0001 C CNN
F 3 "https://www.murata.com/en-us/products/en-us/products/productdata/8796740354078/QNFA9102.pdf" H 14775 2950 50  0001 C CNN
F 4 "FERRITE, SMD, 220OHM 0805" V 14775 2950 50  0001 C CNN "Description"
F 5 "10039587" V 14775 2950 50  0001 C CNN "Item Number"
F 6 "MURATA_RMS1" V 14775 2950 50  0001 C CNN "Manufacturer"
F 7 "BLM21PG221SH1D" V 14775 2950 50  0001 C CNN "Manufacturer_No"
F 8 "MURATA_RMS1" H -175 0   50  0001 C CNN "Manufacturer2"
F 9 "MURATA_RMS1" H -175 0   50  0001 C CNN "Manufacturer3"
F 10 "BLM21PG221SH1J" H -175 0   50  0001 C CNN "Manufacturer_No2"
F 11 "BLM21PG221SH1D" H -175 0   50  0001 C CNN "Manufacturer_No3"
	1    14775 2950
	0    -1   1    0   
$EndComp
$Comp
L V_Inductor:L_Core_Iron_10022913 L14
U 1 1 5F94AF65
P 13400 2950
F 0 "L14" V 13625 2950 50  0000 C CNN
F 1 "470nH" V 13534 2950 50  0000 C CNN
F 2 "powersupply-c:C1210" H 13400 2950 50  0001 C CNN
F 3 "" H 13400 2950 50  0001 C CNN
F 4 "INDUCTOR,470NH,450MA +/-20%,C1206" V 13400 2950 50  0001 C CNN "Description"
F 5 "10022913" V 13400 2950 50  0001 C CNN "Item Number"
F 6 "WURTH ELEKTRONIK GMBH" V 13400 2950 50  0001 C CNN "Manufacturer"
F 7 "744764004" V 13400 2950 50  0001 C CNN "Manufacturer_No"
	1    13400 2950
	0    -1   -1   0   
$EndComp
$Comp
L V_Varistor:Varistor_10022926 ML8
U 1 1 5F94AF71
P 14600 3750
F 0 "ML8" H 14703 3750 50  0000 L CNN
F 1 "B72500T0040M060" H 14703 3750 50  0001 L CNN
F 2 "powersupply-c:R0603" V 14530 3750 50  0001 C CNN
F 3 "" H 14600 3750 50  0001 C CNN
F 4 "SMD VARISTOR, 5.5V,C0603" H 14600 3750 50  0001 C CNN "Description"
F 5 "10022926" H 14600 3750 50  0001 C CNN "Item Number"
F 6 "EPCOS_RMS1" H 0   0   50  0001 C CNN "Manufacturer"
F 7 "B72500T0040M060" H 0   0   50  0001 C CNN "Manufacturer_No"
	1    14600 3750
	1    0    0    1   
$EndComp
$Comp
L V_Capacitor:C0402_47pF_50V_5% C120
U 1 1 5F94AF7B
P 12300 3750
F 0 "C120" H 12415 3796 50  0000 L CNN
F 1 "47pF" H 12415 3705 50  0000 L CNN
F 2 "powersupply-c:C0402" H 12338 3600 50  0001 C CNN
F 3 "" H 12300 3750 50  0001 C CNN
F 4 "CAPACITOR,47 PF,+/-5%,50V,0402" V 12300 3750 50  0001 C CNN "Description"
F 5 "10022623" V 12300 3750 50  0001 C CNN "Item Number"
F 6 "MURATA MANUFACTURING CO., LTD." V 12300 3750 50  0001 C CNN "Manufacturer"
F 7 "GRM1555C1H470JA01D" V 12300 3750 50  0001 C CNN "Manufacturer_No"
F 8 "SAMSUNG_RMS1" H 0   0   50  0001 C CNN "Manufacturer2"
F 9 "KEMET_RMS1" H 0   0   50  0001 C CNN "Manufacturer3"
F 10 "CL05C470JB5NNNC" H 0   0   50  0001 C CNN "Manufacturer_No2"
F 11 "C0402C470J5GACTU" H 0   0   50  0001 C CNN "Manufacturer_No3"
	1    12300 3750
	1    0    0    -1  
$EndComp
Wire Wire Line
	15500 4250 15500 3900
Wire Wire Line
	15600 3550 15600 3750
Wire Wire Line
	15600 3750 15500 3750
Connection ~ 15500 3750
Wire Wire Line
	15500 3750 15500 3550
Wire Wire Line
	15200 2950 15150 2950
Wire Wire Line
	13250 2950 10850 2950
Wire Wire Line
	12300 3600 12300 3450
Wire Wire Line
	12300 3450 12800 3450
Wire Wire Line
	12800 3450 12800 3600
Wire Wire Line
	12800 3450 12800 3300
Connection ~ 12800 3450
Connection ~ 12800 3300
Wire Wire Line
	13200 3600 13200 3450
Wire Wire Line
	13200 3450 13700 3450
Wire Wire Line
	13700 3450 13700 3600
Wire Wire Line
	13700 3450 13700 3100
Connection ~ 13700 3450
Connection ~ 13700 3100
Wire Wire Line
	14100 3600 14100 3450
Wire Wire Line
	14100 3450 14600 3450
Wire Wire Line
	14600 3450 14600 3600
Wire Wire Line
	14600 3450 14600 2950
Connection ~ 14600 3450
Connection ~ 14600 2950
Wire Wire Line
	14600 2950 13550 2950
Wire Wire Line
	12300 4250 12300 3900
Wire Wire Line
	12800 3900 12800 4250
Connection ~ 12800 4250
Wire Wire Line
	13200 3900 13200 4250
Connection ~ 13200 4250
Wire Wire Line
	13200 4250 12800 4250
Wire Wire Line
	13700 3900 13700 4250
Connection ~ 13700 4250
Wire Wire Line
	13700 4250 13200 4250
Wire Wire Line
	14100 3900 14100 4250
Connection ~ 14100 4250
Wire Wire Line
	14100 4250 13700 4250
Wire Wire Line
	14600 3900 14600 4250
Connection ~ 14600 4250
Wire Wire Line
	14600 4250 14100 4250
$Comp
L V_Diode:D_TVS_10022946 PG6
U 1 1 5F94AFB5
P 12800 3750
F 0 "PG6" V 12800 3829 50  0000 L CNN
F 1 "82356050050" V 12845 3829 50  0001 L CNN
F 2 "powersupply-c:R0603" H 12800 3750 50  0001 C CNN
F 3 "" H 12800 3750 50  0001 C CNN
F 4 "VARISTOR, CMS PROTECTION ESD SURGE SUPPRESSOR,C0603" H 12800 3750 50  0001 C CNN "Description"
F 5 "10022946" H 12800 3750 50  0001 C CNN "Item Number"
F 6 "WURTH ELEKTRONIK GMBH" H 0   0   50  0001 C CNN "Manufacturer"
F 7 "82356050050" H 0   0   50  0001 C CNN "Manufacturer_No"
	1    12800 3750
	0    1    1    0   
$EndComp
$Comp
L V_Diode:D_TVS_10022946 PG5
U 1 1 5F94AFC0
P 13700 3750
F 0 "PG5" V 13700 3829 50  0000 L CNN
F 1 "82356050050" V 13745 3829 50  0001 L CNN
F 2 "powersupply-c:R0603" H 13700 3750 50  0001 C CNN
F 3 "" H 13700 3750 50  0001 C CNN
F 4 "VARISTOR, CMS PROTECTION ESD SURGE SUPPRESSOR,C0603" H 13700 3750 50  0001 C CNN "Description"
F 5 "10022946" H 13700 3750 50  0001 C CNN "Item Number"
F 6 "WURTH ELEKTRONIK GMBH" H 0   0   50  0001 C CNN "Manufacturer"
F 7 "82356050050" H 0   0   50  0001 C CNN "Manufacturer_No"
	1    13700 3750
	0    1    -1   0   
$EndComp
$Comp
L V_Inductor:Ferrite_Bead_Small_10039587 L26
U 1 1 5F94AFCA
P 14950 4250
F 0 "L26" V 14676 4250 50  0000 C CNN
F 1 "220" V 14767 4250 50  0000 C CNN
F 2 "powersupply-c:C0805-AIROX-BLM21PG221SH1" V 14880 4250 50  0001 C CNN
F 3 "https://www.murata.com/en-us/products/en-us/products/productdata/8796740354078/QNFA9102.pdf" H 14950 4250 50  0001 C CNN
F 4 "FERRITE, SMD, 220OHM 0805" V 14950 4250 50  0001 C CNN "Description"
F 5 "10039587" V 14950 4250 50  0001 C CNN "Item Number"
F 6 "MURATA_RMS1" V 14950 4250 50  0001 C CNN "Manufacturer"
F 7 "BLM21PG221SH1D" V 14950 4250 50  0001 C CNN "Manufacturer_No"
F 8 "MURATA_RMS1" H 0   0   50  0001 C CNN "Manufacturer2"
F 9 "MURATA_RMS1" H 0   0   50  0001 C CNN "Manufacturer3"
F 10 "BLM21PG221SH1J" H 0   0   50  0001 C CNN "Manufacturer_No2"
F 11 "BLM21PG221SH1D" H 0   0   50  0001 C CNN "Manufacturer_No3"
	1    14950 4250
	0    -1   1    0   
$EndComp
$Comp
L V_Capacitor:C0402_47pF_50V_5% C121
U 1 1 5F94AFD4
P 13200 3750
F 0 "C121" H 13315 3796 50  0000 L CNN
F 1 "47pF" H 13315 3705 50  0000 L CNN
F 2 "powersupply-c:C0402" H 13238 3600 50  0001 C CNN
F 3 "" H 13200 3750 50  0001 C CNN
F 4 "CAPACITOR,47 PF,+/-5%,50V,0402" V 13200 3750 50  0001 C CNN "Description"
F 5 "10022623" V 13200 3750 50  0001 C CNN "Item Number"
F 6 "MURATA MANUFACTURING CO., LTD." V 13200 3750 50  0001 C CNN "Manufacturer"
F 7 "GRM1555C1H470JA01D" V 13200 3750 50  0001 C CNN "Manufacturer_No"
F 8 "SAMSUNG_RMS1" H 0   0   50  0001 C CNN "Manufacturer2"
F 9 "KEMET_RMS1" H 0   0   50  0001 C CNN "Manufacturer3"
F 10 "CL05C470JB5NNNC" H 0   0   50  0001 C CNN "Manufacturer_No2"
F 11 "C0402C470J5GACTU" H 0   0   50  0001 C CNN "Manufacturer_No3"
	1    13200 3750
	1    0    0    -1  
$EndComp
Wire Wire Line
	10850 2950 10850 1050
Connection ~ 10850 1050
Wire Wire Line
	10850 1050 10450 1050
Text Label 4250 5900 0    50   ~ 0
DP1B
Text Label 4250 6000 0    50   ~ 0
DM1B
Text Label 4250 5700 0    50   ~ 0
NXROMSEL
Text Label 8100 2150 3    50   ~ 0
DM1A
Text Label 8200 2150 3    50   ~ 0
DP1A
Text Label 11200 1200 0    50   ~ 0
DM1A
Text Label 11200 1400 0    50   ~ 0
DP1A
Text Label 11200 3100 0    50   ~ 0
DM1B
Text Label 11200 3300 0    50   ~ 0
DP1B
Text Label 9700 8450 0    50   ~ 0
NXROMSEL
NoConn ~ 1750 9450
NoConn ~ 1750 9350
Wire Wire Line
	12000 1200 13700 1200
Wire Wire Line
	12000 1400 12800 1400
Wire Wire Line
	12800 1550 12800 1400
Connection ~ 12800 1550
Connection ~ 12800 1400
Wire Wire Line
	13700 1550 13700 1200
Connection ~ 13700 1550
Connection ~ 13700 1200
Wire Wire Line
	15100 1200 15100 1250
Wire Wire Line
	13700 1200 15100 1200
Wire Wire Line
	15100 1400 15100 1350
Wire Wire Line
	12800 1400 15100 1400
Wire Wire Line
	15100 3100 15100 3150
Wire Wire Line
	13700 3100 15100 3100
Wire Wire Line
	15100 3300 15100 3250
Wire Wire Line
	12800 3300 15100 3300
$Comp
L V_Power:GND #PWR0282
U 1 1 5EE3DD03
P 12300 2400
F 0 "#PWR0282" H 12300 2150 50  0001 C CNN
F 1 "GND" H 12305 2227 50  0000 C CNN
F 2 "" H 12300 2400 50  0001 C CNN
F 3 "" H 12300 2400 50  0001 C CNN
	1    12300 2400
	1    0    0    -1  
$EndComp
Wire Wire Line
	12300 2400 12300 2350
Connection ~ 12300 2350
$Comp
L V_Power:GND #PWR0283
U 1 1 5EE65FEA
P 12300 4300
F 0 "#PWR0283" H 12300 4050 50  0001 C CNN
F 1 "GND" H 12305 4127 50  0000 C CNN
F 2 "" H 12300 4300 50  0001 C CNN
F 3 "" H 12300 4300 50  0001 C CNN
	1    12300 4300
	1    0    0    -1  
$EndComp
Wire Wire Line
	12300 4300 12300 4250
Connection ~ 12300 4250
Wire Wire Line
	12300 4250 12800 4250
$Comp
L V_Resistor:R0603_47k_1% R8
U 1 1 5F20A20B
P 4250 3200
F 0 "R8" H 4180 3154 50  0000 R CNN
F 1 "47k" H 4180 3245 50  0000 R CNN
F 2 "powersupply-c:R0603" V 4180 3200 50  0001 C CNN
F 3 "" H 4250 3200 50  0001 C CNN
F 4 "RESISTOR,47K OHM,0.063W,+/-1%,0603" H 4250 3200 50  0001 C CNN "Description"
F 5 "10022734" H 4250 3200 50  0001 C CNN "Item Number"
F 6 "YAGEO_RMS1" H 0   0   50  0001 C CNN "Manufacturer"
F 7 "YAGEO_RMS1" H 0   0   50  0001 C CNN "Manufacturer2"
F 8 "VISHAY_RMS1" H 0   0   50  0001 C CNN "Manufacturer3"
F 9 "RC0603FR-0747KL" H 0   0   50  0001 C CNN "Manufacturer_No"
F 10 "RC0603FR-0747KL" H 0   0   50  0001 C CNN "Manufacturer_No2"
F 11 "CRCW060347K0FKEA" H 0   0   50  0001 C CNN "Manufacturer_No3"
	1    4250 3200
	-1   0    0    1   
$EndComp
Wire Wire Line
	4250 3050 4250 2750
Connection ~ 4250 2750
Wire Wire Line
	4250 2750 4400 2750
$Comp
L V_Power:GND #PWR0284
U 1 1 5F2303E9
P 4250 3400
F 0 "#PWR0284" H 4250 3150 50  0001 C CNN
F 1 "GND" H 4255 3227 50  0000 C CNN
F 2 "" H 4250 3400 50  0001 C CNN
F 3 "" H 4250 3400 50  0001 C CNN
	1    4250 3400
	1    0    0    -1  
$EndComp
Wire Wire Line
	4250 3400 4250 3350
$Comp
L V_Resistor:R0603_47k_1% R?
U 1 1 5F0A4AA7
P 12050 8200
AR Path="/5E92767C/5F0A4AA7" Ref="R?"  Part="1" 
AR Path="/5E9C3EF6/5F0A4AA7" Ref="R102"  Part="1" 
F 0 "R102" V 12165 8200 50  0000 C CNN
F 1 "47k" V 12256 8200 50  0000 C CNN
F 2 "powersupply-c:R0603" V 11980 8200 50  0001 C CNN
F 3 "" H 12050 8200 50  0001 C CNN
F 4 "RESISTOR,47K OHM,0.063W,+/-1%,0603" V 12050 8200 50  0001 C CNN "Description"
F 5 "10022734" V 12050 8200 50  0001 C CNN "Item Number"
F 6 "YAGEO_RMS1" V 12050 8200 50  0001 C CNN "Manufacturer"
F 7 "RC0603FR-0747KL" V 12050 8200 50  0001 C CNN "Manufacturer_No"
F 8 "YAGEO_RMS1" H 0   0   50  0001 C CNN "Manufacturer2"
F 9 "VISHAY_RMS1" H 0   0   50  0001 C CNN "Manufacturer3"
F 10 "RC0603FR-0747KL" H 0   0   50  0001 C CNN "Manufacturer_No2"
F 11 "CRCW060347K0FKEA" H 0   0   50  0001 C CNN "Manufacturer_No3"
	1    12050 8200
	0    -1   1    0   
$EndComp
$Comp
L V_Capacitor:C1206_100uF_20% C89
U 1 1 5E9C6325
P 10450 1350
F 0 "C89" H 10565 1396 50  0000 L CNN
F 1 "100uF" H 10565 1305 50  0000 L CNN
F 2 "powersupply-c:RC1206-AIROX-C1206C107M9PAC" H 10488 1200 50  0001 C CNN
F 3 "" H 10450 1350 50  0001 C CNN
F 4 "CAPACITOR CERAMIC, 100UF,+/-20%,6.3V 1206" V 10450 1350 50  0001 C CNN "Description"
F 5 "10039585" V 10450 1350 50  0001 C CNN "Item Number"
F 6 "KEMET_RMS1" V 10450 1350 50  0001 C CNN "Manufacturer"
F 7 "C1206C107M9PAC" V 10450 1350 50  0001 C CNN "Manufacturer_No"
F 8 "TDK" H 0   0   50  0001 C CNN "Manufacturer2"
F 9 "AVX" H 0   0   50  0001 C CNN "Manufacturer3"
F 10 "C3216X5R0J107M160AB" H 0   0   50  0001 C CNN "Manufacturer_No2"
F 11 "12066D107MAT2A" H 0   0   50  0001 C CNN "Manufacturer_No3"
	1    10450 1350
	1    0    0    -1  
$EndComp
$Comp
L V_Power:GND #PWR0285
U 1 1 5E9C705F
P 10450 1550
F 0 "#PWR0285" H 10450 1300 50  0001 C CNN
F 1 "GND" H 10455 1377 50  0000 C CNN
F 2 "" H 10450 1550 50  0001 C CNN
F 3 "" H 10450 1550 50  0001 C CNN
	1    10450 1550
	1    0    0    -1  
$EndComp
Wire Wire Line
	10450 1550 10450 1500
Wire Wire Line
	10450 1200 10450 1050
Connection ~ 10450 1050
Wire Wire Line
	10450 1050 10200 1050
Wire Wire Line
	10250 8350 8400 8350
$Comp
L V_Power:+3.3V #PWR0102
U 1 1 5E994D31
P 2700 2150
F 0 "#PWR0102" H 2700 2000 50  0001 C CNN
F 1 "+3.3V" H 2715 2323 50  0000 C CNN
F 2 "" H 2700 2150 50  0001 C CNN
F 3 "" H 2700 2150 50  0001 C CNN
	1    2700 2150
	1    0    0    -1  
$EndComp
$Comp
L V_Power:+3.3V #PWR0108
U 1 1 5E99836C
P 5300 950
F 0 "#PWR0108" H 5300 800 50  0001 C CNN
F 1 "+3.3V" H 5315 1123 50  0000 C CNN
F 2 "" H 5300 950 50  0001 C CNN
F 3 "" H 5300 950 50  0001 C CNN
	1    5300 950 
	1    0    0    -1  
$EndComp
$Comp
L V_Power:+3.3V #PWR0113
U 1 1 5E99D785
P 2700 5800
F 0 "#PWR0113" H 2700 5650 50  0001 C CNN
F 1 "+3.3V" H 2715 5973 50  0000 C CNN
F 2 "" H 2700 5800 50  0001 C CNN
F 3 "" H 2700 5800 50  0001 C CNN
	1    2700 5800
	1    0    0    -1  
$EndComp
$Comp
L V_Power:+3.3V #PWR0119
U 1 1 5E99E15A
P 10550 7850
F 0 "#PWR0119" H 10550 7700 50  0001 C CNN
F 1 "+3.3V" H 10565 8023 50  0000 C CNN
F 2 "" H 10550 7850 50  0001 C CNN
F 3 "" H 10550 7850 50  0001 C CNN
	1    10550 7850
	1    0    0    -1  
$EndComp
$Comp
L V_Power:+3.3V #PWR0121
U 1 1 5E9A4B97
P 11800 8050
F 0 "#PWR0121" H 11800 7900 50  0001 C CNN
F 1 "+3.3V" H 11815 8223 50  0000 C CNN
F 2 "" H 11800 8050 50  0001 C CNN
F 3 "" H 11800 8050 50  0001 C CNN
	1    11800 8050
	1    0    0    -1  
$EndComp
$Comp
L V_Power:+3.3V #PWR0132
U 1 1 5E9A6F6A
P 13800 5750
F 0 "#PWR0132" H 13800 5600 50  0001 C CNN
F 1 "+3.3V" H 13815 5923 50  0000 C CNN
F 2 "" H 13800 5750 50  0001 C CNN
F 3 "" H 13800 5750 50  0001 C CNN
	1    13800 5750
	1    0    0    -1  
$EndComp
$Comp
L V_Power:+3.3V #PWR0133
U 1 1 5E9A7D15
P 7300 2350
F 0 "#PWR0133" H 7300 2200 50  0001 C CNN
F 1 "+3.3V" H 7315 2523 50  0000 C CNN
F 2 "" H 7300 2350 50  0001 C CNN
F 3 "" H 7300 2350 50  0001 C CNN
	1    7300 2350
	1    0    0    -1  
$EndComp
NoConn ~ 6200 2550
NoConn ~ 6300 2550
NoConn ~ 6400 2550
NoConn ~ 6500 2550
NoConn ~ 6600 2550
NoConn ~ 6700 2550
NoConn ~ 6800 2550
$Comp
L V_Power:+3.3V #PWR0135
U 1 1 5E99B62E
P 2700 3950
F 0 "#PWR0135" H 2700 3800 50  0001 C CNN
F 1 "+3.3V" H 2715 4123 50  0000 C CNN
F 2 "" H 2700 3950 50  0001 C CNN
F 3 "" H 2700 3950 50  0001 C CNN
	1    2700 3950
	1    0    0    -1  
$EndComp
$Comp
L V_Power:PWR_FLAG #FLG0119
U 1 1 5F150EFA
P 3500 9100
F 0 "#FLG0119" H 3500 9175 50  0001 C CNN
F 1 "PWR_FLAG" H 3500 9250 50  0000 C CNN
F 2 "" H 3500 9100 50  0001 C CNN
F 3 "" H 3500 9100 50  0001 C CNN
	1    3500 9100
	1    0    0    -1  
$EndComp
Wire Wire Line
	3500 9100 3500 9300
Wire Wire Line
	3600 8550 4100 8550
Wire Wire Line
	3500 9300 3200 9300
Connection ~ 3200 9300
Wire Wire Line
	3200 9300 3200 9550
$Comp
L V_Power:PWR_FLAG #FLG0122
U 1 1 5F23A015
P 15200 1850
F 0 "#FLG0122" H 15200 1925 50  0001 C CNN
F 1 "PWR_FLAG" H 15200 2000 50  0000 C CNN
F 2 "" H 15200 1850 50  0001 C CNN
F 3 "" H 15200 1850 50  0001 C CNN
	1    15200 1850
	1    0    0    -1  
$EndComp
$Comp
L V_Power:PWR_FLAG #FLG0123
U 1 1 5F2421C3
P 15150 800
F 0 "#FLG0123" H 15150 875 50  0001 C CNN
F 1 "PWR_FLAG" H 15150 950 50  0000 C CNN
F 2 "" H 15150 800 50  0001 C CNN
F 3 "" H 15150 800 50  0001 C CNN
	1    15150 800 
	1    0    0    -1  
$EndComp
$Comp
L V_Power:PWR_FLAG #FLG0124
U 1 1 5F2428E5
P 15150 2750
F 0 "#FLG0124" H 15150 2825 50  0001 C CNN
F 1 "PWR_FLAG" H 15150 2900 50  0000 C CNN
F 2 "" H 15150 2750 50  0001 C CNN
F 3 "" H 15150 2750 50  0001 C CNN
	1    15150 2750
	1    0    0    -1  
$EndComp
$Comp
L V_Power:PWR_FLAG #FLG0125
U 1 1 5F243226
P 15200 3750
F 0 "#FLG0125" H 15200 3825 50  0001 C CNN
F 1 "PWR_FLAG" H 15200 3900 50  0000 C CNN
F 2 "" H 15200 3750 50  0001 C CNN
F 3 "" H 15200 3750 50  0001 C CNN
	1    15200 3750
	1    0    0    -1  
$EndComp
Wire Wire Line
	15200 1850 15200 2000
Wire Wire Line
	15200 2000 15500 2000
Connection ~ 15500 2000
Wire Wire Line
	15500 2000 15500 1850
Wire Wire Line
	15150 800  15150 1050
Connection ~ 15150 1050
Wire Wire Line
	15150 2750 15150 2950
Connection ~ 15150 2950
Wire Wire Line
	15200 3750 15200 3900
Wire Wire Line
	15200 3900 15500 3900
Connection ~ 15500 3900
Wire Wire Line
	15500 3900 15500 3750
Wire Wire Line
	15050 2350 15500 2350
Wire Wire Line
	14600 2350 14850 2350
Wire Wire Line
	14875 2950 15150 2950
Wire Wire Line
	14600 2950 14675 2950
Wire Wire Line
	15050 4250 15500 4250
Wire Wire Line
	14600 4250 14850 4250
Text Label 8550 8350 0    50   ~ 0
N$126
Text Label 12750 9400 0    50   ~ 0
N$130
Text Label 12750 9300 0    50   ~ 0
N$129
Text Label 12750 9200 0    50   ~ 0
N$128
Text Label 12750 9100 0    50   ~ 0
N$127
Text Label 12750 9000 0    50   ~ 0
N$42
Text Label 2950 2950 0    50   ~ 0
N$13
Text Label 3000 4550 0    50   ~ 0
N$41
Text Label 3000 4750 0    50   ~ 0
N$45
Text Label 3000 6400 0    50   ~ 0
N$54
Text Label 1800 9550 0    50   ~ 0
N$95
Text Label 5800 10000 0    50   ~ 0
N$80
Text Label 6100 8850 1    50   ~ 0
N$61
Text Label 5800 9900 0    50   ~ 0
N$77
Text Label 6200 8850 1    50   ~ 0
N$96
Text Label 8600 2500 1    50   ~ 0
N$57
Text Label 8500 2500 1    50   ~ 0
N$36
Text Label 12875 3300 0    50   ~ 0
N$8
Text Label 12875 3100 0    50   ~ 0
N$50
Text Label 12875 1400 0    50   ~ 0
N$90
Text Label 12875 1200 0    50   ~ 0
N$4
Text Label 10525 1050 0    50   ~ 0
N$81
Text Label 14175 2950 0    50   ~ 0
N$97
Text Label 14325 1050 0    50   ~ 0
N$98
Text Label 15225 4250 0    50   ~ 0
N$109
Text Label 15125 2350 0    50   ~ 0
N$108
Text Label 14900 2950 0    50   ~ 0
N$110
Text Label 14900 1050 0    50   ~ 0
N$105
Wire Wire Line
	14875 1050 15150 1050
Wire Wire Line
	14600 1050 14675 1050
$Comp
L V_Inductor:Ferrite_Bead_Small_10039587 L10
U 1 1 5F5A4BA1
P 14775 1050
F 0 "L10" V 14501 1050 50  0000 C CNN
F 1 "220" V 14592 1050 50  0000 C CNN
F 2 "powersupply-c:C0805-AIROX-BLM21PG221SH1" V 14705 1050 50  0001 C CNN
F 3 "https://www.murata.com/en-us/products/en-us/products/productdata/8796740354078/QNFA9102.pdf" H 14775 1050 50  0001 C CNN
F 4 "FERRITE, SMD, 220OHM 0805" V 14775 1050 50  0001 C CNN "Description"
F 5 "10039587" V 14775 1050 50  0001 C CNN "Item Number"
F 6 "MURATA_RMS1" V 14775 1050 50  0001 C CNN "Manufacturer"
F 7 "BLM21PG221SH1D" V 14775 1050 50  0001 C CNN "Manufacturer_No"
F 8 "MURATA_RMS1" H -175 0   50  0001 C CNN "Manufacturer2"
F 9 "MURATA_RMS1" H -175 0   50  0001 C CNN "Manufacturer3"
F 10 "BLM21PG221SH1J" H -175 0   50  0001 C CNN "Manufacturer_No2"
F 11 "BLM21PG221SH1D" H -175 0   50  0001 C CNN "Manufacturer_No3"
	1    14775 1050
	0    -1   1    0   
$EndComp
Text Label 4400 8950 1    50   ~ 0
N$89
Text Label 6600 9500 1    50   ~ 0
N$70
Text Label 7000 9500 1    50   ~ 0
N$68
Text Label 6600 8450 0    50   ~ 0
N$69
Text Label 3200 9500 1    50   ~ 0
N$18
Text Label 2950 2750 0    50   ~ 0
N$29
Text Label 10175 10000 0    50   ~ 0
D0
Text GLabel 10175 10000 0    50   Input ~ 0
D0
Text Label 10175 10100 0    50   ~ 0
D2
Text GLabel 10175 10100 0    50   Input ~ 0
D2
Text Label 10175 10200 0    50   ~ 0
D1
Text GLabel 10175 10200 0    50   Input ~ 0
D1
Text Label 9825 10775 0    50   ~ 0
A5
Text GLabel 9825 10775 0    50   Input ~ 0
A5
Text Label 9825 10875 0    50   ~ 0
A6
Text GLabel 9825 10875 0    50   Input ~ 0
A6
Text Label 10175 10400 0    50   ~ 0
D4
Text GLabel 10175 10400 0    50   Input ~ 0
D4
Text Label 10175 10500 0    50   ~ 0
D5
Text GLabel 10175 10500 0    50   Input ~ 0
D5
Text Label 10175 10300 0    50   ~ 0
D3
Text GLabel 10175 10300 0    50   Input ~ 0
D3
Text Label 9825 10550 0    50   ~ 0
A2
Text GLabel 9825 10550 0    50   Input ~ 0
A2
Text Label 9825 10675 0    50   ~ 0
A4
Text GLabel 9825 10675 0    50   Input ~ 0
A4
Text Label 10175 10700 0    50   ~ 0
D8
Text GLabel 10175 10700 0    50   Input ~ 0
D8
Text Label 10175 10800 0    50   ~ 0
D9
Text GLabel 10175 10800 0    50   Input ~ 0
D9
Text Label 9825 10450 0    50   ~ 0
A1
Text GLabel 9825 10450 0    50   Input ~ 0
A1
Text Label 9825 11075 0    50   ~ 0
A8
Text GLabel 9825 11075 0    50   Input ~ 0
A8
Text Label 9825 10975 0    50   ~ 0
A7
Text GLabel 9825 10975 0    50   Input ~ 0
A7
Text Label 10175 10600 0    50   ~ 0
D6
Text GLabel 10175 10600 0    50   Input ~ 0
D6
Text Label 10225 10900 0    50   ~ 0
D10
Text GLabel 10225 10900 0    50   Input ~ 0
D10
Text Label 10225 11000 0    50   ~ 0
D11
Text GLabel 10225 11000 0    50   Input ~ 0
D11
Text Label 10225 11100 0    50   ~ 0
D12
Text GLabel 10225 11100 0    50   Input ~ 0
D12
Text Label 9425 10900 0    50   ~ 0
DP1A
Text GLabel 9425 10900 0    50   Input ~ 0
DP1A
Text Label 9425 11000 0    50   ~ 0
DM1B
Text GLabel 9425 11000 0    50   Input ~ 0
DM1B
Text Label 9425 11100 0    50   ~ 0
DP1B
Text GLabel 9425 11100 0    50   Input ~ 0
DP1B
Text Label 9425 10800 0    50   ~ 0
DM1A
Text GLabel 9425 10800 0    50   Input ~ 0
DM1A
Text Label 10225 9775 0    50   ~ 0
D14
Text GLabel 10225 9775 0    50   Input ~ 0
D14
Text Label 10225 9875 0    50   ~ 0
D13
Text GLabel 10225 9875 0    50   Input ~ 0
D13
Text Label 9425 10400 0    50   ~ 0
N$98
Text GLabel 9425 10400 0    50   Input ~ 0
N$98
Text Label 9875 10150 0    50   ~ 0
A10
Text GLabel 9875 10150 0    50   Input ~ 0
A10
Text Label 9825 10250 0    50   ~ 0
A9
Text GLabel 9825 10250 0    50   Input ~ 0
A9
Text Label 9825 10350 0    50   ~ 0
A3
Text GLabel 9825 10350 0    50   Input ~ 0
A3
Text Label 9875 10050 0    50   ~ 0
A11
Text GLabel 9875 10050 0    50   Input ~ 0
A11
Text Label 9425 9900 0    50   ~ 0
A15
Text GLabel 9425 9900 0    50   Input ~ 0
A15
Text Label 8900 10100 0    50   ~ 0
A14
Text GLabel 8900 10100 0    50   Input ~ 0
A14
Text Label 8900 9900 0    50   ~ 0
A13
Text GLabel 8900 9900 0    50   Input ~ 0
A13
Text Label 8900 10000 0    50   ~ 0
A12
Text GLabel 8900 10000 0    50   Input ~ 0
A12
Text Label 9425 10600 0    50   ~ 0
N$13
Text GLabel 9425 10600 0    50   Input ~ 0
N$13
Text Label 9425 10700 0    50   ~ 0
N$29
Text GLabel 9425 10700 0    50   Input ~ 0
N$29
Text Label 9825 9850 0    50   ~ 0
D7
Text GLabel 9825 9850 0    50   Input ~ 0
D7
Text Label 9875 9950 0    50   ~ 0
D15
Text GLabel 9875 9950 0    50   Input ~ 0
D15
Text Label 9425 10500 0    50   ~ 0
N$42
Text GLabel 9425 10500 0    50   Input ~ 0
N$42
Text Label 9425 10300 0    50   ~ 0
N$45
Text GLabel 9425 10300 0    50   Input ~ 0
N$45
Text GLabel 9425 10200 0    50   Input ~ 0
N$41
Text Label 9425 10200 0    50   ~ 0
N$41
Text Label 9425 10100 0    50   ~ 0
N$54
Text GLabel 9425 10100 0    50   Input ~ 0
N$54
Text Label 9425 10000 0    50   ~ 0
N$61
Text GLabel 9425 10000 0    50   Input ~ 0
N$61
Text Label 8900 10400 0    50   ~ 0
N$89
Text GLabel 8900 10400 0    50   Input ~ 0
N$89
Text Label 8900 10300 0    50   ~ 0
N$80
Text GLabel 8900 10300 0    50   Input ~ 0
N$80
Text Label 8900 10200 0    50   ~ 0
N$95
Text GLabel 8900 10200 0    50   Input ~ 0
N$95
Text Label 8850 11100 0    50   ~ 0
N$96
Text GLabel 8850 11100 0    50   Input ~ 0
N$96
Text Label 8850 11000 0    50   ~ 0
N$97
Text GLabel 8850 11000 0    50   Input ~ 0
N$97
Text Label 8900 10900 0    50   ~ 0
N$127
Text GLabel 8900 10900 0    50   Input ~ 0
N$127
Text GLabel 8900 10800 0    50   Input ~ 0
N$130
Text Label 8900 10800 0    50   ~ 0
N$130
Text Label 8900 10700 0    50   ~ 0
N$126
Text GLabel 8900 10700 0    50   Input ~ 0
N$126
Text Label 8900 10600 0    50   ~ 0
N$129
Text GLabel 8900 10600 0    50   Input ~ 0
N$129
Text Label 8900 10500 0    50   ~ 0
N$128
Text GLabel 8900 10500 0    50   Input ~ 0
N$128
Text Label 8050 11100 0    50   ~ 0
SCLK-SPI-1
Text GLabel 8050 11100 0    50   Input ~ 0
SCLK-SPI-1
Text Label 8050 11000 0    50   ~ 0
USB-RESET
Text GLabel 8050 11000 0    50   Input ~ 0
USB-RESET
Text Label 8050 10900 0    50   ~ 0
CE-SPI-USB
Text GLabel 8050 10900 0    50   Input ~ 0
CE-SPI-USB
Text Label 8050 10800 0    50   ~ 0
NXROMSEL
Text GLabel 8050 10800 0    50   Input ~ 0
NXROMSEL
Text Label 8050 10700 0    50   ~ 0
MRST-SPI-1
Text GLabel 8050 10700 0    50   Input ~ 0
MRST-SPI-1
Text Label 8050 10600 0    50   ~ 0
USB-BUSY
Text GLabel 8050 10600 0    50   Input ~ 0
USB-BUSY
Text Label 8050 10500 0    50   ~ 0
MTSR-SPI-1
Text GLabel 8050 10500 0    50   Input ~ 0
MTSR-SPI-1
Wire Bus Line
	9750 5850 9750 7350
Wire Bus Line
	9750 3950 9750 5450
Wire Bus Line
	12150 6400 12150 7900
Wire Bus Line
	14650 6500 14650 8000
$EndSCHEMATC
