(module C0402_1 (layer F.Cu) (tedit 5E951BC5)
  (attr smd)
  (fp_text reference C48 (at 3.5179 -0.1016 unlocked) (layer F.SilkS)
    (effects (font (size 1.033069 1.086612) (thickness 0.1778)))
  )
  (fp_text value C-BC-C0402 (at 3.937 -0.7874 unlocked) (layer F.SilkS) hide
    (effects (font (size 1.033069 1.086612) (thickness 0.1778)))
  )
  (fp_line (start -0.5334 0.2794) (end 0.5334 0.2794) (layer B.Fab) (width 0.0762))
  (fp_line (start -0.5334 -0.2794) (end 0.5334 -0.2794) (layer B.Fab) (width 0.0762))
  (fp_line (start 0.5334 0.2794) (end 0.5334 -0.2794) (layer B.Fab) (width 0.0762))
  (fp_line (start -0.5334 0.2794) (end -0.5334 -0.2794) (layer B.Fab) (width 0.0762))
  (fp_line (start -0.9398 -0.635) (end 0.9398 -0.635) (layer F.SilkS) (width 0.1778))
  (fp_line (start 0.9398 -0.5588) (end 0.9398 -0.635) (layer F.SilkS) (width 0.1778))
  (fp_line (start -0.9398 -0.5588) (end -0.9398 -0.635) (layer F.SilkS) (width 0.1778))
  (fp_line (start 0 0.635) (end 0.4826 0.635) (layer F.SilkS) (width 0.1778))
  (fp_line (start -0.9398 0.635) (end -0.9398 0.5588) (layer F.SilkS) (width 0.1778))
  (fp_line (start -0.9398 0.635) (end -0.889 0.635) (layer F.SilkS) (width 0.1778))
  (pad 1 smd rect (at -0.4318 0 180) (size 0.6096 0.6096) (layers F.Cu F.Paste F.Mask))
  (pad 2 smd rect (at 0.4318 0 180) (size 0.6096 0.6096) (layers F.Cu F.Paste F.Mask))
  (model ${KISYS3DMOD}/Capacitor_SMD.3dshapes/C_0402_1005Metric.wrl
    (at (xyz 0 0 0))
    (scale (xyz 1 1 1))
    (rotate (xyz 0 0 0))
  )
)
