(module DLP31S-AIROX_1 (layer F.Cu) (tedit 0)
  (attr smd)
  (fp_text reference L11 (at -0.4572 -0.7747 270 unlocked) (layer F.SilkS)
    (effects (font (size 1.033069 1.086612) (thickness 0.1778)))
  )
  (fp_text value SF-BC-DLP31S (at -0.7874 -4.7244 270 unlocked) (layer F.SilkS) hide
    (effects (font (size 1.033069 1.086612) (thickness 0.1778)))
  )
  (fp_line (start -0.254 -0.2794) (end -0.2794 -0.2794) (layer B.Fab) (width 0.1))
  (fp_line (start 0.2794 0) (end 0.2794 0.0254) (layer B.Fab) (width 0.1))
  (fp_line (start -0.254 -0.5334) (end -0.2794 -0.5334) (layer B.Fab) (width 0.1))
  (fp_line (start 0.2794 0) (end 0.254 0) (layer B.Fab) (width 0.1))
  (fp_line (start -0.2794 -0.6858) (end -0.2794 -0.5334) (layer B.Fab) (width 0.1))
  (fp_line (start 1.651 0.8636) (end -1.6764 0.8636) (layer B.Fab) (width 0.0762))
  (fp_line (start -1.6764 -0.8636) (end -1.6764 0.8636) (layer B.Fab) (width 0.0762))
  (fp_line (start -0.254 0) (end -0.2794 0) (layer B.Fab) (width 0.1))
  (fp_line (start 0.2794 0.5842) (end 0.254 0.5842) (layer B.Fab) (width 0.1))
  (fp_line (start -0.2794 0) (end -0.2794 0.0254) (layer B.Fab) (width 0.1))
  (fp_line (start -0.254 0.0254) (end -0.2794 0.0254) (layer B.Fab) (width 0.1))
  (fp_line (start 0.0254 -0.6858) (end 0.0254 0.5842) (layer B.Fab) (width 0.1))
  (fp_line (start 0.2794 0.5842) (end 0.2794 0.6858) (layer B.Fab) (width 0.1))
  (fp_line (start 0.2794 -0.2286) (end 0.254 -0.2286) (layer B.Fab) (width 0.1))
  (fp_line (start 0.2794 -0.2794) (end 0.2794 -0.2286) (layer B.Fab) (width 0.1))
  (fp_line (start -0.0254 -0.6858) (end -0.0254 0.5842) (layer B.Fab) (width 0.1))
  (fp_line (start 0.2794 -0.2794) (end 0.254 -0.2794) (layer B.Fab) (width 0.1))
  (fp_line (start -0.254 0.2794) (end -0.2794 0.2794) (layer B.Fab) (width 0.1))
  (fp_line (start 0.2794 0.2794) (end 0.254 0.2794) (layer B.Fab) (width 0.1))
  (fp_line (start 1.651 -0.8636) (end 1.651 0.8636) (layer B.Fab) (width 0.0762))
  (fp_line (start -0.2794 0.2794) (end -0.2794 0.3302) (layer B.Fab) (width 0.1))
  (fp_line (start -0.2794 -0.2794) (end -0.2794 -0.2286) (layer B.Fab) (width 0.1))
  (fp_line (start -0.254 0.3302) (end -0.2794 0.3302) (layer B.Fab) (width 0.1))
  (fp_line (start -0.254 -0.2286) (end -0.2794 -0.2286) (layer B.Fab) (width 0.1))
  (fp_line (start 1.651 -0.8636) (end -1.6764 -0.8636) (layer B.Fab) (width 0.0762))
  (fp_line (start 0.2794 -0.5334) (end 0.254 -0.5334) (layer B.Fab) (width 0.1))
  (fp_line (start 0.2794 -0.6858) (end 0.2794 -0.5334) (layer B.Fab) (width 0.1))
  (fp_line (start 0.2794 0.2794) (end 0.2794 0.3302) (layer B.Fab) (width 0.1))
  (fp_line (start -0.254 0.5842) (end -0.2794 0.5842) (layer B.Fab) (width 0.1))
  (fp_line (start -0.2794 0.5842) (end -0.2794 0.6858) (layer B.Fab) (width 0.1))
  (fp_line (start 0.2794 0.3302) (end 0.254 0.3302) (layer B.Fab) (width 0.1))
  (fp_line (start 0.2794 0.0254) (end 0.254 0.0254) (layer B.Fab) (width 0.1))
  (fp_line (start 0.4064 -0.889) (end -0.4064 -0.889) (layer F.SilkS) (width 0.1778))
  (fp_line (start -1.6764 -0.889) (end -1.6764 0.889) (layer F.SilkS) (width 0.1778))
  (fp_line (start -1.6764 0.889) (end -1.6764 0.889) (layer F.SilkS) (width 0.1778))
  (fp_line (start -1.6764 -0.889) (end -1.6764 -0.889) (layer F.SilkS) (width 0.1778))
  (fp_line (start 0.4064 0.889) (end -0.4064 0.889) (layer F.SilkS) (width 0.1778))
  (fp_arc (start 0.254 -0.4064) (end 0.254 -0.508) (angle -90) (layer B.Fab) (width 0.1))
  (fp_arc (start -0.254 -0.4064) (end -0.254 -0.3048) (angle -90) (layer B.Fab) (width 0.1))
  (fp_arc (start 0.254 -0.1016) (end 0.254 -0.2032) (angle -90) (layer B.Fab) (width 0.1))
  (fp_arc (start -0.254 -0.1016) (end -0.254 0) (angle -90) (layer B.Fab) (width 0.1))
  (fp_arc (start -0.254 -0.4064) (end -0.1524 -0.4064) (angle -90) (layer B.Fab) (width 0.1))
  (fp_arc (start 0.254 0.1524) (end 0.254 0.0508) (angle -90) (layer B.Fab) (width 0.1))
  (fp_arc (start -0.254 0.1524) (end -0.254 0.254) (angle -90) (layer B.Fab) (width 0.1))
  (fp_arc (start -0.254 -0.1016) (end -0.1524 -0.1016) (angle -90) (layer B.Fab) (width 0.1))
  (fp_arc (start 0.254 0.4572) (end 0.254 0.3556) (angle -90) (layer B.Fab) (width 0.1))
  (fp_arc (start -0.254 0.4572) (end -0.254 0.5588) (angle -90) (layer B.Fab) (width 0.1))
  (fp_arc (start -0.4318 -0.635) (end -0.4572 -0.635) (angle -360) (layer B.Fab) (width 0.1))
  (fp_arc (start -0.254 0.1524) (end -0.1524 0.1524) (angle -90) (layer B.Fab) (width 0.1))
  (fp_arc (start 0.254 -0.1016) (end 0.1524 -0.1016) (angle -90) (layer B.Fab) (width 0.1))
  (fp_arc (start -0.254 0.4572) (end -0.1524 0.4572) (angle -90) (layer B.Fab) (width 0.1))
  (fp_arc (start 0.254 0.1524) (end 0.1524 0.1524) (angle -90) (layer B.Fab) (width 0.1))
  (fp_arc (start 0.254 0.4572) (end 0.1524 0.4572) (angle -90) (layer B.Fab) (width 0.1))
  (fp_arc (start 0.254 -0.4064) (end 0.1524 -0.4064) (angle -90) (layer B.Fab) (width 0.1))
  (fp_arc (start 0.381 -0.635) (end 0.3556 -0.635) (angle -360) (layer B.Fab) (width 0.1))
  (fp_arc (start 0.381 -0.5842) (end 0.3556 -0.5842) (angle -101.5) (layer F.SilkS) (width 0.1778))
  (fp_arc (start 0.381 -0.5842) (end 0.386064 -0.60909) (angle -101.5) (layer F.SilkS) (width 0.1778))
  (fp_arc (start -0.381 -0.5842) (end -0.386064 -0.55931) (angle -203.1) (layer F.SilkS) (width 0.1778))
  (pad 1 smd rect (at 1.0414 -0.8382) (size 0.7874 0.9398) (layers F.Cu F.Paste F.Mask))
  (pad 2 smd rect (at 1.0414 0.8382 180) (size 0.7874 0.9398) (layers F.Cu F.Paste F.Mask))
  (pad 3 smd rect (at -1.0414 0.8382 180) (size 0.7874 0.9398) (layers F.Cu F.Paste F.Mask))
  (pad 4 smd rect (at -1.0414 -0.8382 180) (size 0.7874 0.9398) (layers F.Cu F.Paste F.Mask))
)
