(module DPAK-GDS_1 (layer F.Cu) (tedit 5E951E3D)
  (attr smd)
  (fp_text reference T25 (at -0.7158 0.4587 unlocked) (layer F.SilkS)
    (effects (font (size 1.0496 1.104) (thickness 0.18)))
  )
  (fp_text value Q-BC-DPAK-GDS (at -5.2 0.8 unlocked) (layer F.SilkS) hide
    (effects (font (size 1.0496 1.104) (thickness 0.18)))
  )
  (fp_line (start -1.8 -5.207) (end -2.8 -5.207) (layer B.Fab) (width 0.1))
  (fp_line (start 0.5 -3.6195) (end 0.5 -2.3495) (layer B.Fab) (width 0.1))
  (fp_line (start 0.5 -3.6195) (end -0.5 -3.6195) (layer B.Fab) (width 0.1))
  (fp_line (start 2.8575 4.318) (end 2.2225 4.953) (layer B.Fab) (width 0.1))
  (fp_line (start -2.8 -5.207) (end -2.8 -2.3495) (layer B.Fab) (width 0.1))
  (fp_line (start 2.2225 4.953) (end 2.2225 5.2705) (layer B.Fab) (width 0.1))
  (fp_line (start 2.8 -2.3495) (end 1.8 -2.3495) (layer B.Fab) (width 0.1))
  (fp_line (start 1.8 -5.334) (end 1.8 -2.3495) (layer B.Fab) (width 0.1))
  (fp_line (start 2.8 -5.334) (end 2.8 -2.3495) (layer B.Fab) (width 0.1))
  (fp_line (start 3.35 -2.3495) (end -3.35 -2.3495) (layer B.Fab) (width 0.1))
  (fp_line (start -1.8 -2.3495) (end -2.8 -2.3495) (layer B.Fab) (width 0.1))
  (fp_line (start -1.8 -5.207) (end -1.8 -2.3495) (layer B.Fab) (width 0.1))
  (fp_line (start -3.35 -2.3495) (end -3.35 3.683) (layer B.Fab) (width 0.1))
  (fp_line (start 3.35 3.683) (end -3.35 3.683) (layer B.Fab) (width 0.1))
  (fp_line (start 2.8 -5.334) (end 1.8 -5.334) (layer B.Fab) (width 0.1))
  (fp_line (start 2.2225 5.2705) (end -2.2225 5.2705) (layer B.Fab) (width 0.1))
  (fp_line (start -2.8575 3.683) (end -2.8575 4.318) (layer B.Fab) (width 0.1))
  (fp_line (start -2.2225 4.953) (end -2.8575 4.318) (layer B.Fab) (width 0.1))
  (fp_line (start -2.2225 4.953) (end -2.2225 5.2705) (layer B.Fab) (width 0.1))
  (fp_line (start 3.35 -2.3495) (end 3.35 3.683) (layer B.Fab) (width 0.1))
  (fp_line (start 0.5 -2.3495) (end -0.5 -2.3495) (layer B.Fab) (width 0.1))
  (fp_line (start -0.5 -3.6195) (end -0.5 -2.3495) (layer B.Fab) (width 0.1))
  (fp_line (start 2.8575 3.683) (end 2.8575 4.318) (layer B.Fab) (width 0.1))
  (fp_line (start 3.81 5.23875) (end 3.33375 5.715) (layer F.SilkS) (width 0.18))
  (fp_line (start 3.33375 5.715) (end 1.24421 5.715) (layer F.SilkS) (width 0.18))
  (fp_line (start -3.81 -2.3495) (end -3.81 5.23875) (layer F.SilkS) (width 0.18))
  (fp_line (start 0.66079 5.715) (end -3.33375 5.715) (layer F.SilkS) (width 0.18))
  (fp_line (start -3.33375 5.715) (end -3.81 5.23875) (layer F.SilkS) (width 0.18))
  (fp_line (start 3.81 -2.3495) (end 3.81 5.23875) (layer F.SilkS) (width 0.18))
  (fp_line (start 3.81 -2.3495) (end -3.81 -2.3495) (layer F.SilkS) (width 0.18))
  (pad D smd rect (at 0 1.778 180) (size 6.7056 6.7056) (layers F.Cu F.Paste F.Mask))
  (pad G smd rect (at 2.3 -4.8895 180) (size 1.5748 3.175) (layers F.Cu F.Paste F.Mask))
  (pad S smd rect (at -2.3 -4.8895 180) (size 1.5748 3.175) (layers F.Cu F.Paste F.Mask))
  (model ${KISYS3DMOD}/Package_TO_SOT_SMD.3dshapes/TO-252-2.wrl
    (at (xyz 0 0 0))
    (scale (xyz 1 1 1))
    (rotate (xyz 0 0 90))
  )
)
