(module HC49-4HSMX_1 (layer F.Cu) (tedit 5E9520F2)
  (attr smd)
  (fp_text reference Q3 (at 0.6096 3.2512 unlocked) (layer F.SilkS)
    (effects (font (size 1.033069 1.086612) (thickness 0.1778)))
  )
  (fp_text value Y-BC-HC49-4HSMX (at 5.9055 -0.7874 unlocked) (layer F.SilkS) hide
    (effects (font (size 1.033069 1.086612) (thickness 0.1778)))
  )
  (fp_line (start -5.715 2.4892) (end 5.715 2.4892) (layer F.Fab) (width 0.0762))
  (fp_line (start -3.175 2.4892) (end 3.175 2.4892) (layer F.Fab) (width 0.0762))
  (fp_line (start -5.715 -0.381) (end -5.715 -2.4892) (layer F.Fab) (width 0.0762))
  (fp_line (start -6.731 -0.381) (end -5.715 -0.381) (layer F.Fab) (width 0.0762))
  (fp_line (start 5.715 2.4892) (end 5.715 0.381) (layer F.Fab) (width 0.0762))
  (fp_line (start -3.175 -2.4892) (end 3.175 -2.4892) (layer F.Fab) (width 0.0762))
  (fp_line (start -6.731 0.381) (end -5.715 0.381) (layer F.Fab) (width 0.0762))
  (fp_line (start -5.715 2.4892) (end -5.715 0.381) (layer F.Fab) (width 0.0762))
  (fp_line (start -6.731 0.381) (end -6.731 -0.381) (layer F.Fab) (width 0.0762))
  (fp_line (start 5.715 0.381) (end 6.731 0.381) (layer F.Fab) (width 0.0762))
  (fp_line (start 5.715 -0.381) (end 6.731 -0.381) (layer F.Fab) (width 0.0762))
  (fp_line (start 6.731 0.381) (end 6.731 -0.381) (layer F.Fab) (width 0.0762))
  (fp_line (start -5.715 -2.4892) (end 5.715 -2.4892) (layer F.Fab) (width 0.0762))
  (fp_line (start 5.715 -0.381) (end 5.715 -2.4892) (layer F.Fab) (width 0.0762))
  (fp_line (start -5.715 2.4892) (end 5.715 2.4892) (layer F.SilkS) (width 0.1778))
  (fp_line (start -5.715 -1.27) (end -5.715 -2.4892) (layer F.SilkS) (width 0.1778))
  (fp_line (start 5.715 2.4892) (end 5.715 1.27) (layer F.SilkS) (width 0.1778))
  (fp_line (start -5.715 2.4892) (end -5.715 1.27) (layer F.SilkS) (width 0.1778))
  (fp_line (start -5.715 -2.4892) (end 5.715 -2.4892) (layer F.SilkS) (width 0.1778))
  (fp_line (start 5.715 -1.27) (end 5.715 -2.4892) (layer F.SilkS) (width 0.1778))
  (fp_arc (start 3.2004 0) (end 3.161301 2.488893) (angle -181.8) (layer F.Fab) (width 0.0762))
  (fp_arc (start -3.2004 0) (end -3.161301 -2.488893) (angle -181.8) (layer F.Fab) (width 0.0762))
  (pad 1 smd rect (at -4.445 0) (size 4.572 1.27) (layers F.Cu F.Paste F.Mask))
  (pad 2 smd rect (at 4.445 0) (size 4.572 1.27) (layers F.Cu F.Paste F.Mask))
  (model ${KISYS3DMOD}/Crystal.3dshapes/Crystal_SMD_HC49-SD.wrl
    (at (xyz 0 0 0))
    (scale (xyz 1 1 1))
    (rotate (xyz 0 0 0))
  )
)
