(module MX.A8_COMPOSANT_1 (layer F.Cu) (tedit 5E95256B)
  (attr smd)
  (fp_text reference IC1 (at 0.4714 0.846 -90 unlocked) (layer F.SilkS)
    (effects (font (size 1.0496 1.104) (thickness 0.18)))
  )
  (fp_text value L-BC-SO08 (at 0.8 3.6 -90 unlocked) (layer F.SilkS) hide
    (effects (font (size 1.0496 1.104) (thickness 0.18)))
  )
  (fp_line (start -0.635 2.69875) (end -0.635 1.905) (layer F.Fab) (width 0.1))
  (fp_line (start -0.635 -1.905) (end -0.635 -2.69875) (layer F.Fab) (width 0.1))
  (fp_line (start -1.905 2.69875) (end -1.905 1.905) (layer F.Fab) (width 0.1))
  (fp_line (start 0.635 -1.905) (end 0.635 -2.69875) (layer F.Fab) (width 0.1))
  (fp_line (start -2.54 1.9) (end 2.54 1.9) (layer F.Fab) (width 0.1))
  (fp_line (start -2.54 -1.905) (end 2.54 -1.905) (layer F.Fab) (width 0.1))
  (fp_line (start 2.54 1.9) (end 2.54 -1.905) (layer F.Fab) (width 0.1))
  (fp_line (start 1.905 -1.905) (end 1.905 -2.69875) (layer F.Fab) (width 0.1))
  (fp_line (start -2.54 1.9) (end -2.54 -1.905) (layer F.Fab) (width 0.1))
  (fp_line (start -2.54 -0.508) (end -1.524 -0.508) (layer F.Fab) (width 0.1))
  (fp_line (start 0.635 2.69875) (end 0.635 1.905) (layer F.Fab) (width 0.1))
  (fp_line (start -1.905 -1.905) (end -1.905 -2.69875) (layer F.Fab) (width 0.1))
  (fp_line (start 1.905 2.69875) (end 1.905 1.905) (layer F.Fab) (width 0.1))
  (fp_line (start -2.54 0.508) (end -1.524 0.508) (layer F.Fab) (width 0.1))
  (fp_line (start -2.54 -1.5875) (end 0.0324 -1.5875) (layer F.SilkS) (width 0.18))
  (fp_line (start 2.54 1.10529) (end 2.54 -1.5875) (layer F.SilkS) (width 0.18))
  (fp_line (start 1.2376 -1.5875) (end 2.54 -1.5875) (layer F.SilkS) (width 0.18))
  (fp_line (start -2.54 1.5875) (end -2.54 -1.5875) (layer F.SilkS) (width 0.18))
  (fp_line (start -2.54 1.5875) (end 2.50267 1.5875) (layer F.SilkS) (width 0.18))
  (fp_arc (start -1.52399 0) (end -1.52399 0.508) (angle -180) (layer F.Fab) (width 0.1))
  (pad 1 smd rect (at -2.032 2.7) (size 0.8636 1.524) (layers F.Cu F.Paste F.Mask))
  (pad 2 smd rect (at -0.635 2.7) (size 0.8636 1.524) (layers F.Cu F.Paste F.Mask))
  (pad 3 smd rect (at 0.635 2.7) (size 0.8636 1.524) (layers F.Cu F.Paste F.Mask))
  (pad 4 smd rect (at 2.032 2.7) (size 0.8636 1.524) (layers F.Cu F.Paste F.Mask))
  (pad 5 smd rect (at 2.032 -2.7) (size 0.8636 1.524) (layers F.Cu F.Paste F.Mask))
  (pad 6 smd rect (at 0.635 -2.7) (size 0.8636 1.524) (layers F.Cu F.Paste F.Mask))
  (pad 7 smd rect (at -0.635 -2.7) (size 0.8636 1.524) (layers F.Cu F.Paste F.Mask))
  (pad 8 smd rect (at -2.032 -2.7) (size 0.8636 1.524) (layers F.Cu F.Paste F.Mask))
  (model ${KISYS3DMOD}/Package_SO.3dshapes/SOIC-8_3.9x4.9mm_P1.27mm.wrl
    (at (xyz 0 0 0))
    (scale (xyz 1 1 1))
    (rotate (xyz 0 0 -90))
  )
)
