(module PT-1.3MM_FOURCHE_1 (layer F.Cu) (tedit 0)
  (attr smd)
  (fp_text reference PST9 (at 1.0395 1.9075 unlocked) (layer F.SilkS)
    (effects (font (size 1.0496 1.104) (thickness 0.18)))
  )
  (fp_text value PT-10-1013 (at 4 -0.8 unlocked) (layer F.SilkS) hide
    (effects (font (size 1.0496 1.104) (thickness 0.18)))
  )
  (fp_line (start -0.3048 0.9) (end -0.3048 -0.8) (layer F.Fab) (width 0.1))
  (fp_line (start 0.3048 0.889) (end 0.3048 -0.8) (layer F.Fab) (width 0.1))
  (fp_circle (center 0 0) (end 1 0) (layer F.Fab) (width 0.1))
  (pad 1 thru_hole circle (at 0 0) (size 2.286 2.286) (drill 1.3208) (layers *.Cu *.Mask))
)
