(module WE-PD4_1 (layer F.Cu) (tedit 5E975F35)
  (attr smd)
  (fp_text reference L2 (at -0.4556 -0.511 -270 unlocked) (layer F.SilkS)
    (effects (font (size 1.0496 1.104) (thickness 0.18)))
  )
  (fp_text value SF-BC-WEPD4-L (at -0.8 -5.2 -270 unlocked) (layer F.SilkS) hide
    (effects (font (size 1.0496 1.104) (thickness 0.18)))
  )
  (fp_line (start 3.2 4) (end 6.4 1.5) (layer F.Fab) (width 0.1))
  (fp_line (start -6.4 1.5) (end -6.4 -1.5) (layer F.Fab) (width 0.1))
  (fp_line (start -6.4 -1.5) (end -3.2 -4) (layer F.Fab) (width 0.1))
  (fp_line (start -6.4 1.5) (end -3.2 4) (layer F.Fab) (width 0.1))
  (fp_line (start 6.4 1.5) (end 6.4 -1.5) (layer F.Fab) (width 0.1))
  (fp_line (start 3.2 -4) (end 6.4 -1.5) (layer F.Fab) (width 0.1))
  (fp_line (start 3.2 4) (end 5.83347 1.9426) (layer F.SilkS) (width 0.18))
  (fp_line (start -5.83347 -1.9426) (end -3.48359 -3.77845) (layer F.SilkS) (width 0.18))
  (fp_line (start -5.5326 2.17766) (end -3.2 4) (layer F.SilkS) (width 0.18))
  (fp_line (start 3.2 -4) (end 5.83347 -1.9426) (layer F.SilkS) (width 0.18))
  (fp_line (start -3.4654 -3.79266) (end -3.2 -4) (layer F.SilkS) (width 0.18))
  (fp_arc (start 0 0.08632) (end 3.202527 -3.998014) (angle -76.1) (layer F.Fab) (width 0.1))
  (fp_circle (center 0 0) (end 3.82099 0) (layer F.Fab) (width 0.1))
  (fp_arc (start 0 -0.08633) (end -3.202533 3.998012) (angle -76.1) (layer F.Fab) (width 0.1))
  (fp_arc (start 0 -0.08633) (end -3.202533 3.998012) (angle -31.7) (layer F.SilkS) (width 0.18))
  (fp_arc (start 0 -0.08633) (end 0.153973 5.101576) (angle -3.1) (layer F.SilkS) (width 0.18))
  (fp_arc (start 0 -0.08633) (end 0.578545 5.071514) (angle -14.5) (layer F.SilkS) (width 0.18))
  (fp_arc (start 0 -0.08633) (end 2.999191 4.149579) (angle -2.7) (layer F.SilkS) (width 0.18))
  (fp_arc (start -0.00001 0) (end 3.305725 -1.916268) (angle -119.7) (layer F.SilkS) (width 0.18))
  (fp_arc (start 0 0.08632) (end 3.202527 -3.998014) (angle -76.1) (layer F.SilkS) (width 0.18))
  (fp_arc (start 0.00001 -0.00001) (end -3.305725 1.916258) (angle -119.7) (layer F.SilkS) (width 0.18))
  (pad 1 smd rect (at -5.15 0) (size 3.302 3.302) (layers F.Cu F.Paste F.Mask))
  (pad 2 smd rect (at 5.15 0) (size 3.302 3.302) (layers F.Cu F.Paste F.Mask))
  (model "${KIPRJMOD}/3D Models/IND_WURTH_WE-PD4-L.stp"
    (at (xyz 0 0 0))
    (scale (xyz 1 1 1))
    (rotate (xyz 0 0 0))
  )
)
