(module 03513_1 (layer F.Cu) (tedit 5E9CAFEB)
  (attr smd)
  (fp_text reference C21B1 (at 174.94449 42.98014 -270 unlocked) (layer F.SilkS) hide
    (effects (font (size 1.332992 1.40208) (thickness 0.254)))
  )
  (fp_text value C-BTP-802 (at -0.2619 2.02273 -270 unlocked) (layer F.SilkS) hide
    (effects (font (size 1.332992 1.40208) (thickness 0.254)))
  )
  (fp_arc (start 0 0.00001) (end -1.157943 -4.291516) (angle -149.8) (layer F.SilkS) (width 0.18))
  (fp_arc (start 0 0) (end 4.445 0) (angle -74.9) (layer F.SilkS) (width 0.18))
  (fp_arc (start 0 0) (end 1.157943 4.291526) (angle -74.9) (layer F.SilkS) (width 0.18))
  (fp_circle (center 0 0) (end 4.445 0) (layer F.Fab) (width 0.1))
  (fp_line (start -3.4925 0.635) (end -3.4925 -0.635) (layer F.SilkS) (width 0.18))
  (fp_line (start -4.1275 0) (end -2.8575 0) (layer F.SilkS) (width 0.18))
  (pad - thru_hole circle (at 1.75 0) (size 1.6764 1.6764) (drill 0.9652) (layers *.Cu *.Mask))
  (pad + thru_hole rect (at -1.75 0) (size 1.6764 1.6764) (drill 0.9652) (layers *.Cu *.Mask))
  (model ${KISYS3DMOD}/Capacitor_THT.3dshapes/CP_Radial_D8.0mm_P3.50mm.wrl
    (offset (xyz -1.75 0 0))
    (scale (xyz 1 1 1))
    (rotate (xyz 0 0 0))
  )
)
