(module B3CAP-RB0505_1 (layer F.Cu) (tedit 5E9C838C)
  (attr smd)
  (fp_text reference BL4 (at 0.72323 -30.3052 unlocked) (layer F.SilkS)
    (effects (font (size 1.0496 1.104) (thickness 0.1)))
  )
  (fp_text value B3CAP-RB0505 (at -4.08073 -0.0586 unlocked) (layer F.SilkS) hide
    (effects (font (size 1.0496 1.104) (thickness 0.1)))
  )
  (fp_line (start 9.95 28.705) (end 9.95 25.99146) (layer F.SilkS) (width 0.18))
  (fp_line (start -9.95 13.09622) (end -9.95 -22.90854) (layer F.SilkS) (width 0.18))
  (fp_line (start 9.95 -25.99146) (end 9.95 -28.9) (layer F.SilkS) (width 0.18))
  (fp_line (start -9.95 -28.9) (end 9.95 -28.9) (layer F.SilkS) (width 0.18))
  (fp_line (start -9.95 28.705) (end -9.95 25.99146) (layer F.SilkS) (width 0.18))
  (fp_line (start 9.95 22.90854) (end 9.95 -22.90854) (layer F.SilkS) (width 0.18))
  (fp_line (start -9.95 22.90854) (end -9.95 14.42453) (layer F.SilkS) (width 0.18))
  (fp_line (start -9.95 -25.99146) (end -9.95 -28.9) (layer F.SilkS) (width 0.18))
  (fp_line (start -9.45 28.4) (end -9.45 -28.4) (layer F.Fab) (width 0.1))
  (fp_line (start -9.95 28.9) (end -9.95 -28.9) (layer F.Fab) (width 0.1))
  (fp_line (start 9.45 -1.75) (end 9.95 -1.75) (layer F.Fab) (width 0.05))
  (fp_line (start 9.45 20.75) (end 9.95 20.75) (layer F.Fab) (width 0.05))
  (fp_line (start 9.45 0) (end 9.95 0) (layer F.Fab) (width 0.05))
  (fp_line (start 9.45 19) (end 9.95 19) (layer F.Fab) (width 0.05))
  (fp_line (start 9.45 1.75) (end 9.95 1.75) (layer F.Fab) (width 0.05))
  (fp_line (start 9.45 17.25) (end 9.95 17.25) (layer F.Fab) (width 0.05))
  (fp_line (start -9.95 -28.9) (end 9.95 -28.9) (layer F.Fab) (width 0.1))
  (fp_line (start -9.45 -28.4) (end 9.45 -28.4) (layer F.Fab) (width 0.1))
  (fp_line (start 9.95 28.9) (end 9.95 -28.9) (layer F.Fab) (width 0.1))
  (fp_line (start 9.45 28.4) (end 9.45 -28.4) (layer F.Fab) (width 0.1))
  (fp_line (start 9.45 -20.75) (end 9.95 -20.75) (layer F.Fab) (width 0.05))
  (fp_line (start 9.45 -19) (end 9.95 -19) (layer F.Fab) (width 0.05))
  (fp_line (start 9.45 -17.25) (end 9.95 -17.25) (layer F.Fab) (width 0.05))
  (fp_line (start -9.95 28.9) (end 9.95 28.9) (layer F.Fab) (width 0.1))
  (fp_line (start -9.45 28.4) (end 9.45 28.4) (layer F.Fab) (width 0.1))
  (pad 4 thru_hole circle (at -9.7 24.45) (size 2.54 2.54) (drill 1.8034) (layers *.Cu *.Mask))
  (pad 3 thru_hole circle (at 9.7 24.45) (size 2.54 2.54) (drill 1.8034) (layers *.Cu *.Mask))
  (pad 2 thru_hole circle (at 9.7 -24.45) (size 2.54 2.54) (drill 1.8034) (layers *.Cu *.Mask))
  (pad 1 thru_hole circle (at -9.7 -24.45) (size 2.54 2.54) (drill 1.8034) (layers *.Cu *.Mask))
  (model "${KIPRJMOD}/../Library/Footprints.3dshapes/capot 3 capteurs P phase 2 - recenter.stp"
    (at (xyz 0 0 0))
    (scale (xyz 1 1 1))
    (rotate (xyz 0 0 0))
  )
)
