(module C-SC8 placed (layer F.Cu) (tedit 5EC6992A)
  (fp_text reference C21 (at 1.1825 -1.144) (layer F.SilkS)
    (effects (font (size 1.2 1.2) (thickness 0.1)) (justify left bottom))
  )
  (fp_text value C-BCP-WX8 (at 0 2) (layer F.Fab) hide
    (effects (font (size 1 1) (thickness 0.15)))
  )
  (fp_text user + (at -0.5 -1.62762) (layer F.SilkS)
    (effects (font (size 1 1) (thickness 0.1524)) (justify left))
  )
  (fp_poly (pts (xy -1.1 5.2) (xy -1.1 4.3) (xy -4.3 4.2) (xy -4.3 -3.1)
    (xy -3 -4.4) (xy -1.1 -4.4) (xy -1.1 -5.2) (xy 1 -5.2)
    (xy 1 -4.4) (xy 3 -4.4) (xy 4.3 -3.1) (xy 4.2 4.2)
    (xy 1.3 4.2) (xy 1.1 4.2) (xy 1.1 5.2)) (layer F.Fab) (width 0.02))
  (fp_line (start 0.9525 5.105) (end -0.9525 5.105) (layer F.SilkS) (width 0.02))
  (fp_line (start 0.9525 1.295) (end 0.9525 5.105) (layer F.SilkS) (width 0.02))
  (fp_line (start -0.9525 1.295) (end 0.9525 1.295) (layer F.SilkS) (width 0.02))
  (fp_line (start -0.9525 5.105) (end -0.9525 1.295) (layer F.SilkS) (width 0.02))
  (fp_line (start 0.9525 -1.295) (end -0.9525 -1.295) (layer F.SilkS) (width 0.02))
  (fp_line (start 0.9525 -5.105) (end 0.9525 -1.295) (layer F.SilkS) (width 0.02))
  (fp_line (start -0.9525 -5.105) (end 0.9525 -5.105) (layer F.SilkS) (width 0.02))
  (fp_line (start -0.9525 -1.295) (end -0.9525 -5.105) (layer F.SilkS) (width 0.02))
  (fp_line (start -2.3 3.3) (end 2.2 3.3) (layer F.SilkS) (width 0.1))
  (fp_line (start -1.5 3.7) (end 1.5 3.7) (layer F.SilkS) (width 0.1))
  (fp_line (start -1.8 3.5) (end 1.8 3.5) (layer F.SilkS) (width 0.1))
  (fp_line (start 0.5 4.5) (end 0.5 4.2) (layer F.SilkS) (width 0.1))
  (fp_line (start -0.5 4.5) (end 0.5 4.5) (layer F.SilkS) (width 0.1))
  (fp_line (start -0.5 4.2) (end -0.5 4.5) (layer F.SilkS) (width 0.1))
  (fp_line (start 0.5 4.2) (end -0.5 4.2) (layer F.SilkS) (width 0.1))
  (fp_line (start -0.5 -4.2) (end 0.5 -4.2) (layer F.SilkS) (width 0.1))
  (fp_line (start -0.5 -4.5) (end -0.5 -4.2) (layer F.SilkS) (width 0.1))
  (fp_line (start 0.5 -4.5) (end -0.5 -4.5) (layer F.SilkS) (width 0.1))
  (fp_line (start 0.5 -4.2) (end 0.5 -4.5) (layer F.SilkS) (width 0.1))
  (fp_line (start -4.2 -3) (end -4.2 4.2) (layer F.SilkS) (width 0.1))
  (fp_line (start -3 -4.2) (end -4.2 -3) (layer F.SilkS) (width 0.1))
  (fp_line (start 3 -4.2) (end -3 -4.2) (layer F.SilkS) (width 0.1))
  (fp_line (start 4.2 -3) (end 3 -4.2) (layer F.SilkS) (width 0.1))
  (fp_line (start 4.2 4.2) (end 4.2 -3) (layer F.SilkS) (width 0.1))
  (fp_line (start -4.2 4.2) (end 4.2 4.2) (layer F.SilkS) (width 0.1))
  (fp_line (start 4.2 4.2) (end 1.27 4.2) (layer F.Fab) (width 0.18))
  (fp_line (start 4.2 -3) (end 4.2 4.2) (layer F.Fab) (width 0.18))
  (fp_line (start 3 -4.2) (end 4.2 -3) (layer F.Fab) (width 0.18))
  (fp_line (start 1.27 -4.2) (end 3 -4.2) (layer F.Fab) (width 0.18))
  (fp_line (start -3 -4.2) (end -1.27 -4.2) (layer F.Fab) (width 0.18))
  (fp_line (start -4.2 -3) (end -3 -4.2) (layer F.Fab) (width 0.18))
  (fp_line (start -4.2 4.2) (end -4.2 -3) (layer F.Fab) (width 0.18))
  (fp_line (start -1.27 4.2) (end -4.2 4.2) (layer F.Fab) (width 0.18))
  (fp_line (start 4.3 5.359) (end -4.3 5.359) (layer Dwgs.User) (width 0.05))
  (fp_line (start 4.3 -5.359) (end 4.3 5.359) (layer Dwgs.User) (width 0.05))
  (fp_line (start -4.3 -5.359) (end 4.3 -5.359) (layer Dwgs.User) (width 0.05))
  (fp_line (start -4.3 5.359) (end -4.3 -5.359) (layer Dwgs.User) (width 0.05))
  (fp_arc (start 0 0) (end 4.00125 0) (angle 360) (layer F.SilkS) (width 0.1))
  (pad - smd rect (at 0 3.2) (size 1.905 3.81) (layers F.Cu F.Paste F.Mask)
    (solder_mask_margin 0.1143) (clearance 0.2032) (zone_connect 2))
  (pad + smd rect (at 0 -3.2) (size 1.905 3.81) (layers F.Cu F.Paste F.Mask)
    (solder_mask_margin 0.1143) (clearance 0.2032) (zone_connect 2))
  (model ${KISYS3DMOD}/Capacitor_SMD.3dshapes/CP_Elec_8x10.5.wrl
    (at (xyz 0 0 0))
    (scale (xyz 1 1 1))
    (rotate (xyz 0 0 90))
  )
)
