(module C0612-4_1 (layer F.Cu) (tedit 5E9B7BCA)
  (attr smd)
  (fp_text reference REF** (at -0.4572 -0.7239 -270 unlocked) (layer F.SilkS)
    (effects (font (size 1.033069 1.086612) (thickness 0.127)))
  )
  (fp_text value CC-BC-C0612 (at 3.59173 0.0459 -180 unlocked) (layer F.SilkS) hide
    (effects (font (size 1.0496 1.104) (thickness 0.1)))
  )
  (fp_line (start 1.905 1.5875) (end 1.905 0.5658) (layer F.SilkS) (width 0.18))
  (fp_line (start -1.905 1.5875) (end 1.905 1.5875) (layer F.SilkS) (width 0.18))
  (fp_line (start 1.48738 -1.5875) (end 1.905 -1.5875) (layer F.SilkS) (width 0.18))
  (fp_line (start 1.905 -0.5658) (end 1.905 -1.5875) (layer F.SilkS) (width 0.18))
  (fp_line (start -1.905 -0.5658) (end -1.905 -1.11749) (layer F.SilkS) (width 0.18))
  (fp_line (start -1.905 1.5875) (end -1.905 0.5658) (layer F.SilkS) (width 0.18))
  (fp_line (start 0.6 -0.6) (end 1 -0.6) (layer F.Fab) (width 0.1))
  (fp_line (start 0.6 -0.6) (end 0.6 -0.8) (layer F.Fab) (width 0.1))
  (fp_line (start 0.2 -0.8) (end 0.6 -0.8) (layer F.Fab) (width 0.1))
  (fp_line (start -1.4 0.8) (end -1.4 0.6) (layer F.Fab) (width 0.1))
  (fp_line (start -1.6 0.6) (end -1.4 0.6) (layer F.Fab) (width 0.1))
  (fp_line (start -1.4 0.8) (end -1 0.8) (layer F.Fab) (width 0.1))
  (fp_line (start 0.2 -0.6) (end 0.2 -0.8) (layer F.Fab) (width 0.1))
  (fp_line (start -1 0.8) (end -1 0.6) (layer F.Fab) (width 0.1))
  (fp_line (start -1 -0.6) (end -1 -0.8) (layer F.Fab) (width 0.1))
  (fp_line (start 1.4 0.6) (end 1.6 0.6) (layer F.Fab) (width 0.1))
  (fp_line (start -0.2 0.6) (end 0.2 0.6) (layer F.Fab) (width 0.1))
  (fp_line (start -1.4 -0.8) (end -1 -0.8) (layer F.Fab) (width 0.1))
  (fp_line (start 0.2 0.8) (end 0.2 0.6) (layer F.Fab) (width 0.1))
  (fp_line (start -0.2 -0.6) (end 0.2 -0.6) (layer F.Fab) (width 0.1))
  (fp_line (start 1.4 0.8) (end 1.4 0.6) (layer F.Fab) (width 0.1))
  (fp_line (start -0.2 -0.6) (end -0.2 -0.8) (layer F.Fab) (width 0.1))
  (fp_line (start -1 0.6) (end -0.6 0.6) (layer F.Fab) (width 0.1))
  (fp_line (start -0.6 -0.8) (end -0.2 -0.8) (layer F.Fab) (width 0.1))
  (fp_line (start -0.6 0.8) (end -0.6 0.6) (layer F.Fab) (width 0.1))
  (fp_line (start 1 0.8) (end 1.4 0.8) (layer F.Fab) (width 0.1))
  (fp_line (start -1.6 0.6) (end -1.6 -0.6) (layer F.Fab) (width 0.1))
  (fp_line (start -0.6 0.8) (end -0.2 0.8) (layer F.Fab) (width 0.1))
  (fp_line (start 1 0.8) (end 1 0.6) (layer F.Fab) (width 0.1))
  (fp_line (start 0.6 0.6) (end 1 0.6) (layer F.Fab) (width 0.1))
  (fp_line (start 0.2 0.8) (end 0.6 0.8) (layer F.Fab) (width 0.1))
  (fp_line (start -0.6 -0.6) (end -0.6 -0.8) (layer F.Fab) (width 0.1))
  (fp_line (start -0.2 0.8) (end -0.2 0.6) (layer F.Fab) (width 0.1))
  (fp_line (start -1.6 -0.6) (end -1.4 -0.6) (layer F.Fab) (width 0.1))
  (fp_line (start -1 -0.6) (end -0.6 -0.6) (layer F.Fab) (width 0.1))
  (fp_line (start 0.6 0.8) (end 0.6 0.6) (layer F.Fab) (width 0.1))
  (fp_line (start -1.4 -0.6) (end -1.4 -0.8) (layer F.Fab) (width 0.1))
  (fp_line (start 1.4 -0.6) (end 1.4 -0.8) (layer F.Fab) (width 0.1))
  (fp_line (start 1 -0.8) (end 1.4 -0.8) (layer F.Fab) (width 0.1))
  (fp_line (start 1.6 0.6) (end 1.6 -0.6) (layer F.Fab) (width 0.1))
  (fp_line (start 1 -0.6) (end 1 -0.8) (layer F.Fab) (width 0.1))
  (pad 8 smd rect (at -1.2 -0.8) (size 0.5588 0.9144) (layers F.Cu F.Paste F.Mask))
  (pad 7 smd rect (at -0.4 -0.8) (size 0.5588 0.9144) (layers F.Cu F.Paste F.Mask))
  (pad 6 smd rect (at 0.4 -0.8) (size 0.5588 0.9144) (layers F.Cu F.Paste F.Mask))
  (pad 5 smd rect (at 1.2 -0.8) (size 0.5588 0.9144) (layers F.Cu F.Paste F.Mask))
  (pad 4 smd rect (at 1.2 0.8) (size 0.5588 0.9144) (layers F.Cu F.Paste F.Mask))
  (pad 3 smd rect (at 0.4 0.8) (size 0.5588 0.9144) (layers F.Cu F.Paste F.Mask))
  (pad 2 smd rect (at -0.4 0.8) (size 0.5588 0.9144) (layers F.Cu F.Paste F.Mask))
  (pad 1 smd rect (at -1.2 0.8) (size 0.5588 0.9144) (layers F.Cu F.Paste F.Mask))
  (model ${KIPRJMOD}/../Library/Footprints.3dshapes/CAPCAF80P160X320X90-8N.stp
    (at (xyz 0 0 0))
    (scale (xyz 1 1 1))
    (rotate (xyz 0 0 90))
  )
)
