(module C0805-AIROX-BLM21PG221SH1 placed (layer F.Cu) (tedit 5EBE99B9)
  (fp_text reference L1 (at -1.41139 -0.80301 -180) (layer F.SilkS)
    (effects (font (size 1.2 1.2) (thickness 0.1)) (justify left bottom))
  )
  (fp_text value SF-BC-S0805 (at 0 2) (layer F.Fab) hide
    (effects (font (size 1 1) (thickness 0.15)))
  )
  (fp_poly (pts (xy 1.1 -0.635) (xy 1.1 0.635) (xy -1.1 0.635) (xy -1.1 -0.635)) (layer F.Fab) (width 0.02))
  (fp_poly (pts (xy -1.905 -0.9525) (xy 1.905 -0.9525) (xy 1.905 0.9525) (xy -1.905 0.9525)) (layer F.Fab) (width 0.02))
  (fp_line (start 1.475 -0.725) (end 0.325 -0.725) (layer F.SilkS) (width 0.1))
  (fp_line (start 1.475 0.725) (end 1.475 -0.725) (layer F.SilkS) (width 0.1))
  (fp_line (start 0.325 0.725) (end 1.475 0.725) (layer F.SilkS) (width 0.1))
  (fp_line (start 0.325 -0.725) (end 0.325 0.725) (layer F.SilkS) (width 0.1))
  (fp_line (start -0.325 -0.725) (end -1.475 -0.725) (layer F.SilkS) (width 0.1))
  (fp_line (start -0.325 0.725) (end -0.325 -0.725) (layer F.SilkS) (width 0.1))
  (fp_line (start -1.475 0.725) (end -0.325 0.725) (layer F.SilkS) (width 0.1))
  (fp_line (start -1.475 -0.725) (end -1.475 0.725) (layer F.SilkS) (width 0.1))
  (fp_line (start -1 -0.635) (end -1 0.635) (layer F.SilkS) (width 0.1))
  (fp_line (start 1 -0.635) (end -1 -0.635) (layer F.SilkS) (width 0.1))
  (fp_line (start 1 0.635) (end 1 -0.635) (layer F.SilkS) (width 0.1))
  (fp_line (start -1 0.635) (end 1 0.635) (layer F.SilkS) (width 0.1))
  (fp_line (start 1 -0.635) (end 1 0.635) (layer F.SilkS) (width 0.1))
  (fp_line (start 0.5 -0.635) (end 1 -0.635) (layer F.SilkS) (width 0.1))
  (fp_line (start 0.5 0.635) (end 0.5 -0.635) (layer F.SilkS) (width 0.1))
  (fp_line (start 1 0.635) (end 0.5 0.635) (layer F.SilkS) (width 0.1))
  (fp_line (start -1 -0.635) (end -1 0.635) (layer F.SilkS) (width 0.1))
  (fp_line (start -0.5 -0.635) (end -1 -0.635) (layer F.SilkS) (width 0.1))
  (fp_line (start -0.5 0.635) (end -0.5 -0.635) (layer F.SilkS) (width 0.1))
  (fp_line (start -1 0.635) (end -0.5 0.635) (layer F.SilkS) (width 0.1))
  (fp_line (start -1.7 1) (end -1.7 -1) (layer F.Fab) (width 0.18))
  (fp_line (start 1.7 1) (end -1.7 1) (layer F.Fab) (width 0.18))
  (fp_line (start 1.7 -1) (end 1.7 1) (layer F.Fab) (width 0.18))
  (fp_line (start -1.7 -1) (end 1.7 -1) (layer F.Fab) (width 0.18))
  (fp_line (start 1.905 1.09) (end -1.905 1.09) (layer Dwgs.User) (width 0.05))
  (fp_line (start 1.905 -1.09) (end 1.905 1.09) (layer Dwgs.User) (width 0.05))
  (fp_line (start -1.905 -1.09) (end 1.905 -1.09) (layer Dwgs.User) (width 0.05))
  (fp_line (start -1.905 1.09) (end -1.905 -1.09) (layer Dwgs.User) (width 0.05))
  (pad 2 smd rect (at 0.9 0) (size 1.15 1.45) (layers F.Cu F.Paste F.Mask)
    (solder_mask_margin 0.1) (zone_connect 2))
  (pad 1 smd rect (at -0.9 0) (size 1.15 1.45) (layers F.Cu F.Paste F.Mask)
    (solder_mask_margin 0.1) (zone_connect 2))
  (model ${KISYS3DMOD}/Capacitor_SMD.3dshapes/C_0805_2012Metric.wrl
    (at (xyz 0 0 0))
    (scale (xyz 1 1 1))
    (rotate (xyz 0 0 0))
  )
)
