(module C1210 (layer F.Cu) (tedit 5EC6F816)
  (attr smd)
  (fp_text reference REF** (at 0 -2.25) (layer F.SilkS)
    (effects (font (size 1 1) (thickness 0.15)))
  )
  (fp_text value C1210 (at 0 2) (layer F.Fab) hide
    (effects (font (size 1 1) (thickness 0.15)))
  )
  (fp_line (start -2.63 1.995) (end -2.63 -1.995) (layer Dwgs.User) (width 0.05))
  (fp_line (start -2.63 -1.995) (end 2.63 -1.995) (layer Dwgs.User) (width 0.05))
  (fp_line (start 2.63 -1.995) (end 2.63 1.995) (layer Dwgs.User) (width 0.05))
  (fp_line (start 2.63 1.995) (end -2.63 1.995) (layer Dwgs.User) (width 0.05))
  (fp_line (start -2.54 1.905) (end 2.54 1.905) (layer F.Fab) (width 0.18))
  (fp_line (start 2.54 1.905) (end 2.54 -1.905) (layer F.Fab) (width 0.18))
  (fp_line (start 2.54 -1.905) (end -2.54 -1.905) (layer F.Fab) (width 0.18))
  (fp_line (start -2.54 -1.905) (end -2.54 1.905) (layer F.Fab) (width 0.18))
  (fp_line (start -1.778 1.397) (end 1.778 1.397) (layer F.SilkS) (width 0.1))
  (fp_line (start 1.778 1.397) (end 1.778 -1.397) (layer F.SilkS) (width 0.1))
  (fp_line (start 1.778 -1.397) (end -1.778 -1.397) (layer F.SilkS) (width 0.1))
  (fp_line (start -1.778 -1.397) (end -1.778 1.397) (layer F.SilkS) (width 0.1))
  (fp_line (start -2.2098 1.5875) (end -2.2098 -1.5875) (layer F.SilkS) (width 0.02))
  (fp_line (start -2.2098 -1.5875) (end -0.635 -1.5875) (layer F.SilkS) (width 0.02))
  (fp_line (start -0.635 -1.5875) (end -0.635 1.5875) (layer F.SilkS) (width 0.02))
  (fp_line (start -0.635 1.5875) (end -2.2098 1.5875) (layer F.SilkS) (width 0.02))
  (fp_line (start 0.635 1.5875) (end 0.635 -1.5875) (layer F.SilkS) (width 0.02))
  (fp_line (start 0.635 -1.5875) (end 2.2098 -1.5875) (layer F.SilkS) (width 0.02))
  (fp_line (start 2.2098 -1.5875) (end 2.2098 1.5875) (layer F.SilkS) (width 0.02))
  (fp_line (start 2.2098 1.5875) (end 0.635 1.5875) (layer F.SilkS) (width 0.02))
  (fp_poly (pts (xy -2.54 -1.905) (xy 2.54 -1.905) (xy 2.54 1.905) (xy -2.54 1.905)
    (xy -2.54 -1.905)) (layer F.Fab) (width 0.02))
  (pad 1 smd rect (at -1.4224 0) (size 1.5748 3.175) (layers F.Cu F.Paste F.Mask)
    (solder_mask_margin 0.1016) (zone_connect 2))
  (pad 2 smd rect (at 1.4224 0) (size 1.5748 3.175) (layers F.Cu F.Paste F.Mask)
    (solder_mask_margin 0.1016) (zone_connect 2))
  (model ${KISYS3DMOD}/Capacitor_SMD.3dshapes/C_1210_3225Metric.wrl
    (at (xyz 0 0 0))
    (scale (xyz 1 1 1))
    (rotate (xyz 0 0 0))
  )
)
