(module C3216 placed (layer F.Cu) (tedit 5EC6992A)
  (fp_text reference C7 (at 1.635 -0.75) (layer F.SilkS)
    (effects (font (size 1.2 1.2) (thickness 0.1)) (justify left bottom))
  )
  (fp_text value C-BCP-C3216 (at 0 2) (layer F.Fab) hide
    (effects (font (size 1 1) (thickness 0.15)))
  )
  (fp_text user + (at -0.7 0.40996) (layer F.SilkS)
    (effects (font (size 1 1) (thickness 0.1)) (justify left))
  )
  (fp_poly (pts (xy -2.54 -1.27) (xy 2.54 -1.27) (xy 2.54 1.27) (xy -2.54 1.27)
    (xy -2.54 -1.27)) (layer F.Fab) (width 0.02))
  (fp_line (start 2.2098 0.9525) (end 0.635 0.9525) (layer F.SilkS) (width 0.02))
  (fp_line (start 2.2098 -0.9525) (end 2.2098 0.9525) (layer F.SilkS) (width 0.02))
  (fp_line (start 0.635 -0.9525) (end 2.2098 -0.9525) (layer F.SilkS) (width 0.02))
  (fp_line (start 0.635 0.9525) (end 0.635 -0.9525) (layer F.SilkS) (width 0.02))
  (fp_line (start -0.635 0.9525) (end -2.2098 0.9525) (layer F.SilkS) (width 0.02))
  (fp_line (start -0.635 -0.9525) (end -0.635 0.9525) (layer F.SilkS) (width 0.02))
  (fp_line (start -2.2098 -0.9525) (end -0.635 -0.9525) (layer F.SilkS) (width 0.02))
  (fp_line (start -2.2098 0.9525) (end -2.2098 -0.9525) (layer F.SilkS) (width 0.02))
  (fp_line (start -1.2176 0.9398) (end -1.2176 -0.9398) (layer F.SilkS) (width 0.1))
  (fp_line (start -1.7526 -0.9398) (end -1.7526 0.9398) (layer F.SilkS) (width 0.1))
  (fp_line (start 1.7526 -0.9398) (end -1.7526 -0.9398) (layer F.SilkS) (width 0.1))
  (fp_line (start 1.7526 0.9398) (end 1.7526 -0.9398) (layer F.SilkS) (width 0.1))
  (fp_line (start -1.7526 0.9398) (end 1.7526 0.9398) (layer F.SilkS) (width 0.1))
  (fp_line (start -1.0176 0.9398) (end -1.0176 -0.9398) (layer F.SilkS) (width 0.1))
  (fp_line (start -2.54 0.9525) (end -2.2225 1.27) (layer F.Fab) (width 0.18))
  (fp_line (start -2.54 -0.9525) (end -2.54 0.9525) (layer F.Fab) (width 0.18))
  (fp_line (start -2.2225 -1.27) (end -2.54 -0.9525) (layer F.Fab) (width 0.18))
  (fp_line (start 2.54 -1.27) (end -2.2225 -1.27) (layer F.Fab) (width 0.18))
  (fp_line (start 2.54 1.27) (end 2.54 -1.27) (layer F.Fab) (width 0.18))
  (fp_line (start -2.2225 1.27) (end 2.54 1.27) (layer F.Fab) (width 0.18))
  (fp_line (start 2.63 1.36) (end -2.63 1.36) (layer Dwgs.User) (width 0.05))
  (fp_line (start 2.63 -1.36) (end 2.63 1.36) (layer Dwgs.User) (width 0.05))
  (fp_line (start -2.63 -1.36) (end 2.63 -1.36) (layer Dwgs.User) (width 0.05))
  (fp_line (start -2.63 1.36) (end -2.63 -1.36) (layer Dwgs.User) (width 0.05))
  (pad - smd rect (at 1.4224 0) (size 1.5748 1.905) (layers F.Cu F.Paste F.Mask)
    (solder_mask_margin 0.1016) (clearance 0.2032) (zone_connect 2))
  (pad + smd rect (at -1.4224 0) (size 1.5748 1.905) (layers F.Cu F.Paste F.Mask)
    (solder_mask_margin 0.1016) (clearance 0.2032) (zone_connect 2))
  (model ${KISYS3DMOD}/Capacitor_SMD.3dshapes/C_1206_3216Metric.wrl
    (at (xyz 0 0 0))
    (scale (xyz 1 1 1))
    (rotate (xyz 0 0 0))
  )
)
