(module C6032 placed (layer F.Cu) (tedit 5EC6992A)
  (fp_text reference C81 (at 1.5 -0.75) (layer F.SilkS)
    (effects (font (size 1.2 1.2) (thickness 0.1)) (justify left bottom))
  )
  (fp_text value C-BCP-C6032 (at 0 2) (layer F.Fab) hide
    (effects (font (size 1 1) (thickness 0.15)))
  )
  (fp_text user + (at -2.5 -0.09004) (layer F.SilkS)
    (effects (font (size 1 1) (thickness 0.1)) (justify left))
  )
  (fp_poly (pts (xy 3.81 1.905) (xy -3.81 1.905) (xy -3.81 -1.905) (xy 3.81 -1.905)
    (xy 3.81 1.905)) (layer F.Fab) (width 0.02))
  (fp_line (start 3.5052 1.27) (end 1.2192 1.27) (layer F.SilkS) (width 0.02))
  (fp_line (start 3.5052 -1.27) (end 3.5052 1.27) (layer F.SilkS) (width 0.02))
  (fp_line (start 1.2192 -1.27) (end 3.5052 -1.27) (layer F.SilkS) (width 0.02))
  (fp_line (start 1.2192 1.27) (end 1.2192 -1.27) (layer F.SilkS) (width 0.02))
  (fp_line (start -1.2192 1.27) (end -3.5052 1.27) (layer F.SilkS) (width 0.02))
  (fp_line (start -1.2192 -1.27) (end -1.2192 1.27) (layer F.SilkS) (width 0.02))
  (fp_line (start -3.5052 -1.27) (end -1.2192 -1.27) (layer F.SilkS) (width 0.02))
  (fp_line (start -3.5052 1.27) (end -3.5052 -1.27) (layer F.SilkS) (width 0.02))
  (fp_line (start -2.9972 1.524) (end -2.9972 -1.524) (layer F.SilkS) (width 0.1))
  (fp_line (start -3.5052 1.6002) (end 3.4798 1.6002) (layer F.SilkS) (width 0.1))
  (fp_line (start -3.5052 -1.6002) (end -3.5052 1.6002) (layer F.SilkS) (width 0.1))
  (fp_line (start 3.4798 -1.6002) (end -3.5052 -1.6002) (layer F.SilkS) (width 0.1))
  (fp_line (start 3.4798 1.6002) (end 3.4798 -1.6002) (layer F.SilkS) (width 0.1))
  (fp_line (start -2.7972 1.524) (end -2.7972 -1.524) (layer F.SilkS) (width 0.1))
  (fp_line (start 3.81 1.905) (end 3.81 -1.905) (layer F.Fab) (width 0.18))
  (fp_line (start -3.4925 1.905) (end 3.81 1.905) (layer F.Fab) (width 0.18))
  (fp_line (start -3.81 1.5875) (end -3.4925 1.905) (layer F.Fab) (width 0.18))
  (fp_line (start -3.81 -1.5875) (end -3.81 1.5875) (layer F.Fab) (width 0.18))
  (fp_line (start -3.4925 -1.905) (end -3.81 -1.5875) (layer F.Fab) (width 0.18))
  (fp_line (start 3.81 -1.905) (end -3.4925 -1.905) (layer F.Fab) (width 0.18))
  (fp_line (start 3.9 1.995) (end -3.9 1.995) (layer Dwgs.User) (width 0.05))
  (fp_line (start 3.9 -1.995) (end 3.9 1.995) (layer Dwgs.User) (width 0.05))
  (fp_line (start -3.9 -1.995) (end 3.9 -1.995) (layer Dwgs.User) (width 0.05))
  (fp_line (start -3.9 1.995) (end -3.9 -1.995) (layer Dwgs.User) (width 0.05))
  (pad - smd rect (at 2.3622 0) (size 2.286 2.54) (layers F.Cu F.Paste F.Mask)
    (solder_mask_margin 0.127) (clearance 0.2032) (zone_connect 2))
  (pad + smd rect (at -2.3622 0) (size 2.286 2.54) (layers F.Cu F.Paste F.Mask)
    (solder_mask_margin 0.127) (clearance 0.2032) (zone_connect 2))
  (model ${KISYS3DMOD}/Capacitor_Tantalum_SMD.3dshapes/CP_EIA-6032-28_Kemet-C.wrl
    (at (xyz 0 0 0))
    (scale (xyz 1 1 1))
    (rotate (xyz 0 0 0))
  )
)
