(module CMF1_100001100001100001100011101001100001100001100001100001 locked placed (layer F.Cu) (tedit 5EBE99B9)
  (fp_text reference SW1 (at -29.819 -8.589 -180) (layer F.SilkS)
    (effects (font (size 1.2 1.2) (thickness 0.1)) (justify left bottom))
  )
  (fp_text value SI-BT-CMF1 (at 0 2) (layer F.Fab) hide
    (effects (font (size 1 1) (thickness 0.15)))
  )
  (fp_arc (start -2.670471 23.619296) (end -12.4 11.3) (angle 44.042575) (layer F.Fab) (width 0.18))
  (fp_arc (start -8.15 -10) (end -6.88 -10) (angle 360) (layer B.Fab) (width 0.02))
  (fp_arc (start -15.15 -10) (end -13.88 -10) (angle 360) (layer B.Fab) (width 0.02))
  (fp_arc (start -33.6 -6.16) (end -32.33 -6.16) (angle 360) (layer B.Fab) (width 0.02))
  (fp_arc (start -42.2 -6.16) (end -40.93 -6.16) (angle 360) (layer B.Fab) (width 0.02))
  (fp_arc (start 6.45 0) (end 7.72 0) (angle 360) (layer B.Fab) (width 0.02))
  (fp_arc (start -51.45 0) (end -50.18 0) (angle 360) (layer B.Fab) (width 0.02))
  (fp_arc (start -2.670471 23.619296) (end -12.4 11.3) (angle 44.042575) (layer F.SilkS) (width 0.1))
  (fp_arc (start -23.398231 -3.002815) (end -27.4 -2.9) (angle -181.351686) (layer F.SilkS) (width 0.1))
  (fp_arc (start -23.4 -3) (end -20.4 -3) (angle 360) (layer F.SilkS) (width 0.1))
  (fp_line (start -53.0502 11.5) (end -53.0502 -16.29) (layer Dwgs.User) (width 0.05))
  (fp_line (start -53.0502 -16.29) (end 8.1 -16.29) (layer Dwgs.User) (width 0.05))
  (fp_line (start 8.1 -16.29) (end 8.1 11.5) (layer Dwgs.User) (width 0.05))
  (fp_line (start 8.1 11.5) (end -53.0502 11.5) (layer Dwgs.User) (width 0.05))
  (fp_line (start -49.15 8) (end 4.2 8) (layer F.Fab) (width 0.18))
  (fp_line (start 4.2 8) (end 4.2 -16.2) (layer F.Fab) (width 0.18))
  (fp_line (start 4.2 -16.2) (end -49.15 -16.2) (layer F.Fab) (width 0.18))
  (fp_line (start -49.15 -16.2) (end -49.15 8) (layer F.Fab) (width 0.18))
  (fp_line (start -15.4 8) (end -12.4 11.3) (layer F.Fab) (width 0.18))
  (fp_line (start -49.15 8) (end 4.2 8) (layer F.SilkS) (width 0.1))
  (fp_line (start 4.2 8) (end 4.2 -16.2) (layer F.SilkS) (width 0.1))
  (fp_line (start 4.2 -16.2) (end -49.2 -16.2) (layer F.SilkS) (width 0.1))
  (fp_line (start -49.2 -16.2) (end -49.2 8) (layer F.SilkS) (width 0.1))
  (fp_line (start -49.2 0.8) (end -51.5 0.8) (layer F.SilkS) (width 0.1))
  (fp_line (start -51.5 0.8) (end -51.5 -0.8) (layer F.SilkS) (width 0.1))
  (fp_line (start -51.5 -0.8) (end -49.2 -0.8) (layer F.SilkS) (width 0.1))
  (fp_line (start -49.2 -0.8) (end -49.2 0.8) (layer F.SilkS) (width 0.1))
  (fp_line (start 6.5 0.8) (end 4.2 0.8) (layer F.SilkS) (width 0.1))
  (fp_line (start 4.2 0.8) (end 4.2 -0.8) (layer F.SilkS) (width 0.1))
  (fp_line (start 4.2 -0.8) (end 6.5 -0.8) (layer F.SilkS) (width 0.1))
  (fp_line (start 6.5 -0.8) (end 6.5 0.8) (layer F.SilkS) (width 0.1))
  (fp_line (start -15.4 8) (end -12.4 11.3) (layer F.SilkS) (width 0.1))
  (fp_line (start -49.2 -14.2) (end 4.2 -14.2) (layer F.SilkS) (width 0.1))
  (fp_line (start -27.4 -14.2) (end -27.4 -2.9) (layer F.SilkS) (width 0.1))
  (fp_line (start -19.4 -3.2) (end -19.4 -14.2) (layer F.SilkS) (width 0.1))
  (fp_poly (pts (xy -49.15 11.5) (xy -49.15 1.7) (xy -52.9 1.7) (xy -52.9 -1.5)
    (xy -49.2 -1.5) (xy -49.2 -16.2) (xy 4.2 -16.2) (xy 4.2 -1.5)
    (xy 7.6 -1.5) (xy 8.1 -1.5) (xy 8.1 1.5) (xy 4.1 1.5)
    (xy 4.1 11.5)) (layer F.Fab) (width 0.02))
  (pad "" np_thru_hole circle (at -23.4 -3) (size 2.9972 2.9972) (drill 3.6068) (layers F&B.Cu *.Mask)
    (solder_mask_margin 0.5842) (clearance 1.0414) (zone_connect 2))
  (pad "" np_thru_hole circle (at 0 0) (size 2.54 2.54) (drill 3.2004) (layers F&B.Cu *.Mask)
    (solder_mask_margin 0.4826) (clearance 0.8382) (zone_connect 2))
  (pad "" np_thru_hole circle (at -45 0) (size 2.54 2.54) (drill 3.2004) (layers F&B.Cu *.Mask)
    (solder_mask_margin 0.4826) (clearance 0.8382) (zone_connect 2))
  (pad 1 thru_hole circle (at -8.15 -10) (size 2.54 2.54) (drill 1.5748) (layers *.Mask F.Cu In4.Cu B.Cu)
    (solder_mask_margin 0.1524) (clearance 0.3048) (zone_connect 2) (thermal_width 0.381) (thermal_gap 0.3302))
  (pad 2 thru_hole circle (at -15.15 -10) (size 2.54 2.54) (drill 1.5748) (layers *.Mask F.Cu In2.Cu B.Cu)
    (solder_mask_margin 0.1524) (clearance 0.3048) (zone_connect 2) (thermal_width 0.381) (thermal_gap 0.3302))
  (pad 3 thru_hole circle (at -33.6 -6.16) (size 2.54 2.54) (drill 1.5748) (layers F&B.Cu *.Mask)
    (solder_mask_margin 0.1524) (clearance 0.3048) (zone_connect 2) (thermal_width 0.381) (thermal_gap 0.3302))
  (pad 4 thru_hole circle (at -42.2 -6.16) (size 2.54 2.54) (drill 1.5748) (layers F&B.Cu *.Mask)
    (solder_mask_margin 0.1524) (clearance 0.3048) (zone_connect 2) (thermal_width 0.381) (thermal_gap 0.3302))
  (pad 5 thru_hole circle (at 6.45 0) (size 2.54 2.54) (drill 1.5748) (layers F&B.Cu *.Mask)
    (solder_mask_margin 0.1524) (clearance 0.3048) (zone_connect 2) (thermal_width 0.381) (thermal_gap 0.3302))
  (pad 6 thru_hole circle (at -51.45 0) (size 2.54 2.54) (drill 1.5748) (layers F&B.Cu *.Mask)
    (solder_mask_margin 0.1524) (clearance 0.3048) (zone_connect 2) (thermal_width 0.381) (thermal_gap 0.3302))
  (model ${KIPRJMOD}/../Library/Footprints.3dshapes/e_0100.1908d005-recenter.stp
    (at (xyz 0 0 0))
    (scale (xyz 1 1 1))
    (rotate (xyz 0 0 0))
  )
  (model "${KIPRJMOD}/../Library/Footprints.3dshapes/entretoise hexa  m.stp"
    (offset (xyz -23.4 3 6.25))
    (scale (xyz 1 1 1))
    (rotate (xyz 0 0 0))
  )
  (model "${KIPRJMOD}/../Library/Footprints.3dshapes/Vis TCB M3-12 hexa.stp"
    (offset (xyz -23.4 3 0))
    (scale (xyz 1 1 1))
    (rotate (xyz 0 0 0))
  )
)
