(module AllModules:COIN_EXTERNE_1 (layer F.Cu) (tedit 0)
  (attr virtual)
  (fp_text reference cam6 (at 0 0 -180 unlocked) (layer F.SilkS) hide
    (effects (font (size 1 1) (thickness 0.15)))
  )
  (fp_text value COIN_EXTERNE (at -6 -2 unlocked) (layer F.Fab) hide
    (effects (font (size 1 1) (thickness 0.15)))
  )
  (fp_line (start -1.905 0) (end 0 0) (layer Dwgs.User) (width 0.00003))
  (fp_line (start -0.635 -1.905) (end 0 -1.905) (layer Dwgs.User) (width 0.00003))
  (fp_line (start 0 0) (end 0 -1.905) (layer Dwgs.User) (width 0.00003))
  (fp_line (start -1.905 0) (end -1.905 -0.635) (layer Dwgs.User) (width 0.00003))
  (fp_line (start -0.635 -0.635) (end -0.635 -1.905) (layer Dwgs.User) (width 0.00003))
  (fp_line (start -1.905 -0.635) (end -0.635 -0.635) (layer Dwgs.User) (width 0.00003))
)
