(module D0603_1 (layer F.Cu) (tedit 5E98DBEF)
  (attr smd)
  (fp_text reference LD1 (at -0.7571 0.2888 -180 unlocked) (layer F.SilkS)
    (effects (font (size 1.0496 1.104) (thickness 0.18)))
  )
  (fp_text value LED-BC-D0603 (at -4.8 0.8 -180 unlocked) (layer F.SilkS) hide
    (effects (font (size 1.0496 1.104) (thickness 0.18)))
  )
  (fp_line (start 0.9 0.4) (end 0.9 -0.4) (layer F.Fab) (width 0.1))
  (fp_line (start -0.9 -0.4) (end 0.9 -0.4) (layer F.Fab) (width 0.1))
  (fp_line (start -0.625 0.4) (end -0.625 -0.4) (layer F.Fab) (width 0.1))
  (fp_line (start 0.625 0.4) (end 0.625 -0.4) (layer F.Fab) (width 0.1))
  (fp_line (start -0.9 0.4) (end 0.9 0.4) (layer F.Fab) (width 0.1))
  (fp_line (start -0.9 0.4) (end -0.9 -0.4) (layer F.Fab) (width 0.1))
  (pad K smd rect (at 0.825 0) (size 0.8 0.8) (layers F.Cu F.Paste F.Mask))
  (pad A smd rect (at -0.825 0) (size 0.8 0.8) (layers F.Cu F.Paste F.Mask))
  (model ${KISYS3DMOD}/LED_SMD.3dshapes/LED_0603_1608Metric.wrl
    (at (xyz 0 0 0))
    (scale (xyz 1 1 1))
    (rotate (xyz 0 0 0))
  )
)
