(module DO216AA_1 (layer F.Cu) (tedit 5EB76C80)
  (attr smd)
  (fp_text reference Ref** (at 0 -2.3 unlocked) (layer F.SilkS)
    (effects (font (size 1.0496 1.104) (thickness 0.18)))
  )
  (fp_text value DO216AA (at 0 2.5 unlocked) (layer F.Fab) hide
    (effects (font (size 1.0496 1.104) (thickness 0.18)))
  )
  (fp_line (start 2.38671 -0.9) (end 2.5 -0.9) (layer F.SilkS) (width 0.18))
  (fp_line (start 2.5 0.9) (end 2.5 -0.9) (layer F.SilkS) (width 0.18))
  (fp_line (start 2.38671 0.9) (end 2.5 0.9) (layer F.SilkS) (width 0.18))
  (fp_line (start -2.6 0.5) (end -2.6 -0.5) (layer F.Fab) (width 0.1))
  (fp_line (start -0.2 -0.3) (end 1.4 -0.3) (layer F.Fab) (width 0.1))
  (fp_line (start -2.1 0.5) (end -2.1 -0.5) (layer F.Fab) (width 0.1))
  (fp_line (start -2.6 -0.5) (end -2.1 -0.5) (layer F.Fab) (width 0.1))
  (fp_line (start -0.2 0.3) (end 1.4 0.3) (layer F.Fab) (width 0.1))
  (fp_line (start -2.1 1.1) (end -0.2 1.1) (layer F.Fab) (width 0.1))
  (fp_line (start -2.1 -1.1) (end -0.15 -1.1) (layer F.Fab) (width 0.1))
  (fp_line (start -0.2 1.1) (end -0.2 -1.1) (layer F.Fab) (width 0.1))
  (fp_line (start -2.1 -0.5) (end -2.1 -1.1) (layer F.Fab) (width 0.1))
  (fp_line (start -1.6 1.1) (end -1.6 -1.1) (layer F.Fab) (width 0.1))
  (fp_line (start -2.1 1.1) (end -2.1 0.5) (layer F.Fab) (width 0.1))
  (fp_line (start -2.6 0.5) (end -2.1 0.5) (layer F.Fab) (width 0.1))
  (fp_line (start 1.4 0.3) (end 1.4 -0.3) (layer F.Fab) (width 0.1))
  (fp_line (start -3.2 -1.6) (end -3.2 1.6) (layer F.SilkS) (width 0.18))
  (fp_line (start -3.08671 1.6) (end -3.2 1.6) (layer F.SilkS) (width 0.18))
  (fp_line (start -3.08671 -1.6) (end -3.2 -1.6) (layer F.SilkS) (width 0.18))
  (pad K smd rect (at -1.4425 0 90) (size 2.54 3) (layers F.Cu F.Paste F.Mask))
  (pad A smd rect (at 1.4425 0 90) (size 1.27 1.5) (layers F.Cu F.Paste F.Mask))
  (model ${KIPRJMOD}/../Library/Footprints.3dshapes/ONSEMI_POWERMITE.stp
    (at (xyz 0 0 0))
    (scale (xyz 1 1 1))
    (rotate (xyz 0 0 0))
  )
)
