(module FU-0031.8221_1 (layer F.Cu) (tedit 5E95D2CC)
  (attr smd)
  (fp_text reference F1 (at -0.4714 -0.5476 -270 unlocked) (layer F.SilkS)
    (effects (font (size 1.0496 1.104) (thickness 0.18)))
  )
  (fp_text value FU-BC-0031.8221 (at -0.8 -6 -270 unlocked) (layer F.SilkS) hide
    (effects (font (size 1.0496 1.104) (thickness 0.18)))
  )
  (fp_line (start -11.5 -4.8) (end -4 -4.8) (layer F.Fab) (width 0.1))
  (fp_line (start -12.5 4.8) (end 12.5 4.8) (layer F.Fab) (width 0.1))
  (fp_line (start -10 2.5) (end 10 2.5) (layer F.Fab) (width 0.1))
  (fp_line (start 4 4.8) (end 11.5 4.8) (layer F.Fab) (width 0.1))
  (fp_line (start -11.5 -2.5) (end -11.5 -4.8) (layer F.Fab) (width 0.1))
  (fp_line (start -4 4.8) (end -4 2.5) (layer F.Fab) (width 0.1))
  (fp_line (start -11.5 2.5) (end -4 2.5) (layer F.Fab) (width 0.1))
  (fp_line (start -10 2.5) (end -10 -2.5) (layer F.Fab) (width 0.1))
  (fp_line (start -12.5 4.8) (end -12.5 -4.8) (layer F.Fab) (width 0.1))
  (fp_line (start 4 2.5) (end 11.5 2.5) (layer F.Fab) (width 0.1))
  (fp_line (start 11.5 4.8) (end 11.5 2.5) (layer F.Fab) (width 0.1))
  (fp_line (start 4 -2.5) (end 4 -4.8) (layer F.Fab) (width 0.1))
  (fp_line (start -11.5 4.8) (end -4 4.8) (layer F.Fab) (width 0.1))
  (fp_line (start -4 -2.5) (end -4 -4.8) (layer F.Fab) (width 0.1))
  (fp_line (start -10 -2.5) (end 10 -2.5) (layer F.Fab) (width 0.1))
  (fp_line (start 10 2.5) (end 10 -2.5) (layer F.Fab) (width 0.1))
  (fp_line (start 4 -2.5) (end 11.5 -2.5) (layer F.Fab) (width 0.1))
  (fp_line (start -11.5 4.8) (end -11.5 2.5) (layer F.Fab) (width 0.1))
  (fp_line (start 4 4.8) (end 4 2.5) (layer F.Fab) (width 0.1))
  (fp_line (start -12.5 -4.8) (end 12.5 -4.8) (layer F.Fab) (width 0.1))
  (fp_line (start 4 -4.8) (end 11.5 -4.8) (layer F.Fab) (width 0.1))
  (fp_line (start 11.5 -2.5) (end 11.5 -4.8) (layer F.Fab) (width 0.1))
  (fp_line (start 12.5 4.8) (end 12.5 -4.8) (layer F.Fab) (width 0.1))
  (fp_line (start -11.5 -2.5) (end -4 -2.5) (layer F.Fab) (width 0.1))
  (fp_line (start -12.5 4.8) (end 12.5 4.8) (layer F.SilkS) (width 0.18))
  (fp_line (start -12.5 -3.85752) (end -12.5 -4.8) (layer F.SilkS) (width 0.18))
  (fp_line (start 12.5 4.8) (end 12.5 4.30483) (layer F.SilkS) (width 0.18))
  (fp_line (start -12.5 -0.68252) (end -12.5 -2.49248) (layer F.SilkS) (width 0.18))
  (fp_line (start -12.5 2.49248) (end -12.5 0.68252) (layer F.SilkS) (width 0.18))
  (fp_line (start 12.5 3.31517) (end 12.5 -1.03128) (layer F.SilkS) (width 0.18))
  (fp_line (start -12.5 -4.8) (end 12.215 -4.8) (layer F.SilkS) (width 0.18))
  (fp_line (start -12.5 4.8) (end -12.5 3.85752) (layer F.SilkS) (width 0.18))
  (pad 1 smd rect (at -8.5 0) (size 6 6) (layers F.Cu F.Paste F.Mask))
  (pad 2 smd rect (at 8.5 0) (size 6 6) (layers F.Cu F.Paste F.Mask))
  (model "${KIPRJMOD}/../Library/Footprints.3dshapes/FU-0031.8221.STEP"
    (offset (xyz 4.45 0 2.25))
    (scale (xyz 1 1 1))
    (rotate (xyz -90 0 90))
  )
)
