(module G6K2G placed (layer F.Cu) (tedit 5EC6992A)
  (fp_text reference RL1 (at -1.1825 1.0675) (layer F.SilkS)
    (effects (font (size 1.2 1.2) (thickness 0.1)) (justify left bottom))
  )
  (fp_text value REL-BC-G6K2G (at 0 2) (layer F.Fab) hide
    (effects (font (size 1 1) (thickness 0.15)))
  )
  (fp_poly (pts (xy 5 -3.75) (xy 5 3.9) (xy -5 3.9) (xy -5 -3.9)
    (xy 5 -3.9)) (layer F.Fab) (width 0.02))
  (fp_line (start -3.3782 -1.834) (end -4.2418 -1.834) (layer F.SilkS) (width 0.02))
  (fp_line (start -3.3782 -3.866) (end -3.3782 -1.834) (layer F.SilkS) (width 0.02))
  (fp_line (start -4.2418 -3.866) (end -3.3782 -3.866) (layer F.SilkS) (width 0.02))
  (fp_line (start -4.2418 -1.834) (end -4.2418 -3.866) (layer F.SilkS) (width 0.02))
  (fp_line (start -0.8382 -1.834) (end -1.7018 -1.834) (layer F.SilkS) (width 0.02))
  (fp_line (start -0.8382 -3.866) (end -0.8382 -1.834) (layer F.SilkS) (width 0.02))
  (fp_line (start -1.7018 -3.866) (end -0.8382 -3.866) (layer F.SilkS) (width 0.02))
  (fp_line (start -1.7018 -1.834) (end -1.7018 -3.866) (layer F.SilkS) (width 0.02))
  (fp_line (start 1.7018 -1.834) (end 0.8382 -1.834) (layer F.SilkS) (width 0.02))
  (fp_line (start 1.7018 -3.866) (end 1.7018 -1.834) (layer F.SilkS) (width 0.02))
  (fp_line (start 0.8382 -3.866) (end 1.7018 -3.866) (layer F.SilkS) (width 0.02))
  (fp_line (start 0.8382 -1.834) (end 0.8382 -3.866) (layer F.SilkS) (width 0.02))
  (fp_line (start 4.2418 -1.834) (end 3.3782 -1.834) (layer F.SilkS) (width 0.02))
  (fp_line (start 4.2418 -3.866) (end 4.2418 -1.834) (layer F.SilkS) (width 0.02))
  (fp_line (start 3.3782 -3.866) (end 4.2418 -3.866) (layer F.SilkS) (width 0.02))
  (fp_line (start 3.3782 -1.834) (end 3.3782 -3.866) (layer F.SilkS) (width 0.02))
  (fp_line (start 4.2418 3.866) (end 3.3782 3.866) (layer F.SilkS) (width 0.02))
  (fp_line (start 4.2418 1.834) (end 4.2418 3.866) (layer F.SilkS) (width 0.02))
  (fp_line (start 3.3782 1.834) (end 4.2418 1.834) (layer F.SilkS) (width 0.02))
  (fp_line (start 3.3782 3.866) (end 3.3782 1.834) (layer F.SilkS) (width 0.02))
  (fp_line (start 1.7018 3.866) (end 0.8382 3.866) (layer F.SilkS) (width 0.02))
  (fp_line (start 1.7018 1.834) (end 1.7018 3.866) (layer F.SilkS) (width 0.02))
  (fp_line (start 0.8382 1.834) (end 1.7018 1.834) (layer F.SilkS) (width 0.02))
  (fp_line (start 0.8382 3.866) (end 0.8382 1.834) (layer F.SilkS) (width 0.02))
  (fp_line (start -0.8382 3.866) (end -1.7018 3.866) (layer F.SilkS) (width 0.02))
  (fp_line (start -0.8382 1.834) (end -0.8382 3.866) (layer F.SilkS) (width 0.02))
  (fp_line (start -1.7018 1.834) (end -0.8382 1.834) (layer F.SilkS) (width 0.02))
  (fp_line (start -1.7018 3.866) (end -1.7018 1.834) (layer F.SilkS) (width 0.02))
  (fp_line (start -3.3782 3.866) (end -4.2418 3.866) (layer F.SilkS) (width 0.02))
  (fp_line (start -3.3782 1.834) (end -3.3782 3.866) (layer F.SilkS) (width 0.02))
  (fp_line (start -4.2418 1.834) (end -3.3782 1.834) (layer F.SilkS) (width 0.02))
  (fp_line (start -4.2418 3.866) (end -4.2418 1.834) (layer F.SilkS) (width 0.02))
  (fp_line (start -4.5 1) (end -4.5 -1) (layer F.SilkS) (width 0.02))
  (fp_line (start -4 -1) (end -4 1) (layer F.SilkS) (width 0.02))
  (fp_line (start 5 3.25) (end 5 -3.25) (layer F.SilkS) (width 0.1))
  (fp_line (start -5 3.25) (end 5 3.25) (layer F.SilkS) (width 0.1))
  (fp_line (start -5 -3.25) (end -5 3.25) (layer F.SilkS) (width 0.1))
  (fp_line (start 5 -3.25) (end -5 -3.25) (layer F.SilkS) (width 0.1))
  (fp_line (start 5 3.25) (end 5 -3.25) (layer F.Fab) (width 0.18))
  (fp_line (start -5 3.25) (end 5 3.25) (layer F.Fab) (width 0.18))
  (fp_line (start -5 -3.25) (end -5 3.25) (layer F.Fab) (width 0.18))
  (fp_line (start 5 -3.25) (end -5 -3.25) (layer F.Fab) (width 0.18))
  (fp_line (start 5.09 4.12) (end -5.09 4.12) (layer Dwgs.User) (width 0.05))
  (fp_line (start 5.09 -4.12) (end 5.09 4.12) (layer Dwgs.User) (width 0.05))
  (fp_line (start -5.09 -4.12) (end 5.09 -4.12) (layer Dwgs.User) (width 0.05))
  (fp_line (start -5.09 4.12) (end -5.09 -4.12) (layer Dwgs.User) (width 0.05))
  (fp_arc (start -4.25 0.997764) (end -4 1) (angle 178.975079) (layer F.SilkS) (width 0.02))
  (fp_arc (start -4.25 -1) (end -4.5 -1) (angle 180) (layer F.SilkS) (width 0.02))
  (pad 8 smd rect (at -3.81 -2.85) (size 0.8636 2.032) (layers F.Cu F.Paste F.Mask)
    (solder_mask_margin 0.1016) (clearance 0.2032) (zone_connect 2))
  (pad 7 smd rect (at -1.27 -2.85) (size 0.8636 2.032) (layers F.Cu F.Paste F.Mask)
    (solder_mask_margin 0.1016) (clearance 0.2032) (zone_connect 2))
  (pad 6 smd rect (at 1.27 -2.85) (size 0.8636 2.032) (layers F.Cu F.Paste F.Mask)
    (solder_mask_margin 0.1016) (clearance 0.2032) (zone_connect 2))
  (pad 5 smd rect (at 3.81 -2.85) (size 0.8636 2.032) (layers F.Cu F.Paste F.Mask)
    (solder_mask_margin 0.1016) (clearance 0.2032) (zone_connect 2))
  (pad 4 smd rect (at 3.81 2.85) (size 0.8636 2.032) (layers F.Cu F.Paste F.Mask)
    (solder_mask_margin 0.1016) (clearance 0.2032) (zone_connect 2))
  (pad 3 smd rect (at 1.27 2.85) (size 0.8636 2.032) (layers F.Cu F.Paste F.Mask)
    (solder_mask_margin 0.1016) (clearance 0.2032) (zone_connect 2))
  (pad 2 smd rect (at -1.27 2.85) (size 0.8636 2.032) (layers F.Cu F.Paste F.Mask)
    (solder_mask_margin 0.1016) (clearance 0.2032) (zone_connect 2))
  (pad 1 smd rect (at -3.81 2.85) (size 0.8636 2.032) (layers F.Cu F.Paste F.Mask)
    (solder_mask_margin 0.1016) (clearance 0.2032) (zone_connect 2))
  (model ${KISYS3DMOD}/Relay_SMD.3dshapes/Relay_DPDT_Omron_G6K-2G.wrl
    (at (xyz 0 0 0))
    (scale (xyz 1 1 1))
    (rotate (xyz 0 0 -90))
  )
)
