(module MCDMR-02T_1 (layer F.Cu) (tedit 5E979449)
  (attr smd)
  (fp_text reference SW2 (at 7.5184 1.0287 90 unlocked) (layer F.SilkS)
    (effects (font (size 1.033069 1.086612) (thickness 0.1778)))
  )
  (fp_text value SI-BC-MCDMR-02T (at 5.9055 -0.7874 unlocked) (layer F.SilkS) hide
    (effects (font (size 1.033069 1.086612) (thickness 0.1778)))
  )
  (fp_line (start -1.9304 1.2446) (end -0.6604 1.2446) (layer F.Fab) (width 0.1))
  (fp_line (start -1.9304 1.2446) (end -1.9304 0) (layer F.Fab) (width 0.1))
  (fp_line (start -3.048 0.889) (end -3.048 -0.8636) (layer F.Fab) (width 0.1))
  (fp_line (start -3.0988 5.08) (end 3.0988 5.08) (layer F.Fab) (width 0.0762))
  (fp_line (start 1.905 1.27) (end 1.905 -1.27) (layer F.Fab) (width 0.0762))
  (fp_line (start -3.048 0.889) (end -2.286 0.889) (layer F.Fab) (width 0.1))
  (fp_line (start 0.635 -1.27) (end 1.905 -1.27) (layer F.Fab) (width 0.0762))
  (fp_line (start 0.635 1.27) (end 0.635 0) (layer F.Fab) (width 0.1))
  (fp_line (start 0.635 1.27) (end 1.905 1.27) (layer F.Fab) (width 0.1))
  (fp_line (start -1.905 1.27) (end -1.905 -1.27) (layer F.Fab) (width 0.0762))
  (fp_line (start -0.635 1.27) (end -0.635 -1.27) (layer F.Fab) (width 0.0762))
  (fp_line (start 3.0988 5.08) (end 3.0988 -5.08) (layer F.Fab) (width 0.0762))
  (fp_line (start 0.635 1.27) (end 1.905 1.27) (layer F.Fab) (width 0.0762))
  (fp_line (start -1.9304 0) (end -0.6604 0) (layer F.Fab) (width 0.1))
  (fp_line (start -3.0988 -5.08) (end 3.0988 -5.08) (layer F.Fab) (width 0.0762))
  (fp_line (start -0.6604 1.2446) (end -0.6604 0) (layer F.Fab) (width 0.1))
  (fp_line (start -1.905 -1.27) (end -0.635 -1.27) (layer F.Fab) (width 0.0762))
  (fp_line (start -3.0988 5.08) (end -3.0988 -5.08) (layer F.Fab) (width 0.0762))
  (fp_line (start -3.048 -0.8636) (end -2.286 -0.8636) (layer F.Fab) (width 0.1))
  (fp_line (start -2.286 0.889) (end -2.286 -0.8636) (layer F.Fab) (width 0.1))
  (fp_line (start 1.905 1.27) (end 1.905 0) (layer F.Fab) (width 0.1))
  (fp_line (start -1.905 1.27) (end -0.635 1.27) (layer F.Fab) (width 0.0762))
  (fp_line (start 0.635 0) (end 1.905 0) (layer F.Fab) (width 0.1))
  (fp_line (start 0.635 1.27) (end 0.635 -1.27) (layer F.Fab) (width 0.0762))
  (fp_line (start 2.1844 5.08) (end 2.413 5.08) (layer F.SilkS) (width 0.1778))
  (fp_line (start -3.0988 2.1336) (end -3.0988 -0.0254) (layer F.SilkS) (width 0.1778))
  (fp_line (start -3.0734 -5.08) (end -2.1844 -5.08) (layer F.SilkS) (width 0.1778))
  (fp_line (start -0.3302 5.08) (end 0.3302 5.08) (layer F.SilkS) (width 0.1778))
  (fp_line (start -0.3302 -5.08) (end 0.3302 -5.08) (layer F.SilkS) (width 0.1778))
  (fp_line (start -3.0988 5.08) (end -3.0988 3.556) (layer F.SilkS) (width 0.1778))
  (fp_line (start -3.0988 5.08) (end -2.1844 5.08) (layer F.SilkS) (width 0.1778))
  (fp_line (start 2.1844 -5.08) (end 2.413 -5.08) (layer F.SilkS) (width 0.1778))
  (pad 1 smd rect (at -1.27 4.445) (size 1.27 2.54) (layers F.Cu F.Paste F.Mask))
  (pad 2 smd rect (at -1.27 -4.445) (size 1.27 2.54) (layers F.Cu F.Paste F.Mask))
  (pad 3 smd rect (at 1.27 4.445) (size 1.27 2.54) (layers F.Cu F.Paste F.Mask))
  (pad 4 smd rect (at 1.27 -4.445) (size 1.27 2.54) (layers F.Cu F.Paste F.Mask))
  (model "${KIPRJMOD}/../Library/Footprints.3dshapes/SW_DIP_SPSTx02_Slide_6.2x6.02mm_W8.61mm_P2.54mm_LowProfile.wrl"
    (at (xyz 0 0 0))
    (scale (xyz 1 1 1))
    (rotate (xyz 0 0 0))
  )
)
