(module MOL47500-0001_1 (layer F.Cu) (tedit 5EA21E17)
  (fp_text reference J13 (at -0.2 -2 -180) (layer F.SilkS)
    (effects (font (size 1.0496 1.104) (thickness 0.18)))
  )
  (fp_text value F-CO-MOL47500-0001 (at -7.2 0.8 -180) (layer F.SilkS) hide
    (effects (font (size 1.0496 1.104) (thickness 0.18)))
  )
  (fp_line (start 2.05 -8.2) (end -2.35 -8.2) (layer F.SilkS) (width 0.2))
  (fp_line (start 2.65 4.9) (end 2.65 -7.6) (layer F.SilkS) (width 0.2))
  (fp_arc (start 3.25 4.9) (end 2.65 4.9) (angle -90) (layer F.SilkS) (width 0.2))
  (fp_arc (start 2.05 -7.6) (end 2.65 -7.6) (angle -90) (layer F.SilkS) (width 0.2))
  (fp_line (start -2.95 4.9) (end -2.95 -7.6) (layer F.SilkS) (width 0.2))
  (fp_arc (start -2.35 -7.6) (end -2.35 -8.2) (angle -90) (layer F.SilkS) (width 0.2))
  (fp_arc (start -3.55 4.9) (end -3.55 5.5) (angle -90) (layer F.SilkS) (width 0.2))
  (fp_line (start -3.65 5.47) (end 3.35 5.47) (layer F.SilkS) (width 0.07))
  (fp_line (start -3.65 -8.21) (end -3.65 5.47) (layer F.SilkS) (width 0.07))
  (fp_line (start 3.35 -8.21) (end -3.65 -8.21) (layer F.SilkS) (width 0.07))
  (fp_line (start 3.35 5.47) (end 3.35 -8.21) (layer F.SilkS) (width 0.07))
  (pad 5 thru_hole oval (at 2.27 -3.84) (size 1.8 2.5) (drill oval 1.1 2) (layers *.Cu *.Mask))
  (pad 7 thru_hole oval (at 2.27 0) (size 1.8 2.5) (drill oval 1.1 2) (layers *.Cu *.Mask))
  (pad 8 thru_hole oval (at -2.57 0) (size 1.8 2.5) (drill oval 1.1 2) (layers *.Cu *.Mask))
  (pad 6 thru_hole oval (at -2.57 -3.84) (size 1.8 2.5) (drill oval 1.1 2) (layers *.Cu *.Mask))
  (pad 4 thru_hole circle (at -2.1 -7.11) (size 0.8128 0.8128) (drill 0.8128) (layers *.Cu *.Mask))
  (pad 3 smd oval (at -0.7 -7.11) (size 1.1 1.8) (layers B.Cu B.Mask))
  (pad 2 smd oval (at 0.7 -7.11) (size 1.1 1.8) (layers B.Cu B.Mask))
  (pad 1 smd oval (at 2.1 -7.11) (size 1.1 1.8) (layers B.Cu B.Mask))
  (pad 4 smd oval (at -2.1 -7.11) (size 1.1 1.8) (layers F.Cu F.Mask))
  (pad 4 smd oval (at -2.1 -7.11) (size 1.1 1.8) (layers B.Cu B.Mask))
  (pad 3 thru_hole circle (at -0.7 -7.11) (size 0.8128 0.8128) (drill 0.8128) (layers *.Cu *.Mask))
  (pad 3 smd oval (at -0.7 -7.11) (size 1.1 1.8) (layers F.Cu F.Mask))
  (pad 2 thru_hole circle (at 0.7 -7.11) (size 0.8128 0.8128) (drill 0.8128) (layers *.Cu *.Mask))
  (pad 2 smd oval (at 0.7 -7.11) (size 1.1 1.8) (layers F.Cu F.Mask))
  (pad 1 thru_hole circle (at 2.1 -7.11) (size 0.8128 0.8128) (drill 0.8128) (layers *.Cu *.Mask))
  (pad 1 smd oval (at 2.1 -7.11) (size 1.1 1.8) (layers F.Cu F.Mask))
  (model ${KIPRJMOD}/../Library/Footprints.3dshapes/673298001.stp
    (offset (xyz -0.15 1.65 7))
    (scale (xyz 1 1 1))
    (rotate (xyz -90 0 -90))
  )
)
