(module MOL41815-12_100001100001100011100011110001110001110001110001100111100011100011100011 locked placed (layer F.Cu) (tedit 5EBE9A82)
  (fp_text reference J3 (at 20.86 -0.6525) (layer F.SilkS)
    (effects (font (size 1.2 1.2) (thickness 0.1)) (justify left bottom))
  )
  (fp_text value F-CO-MOL41815-12 (at 0 2) (layer F.Fab) hide
    (effects (font (size 1 1) (thickness 0.15)))
  )
  (fp_arc (start 3.96 0) (end 5.23 0) (angle 360) (layer B.Fab) (width 0.02))
  (fp_arc (start 7.92 0) (end 9.19 0) (angle 360) (layer B.Fab) (width 0.02))
  (fp_arc (start 11.88 0) (end 13.15 0) (angle 360) (layer B.Fab) (width 0.02))
  (fp_arc (start 15.84 0) (end 17.11 0) (angle 360) (layer B.Fab) (width 0.02))
  (fp_arc (start 19.8 0) (end 21.07 0) (angle 360) (layer B.Fab) (width 0.02))
  (fp_arc (start 23.76 0) (end 25.03 0) (angle 360) (layer B.Fab) (width 0.02))
  (fp_arc (start 27.72 0) (end 28.99 0) (angle 360) (layer B.Fab) (width 0.02))
  (fp_arc (start 31.68 0) (end 32.95 0) (angle 360) (layer B.Fab) (width 0.02))
  (fp_arc (start 35.64 0) (end 36.91 0) (angle 360) (layer B.Fab) (width 0.02))
  (fp_arc (start 39.6 0) (end 40.87 0) (angle 360) (layer B.Fab) (width 0.02))
  (fp_arc (start 43.56 0) (end 44.83 0) (angle 360) (layer B.Fab) (width 0.02))
  (fp_line (start -2.04 5.69) (end -2.04 -6.49) (layer Dwgs.User) (width 0.05))
  (fp_line (start -2.04 -6.49) (end 45.59 -6.49) (layer Dwgs.User) (width 0.05))
  (fp_line (start 45.59 -6.49) (end 45.59 5.69) (layer Dwgs.User) (width 0.05))
  (fp_line (start 45.59 5.69) (end -2.04 5.69) (layer Dwgs.User) (width 0.05))
  (fp_line (start -1.95 5.6) (end -1.95 -4.9) (layer F.Fab) (width 0.18))
  (fp_line (start -1.95 -4.9) (end 45.5 -4.9) (layer F.Fab) (width 0.18))
  (fp_line (start 45.5 -4.9) (end 45.5 5.6) (layer F.Fab) (width 0.18))
  (fp_line (start 45.5 5.6) (end 44 5.6) (layer F.Fab) (width 0.18))
  (fp_line (start 44 5.6) (end 44 1.5) (layer F.Fab) (width 0.18))
  (fp_line (start 44 1.5) (end -0.45 1.5) (layer F.Fab) (width 0.18))
  (fp_line (start -0.45 1.5) (end -0.45 5.6) (layer F.Fab) (width 0.18))
  (fp_line (start -0.45 5.6) (end -1.95 5.6) (layer F.Fab) (width 0.18))
  (fp_line (start -1.95 -4.9) (end -1.95 -6.4) (layer F.Fab) (width 0.18))
  (fp_line (start -1.95 -6.4) (end 2 -6.4) (layer F.Fab) (width 0.18))
  (fp_line (start 2 -6.4) (end 2 -4.9) (layer F.Fab) (width 0.18))
  (fp_line (start 5.95 -4.9) (end 5.95 -6.4) (layer F.Fab) (width 0.18))
  (fp_line (start 5.95 -6.4) (end 37.6 -6.4) (layer F.Fab) (width 0.18))
  (fp_line (start 37.6 -6.4) (end 37.6 -4.9) (layer F.Fab) (width 0.18))
  (fp_line (start 41.55 -4.9) (end 41.55 -6.4) (layer F.Fab) (width 0.18))
  (fp_line (start 41.55 -6.4) (end 45.5 -6.4) (layer F.Fab) (width 0.18))
  (fp_line (start 45.5 -6.4) (end 45.5 -4.9) (layer F.Fab) (width 0.18))
  (fp_line (start -1.95 -4.9) (end -0.45 -6.4) (layer F.Fab) (width 0.18))
  (fp_line (start -1.95 5.6) (end -1.95 -4.9) (layer F.SilkS) (width 0.1))
  (fp_line (start -1.95 -4.9) (end 45.5 -4.9) (layer F.SilkS) (width 0.1))
  (fp_line (start 45.5 -4.9) (end 45.5 5.6) (layer F.SilkS) (width 0.1))
  (fp_line (start 45.5 5.6) (end 44 5.6) (layer F.SilkS) (width 0.1))
  (fp_line (start 44 5.6) (end 44 1.5) (layer F.SilkS) (width 0.1))
  (fp_line (start 44 1.5) (end -0.45 1.5) (layer F.SilkS) (width 0.1))
  (fp_line (start -0.45 1.5) (end -0.45 5.6) (layer F.SilkS) (width 0.1))
  (fp_line (start -0.45 5.6) (end -1.95 5.6) (layer F.SilkS) (width 0.1))
  (fp_line (start -1.95 -4.9) (end -1.95 -6.4) (layer F.SilkS) (width 0.1))
  (fp_line (start -1.95 -6.4) (end 2 -6.4) (layer F.SilkS) (width 0.1))
  (fp_line (start 2 -6.4) (end 2 -4.9) (layer F.SilkS) (width 0.1))
  (fp_line (start 41.55 -4.9) (end 41.55 -6.4) (layer F.SilkS) (width 0.1))
  (fp_line (start 41.55 -6.4) (end 45.5 -6.4) (layer F.SilkS) (width 0.1))
  (fp_line (start 45.5 -6.4) (end 45.5 -4.9) (layer F.SilkS) (width 0.1))
  (fp_line (start 5.95 -4.9) (end 5.95 -6.4) (layer F.SilkS) (width 0.1))
  (fp_line (start 5.95 -6.4) (end 37.6 -6.4) (layer F.SilkS) (width 0.1))
  (fp_line (start 37.6 -6.4) (end 37.6 -4.9) (layer F.SilkS) (width 0.1))
  (fp_line (start -1 -2.15) (end 1 -2.15) (layer F.SilkS) (width 0.1))
  (fp_line (start 1 -2.15) (end 1 -4.15) (layer F.SilkS) (width 0.1))
  (fp_line (start 1 -4.15) (end -1 -4.15) (layer F.SilkS) (width 0.1))
  (fp_line (start -1 -4.15) (end -1 -2.15) (layer F.SilkS) (width 0.1))
  (fp_line (start 2.96 -2.15) (end 4.96 -2.15) (layer F.SilkS) (width 0.1))
  (fp_line (start 4.96 -2.15) (end 4.96 -4.15) (layer F.SilkS) (width 0.1))
  (fp_line (start 4.96 -4.15) (end 2.96 -4.15) (layer F.SilkS) (width 0.1))
  (fp_line (start 2.96 -4.15) (end 2.96 -2.15) (layer F.SilkS) (width 0.1))
  (fp_line (start 6.92 -2.15) (end 8.92 -2.15) (layer F.SilkS) (width 0.1))
  (fp_line (start 8.92 -2.15) (end 8.92 -4.15) (layer F.SilkS) (width 0.1))
  (fp_line (start 8.92 -4.15) (end 6.92 -4.15) (layer F.SilkS) (width 0.1))
  (fp_line (start 6.92 -4.15) (end 6.92 -2.15) (layer F.SilkS) (width 0.1))
  (fp_line (start 10.88 -2.15) (end 12.88 -2.15) (layer F.SilkS) (width 0.1))
  (fp_line (start 12.88 -2.15) (end 12.88 -4.15) (layer F.SilkS) (width 0.1))
  (fp_line (start 12.88 -4.15) (end 10.88 -4.15) (layer F.SilkS) (width 0.1))
  (fp_line (start 10.88 -4.15) (end 10.88 -2.15) (layer F.SilkS) (width 0.1))
  (fp_line (start 14.84 -2.15) (end 16.84 -2.15) (layer F.SilkS) (width 0.1))
  (fp_line (start 16.84 -2.15) (end 16.84 -4.15) (layer F.SilkS) (width 0.1))
  (fp_line (start 16.84 -4.15) (end 14.84 -4.15) (layer F.SilkS) (width 0.1))
  (fp_line (start 14.84 -4.15) (end 14.84 -2.15) (layer F.SilkS) (width 0.1))
  (fp_line (start 18.8 -2.15) (end 20.8 -2.15) (layer F.SilkS) (width 0.1))
  (fp_line (start 20.8 -2.15) (end 20.8 -4.15) (layer F.SilkS) (width 0.1))
  (fp_line (start 20.8 -4.15) (end 18.8 -4.15) (layer F.SilkS) (width 0.1))
  (fp_line (start 18.8 -4.15) (end 18.8 -2.15) (layer F.SilkS) (width 0.1))
  (fp_line (start 22.76 -2.15) (end 24.76 -2.15) (layer F.SilkS) (width 0.1))
  (fp_line (start 24.76 -2.15) (end 24.76 -4.15) (layer F.SilkS) (width 0.1))
  (fp_line (start 24.76 -4.15) (end 22.76 -4.15) (layer F.SilkS) (width 0.1))
  (fp_line (start 22.76 -4.15) (end 22.76 -2.15) (layer F.SilkS) (width 0.1))
  (fp_line (start 26.72 -2.15) (end 28.72 -2.15) (layer F.SilkS) (width 0.1))
  (fp_line (start 28.72 -2.15) (end 28.72 -4.15) (layer F.SilkS) (width 0.1))
  (fp_line (start 28.72 -4.15) (end 26.72 -4.15) (layer F.SilkS) (width 0.1))
  (fp_line (start 26.72 -4.15) (end 26.72 -2.15) (layer F.SilkS) (width 0.1))
  (fp_line (start 30.68 -2.15) (end 32.68 -2.15) (layer F.SilkS) (width 0.1))
  (fp_line (start 32.68 -2.15) (end 32.68 -4.15) (layer F.SilkS) (width 0.1))
  (fp_line (start 32.68 -4.15) (end 30.68 -4.15) (layer F.SilkS) (width 0.1))
  (fp_line (start 30.68 -4.15) (end 30.68 -2.15) (layer F.SilkS) (width 0.1))
  (fp_line (start 34.64 -2.15) (end 36.64 -2.15) (layer F.SilkS) (width 0.1))
  (fp_line (start 36.64 -2.15) (end 36.64 -4.15) (layer F.SilkS) (width 0.1))
  (fp_line (start 36.64 -4.15) (end 34.64 -4.15) (layer F.SilkS) (width 0.1))
  (fp_line (start 34.64 -4.15) (end 34.64 -2.15) (layer F.SilkS) (width 0.1))
  (fp_line (start 38.6 -2.15) (end 40.6 -2.15) (layer F.SilkS) (width 0.1))
  (fp_line (start 40.6 -2.15) (end 40.6 -4.15) (layer F.SilkS) (width 0.1))
  (fp_line (start 40.6 -4.15) (end 38.6 -4.15) (layer F.SilkS) (width 0.1))
  (fp_line (start 38.6 -4.15) (end 38.6 -2.15) (layer F.SilkS) (width 0.1))
  (fp_line (start 42.56 -2.15) (end 44.56 -2.15) (layer F.SilkS) (width 0.1))
  (fp_line (start 44.56 -2.15) (end 44.56 -4.15) (layer F.SilkS) (width 0.1))
  (fp_line (start 44.56 -4.15) (end 42.56 -4.15) (layer F.SilkS) (width 0.1))
  (fp_line (start 42.56 -4.15) (end 42.56 -2.15) (layer F.SilkS) (width 0.1))
  (fp_line (start -0.35 1.5) (end 0.35 1.5) (layer F.SilkS) (width 0.1))
  (fp_line (start 0.35 1.5) (end 0.35 -0.35) (layer F.SilkS) (width 0.1))
  (fp_line (start 0.35 -0.35) (end -0.35 -0.35) (layer F.SilkS) (width 0.1))
  (fp_line (start -0.35 -0.35) (end -0.35 1.5) (layer F.SilkS) (width 0.1))
  (fp_line (start 3.61 1.5) (end 4.31 1.5) (layer F.SilkS) (width 0.1))
  (fp_line (start 4.31 1.5) (end 4.31 -0.35) (layer F.SilkS) (width 0.1))
  (fp_line (start 4.31 -0.35) (end 3.61 -0.35) (layer F.SilkS) (width 0.1))
  (fp_line (start 3.61 -0.35) (end 3.61 1.5) (layer F.SilkS) (width 0.1))
  (fp_line (start 7.57 1.5) (end 8.27 1.5) (layer F.SilkS) (width 0.1))
  (fp_line (start 8.27 1.5) (end 8.27 -0.35) (layer F.SilkS) (width 0.1))
  (fp_line (start 8.27 -0.35) (end 7.57 -0.35) (layer F.SilkS) (width 0.1))
  (fp_line (start 7.57 -0.35) (end 7.57 1.5) (layer F.SilkS) (width 0.1))
  (fp_line (start 11.53 1.5) (end 12.23 1.5) (layer F.SilkS) (width 0.1))
  (fp_line (start 12.23 1.5) (end 12.23 -0.35) (layer F.SilkS) (width 0.1))
  (fp_line (start 12.23 -0.35) (end 11.53 -0.35) (layer F.SilkS) (width 0.1))
  (fp_line (start 11.53 -0.35) (end 11.53 1.5) (layer F.SilkS) (width 0.1))
  (fp_line (start 15.49 1.5) (end 16.19 1.5) (layer F.SilkS) (width 0.1))
  (fp_line (start 16.19 1.5) (end 16.19 -0.35) (layer F.SilkS) (width 0.1))
  (fp_line (start 16.19 -0.35) (end 15.49 -0.35) (layer F.SilkS) (width 0.1))
  (fp_line (start 15.49 -0.35) (end 15.49 1.5) (layer F.SilkS) (width 0.1))
  (fp_line (start 19.45 1.5) (end 20.15 1.5) (layer F.SilkS) (width 0.1))
  (fp_line (start 20.15 1.5) (end 20.15 -0.35) (layer F.SilkS) (width 0.1))
  (fp_line (start 20.15 -0.35) (end 19.45 -0.35) (layer F.SilkS) (width 0.1))
  (fp_line (start 19.45 -0.35) (end 19.45 1.5) (layer F.SilkS) (width 0.1))
  (fp_line (start 23.41 1.5) (end 24.11 1.5) (layer F.SilkS) (width 0.1))
  (fp_line (start 24.11 1.5) (end 24.11 -0.35) (layer F.SilkS) (width 0.1))
  (fp_line (start 24.11 -0.35) (end 23.41 -0.35) (layer F.SilkS) (width 0.1))
  (fp_line (start 23.41 -0.35) (end 23.41 1.5) (layer F.SilkS) (width 0.1))
  (fp_line (start 27.37 1.5) (end 28.07 1.5) (layer F.SilkS) (width 0.1))
  (fp_line (start 28.07 1.5) (end 28.07 -0.35) (layer F.SilkS) (width 0.1))
  (fp_line (start 28.07 -0.35) (end 27.37 -0.35) (layer F.SilkS) (width 0.1))
  (fp_line (start 27.37 -0.35) (end 27.37 1.5) (layer F.SilkS) (width 0.1))
  (fp_line (start 31.33 1.5) (end 32.03 1.5) (layer F.SilkS) (width 0.1))
  (fp_line (start 32.03 1.5) (end 32.03 -0.35) (layer F.SilkS) (width 0.1))
  (fp_line (start 32.03 -0.35) (end 31.33 -0.35) (layer F.SilkS) (width 0.1))
  (fp_line (start 31.33 -0.35) (end 31.33 1.5) (layer F.SilkS) (width 0.1))
  (fp_line (start 35.29 1.5) (end 35.99 1.5) (layer F.SilkS) (width 0.1))
  (fp_line (start 35.99 1.5) (end 35.99 -0.35) (layer F.SilkS) (width 0.1))
  (fp_line (start 35.99 -0.35) (end 35.29 -0.35) (layer F.SilkS) (width 0.1))
  (fp_line (start 35.29 -0.35) (end 35.29 1.5) (layer F.SilkS) (width 0.1))
  (fp_line (start 39.25 1.5) (end 39.95 1.5) (layer F.SilkS) (width 0.1))
  (fp_line (start 39.95 1.5) (end 39.95 -0.35) (layer F.SilkS) (width 0.1))
  (fp_line (start 39.95 -0.35) (end 39.25 -0.35) (layer F.SilkS) (width 0.1))
  (fp_line (start 39.25 -0.35) (end 39.25 1.5) (layer F.SilkS) (width 0.1))
  (fp_line (start 43.21 1.5) (end 43.91 1.5) (layer F.SilkS) (width 0.1))
  (fp_line (start 43.91 1.5) (end 43.91 -0.35) (layer F.SilkS) (width 0.1))
  (fp_line (start 43.91 -0.35) (end 43.21 -0.35) (layer F.SilkS) (width 0.1))
  (fp_line (start 43.21 -0.35) (end 43.21 1.5) (layer F.SilkS) (width 0.1))
  (fp_line (start -0.35 0) (end 0.35 0) (layer F.SilkS) (width 0.1))
  (fp_line (start 0.35 0) (end -0.35 0) (layer F.SilkS) (width 0.1))
  (fp_line (start 3.61 0) (end 4.31 0) (layer F.SilkS) (width 0.1))
  (fp_line (start 4.31 0) (end 3.61 0) (layer F.SilkS) (width 0.1))
  (fp_line (start 7.57 0) (end 8.27 0) (layer F.SilkS) (width 0.1))
  (fp_line (start 8.27 0) (end 7.57 0) (layer F.SilkS) (width 0.1))
  (fp_line (start 11.53 0) (end 12.23 0) (layer F.SilkS) (width 0.1))
  (fp_line (start 12.23 0) (end 11.53 0) (layer F.SilkS) (width 0.1))
  (fp_line (start 15.49 0) (end 16.19 0) (layer F.SilkS) (width 0.1))
  (fp_line (start 16.19 0) (end 15.49 0) (layer F.SilkS) (width 0.1))
  (fp_line (start 19.45 0) (end 20.15 0) (layer F.SilkS) (width 0.1))
  (fp_line (start 20.15 0) (end 19.45 0) (layer F.SilkS) (width 0.1))
  (fp_line (start 23.41 0) (end 24.11 0) (layer F.SilkS) (width 0.1))
  (fp_line (start 24.11 0) (end 23.41 0) (layer F.SilkS) (width 0.1))
  (fp_line (start 27.37 0) (end 28.07 0) (layer F.SilkS) (width 0.1))
  (fp_line (start 28.07 0) (end 27.37 0) (layer F.SilkS) (width 0.1))
  (fp_line (start 31.33 0) (end 32.03 0) (layer F.SilkS) (width 0.1))
  (fp_line (start 32.03 0) (end 31.33 0) (layer F.SilkS) (width 0.1))
  (fp_line (start 35.29 0) (end 35.99 0) (layer F.SilkS) (width 0.1))
  (fp_line (start 35.99 0) (end 35.29 0) (layer F.SilkS) (width 0.1))
  (fp_line (start 39.25 0) (end 39.95 0) (layer F.SilkS) (width 0.1))
  (fp_line (start 39.95 0) (end 39.25 0) (layer F.SilkS) (width 0.1))
  (fp_line (start 43.21 0) (end 43.91 0) (layer F.SilkS) (width 0.1))
  (fp_line (start 43.91 0) (end 43.21 0) (layer F.SilkS) (width 0.1))
  (fp_line (start -1.95 -4.9) (end -0.45 -6.4) (layer F.SilkS) (width 0.1))
  (fp_line (start 42.99 0.57) (end 44.13 0.57) (layer Dwgs.User) (width 0.3048))
  (fp_line (start 44.13 0.57) (end 44.13 -0.57) (layer Dwgs.User) (width 0.3048))
  (fp_line (start 44.13 -0.57) (end 42.99 -0.57) (layer Dwgs.User) (width 0.3048))
  (fp_line (start 42.99 -0.57) (end 42.99 0.57) (layer Dwgs.User) (width 0.3048))
  (fp_line (start 39.03 0.57) (end 40.17 0.57) (layer Dwgs.User) (width 0.1))
  (fp_line (start 40.17 0.57) (end 40.17 -0.57) (layer Dwgs.User) (width 0.1))
  (fp_line (start 40.17 -0.57) (end 39.03 -0.57) (layer Dwgs.User) (width 0.1))
  (fp_line (start 39.03 -0.57) (end 39.03 0.57) (layer Dwgs.User) (width 0.1))
  (fp_line (start 35.07 0.57) (end 36.21 0.57) (layer Dwgs.User) (width 0.1))
  (fp_line (start 36.21 0.57) (end 36.21 -0.57) (layer Dwgs.User) (width 0.1))
  (fp_line (start 36.21 -0.57) (end 35.07 -0.57) (layer Dwgs.User) (width 0.1))
  (fp_line (start 35.07 -0.57) (end 35.07 0.57) (layer Dwgs.User) (width 0.1))
  (fp_line (start 31.11 0.57) (end 32.25 0.57) (layer Dwgs.User) (width 0.1))
  (fp_line (start 32.25 0.57) (end 32.25 -0.57) (layer Dwgs.User) (width 0.1))
  (fp_line (start 32.25 -0.57) (end 31.11 -0.57) (layer Dwgs.User) (width 0.1))
  (fp_line (start 31.11 -0.57) (end 31.11 0.57) (layer Dwgs.User) (width 0.1))
  (fp_line (start 27.15 0.57) (end 28.29 0.57) (layer Dwgs.User) (width 0.1))
  (fp_line (start 28.29 0.57) (end 28.29 -0.57) (layer Dwgs.User) (width 0.1))
  (fp_line (start 28.29 -0.57) (end 27.15 -0.57) (layer Dwgs.User) (width 0.1))
  (fp_line (start 27.15 -0.57) (end 27.15 0.57) (layer Dwgs.User) (width 0.1))
  (fp_line (start 23.19 0.57) (end 24.33 0.57) (layer Dwgs.User) (width 0.1))
  (fp_line (start 24.33 0.57) (end 24.33 -0.57) (layer Dwgs.User) (width 0.1))
  (fp_line (start 24.33 -0.57) (end 23.19 -0.57) (layer Dwgs.User) (width 0.1))
  (fp_line (start 23.19 -0.57) (end 23.19 0.57) (layer Dwgs.User) (width 0.1))
  (fp_line (start 19.23 0.57) (end 20.37 0.57) (layer Dwgs.User) (width 0.1))
  (fp_line (start 20.37 0.57) (end 20.37 -0.57) (layer Dwgs.User) (width 0.1))
  (fp_line (start 20.37 -0.57) (end 19.23 -0.57) (layer Dwgs.User) (width 0.1))
  (fp_line (start 19.23 -0.57) (end 19.23 0.57) (layer Dwgs.User) (width 0.1))
  (fp_line (start 15.27 0.57) (end 16.41 0.57) (layer Dwgs.User) (width 0.1))
  (fp_line (start 16.41 0.57) (end 16.41 -0.57) (layer Dwgs.User) (width 0.1))
  (fp_line (start 16.41 -0.57) (end 15.27 -0.57) (layer Dwgs.User) (width 0.1))
  (fp_line (start 15.27 -0.57) (end 15.27 0.57) (layer Dwgs.User) (width 0.1))
  (fp_line (start 11.31 0.57) (end 12.45 0.57) (layer Dwgs.User) (width 0.1))
  (fp_line (start 12.45 0.57) (end 12.45 -0.57) (layer Dwgs.User) (width 0.1))
  (fp_line (start 12.45 -0.57) (end 11.31 -0.57) (layer Dwgs.User) (width 0.1))
  (fp_line (start 11.31 -0.57) (end 11.31 0.57) (layer Dwgs.User) (width 0.1))
  (fp_line (start 7.35 0.57) (end 8.49 0.57) (layer Dwgs.User) (width 0.1))
  (fp_line (start 8.49 0.57) (end 8.49 -0.57) (layer Dwgs.User) (width 0.1))
  (fp_line (start 8.49 -0.57) (end 7.35 -0.57) (layer Dwgs.User) (width 0.1))
  (fp_line (start 7.35 -0.57) (end 7.35 0.57) (layer Dwgs.User) (width 0.1))
  (fp_line (start 3.39 0.57) (end 4.53 0.57) (layer Dwgs.User) (width 0.1))
  (fp_line (start 4.53 0.57) (end 4.53 -0.57) (layer Dwgs.User) (width 0.1))
  (fp_line (start 4.53 -0.57) (end 3.39 -0.57) (layer Dwgs.User) (width 0.1))
  (fp_line (start 3.39 -0.57) (end 3.39 0.57) (layer Dwgs.User) (width 0.1))
  (fp_line (start -0.57 0.57) (end 0.57 0.57) (layer Dwgs.User) (width 0.3048))
  (fp_line (start 0.57 0.57) (end 0.57 -0.57) (layer Dwgs.User) (width 0.3048))
  (fp_line (start 0.57 -0.57) (end -0.57 -0.57) (layer Dwgs.User) (width 0.3048))
  (fp_line (start -0.57 -0.57) (end -0.57 0.57) (layer Dwgs.User) (width 0.3048))
  (fp_line (start -1.0668 -1.0668) (end -1.0668 1.0668) (layer F.SilkS) (width 0.1))
  (fp_line (start -1.0668 1.0668) (end 1.0668 1.0668) (layer F.SilkS) (width 0.1))
  (fp_line (start 1.0668 1.0668) (end 1.0668 -1.0668) (layer F.SilkS) (width 0.1))
  (fp_line (start 1.0668 -1.0668) (end -1.0668 -1.0668) (layer F.SilkS) (width 0.1))
  (fp_poly (pts (xy -1.95 -6.4) (xy 45.5 -6.4) (xy 45.5 5.6) (xy -1.95 5.6)) (layer F.Fab) (width 0.02))
  (fp_poly (pts (xy 1.27 -1.27) (xy 1.27 1.27) (xy -1.27 1.27) (xy -1.27 -1.27)) (layer B.Fab) (width 0.02))
  (pad 1 thru_hole rect (at 0 0) (size 2.1336 2.1336) (drill 1.524) (layers F&B.Cu *.Mask)
    (solder_mask_margin 0.1016) (zone_connect 2))
  (pad 2 thru_hole circle (at 3.96 0) (size 2.1336 2.1336) (drill 1.524) (layers F&B.Cu *.Mask)
    (solder_mask_margin 0.1016) (clearance 0.254) (zone_connect 2))
  (pad 3 thru_hole circle (at 7.92 0) (size 2.54 2.54) (drill 1.524) (layers *.Mask F.Cu In4.Cu B.Cu)
    (solder_mask_margin 0.1016) (clearance 0.1016) (zone_connect 2))
  (pad 4 thru_hole circle (at 11.88 0) (size 2.54 2.54) (drill 1.524) (layers *.Mask F.Cu In4.Cu B.Cu)
    (solder_mask_margin 0.1016) (clearance 0.1016) (zone_connect 2))
  (pad 5 thru_hole circle (at 15.84 0) (size 2.54 2.54) (drill 1.524) (layers *.Mask F.Cu In1.Cu B.Cu)
    (solder_mask_margin 0.1016) (clearance 0.1016) (zone_connect 2))
  (pad 6 thru_hole circle (at 19.8 0) (size 2.54 2.54) (drill 1.524) (layers *.Mask F.Cu In1.Cu B.Cu)
    (solder_mask_margin 0.1016) (clearance 0.1016) (zone_connect 2))
  (pad 7 thru_hole circle (at 23.76 0) (size 2.54 2.54) (drill 1.524) (layers *.Mask F.Cu In1.Cu B.Cu)
    (solder_mask_margin 0.1016) (clearance 0.1016) (zone_connect 2))
  (pad 8 thru_hole circle (at 27.72 0) (size 2.54 2.54) (drill 1.524) (layers *.Mask F.Cu In1.Cu B.Cu)
    (solder_mask_margin 0.1016) (clearance 0.1016) (zone_connect 2))
  (pad 9 thru_hole circle (at 31.68 0) (size 2.54 2.54) (drill 1.524) (layers *.Mask F.Cu In3.Cu In4.Cu B.Cu)
    (solder_mask_margin 0.1016) (clearance 0.1016) (zone_connect 2))
  (pad 10 thru_hole circle (at 35.64 0) (size 2.54 2.54) (drill 1.524) (layers *.Mask F.Cu In4.Cu B.Cu)
    (solder_mask_margin 0.1016) (clearance 0.1016) (zone_connect 2))
  (pad 11 thru_hole circle (at 39.6 0) (size 2.54 2.54) (drill 1.524) (layers *.Mask F.Cu In4.Cu B.Cu)
    (solder_mask_margin 0.1016) (clearance 0.1016) (zone_connect 2))
  (pad 12 thru_hole circle (at 43.56 0) (size 2.54 2.54) (drill 1.524) (layers *.Mask F.Cu In4.Cu B.Cu)
    (solder_mask_margin 0.1016) (clearance 0.1016) (zone_connect 2))
  (model ${KIPRJMOD}/../Library/Footprints.3dshapes/009484128.stp
    (offset (xyz 21.78 -5.52 11.38))
    (scale (xyz 1 1 1))
    (rotate (xyz 0 0 0))
  )
)
