(module MOL7395-8_1 (layer F.Cu) (tedit 0)
  (attr smd)
  (fp_text reference REF** (at 9.4234 -5.8674 -90 unlocked) (layer F.SilkS)
    (effects (font (size 1.033069 1.086612) (thickness 0.127)))
  )
  (fp_text value F-CO-MOL7395M08 (at 0.7874 5.9055 -90 unlocked) (layer F.SilkS) hide
    (effects (font (size 1.033069 1.086612) (thickness 0.127)))
  )
  (fp_line (start 15.24 -1.27) (end 15.24 -2.54) (layer F.SilkS) (width 0.1778))
  (fp_line (start 12.7 -1.27) (end 12.7 -2.54) (layer F.SilkS) (width 0.1778))
  (fp_line (start 0 -13.335) (end 0.635 -13.97) (layer F.SilkS) (width 0.1778))
  (fp_line (start 0 -5.08) (end 0 -13.335) (layer F.SilkS) (width 0.1778))
  (fp_line (start 10.16 -1.27) (end 10.16 -2.54) (layer F.SilkS) (width 0.1778))
  (fp_line (start 7.62 -1.27) (end 7.62 -2.54) (layer F.SilkS) (width 0.1778))
  (fp_line (start 5.08 -1.27) (end 5.08 -2.54) (layer F.SilkS) (width 0.1778))
  (fp_line (start -1.27 -5.08) (end 0 -5.08) (layer F.SilkS) (width 0.1778))
  (fp_line (start 2.54 -1.27) (end 2.54 -2.54) (layer F.SilkS) (width 0.1778))
  (fp_line (start -1.27 -2.54) (end -1.27 -5.08) (layer F.SilkS) (width 0.1778))
  (fp_line (start -1.2446 -3.7846) (end 0 -2.54) (layer F.SilkS) (width 0.1778))
  (fp_line (start 17.145 -13.97) (end 17.78 -13.335) (layer F.SilkS) (width 0.1778))
  (fp_line (start 17.78 -5.08) (end 17.78 -13.335) (layer F.SilkS) (width 0.1778))
  (fp_line (start 0.635 -13.97) (end 17.145 -13.97) (layer F.SilkS) (width 0.1778))
  (fp_line (start 0 -1.27) (end 0 -2.54) (layer F.SilkS) (width 0.1778))
  (fp_line (start 17.78 -5.08) (end 19.05 -5.08) (layer F.SilkS) (width 0.1778))
  (fp_line (start 19.05 -2.54) (end 19.05 -5.08) (layer F.SilkS) (width 0.1778))
  (fp_line (start 17.78 -1.27) (end 17.78 -2.54) (layer F.SilkS) (width 0.1778))
  (fp_line (start -1.27 -2.54) (end 19.05 -2.54) (layer F.SilkS) (width 0.1778))
  (fp_line (start 15.24 -1.27) (end 15.24 -2.54) (layer Dwgs.User) (width 0.1778))
  (fp_line (start 12.7 -1.27) (end 12.7 -2.54) (layer Dwgs.User) (width 0.1778))
  (fp_line (start 0 -13.335) (end 0.635 -13.97) (layer Dwgs.User) (width 0.1778))
  (fp_line (start 0 -5.08) (end 0 -13.335) (layer Dwgs.User) (width 0.1778))
  (fp_line (start 10.16 -1.27) (end 10.16 -2.54) (layer Dwgs.User) (width 0.1778))
  (fp_line (start 7.62 -1.27) (end 7.62 -2.54) (layer Dwgs.User) (width 0.1778))
  (fp_line (start 5.08 -1.27) (end 5.08 -2.54) (layer Dwgs.User) (width 0.1778))
  (fp_line (start -1.27 -5.08) (end 0 -5.08) (layer Dwgs.User) (width 0.1778))
  (fp_line (start 2.54 -1.27) (end 2.54 -2.54) (layer Dwgs.User) (width 0.1778))
  (fp_line (start -1.27 -2.54) (end -1.27 -5.08) (layer Dwgs.User) (width 0.1778))
  (fp_line (start -1.2446 -3.7846) (end 0 -2.54) (layer Dwgs.User) (width 0.1778))
  (fp_line (start 17.145 -13.97) (end 17.78 -13.335) (layer Dwgs.User) (width 0.1778))
  (fp_line (start 17.78 -5.08) (end 17.78 -13.335) (layer Dwgs.User) (width 0.1778))
  (fp_line (start 0.635 -13.97) (end 17.145 -13.97) (layer Dwgs.User) (width 0.1778))
  (fp_line (start 0 -1.27) (end 0 -2.54) (layer Dwgs.User) (width 0.1778))
  (fp_line (start 17.78 -5.08) (end 19.05 -5.08) (layer Dwgs.User) (width 0.1778))
  (fp_line (start 19.05 -2.54) (end 19.05 -5.08) (layer Dwgs.User) (width 0.1778))
  (fp_line (start 17.78 -1.27) (end 17.78 -2.54) (layer Dwgs.User) (width 0.1778))
  (fp_line (start -1.27 -2.54) (end 19.05 -2.54) (layer Dwgs.User) (width 0.1778))
  (fp_line (start 15.24 0) (end 15.24 -2.54) (layer F.Fab) (width 0.0762))
  (fp_line (start 12.7 0) (end 12.7 -2.54) (layer F.Fab) (width 0.0762))
  (fp_line (start 0 -13.335) (end 0.635 -13.97) (layer F.Fab) (width 0.0762))
  (fp_line (start 0 -5.08) (end 0 -13.335) (layer F.Fab) (width 0.0762))
  (fp_line (start 10.16 0) (end 10.16 -2.54) (layer F.Fab) (width 0.0762))
  (fp_line (start 7.62 0) (end 7.62 -2.54) (layer F.Fab) (width 0.0762))
  (fp_line (start 5.08 0) (end 5.08 -2.54) (layer F.Fab) (width 0.0762))
  (fp_line (start -1.27 -5.08) (end 0 -5.08) (layer F.Fab) (width 0.0762))
  (fp_line (start 2.54 0) (end 2.54 -2.54) (layer F.Fab) (width 0.0762))
  (fp_line (start -1.27 -2.54) (end -1.27 -5.08) (layer F.Fab) (width 0.0762))
  (fp_line (start 17.145 -13.97) (end 17.78 -13.335) (layer F.Fab) (width 0.0762))
  (fp_line (start 17.78 -5.08) (end 17.78 -13.335) (layer F.Fab) (width 0.0762))
  (fp_line (start 0.635 -13.97) (end 17.145 -13.97) (layer F.Fab) (width 0.0762))
  (fp_line (start -1.2446 -3.7846) (end 0 -2.54) (layer F.Fab) (width 0.0762))
  (fp_line (start 0 0) (end 0 -2.54) (layer F.Fab) (width 0.0762))
  (fp_line (start 17.78 -5.08) (end 19.05 -5.08) (layer F.Fab) (width 0.0762))
  (fp_line (start 19.05 -2.54) (end 19.05 -5.08) (layer F.Fab) (width 0.0762))
  (fp_line (start 17.78 0) (end 17.78 -2.54) (layer F.Fab) (width 0.0762))
  (fp_line (start -1.27 -2.54) (end 19.05 -2.54) (layer F.Fab) (width 0.0762))
  (pad 8 thru_hole circle (at 17.78 0) (size 1.905 1.905) (drill 1.2192) (layers *.Cu *.Mask))
  (pad 7 thru_hole circle (at 15.24 0) (size 1.905 1.905) (drill 1.2192) (layers *.Cu *.Mask))
  (pad 6 thru_hole circle (at 12.7 0) (size 1.905 1.905) (drill 1.2192) (layers *.Cu *.Mask))
  (pad 5 thru_hole circle (at 10.16 0) (size 1.905 1.905) (drill 1.2192) (layers *.Cu *.Mask))
  (pad 4 thru_hole circle (at 7.62 0) (size 1.905 1.905) (drill 1.2192) (layers *.Cu *.Mask))
  (pad 3 thru_hole circle (at 5.08 0) (size 1.905 1.905) (drill 1.2192) (layers *.Cu *.Mask))
  (pad 2 thru_hole circle (at 2.54 0) (size 1.905 1.905) (drill 1.2192) (layers *.Cu *.Mask))
  (pad 1 thru_hole rect (at 0 0) (size 1.905 1.905) (drill 1.2192) (layers *.Cu *.Mask))
  (model "${KIPRJMOD}/../Library/Footprints.3dshapes/22-05-7088-recenter.stp"
    (at (xyz 0 0 0))
    (scale (xyz 1 1 1))
    (rotate (xyz 0 0 0))
  )
)
