(module NK236_100110011111 placed (layer F.Cu) (tedit 5EB801F5)
  (fp_text reference Ref** (at -5.5 -1.5) (layer F.SilkS)
    (effects (font (size 1.5 1.5) (thickness 0.1)) (justify left bottom))
  )
  (fp_text value SI-10-NK236 (at 0 2) (layer F.Fab) hide
    (effects (font (size 1 1) (thickness 0.15)))
  )
  (fp_poly (pts (xy 5.08 1.27) (xy -5.08 1.27) (xy -5.08 -1.27) (xy 5.08 -1.27)) (layer F.Fab) (width 0.02))
  (fp_line (start -5.08 -1.27) (end -5.08 1.27) (layer F.SilkS) (width 0.1))
  (fp_line (start 5.08 -1.27) (end -5.08 -1.27) (layer F.SilkS) (width 0.1))
  (fp_line (start 5.08 1.27) (end 5.08 -1.27) (layer F.SilkS) (width 0.1))
  (fp_line (start -5.08 1.27) (end 5.08 1.27) (layer F.SilkS) (width 0.1))
  (fp_line (start -4.445 -0.635) (end -4.445 0.635) (layer F.SilkS) (width 0.1))
  (fp_line (start 4.445 -0.635) (end -4.445 -0.635) (layer F.SilkS) (width 0.1))
  (fp_line (start 4.445 0.635) (end 4.445 -0.635) (layer F.SilkS) (width 0.1))
  (fp_line (start -4.445 0.635) (end 4.445 0.635) (layer F.SilkS) (width 0.1))
  (fp_line (start 0.635 -0.635) (end 0.635 0.635) (layer F.SilkS) (width 0.1))
  (fp_line (start 1.905 -0.635) (end 0.635 -0.635) (layer F.SilkS) (width 0.1))
  (fp_line (start 1.905 0.635) (end 1.905 -0.635) (layer F.SilkS) (width 0.1))
  (fp_line (start 0.635 0.635) (end 1.905 0.635) (layer F.SilkS) (width 0.1))
  (fp_line (start -5.08 -1.27) (end -5.08 1.27) (layer F.Fab) (width 0.18))
  (fp_line (start 5.08 -1.27) (end -5.08 -1.27) (layer F.Fab) (width 0.18))
  (fp_line (start 5.08 1.27) (end 5.08 -1.27) (layer F.Fab) (width 0.18))
  (fp_line (start -5.08 1.27) (end 5.08 1.27) (layer F.Fab) (width 0.18))
  (fp_line (start 5.17 1.36) (end -5.17 1.36) (layer Dwgs.User) (width 0.05))
  (fp_line (start 5.17 -1.36) (end 5.17 1.36) (layer Dwgs.User) (width 0.05))
  (fp_line (start -5.17 -1.36) (end 5.17 -1.36) (layer Dwgs.User) (width 0.05))
  (fp_line (start -5.17 1.36) (end -5.17 -1.36) (layer Dwgs.User) (width 0.05))
  (fp_arc (start -2.54 0) (end -1.8034 0) (angle 360) (layer B.Fab) (width 0.02))
  (fp_arc (start 2.54 0) (end 3.2766 0) (angle 360) (layer B.Fab) (width 0.02))
  (fp_arc (start 0 0) (end 0.7366 0) (angle 360) (layer B.Fab) (width 0.02))
  (pad 3 thru_hole circle (at -2.54 0) (size 1.4732 1.4732) (drill 0.8128) (layers *.Mask F.Cu In1.Cu In2.Cu B.Cu)
    (solder_mask_margin 0.1016) (clearance 0.1524) (zone_connect 2) (thermal_width 0.2032) (thermal_gap 0.2032))
  (pad 2 thru_hole circle (at 2.54 0) (size 1.4732 1.4732) (drill 0.8128) (layers F&B.Cu *.Mask)
    (solder_mask_margin 0.1016) (clearance 0.1524) (zone_connect 2) (thermal_width 0.2032) (thermal_gap 0.2032))
  (pad 1 thru_hole circle (at 0 0) (size 1.4732 1.4732) (drill 0.8128) (layers F&B.Cu *.Mask)
    (solder_mask_margin 0.1016) (clearance 0.1524) (zone_connect 2) (thermal_width 0.2032) (thermal_gap 0.2032))
  (model ${KIPRJMOD}/../Library/Footprints.3dshapes/NK_1511073_cp.wrl
    (at (xyz 0 0 0))
    (scale (xyz 1 1 1))
    (rotate (xyz 0 0 0))
  )
)
