(module PER-COVIDIEN_TEXTE_1 (layer F.Cu) (tedit 0)
  (attr smd)
  (fp_text reference CAM3 (at -213.16014 55.247 unlocked) (layer F.SilkS) hide
    (effects (font (size 1.332992 1.40208) (thickness 0.254)))
  )
  (fp_text value PER-COVIDIEN_TEXTE (at -4.05473 -0.3762 unlocked) (layer F.SilkS) hide
    (effects (font (size 1.332992 1.40208) (thickness 0.254)))
  )
)
