(module PERCAGE_TABLEAU_0.666 placed (layer F.Cu) (tedit 5EB57CE7)
  (fp_text reference cam13 (at 0 0) (layer F.SilkS) hide
    (effects (font (size 1 1) (thickness 0.15)))
  )
  (fp_text value PERCAGE_TABLEAU (at 0 2) (layer F.Fab) hide
    (effects (font (size 1 1) (thickness 0.15)))
  )
  (fp_text user "PERCAGES (Hole chart)" (at 5.92074 1.258693) (layer Dwgs.User)
    (effects (font (size 1 1) (thickness 0.1332)) (justify left))
  )
  (fp_text user "     TROUS \nMETALLISES FINIS" (at 8.88111 5.213095) (layer Dwgs.User)
    (effects (font (size 1 1) (thickness 0.091349)))
  )
  (fp_text user "    TROUS\nNON METALLISES" (at 25.3746 5.213095) (layer Dwgs.User)
    (effects (font (size 1 1) (thickness 0.091349)))
  )
  (fp_text user Plated (at 8.4582 7.049703) (layer Dwgs.User)
    (effects (font (size 1 1) (thickness 0.091349)))
  )
  (fp_text user Non-plated (at 25.3746 7.049703) (layer Dwgs.User)
    (effects (font (size 1 1) (thickness 0.091349)))
  )
  (fp_text user "+0.10\n-0.10" (at 30.87243 13.53312) (layer Dwgs.User)
    (effects (font (size 1 1) (thickness 0.0666)) (justify left))
  )
  (fp_text user "+0.10\n-0.05" (at 13.95603 16.9164) (layer Dwgs.User)
    (effects (font (size 1 1) (thickness 0.0666)) (justify left))
  )
  (fp_text user "+0.15\n-0.10" (at 13.95603 23.68296) (layer Dwgs.User)
    (effects (font (size 1 1) (thickness 0.0666)) (justify left))
  )
  (fp_text user SYMBOLE (at 1.69164 10.010073) (layer Dwgs.User)
    (effects (font (size 1 1) (thickness 0.091349)) (justify left))
  )
  (fp_text user PERCAGE (at 9.72693 10.010073) (layer Dwgs.User)
    (effects (font (size 1 1) (thickness 0.091349)) (justify left))
  )
  (fp_text user PERCAGE (at 27.06624 10.010073) (layer Dwgs.User)
    (effects (font (size 1 1) (thickness 0.091349)) (justify left))
  )
  (fp_text user SYMBOLE (at 18.60804 10.010073) (layer Dwgs.User)
    (effects (font (size 1 1) (thickness 0.091349)) (justify left))
  )
  (fp_line (start 0 24.52878) (end 33.8328 24.52878) (layer Dwgs.User) (width 0.1665))
  (fp_line (start 0 -1.69164) (end 0 2.53746) (layer Dwgs.User) (width 0.1665))
  (fp_line (start 33.8328 -1.69164) (end 0 -1.69164) (layer Dwgs.User) (width 0.1665))
  (fp_line (start 33.8328 2.53746) (end 33.8328 -1.69164) (layer Dwgs.User) (width 0.1665))
  (fp_line (start 0 2.53746) (end 33.8328 2.53746) (layer Dwgs.User) (width 0.1665))
  (fp_line (start 0 7.61238) (end 33.8328 7.61238) (layer Dwgs.User) (width 0.1665))
  (fp_line (start 0 2.53746) (end 0 7.61238) (layer Dwgs.User) (width 0.1665))
  (fp_line (start 33.8328 2.53746) (end 0 2.53746) (layer Dwgs.User) (width 0.1665))
  (fp_line (start 33.8328 7.61238) (end 33.8328 2.53746) (layer Dwgs.User) (width 0.1665))
  (fp_line (start 0 7.61238) (end 0 10.99566) (layer Dwgs.User) (width 0.1665))
  (fp_line (start 33.8328 7.61238) (end 0 7.61238) (layer Dwgs.User) (width 0.1665))
  (fp_line (start 33.8328 10.99566) (end 33.8328 7.61238) (layer Dwgs.User) (width 0.1665))
  (fp_line (start 0 10.99566) (end 33.8328 10.99566) (layer Dwgs.User) (width 0.1665))
  (fp_line (start 16.9164 2.53746) (end 16.9164 10.99566) (layer Dwgs.User) (width 0.1665))
  (fp_line (start 8.4582 7.61238) (end 8.4582 10.99566) (layer Dwgs.User) (width 0.1665))
  (fp_line (start 25.3746 10.99566) (end 25.3746 7.61238) (layer Dwgs.User) (width 0.1665))
  (fp_line (start 0 10.99566) (end 0 24.52878) (layer Dwgs.User) (width 0.1665))
  (fp_line (start 8.4582 10.99566) (end 8.4582 24.52878) (layer Dwgs.User) (width 0.1665))
  (fp_line (start 16.9164 10.99566) (end 16.9164 24.52878) (layer Dwgs.User) (width 0.1665))
  (fp_line (start 25.3746 10.99566) (end 25.3746 24.52878) (layer Dwgs.User) (width 0.1665))
  (fp_line (start 33.8328 10.99566) (end 33.8328 24.52878) (layer Dwgs.User) (width 0.1665))
  (fp_line (start 0 14.37894) (end 33.8328 14.37894) (layer Dwgs.User) (width 0.1665))
  (fp_line (start 0 21.1455) (end 33.8328 21.1455) (layer Dwgs.User) (width 0.1665))
  (fp_line (start 0 17.76222) (end 33.8328 17.76222) (layer Dwgs.User) (width 0.1665))
  (fp_line (start 33.91605 24.61203) (end -0.08325 24.61203) (layer Dwgs.User) (width 0.05))
  (fp_line (start 33.91605 -1.77489) (end 33.91605 24.61203) (layer Dwgs.User) (width 0.05))
  (fp_line (start -0.08325 -1.77489) (end 33.91605 -1.77489) (layer Dwgs.User) (width 0.05))
  (fp_line (start -0.08325 24.61203) (end -0.08325 -1.77489) (layer Dwgs.User) (width 0.05))
)
