(module PERCAGE_TABLEAU (layer F.Cu) (tedit 5EC5BAB1)
  (fp_text reference REF** (at 0 0) (layer F.SilkS)
    (effects (font (size 1 1) (thickness 0.15)))
  )
  (fp_text value PERCAGE_TABLEAU (at 0 2) (layer F.Fab) hide
    (effects (font (size 1 1) (thickness 0.15)))
  )
  (fp_line (start -0.125 36.955) (end -0.125 -2.665) (layer Dwgs.User) (width 0.05))
  (fp_line (start -0.125 -2.665) (end 50.925 -2.665) (layer Dwgs.User) (width 0.05))
  (fp_line (start 50.925 -2.665) (end 50.925 36.955) (layer Dwgs.User) (width 0.05))
  (fp_line (start 50.925 36.955) (end -0.125 36.955) (layer Dwgs.User) (width 0.05))
  (fp_line (start 0 26.67) (end 50.8 26.67) (layer Dwgs.User) (width 0.25))
  (fp_line (start 0 31.75) (end 50.8 31.75) (layer Dwgs.User) (width 0.25))
  (fp_line (start 0 21.59) (end 50.8 21.59) (layer Dwgs.User) (width 0.25))
  (fp_line (start 50.8 16.51) (end 50.8 36.83) (layer Dwgs.User) (width 0.25))
  (fp_line (start 38.1 16.51) (end 38.1 36.83) (layer Dwgs.User) (width 0.25))
  (fp_line (start 25.4 16.51) (end 25.4 36.83) (layer Dwgs.User) (width 0.25))
  (fp_line (start 12.7 16.51) (end 12.7 36.83) (layer Dwgs.User) (width 0.25))
  (fp_line (start 0 16.51) (end 0 36.83) (layer Dwgs.User) (width 0.25))
  (fp_line (start 38.1 16.51) (end 38.1 11.43) (layer Dwgs.User) (width 0.25))
  (fp_line (start 12.7 11.43) (end 12.7 16.51) (layer Dwgs.User) (width 0.25))
  (fp_line (start 25.4 3.81) (end 25.4 16.51) (layer Dwgs.User) (width 0.25))
  (fp_line (start 0 16.51) (end 50.8 16.51) (layer Dwgs.User) (width 0.25))
  (fp_line (start 50.8 16.51) (end 50.8 11.43) (layer Dwgs.User) (width 0.25))
  (fp_line (start 50.8 11.43) (end 0 11.43) (layer Dwgs.User) (width 0.25))
  (fp_line (start 0 11.43) (end 0 16.51) (layer Dwgs.User) (width 0.25))
  (fp_line (start 50.8 11.43) (end 50.8 3.81) (layer Dwgs.User) (width 0.25))
  (fp_line (start 50.8 3.81) (end 0 3.81) (layer Dwgs.User) (width 0.25))
  (fp_line (start 0 3.81) (end 0 11.43) (layer Dwgs.User) (width 0.25))
  (fp_line (start 0 11.43) (end 50.8 11.43) (layer Dwgs.User) (width 0.25))
  (fp_line (start 0 3.81) (end 50.8 3.81) (layer Dwgs.User) (width 0.25))
  (fp_line (start 50.8 3.81) (end 50.8 -2.54) (layer Dwgs.User) (width 0.25))
  (fp_line (start 50.8 -2.54) (end 0 -2.54) (layer Dwgs.User) (width 0.25))
  (fp_line (start 0 -2.54) (end 0 3.81) (layer Dwgs.User) (width 0.25))
  (fp_line (start 0 36.83) (end 50.8 36.83) (layer Dwgs.User) (width 0.25))
  (fp_text user SYMBOLE (at 27.94 15.03014) (layer Dwgs.User)
    (layer Dwgs.User) (effects (font (size 1 1) (thickness 0.13716)) (justify left))
  )
  (fp_text user PERCAGE (at 40.64 15.03014) (layer Dwgs.User)
    (layer Dwgs.User) (effects (font (size 1 1) (thickness 0.13716)) (justify left))
  )
  (fp_text user PERCAGE (at 14.605 15.03014) (layer Dwgs.User)
    (layer Dwgs.User) (effects (font (size 1 1) (thickness 0.13716)) (justify left))
  )
  (fp_text user SYMBOLE (at 2.54 15.03014) (layer Dwgs.User)
    (layer Dwgs.User) (effects (font (size 1 1) (thickness 0.13716)) (justify left))
  )
  (fp_text user "+0.15\n-0.10" (at 20.955 35.56) (layer Dwgs.User)
    (layer Dwgs.User) (effects (font (size 1 1) (thickness 0.1)) (justify left))
  )
  (fp_text user "+0.10\n-0.05" (at 20.955 25.4) (layer Dwgs.User)
    (layer Dwgs.User) (effects (font (size 1 1) (thickness 0.1)) (justify left))
  )
  (fp_text user "+0.10\n-0.10" (at 46.355 20.32) (layer Dwgs.User)
    (layer Dwgs.User) (effects (font (size 1 1) (thickness 0.1)) (justify left))
  )
  (fp_text user Non-plated (at 38.1 10.58514) (layer Dwgs.User)
    (layer Dwgs.User) (effects (font (size 1 1) (thickness 0.13716)))
  )
  (fp_text user Plated (at 12.7 10.58514) (layer Dwgs.User)
    (layer Dwgs.User) (effects (font (size 1 1) (thickness 0.13716)))
  )
  (fp_text user "    TROUS\nNON METALLISES" (at 38.1 7.82747) (layer Dwgs.User)
    (layer Dwgs.User) (effects (font (size 1 1) (thickness 0.13716)))
  )
  (fp_text user "     TROUS \nMETALLISES FINIS" (at 13.335 7.82747) (layer Dwgs.User)
    (layer Dwgs.User) (effects (font (size 1 1) (thickness 0.13716)))
  )
  (fp_text user "PERCAGES (Hole chart)" (at 8.89 1.88993) (layer Dwgs.User)
    (layer Dwgs.User) (effects (font (size 1 1) (thickness 0.2)) (justify left))
  )
)
