(module SOD323 placed (layer F.Cu) (tedit 5EB57CE0)
  (fp_text reference D2 (at -0.635 1.905) (layer F.SilkS)
    (effects (font (size 1 1) (thickness 0.05)) (justify left bottom))
  )
  (fp_text value PMEG4005AEA (at 0 2) (layer F.Fab) hide
    (effects (font (size 1 1) (thickness 0.15)))
  )
  (fp_poly (pts (xy 1.3 0.2) (xy 0.9 0.2) (xy 0.9 -0.2) (xy 1.3 -0.2)
    (xy 1.3 0.2)) (layer F.SilkS) (width 0.02))
  (fp_poly (pts (xy -0.9 0.7) (xy -0.9 -0.7) (xy -0.3 -0.7) (xy -0.3 0.7)
    (xy -0.9 0.7)) (layer F.SilkS) (width 0.02))
  (fp_poly (pts (xy -0.9 0.2) (xy -1.3 0.2) (xy -1.3 -0.2) (xy -0.9 -0.2)
    (xy -0.9 0.2)) (layer F.SilkS) (width 0.02))
  (fp_poly (pts (xy 1.905 0.9525) (xy -1.905 0.9525) (xy -1.905 -0.9525) (xy 1.905 -0.9525)) (layer F.Fab) (width 0.02))
  (fp_line (start -0.465 0.3048) (end -1.735 0.3048) (layer F.SilkS) (width 0.1))
  (fp_line (start -0.465 -0.3048) (end -0.465 0.3048) (layer F.SilkS) (width 0.1))
  (fp_line (start -1.735 -0.3048) (end -0.465 -0.3048) (layer F.SilkS) (width 0.1))
  (fp_line (start -1.735 0.3048) (end -1.735 -0.3048) (layer F.SilkS) (width 0.1))
  (fp_line (start 1.735 0.3048) (end 0.465 0.3048) (layer F.SilkS) (width 0.1))
  (fp_line (start 1.735 -0.3048) (end 1.735 0.3048) (layer F.SilkS) (width 0.1))
  (fp_line (start 0.465 -0.3048) (end 1.735 -0.3048) (layer F.SilkS) (width 0.1))
  (fp_line (start 0.465 0.3048) (end 0.465 -0.3048) (layer F.SilkS) (width 0.1))
  (fp_line (start -0.9 0.7) (end 0.9 0.7) (layer F.SilkS) (width 0.1))
  (fp_line (start -0.9 -0.7) (end -0.9 0.7) (layer F.SilkS) (width 0.1))
  (fp_line (start 0.9 -0.7) (end -0.9 -0.7) (layer F.SilkS) (width 0.1))
  (fp_line (start 0.9 0.7) (end 0.9 -0.7) (layer F.SilkS) (width 0.1))
  (fp_line (start -1.905 0.635) (end -1.5875 0.9525) (layer F.Fab) (width 0.18))
  (fp_line (start -1.905 -0.635) (end -1.905 0.635) (layer F.Fab) (width 0.18))
  (fp_line (start -1.5875 -0.9525) (end -1.905 -0.635) (layer F.Fab) (width 0.18))
  (fp_line (start 1.905 -0.9525) (end -1.5875 -0.9525) (layer F.Fab) (width 0.18))
  (fp_line (start 1.905 0.9525) (end 1.905 -0.9525) (layer F.Fab) (width 0.18))
  (fp_line (start -1.5875 0.9525) (end 1.905 0.9525) (layer F.Fab) (width 0.18))
  (fp_line (start 2.0652 1.0425) (end -2.0652 1.0425) (layer Dwgs.User) (width 0.05))
  (fp_line (start 2.0652 -1.0425) (end 2.0652 1.0425) (layer Dwgs.User) (width 0.05))
  (fp_line (start -2.0652 -1.0425) (end 2.0652 -1.0425) (layer Dwgs.User) (width 0.05))
  (fp_line (start -2.0652 1.0425) (end -2.0652 -1.0425) (layer Dwgs.User) (width 0.05))
  (pad K smd rect (at -1.1 0) (size 1.27 0.6096) (layers F.Cu F.Paste F.Mask)
    (zone_connect 2))
  (pad A smd rect (at 1.1 0) (size 1.27 0.6096) (layers F.Cu F.Paste F.Mask)
    (zone_connect 2))
  (model ${KISYS3DMOD}/Diode_SMD.3dshapes/D_SOD-323.wrl
    (at (xyz 0 0 0))
    (scale (xyz 1 1 1))
    (rotate (xyz 0 0 0))
  )
)
