(module SOD80_1 (layer F.Cu) (tedit 5E9B920D)
  (attr smd)
  (fp_text reference REF** (at 0.6731 -0.4572 unlocked) (layer F.SilkS)
    (effects (font (size 1.033069 1.086612) (thickness 0.127)))
  )
  (fp_text value D-BC-SOD80 (at 0.0332 -3.35673 -90 unlocked) (layer F.SilkS) hide
    (effects (font (size 1.0496 1.104) (thickness 0.1)))
  )
  (fp_line (start 2.38125 1.27) (end 2.40715 1.2441) (layer F.SilkS) (width 0.18))
  (fp_line (start -2.69875 1.27) (end 2.38125 1.27) (layer F.SilkS) (width 0.18))
  (fp_line (start -2.69875 1.27) (end -2.69875 -1.27) (layer F.SilkS) (width 0.18))
  (fp_line (start 2.38125 -1.27) (end 2.40715 -1.2441) (layer F.SilkS) (width 0.18))
  (fp_line (start 2.679 -0.97225) (end 2.69875 -0.9525) (layer F.SilkS) (width 0.18))
  (fp_line (start 2.69875 0.9525) (end 2.69875 -0.9525) (layer F.SilkS) (width 0.18))
  (fp_line (start -2.69875 -1.27) (end 2.38125 -1.27) (layer F.SilkS) (width 0.18))
  (fp_line (start 2.679 0.97225) (end 2.69875 0.9525) (layer F.SilkS) (width 0.18))
  (fp_line (start -2.6924 1.27) (end 2.3622 1.27) (layer Dwgs.User) (width 0.1778))
  (fp_line (start -2.6924 1.27) (end -2.6924 -1.27) (layer Dwgs.User) (width 0.1778))
  (fp_line (start 2.3622 -1.27) (end 2.6924 -0.9398) (layer Dwgs.User) (width 0.1778))
  (fp_line (start 2.6924 0.9398) (end 2.6924 -0.9398) (layer Dwgs.User) (width 0.1778))
  (fp_line (start -2.6924 -1.27) (end 2.3622 -1.27) (layer Dwgs.User) (width 0.1778))
  (fp_line (start 2.3622 1.27) (end 2.6924 0.9398) (layer Dwgs.User) (width 0.1778))
  (fp_line (start -1.8542 0.8636) (end 1.8542 0.8636) (layer F.Fab) (width 0.1))
  (fp_line (start -1.8542 0.8636) (end -1.8542 -0.8636) (layer F.Fab) (width 0.1))
  (fp_line (start 1.8542 0.8636) (end 1.8542 -0.8636) (layer F.Fab) (width 0.1))
  (fp_line (start -1.8542 -0.8636) (end 1.8542 -0.8636) (layer F.Fab) (width 0.1))
  (fp_line (start 1.016 0.8636) (end 1.016 -0.8636) (layer F.Fab) (width 0.1))
  (pad K smd rect (at 1.6 0) (size 1.5748 1.905) (layers F.Cu F.Paste F.Mask))
  (pad A smd rect (at -1.6 0) (size 1.5748 1.905) (layers F.Cu F.Paste F.Mask))
  (model ${KISYS3DMOD}/Diode_SMD.3dshapes/D_MiniMELF.wrl
    (at (xyz 0 0 0))
    (scale (xyz 1 1 1))
    (rotate (xyz 0 0 0))
  )
)
