(module SOT95P237X112-3N (layer F.Cu) (tedit 5E987BE6)
  (attr smd)
  (fp_text reference REF** (at 0.0889 -2.4257 270 unlocked) (layer F.SilkS)
    (effects (font (size 0.316586 0.332994) (thickness 0.0254)))
  )
  (fp_text value SOT95P237X112-3N (at -0.0381 0.7112 270 unlocked) (layer F.SilkS) hide
    (effects (font (size 0.316586 0.332994) (thickness 0.0254)))
  )
  (fp_arc (start 1.4478 1.7272) (end 1.3462 1.7272) (angle -360) (layer F.SilkS) (width 0.1778))
  (fp_line (start 0 -1.4478) (end 0 1.4478) (layer F.SilkS) (width 0.1778))
  (fp_line (start 0.635 0.9398) (end 0.127 1.4478) (layer F.Fab) (width 0.1778))
  (fp_line (start 0.635 1.0414) (end 0.2286 1.4478) (layer F.Fab) (width 0.1778))
  (fp_line (start 0.635 1.143) (end 0.3302 1.4478) (layer F.Fab) (width 0.1778))
  (fp_line (start 0.635 1.2446) (end 0.4318 1.4478) (layer F.Fab) (width 0.1778))
  (fp_line (start 0.635 1.3462) (end 0.5334 1.4478) (layer F.Fab) (width 0.1778))
  (fp_line (start 0.635 -1.4478) (end 0.635 1.4478) (layer F.Fab) (width 0.1778))
  (fp_line (start 0.635 -1.4478) (end -0.635 -1.4478) (layer F.Fab) (width 0.1778))
  (fp_line (start 0.635 1.4478) (end -0.635 1.4478) (layer F.Fab) (width 0.1778))
  (fp_line (start -0.635 -1.4478) (end -0.635 1.4478) (layer F.Fab) (width 0.1778))
  (fp_line (start 0.635 0.4572) (end -0.3302 1.4478) (layer F.Fab) (width 0.1778))
  (fp_line (start 0.635 0.5588) (end -0.2286 1.4478) (layer F.Fab) (width 0.1778))
  (fp_line (start 0.635 0.635) (end -0.127 1.4478) (layer F.Fab) (width 0.1778))
  (fp_line (start 0.635 0.7366) (end -0.0254 1.4478) (layer F.Fab) (width 0.1778))
  (fp_line (start 0.635 0.8382) (end 0.0254 1.4478) (layer F.Fab) (width 0.1778))
  (pad 3 smd rect (at -1.0414 0) (size 1.2954 0.5842) (layers F.Cu F.Paste F.Mask))
  (pad 2 smd rect (at 1.0414 -0.9398) (size 1.2954 0.5842) (layers F.Cu F.Paste F.Mask))
  (pad 1 smd rect (at 1.0414 0.9398) (size 1.2954 0.5842) (layers F.Cu F.Paste F.Mask))
  (model ${KISYS3DMOD}/Package_TO_SOT_SMD.3dshapes/SOT-23.wrl
    (at (xyz 0 0 0))
    (scale (xyz 1 1 1))
    (rotate (xyz 0 0 180))
  )
)
