(module TB-CMS-AIROX (layer F.Cu) (tedit 5EC6FA51)
  (attr smd)
  (fp_text reference REF** (at -2 0) (layer F.SilkS)
    (effects (font (size 1 1) (thickness 0.15)) (justify right))
  )
  (fp_text value TB-CMS-AIROX (at 0 2) (layer F.Fab) hide
    (effects (font (size 1 1) (thickness 0.15)))
  )
  (fp_line (start -2.1 2.1) (end -2.1 -2.1) (layer Dwgs.User) (width 0.05))
  (fp_line (start -2.1 -2.1) (end 2.1 -2.1) (layer Dwgs.User) (width 0.05))
  (fp_line (start 2.1 -2.1) (end 2.1 2.1) (layer Dwgs.User) (width 0.05))
  (fp_line (start 2.1 2.1) (end -2.1 2.1) (layer Dwgs.User) (width 0.05))
  (fp_poly (pts (xy 2 -2) (xy 2 2) (xy -2 2) (xy -2 -2)) (layer F.Fab) (width 0.02))
  (pad 1 smd custom (at 1.525 0) (size 0.95 0.95) (layers F.Cu F.Mask)
    (options (clearance outline) (anchor circle))
    (primitives
      (gr_circle (center -1.525 0) (end 0 0) (width 0.95))
    ))
  (pad 2 smd circle (at 0 0) (size 1.5 1.5) (layers F.Cu F.Mask)
    (solder_mask_margin 0.1) (zone_connect 2))
  (pad "" smd circle (at 0 0) (size 4.2 4.2) (layers F.Mask))
)
