(module ThroughHole_36milx12mil_Pad_Cu_Mask (layer F.Cu) (tedit 5E9CCEB5)
  (fp_text reference "" (at 0 0) (layer F.SilkS)
    (effects (font (size 1.27 1.27) (thickness 0.15)))
  )
  (fp_text value "" (at 0 0) (layer F.SilkS)
    (effects (font (size 1.27 1.27) (thickness 0.15)))
  )
  (pad "" thru_hole circle (at 0 0) (size 0.9144 0.9144) (drill 0.3048) (layers *.Cu *.Mask))
)
