(module AllModules:Via_12x36-1._._.4 locked (layer F.Cu) (tedit 5EA5AD6F)
  (descr "4 layer Via, 36mil pads on top and bottom layers only, 12mil hole.")
  (fp_text reference V172 (at 0 0) (layer F.SilkS) hide
    (effects (font (size 1 1) (thickness 0.15)))
  )
  (fp_text value +BATTV (at 0 2) (layer F.Fab) hide
    (effects (font (size 1 1) (thickness 0.15)))
  )
  (pad "" thru_hole circle (at 0 0) (size 0.9144 0.9144) (drill 0.3048) (layers F&B.Cu)
    (zone_connect 2))
)
