(module WETPC-S (layer F.Cu) (tedit 5EC6FC3B)
  (attr smd)
  (fp_text reference REF** (at 0 -3) (layer F.SilkS)
    (effects (font (size 1 1) (thickness 0.15)))
  )
  (fp_text value WETPC-S (at 0 2) (layer F.Fab) hide
    (effects (font (size 1 1) (thickness 0.15)))
  )
  (fp_arc (start 0 0) (end 1.3 0) (angle 360) (layer F.SilkS) (width 0.1))
  (fp_arc (start -1.50002 -1.50002) (end -1.5 -2) (angle -90.004584) (layer F.SilkS) (width 0.1))
  (fp_arc (start -1.50001 1.50001) (end -2 1.5) (angle -90.002292) (layer F.SilkS) (width 0.1))
  (fp_arc (start 1.50001 1.50001) (end 1.5 2) (angle -90.002292) (layer F.SilkS) (width 0.1))
  (fp_arc (start 1.50002 -1.50002) (end 2 -1.5) (angle -90.004584) (layer F.SilkS) (width 0.1))
  (fp_line (start -2.2644 2.286) (end -2.2644 -2.286) (layer Dwgs.User) (width 0.05))
  (fp_line (start -2.2644 -2.286) (end 2.2644 -2.286) (layer Dwgs.User) (width 0.05))
  (fp_line (start 2.2644 -2.286) (end 2.2644 2.286) (layer Dwgs.User) (width 0.05))
  (fp_line (start 2.2644 2.286) (end -2.2644 2.286) (layer Dwgs.User) (width 0.05))
  (fp_line (start -2 -2) (end -2 2) (layer F.Fab) (width 0.18))
  (fp_line (start -2 2) (end 2 2) (layer F.Fab) (width 0.18))
  (fp_line (start 2 2) (end 2 -2) (layer F.Fab) (width 0.18))
  (fp_line (start 2 -2) (end -2 -2) (layer F.Fab) (width 0.18))
  (fp_line (start -2 -1.5) (end -2 1.5) (layer F.SilkS) (width 0.1))
  (fp_line (start -1.5 2) (end 1.5 2) (layer F.SilkS) (width 0.1))
  (fp_line (start 2 1.5) (end 2 -1.5) (layer F.SilkS) (width 0.1))
  (fp_line (start 1.5 -2) (end -1.5 -2) (layer F.SilkS) (width 0.1))
  (fp_line (start -2.1501 2.159) (end -2.1501 -2.159) (layer F.SilkS) (width 0.02))
  (fp_line (start -2.1501 -2.159) (end -0.5499 -2.159) (layer F.SilkS) (width 0.02))
  (fp_line (start -0.5499 -2.159) (end -0.5499 2.159) (layer F.SilkS) (width 0.02))
  (fp_line (start -0.5499 2.159) (end -2.1501 2.159) (layer F.SilkS) (width 0.02))
  (fp_line (start 0.5499 2.159) (end 0.5499 -2.159) (layer F.SilkS) (width 0.02))
  (fp_line (start 0.5499 -2.159) (end 2.1501 -2.159) (layer F.SilkS) (width 0.02))
  (fp_line (start 2.1501 -2.159) (end 2.1501 2.159) (layer F.SilkS) (width 0.02))
  (fp_line (start 2.1501 2.159) (end 0.5499 2.159) (layer F.SilkS) (width 0.02))
  (fp_poly (pts (xy -2.25 2.25) (xy -2.25 -2.25) (xy 2.25 -2.25) (xy 2.25 2.25)
    (xy -2.25 2.25)) (layer F.Fab) (width 0.02))
  (pad 1 smd rect (at -1.35 0) (size 1.6002 4.318) (layers F.Cu F.Paste F.Mask)
    (solder_mask_margin 0.127) (zone_connect 2))
  (pad 2 smd rect (at 1.35 0) (size 1.6002 4.318) (layers F.Cu F.Paste F.Mask)
    (solder_mask_margin 0.127) (zone_connect 2))
  (model ${KIPRJMOD}/../Library/Footprints.3dshapes/NR4018T100M_cp.wrl
    (at (xyz 0 0 0))
    (scale (xyz 1 1 1))
    (rotate (xyz 0 0 90))
  )
)
