(module COIN_EXTERNE_0.5 (layer F.Cu) (tedit 0)
  (fp_text reference REF** (at 0 0) (layer F.SilkS)
    (effects (font (size 1 1) (thickness 0.15)))
  )
  (fp_text value COIN_EXTERNE_0.5 (at 0 2) (layer F.Fab) hide
    (effects (font (size 1 1) (thickness 0.15)))
  )
  (fp_line (start -1.905 0) (end -1.905 -1.905) (layer Dwgs.User) (width 0.05))
  (fp_line (start -1.905 -1.905) (end 0 -1.905) (layer Dwgs.User) (width 0.05))
  (fp_line (start 0 -1.905) (end 0 0) (layer Dwgs.User) (width 0.05))
  (fp_line (start 0 0) (end -1.905 0) (layer Dwgs.User) (width 0.05))
  (fp_poly (pts (xy -1.905 0) (xy -1.905 -0.635) (xy -0.635 -0.635) (xy -0.635 -1.905)
     (xy 0 -1.905) (xy 0 0) (xy -1.905 0)) (layer F.Cu) (width 0.02))
  (fp_poly (pts (xy -1.905 0) (xy -1.905 -0.635) (xy -0.635 -0.635) (xy -0.635 -1.905)
     (xy 0 -1.905) (xy 0 0) (xy -1.905 0)) (layer F.Cu) (width 0.02))
  (fp_poly (pts (xy -1.905 0) (xy -1.905 -0.635) (xy -0.635 -0.635) (xy -0.635 -1.905)
     (xy 0 -1.905) (xy 0 0) (xy -1.905 0)) (layer F.SilkS) (width 0.02))
  (fp_poly (pts (xy -1.905 0) (xy -1.905 -0.635) (xy -0.635 -0.635) (xy -0.635 -1.905)
     (xy 0 -1.905) (xy 0 0) (xy -1.905 0)) (layer F.Mask) (width 0.02))
  (fp_poly (pts (xy -1.905 0) (xy -1.905 -0.635) (xy -0.635 -0.635) (xy -0.635 -1.905)
     (xy 0 -1.905) (xy 0 0) (xy -1.905 0)) (layer F.Paste) (width 0.02))
  (fp_poly (pts (xy -1.905 0) (xy -1.905 -0.635) (xy -0.635 -0.635) (xy -0.635 -1.905)
     (xy 0 -1.905) (xy 0 0) (xy -1.905 0)) (layer F.Fab) (width 0.02))
  (fp_poly (pts (xy -1.905 0) (xy -1.905 -0.635) (xy -0.635 -0.635) (xy -0.635 -1.905)
     (xy 0 -1.905) (xy 0 0) (xy -1.905 0)) (layer B.Cu) (width 0.02))
  (fp_poly (pts (xy -1.905 0) (xy -1.905 -0.635) (xy -0.635 -0.635) (xy -0.635 -1.905)
     (xy 0 -1.905) (xy 0 0) (xy -1.905 0)) (layer B.Cu) (width 0.02))
  (fp_poly (pts (xy -1.905 0) (xy -1.905 -0.635) (xy -0.635 -0.635) (xy -0.635 -1.905)
     (xy 0 -1.905) (xy 0 0) (xy -1.905 0)) (layer B.SilkS) (width 0.02))
  (fp_poly (pts (xy -1.905 0) (xy -1.905 -0.635) (xy -0.635 -0.635) (xy -0.635 -1.905)
     (xy 0 -1.905) (xy 0 0) (xy -1.905 0)) (layer B.Mask) (width 0.02))
  (fp_poly (pts (xy -1.905 0) (xy -1.905 -0.635) (xy -0.635 -0.635) (xy -0.635 -1.905)
     (xy 0 -1.905) (xy 0 0) (xy -1.905 0)) (layer B.Paste) (width 0.02))
  (fp_poly (pts (xy -1.905 0) (xy -1.905 -0.635) (xy -0.635 -0.635) (xy -0.635 -1.905)
     (xy 0 -1.905) (xy 0 0) (xy -1.905 0)) (layer B.Fab) (width 0.02))
)