(module MIRECMS_CROIX-3 (layer F.Cu) (tedit 0)
  (fp_text reference REF** (at 0 0) (layer F.SilkS)
    (effects (font (size 1 1) (thickness 0.15)))
  )
  (fp_text value MIRECMS_CROIX-3 (at 0 2) (layer F.Fab) hide
    (effects (font (size 1 1) (thickness 0.15)))
  )
  (fp_line (start -1.754 1.754) (end -1.754 -1.754) (layer Dwgs.User) (width 0.05))
  (fp_line (start -1.754 -1.754) (end 1.754 -1.754) (layer Dwgs.User) (width 0.05))
  (fp_line (start 1.754 -1.754) (end 1.754 1.754) (layer Dwgs.User) (width 0.05))
  (fp_line (start 1.754 1.754) (end -1.754 1.754) (layer Dwgs.User) (width 0.05))
  (fp_line (start -1.5 0) (end 1.5 0) (layer F.Cu) (width 0.2032))
  (fp_line (start 0 -1.5) (end 0 1.5) (layer F.Cu) (width 0.2032))
  (fp_line (start 0 -1.5) (end 0 1.5) (layer F.Mask) (width 0.508))
  (fp_line (start -1.5 0) (end 1.5 0) (layer F.Mask) (width 0.508))
  (fp_line (start 1.75 0) (end 1.747093 -0.100821) (layer F.CrtYd) (width 0.02))
  (fp_line (start 1.747093 -0.100821) (end 1.738383 -0.201307) (layer F.CrtYd) (width 0.02))
  (fp_line (start 1.738383 -0.201307) (end 1.723898 -0.301124) (layer F.CrtYd) (width 0.02))
  (fp_line (start 1.723898 -0.301124) (end 1.703686 -0.399941) (layer F.CrtYd) (width 0.02))
  (fp_line (start 1.703686 -0.399941) (end 1.677815 -0.49743) (layer F.CrtYd) (width 0.02))
  (fp_line (start 1.677815 -0.49743) (end 1.64637 -0.593266) (layer F.CrtYd) (width 0.02))
  (fp_line (start 1.64637 -0.593266) (end 1.609457 -0.687131) (layer F.CrtYd) (width 0.02))
  (fp_line (start 1.609457 -0.687131) (end 1.567196 -0.778714) (layer F.CrtYd) (width 0.02))
  (fp_line (start 1.567196 -0.778714) (end 1.51973 -0.86771) (layer F.CrtYd) (width 0.02))
  (fp_line (start 1.51973 -0.86771) (end 1.467215 -0.953823) (layer F.CrtYd) (width 0.02))
  (fp_line (start 1.467215 -0.953823) (end 1.409827 -1.036768) (layer F.CrtYd) (width 0.02))
  (fp_line (start 1.409827 -1.036768) (end 1.347755 -1.116269) (layer F.CrtYd) (width 0.02))
  (fp_line (start 1.347755 -1.116269) (end 1.281206 -1.192062) (layer F.CrtYd) (width 0.02))
  (fp_line (start 1.281206 -1.192062) (end 1.210401 -1.263895) (layer F.CrtYd) (width 0.02))
  (fp_line (start 1.210401 -1.263895) (end 1.135575 -1.331529) (layer F.CrtYd) (width 0.02))
  (fp_line (start 1.135575 -1.331529) (end 1.056977 -1.39474) (layer F.CrtYd) (width 0.02))
  (fp_line (start 1.056977 -1.39474) (end 0.974867 -1.453318) (layer F.CrtYd) (width 0.02))
  (fp_line (start 0.974867 -1.453318) (end 0.88952 -1.507068) (layer F.CrtYd) (width 0.02))
  (fp_line (start 0.88952 -1.507068) (end 0.801217 -1.555812) (layer F.CrtYd) (width 0.02))
  (fp_line (start 0.801217 -1.555812) (end 0.710253 -1.599388) (layer F.CrtYd) (width 0.02))
  (fp_line (start 0.710253 -1.599388) (end 0.616929 -1.63765) (layer F.CrtYd) (width 0.02))
  (fp_line (start 0.616929 -1.63765) (end 0.521556 -1.670473) (layer F.CrtYd) (width 0.02))
  (fp_line (start 0.521556 -1.670473) (end 0.424451 -1.697746) (layer F.CrtYd) (width 0.02))
  (fp_line (start 0.424451 -1.697746) (end 0.325935 -1.71938) (layer F.CrtYd) (width 0.02))
  (fp_line (start 0.325935 -1.71938) (end 0.226337 -1.735302) (layer F.CrtYd) (width 0.02))
  (fp_line (start 0.226337 -1.735302) (end 0.125987 -1.745459) (layer F.CrtYd) (width 0.02))
  (fp_line (start 0.125987 -1.745459) (end 0.025218 -1.749818) (layer F.CrtYd) (width 0.02))
  (fp_line (start 0.025218 -1.749818) (end -0.075634 -1.748365) (layer F.CrtYd) (width 0.02))
  (fp_line (start -0.075634 -1.748365) (end -0.176235 -1.741103) (layer F.CrtYd) (width 0.02))
  (fp_line (start -0.176235 -1.741103) (end -0.276251 -1.728058) (layer F.CrtYd) (width 0.02))
  (fp_line (start -0.276251 -1.728058) (end -0.375349 -1.709273) (layer F.CrtYd) (width 0.02))
  (fp_line (start -0.375349 -1.709273) (end -0.4732 -1.684809) (layer F.CrtYd) (width 0.02))
  (fp_line (start -0.4732 -1.684809) (end -0.569479 -1.654749) (layer F.CrtYd) (width 0.02))
  (fp_line (start -0.569479 -1.654749) (end -0.663867 -1.619191) (layer F.CrtYd) (width 0.02))
  (fp_line (start -0.663867 -1.619191) (end -0.756049 -1.578255) (layer F.CrtYd) (width 0.02))
  (fp_line (start -0.756049 -1.578255) (end -0.84572 -1.532076) (layer F.CrtYd) (width 0.02))
  (fp_line (start -0.84572 -1.532076) (end -0.932581 -1.480808) (layer F.CrtYd) (width 0.02))
  (fp_line (start -0.932581 -1.480808) (end -1.016344 -1.424621) (layer F.CrtYd) (width 0.02))
  (fp_line (start -1.016344 -1.424621) (end -1.096731 -1.363701) (layer F.CrtYd) (width 0.02))
  (fp_line (start -1.096731 -1.363701) (end -1.173475 -1.298251) (layer F.CrtYd) (width 0.02))
  (fp_line (start -1.173475 -1.298251) (end -1.246321 -1.228488) (layer F.CrtYd) (width 0.02))
  (fp_line (start -1.246321 -1.228488) (end -1.315027 -1.154645) (layer F.CrtYd) (width 0.02))
  (fp_line (start -1.315027 -1.154645) (end -1.379364 -1.076966) (layer F.CrtYd) (width 0.02))
  (fp_line (start -1.379364 -1.076966) (end -1.439119 -0.995709) (layer F.CrtYd) (width 0.02))
  (fp_line (start -1.439119 -0.995709) (end -1.494093 -0.911145) (layer F.CrtYd) (width 0.02))
  (fp_line (start -1.494093 -0.911145) (end -1.544105 -0.823554) (layer F.CrtYd) (width 0.02))
  (fp_line (start -1.544105 -0.823554) (end -1.588986 -0.733227) (layer F.CrtYd) (width 0.02))
  (fp_line (start -1.588986 -0.733227) (end -1.62859 -0.640465) (layer F.CrtYd) (width 0.02))
  (fp_line (start -1.62859 -0.640465) (end -1.662783 -0.545574) (layer F.CrtYd) (width 0.02))
  (fp_line (start -1.662783 -0.545574) (end -1.691453 -0.448872) (layer F.CrtYd) (width 0.02))
  (fp_line (start -1.691453 -0.448872) (end -1.714504 -0.350679) (layer F.CrtYd) (width 0.02))
  (fp_line (start -1.714504 -0.350679) (end -1.73186 -0.25132) (layer F.CrtYd) (width 0.02))
  (fp_line (start -1.73186 -0.25132) (end -1.743462 -0.151127) (layer F.CrtYd) (width 0.02))
  (fp_line (start -1.743462 -0.151127) (end -1.749273 -0.050431) (layer F.CrtYd) (width 0.02))
  (fp_line (start -1.749273 -0.050431) (end -1.749273 0.050431) (layer F.CrtYd) (width 0.02))
  (fp_line (start -1.749273 0.050431) (end -1.743462 0.151127) (layer F.CrtYd) (width 0.02))
  (fp_line (start -1.743462 0.151127) (end -1.73186 0.25132) (layer F.CrtYd) (width 0.02))
  (fp_line (start -1.73186 0.25132) (end -1.714504 0.350679) (layer F.CrtYd) (width 0.02))
  (fp_line (start -1.714504 0.350679) (end -1.691453 0.448872) (layer F.CrtYd) (width 0.02))
  (fp_line (start -1.691453 0.448872) (end -1.662783 0.545574) (layer F.CrtYd) (width 0.02))
  (fp_line (start -1.662783 0.545574) (end -1.62859 0.640465) (layer F.CrtYd) (width 0.02))
  (fp_line (start -1.62859 0.640465) (end -1.588986 0.733227) (layer F.CrtYd) (width 0.02))
  (fp_line (start -1.588986 0.733227) (end -1.544105 0.823554) (layer F.CrtYd) (width 0.02))
  (fp_line (start -1.544105 0.823554) (end -1.494093 0.911145) (layer F.CrtYd) (width 0.02))
  (fp_line (start -1.494093 0.911145) (end -1.439119 0.995709) (layer F.CrtYd) (width 0.02))
  (fp_line (start -1.439119 0.995709) (end -1.379364 1.076966) (layer F.CrtYd) (width 0.02))
  (fp_line (start -1.379364 1.076966) (end -1.315027 1.154645) (layer F.CrtYd) (width 0.02))
  (fp_line (start -1.315027 1.154645) (end -1.246321 1.228488) (layer F.CrtYd) (width 0.02))
  (fp_line (start -1.246321 1.228488) (end -1.173475 1.298251) (layer F.CrtYd) (width 0.02))
  (fp_line (start -1.173475 1.298251) (end -1.096731 1.363701) (layer F.CrtYd) (width 0.02))
  (fp_line (start -1.096731 1.363701) (end -1.016344 1.424621) (layer F.CrtYd) (width 0.02))
  (fp_line (start -1.016344 1.424621) (end -0.932581 1.480808) (layer F.CrtYd) (width 0.02))
  (fp_line (start -0.932581 1.480808) (end -0.84572 1.532076) (layer F.CrtYd) (width 0.02))
  (fp_line (start -0.84572 1.532076) (end -0.756049 1.578255) (layer F.CrtYd) (width 0.02))
  (fp_line (start -0.756049 1.578255) (end -0.663867 1.619191) (layer F.CrtYd) (width 0.02))
  (fp_line (start -0.663867 1.619191) (end -0.569479 1.654749) (layer F.CrtYd) (width 0.02))
  (fp_line (start -0.569479 1.654749) (end -0.4732 1.684809) (layer F.CrtYd) (width 0.02))
  (fp_line (start -0.4732 1.684809) (end -0.375349 1.709273) (layer F.CrtYd) (width 0.02))
  (fp_line (start -0.375349 1.709273) (end -0.276251 1.728058) (layer F.CrtYd) (width 0.02))
  (fp_line (start -0.276251 1.728058) (end -0.176235 1.741103) (layer F.CrtYd) (width 0.02))
  (fp_line (start -0.176235 1.741103) (end -0.075634 1.748365) (layer F.CrtYd) (width 0.02))
  (fp_line (start -0.075634 1.748365) (end 0.025218 1.749818) (layer F.CrtYd) (width 0.02))
  (fp_line (start 0.025218 1.749818) (end 0.125987 1.745459) (layer F.CrtYd) (width 0.02))
  (fp_line (start 0.125987 1.745459) (end 0.226337 1.735302) (layer F.CrtYd) (width 0.02))
  (fp_line (start 0.226337 1.735302) (end 0.325935 1.71938) (layer F.CrtYd) (width 0.02))
  (fp_line (start 0.325935 1.71938) (end 0.424451 1.697746) (layer F.CrtYd) (width 0.02))
  (fp_line (start 0.424451 1.697746) (end 0.521556 1.670473) (layer F.CrtYd) (width 0.02))
  (fp_line (start 0.521556 1.670473) (end 0.616929 1.63765) (layer F.CrtYd) (width 0.02))
  (fp_line (start 0.616929 1.63765) (end 0.710253 1.599388) (layer F.CrtYd) (width 0.02))
  (fp_line (start 0.710253 1.599388) (end 0.801217 1.555812) (layer F.CrtYd) (width 0.02))
  (fp_line (start 0.801217 1.555812) (end 0.88952 1.507068) (layer F.CrtYd) (width 0.02))
  (fp_line (start 0.88952 1.507068) (end 0.974867 1.453318) (layer F.CrtYd) (width 0.02))
  (fp_line (start 0.974867 1.453318) (end 1.056977 1.39474) (layer F.CrtYd) (width 0.02))
  (fp_line (start 1.056977 1.39474) (end 1.135575 1.331529) (layer F.CrtYd) (width 0.02))
  (fp_line (start 1.135575 1.331529) (end 1.210401 1.263895) (layer F.CrtYd) (width 0.02))
  (fp_line (start 1.210401 1.263895) (end 1.281206 1.192062) (layer F.CrtYd) (width 0.02))
  (fp_line (start 1.281206 1.192062) (end 1.347755 1.116269) (layer F.CrtYd) (width 0.02))
  (fp_line (start 1.347755 1.116269) (end 1.409827 1.036768) (layer F.CrtYd) (width 0.02))
  (fp_line (start 1.409827 1.036768) (end 1.467215 0.953823) (layer F.CrtYd) (width 0.02))
  (fp_line (start 1.467215 0.953823) (end 1.51973 0.86771) (layer F.CrtYd) (width 0.02))
  (fp_line (start 1.51973 0.86771) (end 1.567196 0.778714) (layer F.CrtYd) (width 0.02))
  (fp_line (start 1.567196 0.778714) (end 1.609457 0.687131) (layer F.CrtYd) (width 0.02))
  (fp_line (start 1.609457 0.687131) (end 1.64637 0.593266) (layer F.CrtYd) (width 0.02))
  (fp_line (start 1.64637 0.593266) (end 1.677815 0.49743) (layer F.CrtYd) (width 0.02))
  (fp_line (start 1.677815 0.49743) (end 1.703686 0.399941) (layer F.CrtYd) (width 0.02))
  (fp_line (start 1.703686 0.399941) (end 1.723898 0.301124) (layer F.CrtYd) (width 0.02))
  (fp_line (start 1.723898 0.301124) (end 1.738383 0.201307) (layer F.CrtYd) (width 0.02))
  (fp_line (start 1.738383 0.201307) (end 1.747093 0.100821) (layer F.CrtYd) (width 0.02))
  (fp_line (start 1.747093 0.100821) (end 1.75 0) (layer F.CrtYd) (width 0.02))
  (pad 1 smd circle (at 0 0) (size 0.2032 0.2032) (layers F.Cu)
    (zone_connect 2))
)