(module PERCAGE_TABLEAU (layer F.Cu) (tedit 0)
  (fp_text reference REF** (at 0 0) (layer F.SilkS)
    (effects (font (size 1 1) (thickness 0.15)))
  )
  (fp_text value PERCAGE_TABLEAU (at 0 2) (layer F.Fab) hide
    (effects (font (size 1 1) (thickness 0.15)))
  )
  (fp_line (start -0.125 26.795) (end -0.125 -0.125) (layer Dwgs.User) (width 0.05))
  (fp_line (start -0.125 -0.125) (end 50.925 -0.125) (layer Dwgs.User) (width 0.05))
  (fp_line (start 50.925 -0.125) (end 50.925 26.795) (layer Dwgs.User) (width 0.05))
  (fp_line (start 50.925 26.795) (end -0.125 26.795) (layer Dwgs.User) (width 0.05))
  (fp_line (start 0 21.59) (end 50.8 21.59) (layer Dwgs.User) (width 0.25))
  (fp_line (start 50.8 16.51) (end 50.8 26.67) (layer Dwgs.User) (width 0.25))
  (fp_line (start 38.1 16.51) (end 38.1 26.67) (layer Dwgs.User) (width 0.25))
  (fp_line (start 25.4 16.51) (end 25.4 26.67) (layer Dwgs.User) (width 0.25))
  (fp_line (start 12.7 16.51) (end 12.7 26.67) (layer Dwgs.User) (width 0.25))
  (fp_line (start 0 16.51) (end 0 26.67) (layer Dwgs.User) (width 0.25))
  (fp_line (start 38.1 16.51) (end 38.1 11.43) (layer Dwgs.User) (width 0.25))
  (fp_line (start 12.7 11.43) (end 12.7 16.51) (layer Dwgs.User) (width 0.25))
  (fp_line (start 25.4 6.35) (end 25.4 16.51) (layer Dwgs.User) (width 0.25))
  (fp_line (start 0 16.51) (end 50.8 16.51) (layer Dwgs.User) (width 0.25))
  (fp_line (start 50.8 16.51) (end 50.8 11.43) (layer Dwgs.User) (width 0.25))
  (fp_line (start 50.8 11.43) (end 0 11.43) (layer Dwgs.User) (width 0.25))
  (fp_line (start 0 11.43) (end 0 16.51) (layer Dwgs.User) (width 0.25))
  (fp_line (start 0 11.43) (end 50.8 11.43) (layer Dwgs.User) (width 0.25))
  (fp_line (start 50.8 11.43) (end 50.8 6.35) (layer Dwgs.User) (width 0.25))
  (fp_line (start 50.8 6.35) (end 0 6.35) (layer Dwgs.User) (width 0.25))
  (fp_line (start 0 6.35) (end 0 11.43) (layer Dwgs.User) (width 0.25))
  (fp_line (start 0 6.35) (end 50.8 6.35) (layer Dwgs.User) (width 0.25))
  (fp_line (start 50.8 6.35) (end 50.8 0) (layer Dwgs.User) (width 0.25))
  (fp_line (start 50.8 0) (end 0 0) (layer Dwgs.User) (width 0.25))
  (fp_line (start 0 0) (end 0 6.35) (layer Dwgs.User) (width 0.25))
  (fp_text user SYMBOLE (at 27.94 15.03014) (layer Dwgs.User)
    (effects (font (size 1 1) (thickness 0.13716)) (justify left))
  )
  (fp_text user PERCAGE (at 40.64 15.03014) (layer Dwgs.User)
    (effects (font (size 1 1) (thickness 0.13716)) (justify left))
  )
  (fp_text user PERCAGE (at 14.605 15.03014) (layer Dwgs.User)
    (effects (font (size 1 1) (thickness 0.13716)) (justify left))
  )
  (fp_text user SYMBOLE (at 2.54 15.03014) (layer Dwgs.User)
    (effects (font (size 1 1) (thickness 0.13716)) (justify left))
  )
  (fp_text user "TROUS\nNON METALLISES" (at 38.1 10.62147) (layer Dwgs.User)
    (effects (font (size 1 1) (thickness 0.13716)))
  )
  (fp_text user "TROUS \nMETALLISES FINIS" (at 13.589 10.62147) (layer Dwgs.User)
    (effects (font (size 1 1) (thickness 0.13716)))
  )
  (fp_text user PERCAGES (at 16.51 5.23231) (layer Dwgs.User)
    (effects (font (size 1 1) (thickness 0.254)) (justify left))
  )
)