(module SQRS63A0 (layer F.Cu) (tedit 0)
  (fp_text reference REF** (at 0 0) (layer F.SilkS) hide
    (effects (font (size 1 1) (thickness 0.15)))
  )
  (fp_text value SQRS63A0 (at 0 2) (layer F.Fab) hide
    (effects (font (size 1 1) (thickness 0.15)))
  )
  (fp_line (start -0.96012 0.96012) (end -0.96012 -0.96012) (layer F.CrtYd) (width 0.05))
  (fp_line (start -0.96012 -0.96012) (end 0.96012 -0.96012) (layer F.CrtYd) (width 0.05))
  (fp_line (start 0.96012 -0.96012) (end 0.96012 0.96012) (layer F.CrtYd) (width 0.05))
  (fp_line (start 0.96012 0.96012) (end -0.96012 0.96012) (layer F.CrtYd) (width 0.05))
  (fp_line (start -0.8001 -0.8001) (end -0.8001 0.8001) (layer F.SilkS) (width 0))
  (fp_line (start -0.8001 0.8001) (end 0.8001 0.8001) (layer F.SilkS) (width 0))
  (fp_line (start 0.8001 0.8001) (end 0.8001 -0.8001) (layer F.SilkS) (width 0))
  (fp_line (start 0.8001 -0.8001) (end -0.8001 -0.8001) (layer F.SilkS) (width 0))
  (pad ~ smd rect (at 0 0) (size 1.6002 1.6002) (layers F.Cu F.Mask F.Paste)
    (zone_connect 2))
)