ISO-10303-21;
HEADER;
FILE_DESCRIPTION(('FreeCAD Model'),'2;1');
FILE_NAME(
'/home/huba/pCloudDrive/_Freelance/0068 - OpenVentilator/01 - 
Electronic parts/811-S1-002-30-014101.step','2020-05-04T14:30:51',(
    'Author'),(''),'Open CASCADE STEP processor 7.4','FreeCAD','Unknown'
  );
FILE_SCHEMA(('AUTOMOTIVE_DESIGN { 1 0 10303 214 1 1 1 1 }'));
ENDSEC;
DATA;
#1 = APPLICATION_PROTOCOL_DEFINITION('international standard',
  'automotive_design',2000,#2);
#2 = APPLICATION_CONTEXT(
  'core data for automotive mechanical design processes');
#3 = SHAPE_DEFINITION_REPRESENTATION(#4,#10);
#4 = PRODUCT_DEFINITION_SHAPE('','',#5);
#5 = PRODUCT_DEFINITION('design','',#6,#9);
#6 = PRODUCT_DEFINITION_FORMATION('','',#7);
#7 = PRODUCT('811-S1-NNN-30-XXX101','811-S1-NNN-30-XXX101','',(#8));
#8 = PRODUCT_CONTEXT('',#2,'mechanical');
#9 = PRODUCT_DEFINITION_CONTEXT('part definition',#2,'design');
#10 = SHAPE_REPRESENTATION('',(#11,#15,#19,#23),#27);
#11 = AXIS2_PLACEMENT_3D('',#12,#13,#14);
#12 = CARTESIAN_POINT('',(0.,0.,0.));
#13 = DIRECTION('',(0.,0.,1.));
#14 = DIRECTION('',(1.,0.,-0.));
#15 = AXIS2_PLACEMENT_3D('',#16,#17,#18);
#16 = CARTESIAN_POINT('',(0.,0.,0.));
#17 = DIRECTION('',(0.,0.,1.));
#18 = DIRECTION('',(1.,0.,0.));
#19 = AXIS2_PLACEMENT_3D('',#20,#21,#22);
#20 = CARTESIAN_POINT('',(0.,0.,0.));
#21 = DIRECTION('',(0.,0.,1.));
#22 = DIRECTION('',(1.,0.,0.));
#23 = AXIS2_PLACEMENT_3D('',#24,#25,#26);
#24 = CARTESIAN_POINT('',(0.,0.,0.));
#25 = DIRECTION('',(0.,0.,1.));
#26 = DIRECTION('',(1.,0.,0.));
#27 = ( GEOMETRIC_REPRESENTATION_CONTEXT(3) 
GLOBAL_UNCERTAINTY_ASSIGNED_CONTEXT((#31)) GLOBAL_UNIT_ASSIGNED_CONTEXT(
(#28,#29,#30)) REPRESENTATION_CONTEXT('Context #1',
  '3D Context with UNIT and UNCERTAINTY') );
#28 = ( LENGTH_UNIT() NAMED_UNIT(*) SI_UNIT(.MILLI.,.METRE.) );
#29 = ( NAMED_UNIT(*) PLANE_ANGLE_UNIT() SI_UNIT($,.RADIAN.) );
#30 = ( NAMED_UNIT(*) SI_UNIT($,.STERADIAN.) SOLID_ANGLE_UNIT() );
#31 = UNCERTAINTY_MEASURE_WITH_UNIT(LENGTH_MEASURE(1.E-07),#28,
  'distance_accuracy_value','confusion accuracy');
#32 = PRODUCT_RELATED_PRODUCT_CATEGORY('part',$,(#7));
#33 = SHAPE_DEFINITION_REPRESENTATION(#34,#40);
#34 = PRODUCT_DEFINITION_SHAPE('','',#35);
#35 = PRODUCT_DEFINITION('design','',#36,#39);
#36 = PRODUCT_DEFINITION_FORMATION('','',#37);
#37 = PRODUCT('contact_array','contact_array','',(#38));
#38 = PRODUCT_CONTEXT('',#2,'mechanical');
#39 = PRODUCT_DEFINITION_CONTEXT('part definition',#2,'design');
#40 = SHAPE_REPRESENTATION('',(#11,#41,#45),#49);
#41 = AXIS2_PLACEMENT_3D('',#42,#43,#44);
#42 = CARTESIAN_POINT('',(0.,0.,0.));
#43 = DIRECTION('',(0.,0.,1.));
#44 = DIRECTION('',(1.,0.,0.));
#45 = AXIS2_PLACEMENT_3D('',#46,#47,#48);
#46 = CARTESIAN_POINT('',(2.54,0.,0.));
#47 = DIRECTION('',(0.,0.,1.));
#48 = DIRECTION('',(1.,0.,0.));
#49 = ( GEOMETRIC_REPRESENTATION_CONTEXT(3) 
GLOBAL_UNCERTAINTY_ASSIGNED_CONTEXT((#53)) GLOBAL_UNIT_ASSIGNED_CONTEXT(
(#50,#51,#52)) REPRESENTATION_CONTEXT('Context #1',
  '3D Context with UNIT and UNCERTAINTY') );
#50 = ( LENGTH_UNIT() NAMED_UNIT(*) SI_UNIT(.MILLI.,.METRE.) );
#51 = ( NAMED_UNIT(*) PLANE_ANGLE_UNIT() SI_UNIT($,.RADIAN.) );
#52 = ( NAMED_UNIT(*) SI_UNIT($,.STERADIAN.) SOLID_ANGLE_UNIT() );
#53 = UNCERTAINTY_MEASURE_WITH_UNIT(LENGTH_MEASURE(1.E-07),#50,
  'distance_accuracy_value','confusion accuracy');
#54 = ADVANCED_BREP_SHAPE_REPRESENTATION('',(#11,#55),#163);
#55 = MANIFOLD_SOLID_BREP('',#56);
#56 = CLOSED_SHELL('',(#57,#74,#99,#119,#144));
#57 = ADVANCED_FACE('',(#58),#69,.T.);
#58 = FACE_BOUND('',#59,.F.);
#59 = EDGE_LOOP('',(#60));
#60 = ORIENTED_EDGE('',*,*,#61,.F.);
#61 = EDGE_CURVE('',#62,#62,#64,.T.);
#62 = VERTEX_POINT('',#63);
#63 = CARTESIAN_POINT('',(2.031708135064E-16,0.915,-5.07927033766E-16));
#64 = CIRCLE('',#65,0.915);
#65 = AXIS2_PLACEMENT_3D('',#66,#67,#68);
#66 = CARTESIAN_POINT('',(6.766947452599E-32,-4.511298301733E-32,
    -1.015854067532E-16));
#67 = DIRECTION('',(6.661338147751E-16,-4.440892098501E-16,-1.));
#68 = DIRECTION('',(2.22044604925E-16,1.,-4.440892098501E-16));
#69 = PLANE('',#70);
#70 = AXIS2_PLACEMENT_3D('',#71,#72,#73);
#71 = CARTESIAN_POINT('',(2.422737424992E-48,-1.615158283328E-48,
    -3.63701312147E-33));
#72 = DIRECTION('',(6.661338147751E-16,-4.440892098501E-16,-1.));
#73 = DIRECTION('',(2.22044604925E-16,1.,-4.440892098501E-16));
#74 = ADVANCED_FACE('',(#75),#94,.T.);
#75 = FACE_BOUND('',#76,.F.);
#76 = EDGE_LOOP('',(#77,#78,#86,#93));
#77 = ORIENTED_EDGE('',*,*,#61,.T.);
#78 = ORIENTED_EDGE('',*,*,#79,.T.);
#79 = EDGE_CURVE('',#62,#80,#82,.T.);
#80 = VERTEX_POINT('',#81);
#81 = CARTESIAN_POINT('',(-2.2948309919E-15,0.915,4.5));
#82 = LINE('',#83,#84);
#83 = CARTESIAN_POINT('',(3.325541753572E-31,0.915,-7.110978472724E-16)
  );
#84 = VECTOR('',#85,1.);
#85 = DIRECTION('',(-7.771561172376E-16,1.110223024625E-16,1.));
#86 = ORIENTED_EDGE('',*,*,#87,.F.);
#87 = EDGE_CURVE('',#80,#80,#88,.T.);
#88 = CIRCLE('',#89,0.915);
#89 = AXIS2_PLACEMENT_3D('',#90,#91,#92);
#90 = CARTESIAN_POINT('',(-2.997602166488E-15,1.998401444325E-15,4.5));
#91 = DIRECTION('',(6.661338147751E-16,-4.440892098501E-16,-1.));
#92 = DIRECTION('',(7.680559285112E-16,1.,-4.440892098501E-16));
#93 = ORIENTED_EDGE('',*,*,#79,.F.);
#94 = CYLINDRICAL_SURFACE('',#95,0.915);
#95 = AXIS2_PLACEMENT_3D('',#96,#97,#98);
#96 = CARTESIAN_POINT('',(6.766947452599E-32,-4.511298301733E-32,
    -1.015854067532E-16));
#97 = DIRECTION('',(-6.661338147751E-16,4.440892098501E-16,1.));
#98 = DIRECTION('',(2.22044604925E-16,1.,-4.440892098501E-16));
#99 = ADVANCED_FACE('',(#100,#103),#114,.T.);
#100 = FACE_BOUND('',#101,.F.);
#101 = EDGE_LOOP('',(#102));
#102 = ORIENTED_EDGE('',*,*,#87,.T.);
#103 = FACE_BOUND('',#104,.F.);
#104 = EDGE_LOOP('',(#105));
#105 = ORIENTED_EDGE('',*,*,#106,.F.);
#106 = EDGE_CURVE('',#107,#107,#109,.T.);
#107 = VERTEX_POINT('',#108);
#108 = CARTESIAN_POINT('',(-2.379207941772E-15,0.535,4.5));
#109 = CIRCLE('',#110,0.535);
#110 = AXIS2_PLACEMENT_3D('',#111,#112,#113);
#111 = CARTESIAN_POINT('',(-2.997602166488E-15,1.998401444325E-15,4.5));
#112 = DIRECTION('',(6.661338147751E-16,-4.440892098501E-16,-1.));
#113 = DIRECTION('',(1.155877055544E-15,1.,-4.440892098501E-16));
#114 = PLANE('',#115);
#115 = AXIS2_PLACEMENT_3D('',#116,#117,#118);
#116 = CARTESIAN_POINT('',(-2.997602166488E-15,1.998401444325E-15,4.5));
#117 = DIRECTION('',(-6.661338147751E-16,4.440892098501E-16,1.));
#118 = DIRECTION('',(-7.680559285112E-16,-1.,4.440892098501E-16));
#119 = ADVANCED_FACE('',(#120),#139,.T.);
#120 = FACE_BOUND('',#121,.F.);
#121 = EDGE_LOOP('',(#122,#123,#131,#138));
#122 = ORIENTED_EDGE('',*,*,#106,.T.);
#123 = ORIENTED_EDGE('',*,*,#124,.T.);
#124 = EDGE_CURVE('',#107,#125,#127,.T.);
#125 = VERTEX_POINT('',#126);
#126 = CARTESIAN_POINT('',(-2.914890551153E-15,0.535,5.465));
#127 = LINE('',#128,#129);
#128 = CARTESIAN_POINT('',(-3.497202527569E-15,0.535,4.5));
#129 = VECTOR('',#130,1.);
#130 = DIRECTION('',(-7.771561172376E-16,1.110223024625E-16,1.));
#131 = ORIENTED_EDGE('',*,*,#132,.F.);
#132 = EDGE_CURVE('',#125,#125,#133,.T.);
#133 = CIRCLE('',#134,0.535);
#134 = AXIS2_PLACEMENT_3D('',#135,#136,#137);
#135 = CARTESIAN_POINT('',(-3.640421297746E-15,2.426947531831E-15,5.465)
  );
#136 = DIRECTION('',(6.661338147751E-16,-4.440892098501E-16,-1.));
#137 = DIRECTION('',(1.356132236622E-15,1.,-4.440892098501E-16));
#138 = ORIENTED_EDGE('',*,*,#124,.F.);
#139 = CYLINDRICAL_SURFACE('',#140,0.535);
#140 = AXIS2_PLACEMENT_3D('',#141,#142,#143);
#141 = CARTESIAN_POINT('',(-2.997602166488E-15,1.998401444325E-15,4.5));
#142 = DIRECTION('',(-6.661338147751E-16,4.440892098501E-16,1.));
#143 = DIRECTION('',(1.155877055544E-15,1.,-4.440892098501E-16));
#144 = ADVANCED_FACE('',(#145),#158,.T.);
#145 = FACE_BOUND('',#146,.F.);
#146 = EDGE_LOOP('',(#147,#148,#157));
#147 = ORIENTED_EDGE('',*,*,#132,.T.);
#148 = ORIENTED_EDGE('',*,*,#149,.T.);
#149 = EDGE_CURVE('',#125,#150,#152,.T.);
#150 = VERTEX_POINT('',#151);
#151 = CARTESIAN_POINT('',(-3.330669073875E-15,2.031160746202E-15,6.));
#152 = CIRCLE('',#153,0.535);
#153 = AXIS2_PLACEMENT_3D('',#154,#155,#156);
#154 = CARTESIAN_POINT('',(-4.247158180704E-15,6.067368829577E-16,5.465)
  );
#155 = DIRECTION('',(1.,2.341930812375E-31,7.771561172376E-16));
#156 = DIRECTION('',(3.697785493223E-31,1.,-7.771561172376E-16));
#157 = ORIENTED_EDGE('',*,*,#149,.F.);
#158 = SPHERICAL_SURFACE('',#159,0.535);
#159 = AXIS2_PLACEMENT_3D('',#160,#161,#162);
#160 = CARTESIAN_POINT('',(-3.033684414788E-15,1.820210648873E-15,5.465)
  );
#161 = DIRECTION('',(-6.661338147751E-16,4.440892098501E-16,1.));
#162 = DIRECTION('',(1.936909017052E-15,1.,-4.440892098501E-16));
#163 = ( GEOMETRIC_REPRESENTATION_CONTEXT(3) 
GLOBAL_UNCERTAINTY_ASSIGNED_CONTEXT((#167)) GLOBAL_UNIT_ASSIGNED_CONTEXT
((#164,#165,#166)) REPRESENTATION_CONTEXT('Context #1',
  '3D Context with UNIT and UNCERTAINTY') );
#164 = ( LENGTH_UNIT() NAMED_UNIT(*) SI_UNIT(.MILLI.,.METRE.) );
#165 = ( NAMED_UNIT(*) PLANE_ANGLE_UNIT() SI_UNIT($,.RADIAN.) );
#166 = ( NAMED_UNIT(*) SI_UNIT($,.STERADIAN.) SOLID_ANGLE_UNIT() );
#167 = UNCERTAINTY_MEASURE_WITH_UNIT(LENGTH_MEASURE(1.E-07),#164,
  'distance_accuracy_value','confusion accuracy');
#168 = SHAPE_DEFINITION_REPRESENTATION(#169,#54);
#169 = PRODUCT_DEFINITION_SHAPE('','',#170);
#170 = PRODUCT_DEFINITION('design','',#171,#174);
#171 = PRODUCT_DEFINITION_FORMATION('','',#172);
#172 = PRODUCT('contact','contact','',(#173));
#173 = PRODUCT_CONTEXT('',#2,'mechanical');
#174 = PRODUCT_DEFINITION_CONTEXT('part definition',#2,'design');
#175 = CONTEXT_DEPENDENT_SHAPE_REPRESENTATION(#176,#178);
#176 = ( REPRESENTATION_RELATIONSHIP('','',#54,#40) 
REPRESENTATION_RELATIONSHIP_WITH_TRANSFORMATION(#177) 
SHAPE_REPRESENTATION_RELATIONSHIP() );
#177 = ITEM_DEFINED_TRANSFORMATION('','',#11,#41);
#178 = PRODUCT_DEFINITION_SHAPE('Placement','Placement of an item',#179
  );
#179 = NEXT_ASSEMBLY_USAGE_OCCURRENCE('1','0','',#35,#170,$);
#180 = PRODUCT_RELATED_PRODUCT_CATEGORY('part',$,(#172));
#181 = CONTEXT_DEPENDENT_SHAPE_REPRESENTATION(#182,#184);
#182 = ( REPRESENTATION_RELATIONSHIP('','',#54,#40) 
REPRESENTATION_RELATIONSHIP_WITH_TRANSFORMATION(#183) 
SHAPE_REPRESENTATION_RELATIONSHIP() );
#183 = ITEM_DEFINED_TRANSFORMATION('','',#11,#45);
#184 = PRODUCT_DEFINITION_SHAPE('Placement','Placement of an item',#185
  );
#185 = NEXT_ASSEMBLY_USAGE_OCCURRENCE('2','1','',#35,#170,$);
#186 = CONTEXT_DEPENDENT_SHAPE_REPRESENTATION(#187,#189);
#187 = ( REPRESENTATION_RELATIONSHIP('','',#40,#10) 
REPRESENTATION_RELATIONSHIP_WITH_TRANSFORMATION(#188) 
SHAPE_REPRESENTATION_RELATIONSHIP() );
#188 = ITEM_DEFINED_TRANSFORMATION('','',#11,#15);
#189 = PRODUCT_DEFINITION_SHAPE('Placement','Placement of an item',#190
  );
#190 = NEXT_ASSEMBLY_USAGE_OCCURRENCE('3','contact_array','',#5,#35,$);
#191 = PRODUCT_RELATED_PRODUCT_CATEGORY('part',$,(#37));
#192 = SHAPE_DEFINITION_REPRESENTATION(#193,#199);
#193 = PRODUCT_DEFINITION_SHAPE('','',#194);
#194 = PRODUCT_DEFINITION('design','',#195,#198);
#195 = PRODUCT_DEFINITION_FORMATION('','',#196);
#196 = PRODUCT('plastic_mid_array','plastic_mid_array','',(#197));
#197 = PRODUCT_CONTEXT('',#2,'mechanical');
#198 = PRODUCT_DEFINITION_CONTEXT('part definition',#2,'design');
#199 = SHAPE_REPRESENTATION('',(#11,#200),#204);
#200 = AXIS2_PLACEMENT_3D('',#201,#202,#203);
#201 = CARTESIAN_POINT('',(0.,0.,0.4));
#202 = DIRECTION('',(0.,0.,1.));
#203 = DIRECTION('',(1.,0.,0.));
#204 = ( GEOMETRIC_REPRESENTATION_CONTEXT(3) 
GLOBAL_UNCERTAINTY_ASSIGNED_CONTEXT((#208)) GLOBAL_UNIT_ASSIGNED_CONTEXT
((#205,#206,#207)) REPRESENTATION_CONTEXT('Context #1',
  '3D Context with UNIT and UNCERTAINTY') );
#205 = ( LENGTH_UNIT() NAMED_UNIT(*) SI_UNIT(.MILLI.,.METRE.) );
#206 = ( NAMED_UNIT(*) PLANE_ANGLE_UNIT() SI_UNIT($,.RADIAN.) );
#207 = ( NAMED_UNIT(*) SI_UNIT($,.STERADIAN.) SOLID_ANGLE_UNIT() );
#208 = UNCERTAINTY_MEASURE_WITH_UNIT(LENGTH_MEASURE(1.E-07),#205,
  'distance_accuracy_value','confusion accuracy');
#209 = ADVANCED_BREP_SHAPE_REPRESENTATION('',(#11,#210),#364);
#210 = MANIFOLD_SOLID_BREP('',#211);
#211 = CLOSED_SHELL('',(#212,#254,#285,#318,#340,#352));
#212 = ADVANCED_FACE('',(#213),#249,.F.);
#213 = FACE_BOUND('',#214,.T.);
#214 = EDGE_LOOP('',(#215,#225,#234,#242));
#215 = ORIENTED_EDGE('',*,*,#216,.T.);
#216 = EDGE_CURVE('',#217,#219,#221,.T.);
#217 = VERTEX_POINT('',#218);
#218 = CARTESIAN_POINT('',(1.170000000016,1.069999999995,0.));
#219 = VERTEX_POINT('',#220);
#220 = CARTESIAN_POINT('',(1.170000000016,1.069999999995,4.));
#221 = LINE('',#222,#223);
#222 = CARTESIAN_POINT('',(1.170000000016,1.069999999995,0.));
#223 = VECTOR('',#224,1.);
#224 = DIRECTION('',(0.,0.,1.));
#225 = ORIENTED_EDGE('',*,*,#226,.T.);
#226 = EDGE_CURVE('',#219,#227,#229,.T.);
#227 = VERTEX_POINT('',#228);
#228 = CARTESIAN_POINT('',(1.369999999968,1.069999999995,4.));
#229 = CIRCLE('',#230,0.115468754233);
#230 = AXIS2_PLACEMENT_3D('',#231,#232,#233);
#231 = CARTESIAN_POINT('',(1.27,1.127732427709,4.));
#232 = DIRECTION('',(0.,0.,1.));
#233 = DIRECTION('',(1.,0.,0.));
#234 = ORIENTED_EDGE('',*,*,#235,.F.);
#235 = EDGE_CURVE('',#236,#227,#238,.T.);
#236 = VERTEX_POINT('',#237);
#237 = CARTESIAN_POINT('',(1.369999999968,1.069999999995,0.));
#238 = LINE('',#239,#240);
#239 = CARTESIAN_POINT('',(1.369999999968,1.069999999995,0.));
#240 = VECTOR('',#241,1.);
#241 = DIRECTION('',(0.,0.,1.));
#242 = ORIENTED_EDGE('',*,*,#243,.F.);
#243 = EDGE_CURVE('',#217,#236,#244,.T.);
#244 = CIRCLE('',#245,0.115468754233);
#245 = AXIS2_PLACEMENT_3D('',#246,#247,#248);
#246 = CARTESIAN_POINT('',(1.27,1.127732427709,0.));
#247 = DIRECTION('',(0.,0.,1.));
#248 = DIRECTION('',(1.,0.,0.));
#249 = CYLINDRICAL_SURFACE('',#250,0.115468754233);
#250 = AXIS2_PLACEMENT_3D('',#251,#252,#253);
#251 = CARTESIAN_POINT('',(1.27,1.127732427709,0.));
#252 = DIRECTION('',(-0.,-0.,-1.));
#253 = DIRECTION('',(1.,0.,0.));
#254 = ADVANCED_FACE('',(#255),#280,.F.);
#255 = FACE_BOUND('',#256,.F.);
#256 = EDGE_LOOP('',(#257,#258,#266,#274));
#257 = ORIENTED_EDGE('',*,*,#216,.T.);
#258 = ORIENTED_EDGE('',*,*,#259,.T.);
#259 = EDGE_CURVE('',#219,#260,#262,.T.);
#260 = VERTEX_POINT('',#261);
#261 = CARTESIAN_POINT('',(1.170000000016,-1.069999999989,4.));
#262 = LINE('',#263,#264);
#263 = CARTESIAN_POINT('',(1.17,1.07,4.));
#264 = VECTOR('',#265,1.);
#265 = DIRECTION('',(0.,-1.,0.));
#266 = ORIENTED_EDGE('',*,*,#267,.F.);
#267 = EDGE_CURVE('',#268,#260,#270,.T.);
#268 = VERTEX_POINT('',#269);
#269 = CARTESIAN_POINT('',(1.170000000016,-1.069999999989,0.));
#270 = LINE('',#271,#272);
#271 = CARTESIAN_POINT('',(1.170000000016,-1.069999999989,0.));
#272 = VECTOR('',#273,1.);
#273 = DIRECTION('',(0.,0.,1.));
#274 = ORIENTED_EDGE('',*,*,#275,.F.);
#275 = EDGE_CURVE('',#217,#268,#276,.T.);
#276 = LINE('',#277,#278);
#277 = CARTESIAN_POINT('',(1.17,1.07,0.));
#278 = VECTOR('',#279,1.);
#279 = DIRECTION('',(0.,-1.,0.));
#280 = PLANE('',#281);
#281 = AXIS2_PLACEMENT_3D('',#282,#283,#284);
#282 = CARTESIAN_POINT('',(1.17,1.07,0.));
#283 = DIRECTION('',(1.,0.,0.));
#284 = DIRECTION('',(0.,-1.,0.));
#285 = ADVANCED_FACE('',(#286),#313,.F.);
#286 = FACE_BOUND('',#287,.T.);
#287 = EDGE_LOOP('',(#288,#298,#305,#306));
#288 = ORIENTED_EDGE('',*,*,#289,.T.);
#289 = EDGE_CURVE('',#290,#292,#294,.T.);
#290 = VERTEX_POINT('',#291);
#291 = CARTESIAN_POINT('',(1.369999999984,-1.069999999989,0.));
#292 = VERTEX_POINT('',#293);
#293 = CARTESIAN_POINT('',(1.369999999984,-1.069999999989,4.));
#294 = LINE('',#295,#296);
#295 = CARTESIAN_POINT('',(1.369999999984,-1.069999999989,0.));
#296 = VECTOR('',#297,1.);
#297 = DIRECTION('',(0.,0.,1.));
#298 = ORIENTED_EDGE('',*,*,#299,.T.);
#299 = EDGE_CURVE('',#292,#260,#300,.T.);
#300 = CIRCLE('',#301,0.115468754233);
#301 = AXIS2_PLACEMENT_3D('',#302,#303,#304);
#302 = CARTESIAN_POINT('',(1.27,-1.127732427709,4.));
#303 = DIRECTION('',(0.,0.,1.));
#304 = DIRECTION('',(1.,0.,0.));
#305 = ORIENTED_EDGE('',*,*,#267,.F.);
#306 = ORIENTED_EDGE('',*,*,#307,.F.);
#307 = EDGE_CURVE('',#290,#268,#308,.T.);
#308 = CIRCLE('',#309,0.115468754233);
#309 = AXIS2_PLACEMENT_3D('',#310,#311,#312);
#310 = CARTESIAN_POINT('',(1.27,-1.127732427709,0.));
#311 = DIRECTION('',(0.,0.,1.));
#312 = DIRECTION('',(1.,0.,0.));
#313 = CYLINDRICAL_SURFACE('',#314,0.115468754233);
#314 = AXIS2_PLACEMENT_3D('',#315,#316,#317);
#315 = CARTESIAN_POINT('',(1.27,-1.127732427709,0.));
#316 = DIRECTION('',(-0.,-0.,-1.));
#317 = DIRECTION('',(1.,0.,0.));
#318 = ADVANCED_FACE('',(#319),#335,.T.);
#319 = FACE_BOUND('',#320,.T.);
#320 = EDGE_LOOP('',(#321,#322,#328,#329));
#321 = ORIENTED_EDGE('',*,*,#235,.T.);
#322 = ORIENTED_EDGE('',*,*,#323,.T.);
#323 = EDGE_CURVE('',#227,#292,#324,.T.);
#324 = LINE('',#325,#326);
#325 = CARTESIAN_POINT('',(1.369999999968,1.07,4.));
#326 = VECTOR('',#327,1.);
#327 = DIRECTION('',(1.479833908588E-11,-1.,0.));
#328 = ORIENTED_EDGE('',*,*,#289,.F.);
#329 = ORIENTED_EDGE('',*,*,#330,.F.);
#330 = EDGE_CURVE('',#236,#290,#331,.T.);
#331 = LINE('',#332,#333);
#332 = CARTESIAN_POINT('',(1.369999999968,1.07,0.));
#333 = VECTOR('',#334,1.);
#334 = DIRECTION('',(1.479833908588E-11,-1.,0.));
#335 = PLANE('',#336);
#336 = AXIS2_PLACEMENT_3D('',#337,#338,#339);
#337 = CARTESIAN_POINT('',(1.369999999968,1.07,0.));
#338 = DIRECTION('',(1.,1.479833908588E-11,0.));
#339 = DIRECTION('',(1.479833908588E-11,-1.,0.));
#340 = ADVANCED_FACE('',(#341),#347,.F.);
#341 = FACE_BOUND('',#342,.F.);
#342 = EDGE_LOOP('',(#343,#344,#345,#346));
#343 = ORIENTED_EDGE('',*,*,#243,.F.);
#344 = ORIENTED_EDGE('',*,*,#275,.T.);
#345 = ORIENTED_EDGE('',*,*,#307,.F.);
#346 = ORIENTED_EDGE('',*,*,#330,.F.);
#347 = PLANE('',#348);
#348 = AXIS2_PLACEMENT_3D('',#349,#350,#351);
#349 = CARTESIAN_POINT('',(1.269999999993,4.938964039393E-12,0.));
#350 = DIRECTION('',(0.,0.,1.));
#351 = DIRECTION('',(1.,0.,0.));
#352 = ADVANCED_FACE('',(#353),#359,.T.);
#353 = FACE_BOUND('',#354,.T.);
#354 = EDGE_LOOP('',(#355,#356,#357,#358));
#355 = ORIENTED_EDGE('',*,*,#226,.F.);
#356 = ORIENTED_EDGE('',*,*,#259,.T.);
#357 = ORIENTED_EDGE('',*,*,#299,.F.);
#358 = ORIENTED_EDGE('',*,*,#323,.F.);
#359 = PLANE('',#360);
#360 = AXIS2_PLACEMENT_3D('',#361,#362,#363);
#361 = CARTESIAN_POINT('',(1.269999999993,4.938964039393E-12,4.));
#362 = DIRECTION('',(0.,0.,1.));
#363 = DIRECTION('',(1.,0.,0.));
#364 = ( GEOMETRIC_REPRESENTATION_CONTEXT(3) 
GLOBAL_UNCERTAINTY_ASSIGNED_CONTEXT((#368)) GLOBAL_UNIT_ASSIGNED_CONTEXT
((#365,#366,#367)) REPRESENTATION_CONTEXT('Context #1',
  '3D Context with UNIT and UNCERTAINTY') );
#365 = ( LENGTH_UNIT() NAMED_UNIT(*) SI_UNIT(.MILLI.,.METRE.) );
#366 = ( NAMED_UNIT(*) PLANE_ANGLE_UNIT() SI_UNIT($,.RADIAN.) );
#367 = ( NAMED_UNIT(*) SI_UNIT($,.STERADIAN.) SOLID_ANGLE_UNIT() );
#368 = UNCERTAINTY_MEASURE_WITH_UNIT(LENGTH_MEASURE(1.E-07),#365,
  'distance_accuracy_value','confusion accuracy');
#369 = SHAPE_DEFINITION_REPRESENTATION(#370,#209);
#370 = PRODUCT_DEFINITION_SHAPE('','',#371);
#371 = PRODUCT_DEFINITION('design','',#372,#375);
#372 = PRODUCT_DEFINITION_FORMATION('','',#373);
#373 = PRODUCT('plastic_mid','plastic_mid','',(#374));
#374 = PRODUCT_CONTEXT('',#2,'mechanical');
#375 = PRODUCT_DEFINITION_CONTEXT('part definition',#2,'design');
#376 = CONTEXT_DEPENDENT_SHAPE_REPRESENTATION(#377,#379);
#377 = ( REPRESENTATION_RELATIONSHIP('','',#209,#199) 
REPRESENTATION_RELATIONSHIP_WITH_TRANSFORMATION(#378) 
SHAPE_REPRESENTATION_RELATIONSHIP() );
#378 = ITEM_DEFINED_TRANSFORMATION('','',#11,#200);
#379 = PRODUCT_DEFINITION_SHAPE('Placement','Placement of an item',#380
  );
#380 = NEXT_ASSEMBLY_USAGE_OCCURRENCE('4','0','',#194,#371,$);
#381 = PRODUCT_RELATED_PRODUCT_CATEGORY('part',$,(#373));
#382 = CONTEXT_DEPENDENT_SHAPE_REPRESENTATION(#383,#385);
#383 = ( REPRESENTATION_RELATIONSHIP('','',#199,#10) 
REPRESENTATION_RELATIONSHIP_WITH_TRANSFORMATION(#384) 
SHAPE_REPRESENTATION_RELATIONSHIP() );
#384 = ITEM_DEFINED_TRANSFORMATION('','',#11,#19);
#385 = PRODUCT_DEFINITION_SHAPE('Placement','Placement of an item',#386
  );
#386 = NEXT_ASSEMBLY_USAGE_OCCURRENCE('5','plastic_mid_array','',#5,#194
  ,$);
#387 = PRODUCT_RELATED_PRODUCT_CATEGORY('part',$,(#196));
#388 = SHAPE_DEFINITION_REPRESENTATION(#389,#395);
#389 = PRODUCT_DEFINITION_SHAPE('','',#390);
#390 = PRODUCT_DEFINITION('design','',#391,#394);
#391 = PRODUCT_DEFINITION_FORMATION('','',#392);
#392 = PRODUCT('plastic_array','plastic_array','',(#393));
#393 = PRODUCT_CONTEXT('',#2,'mechanical');
#394 = PRODUCT_DEFINITION_CONTEXT('part definition',#2,'design');
#395 = SHAPE_REPRESENTATION('',(#11,#396,#400),#404);
#396 = AXIS2_PLACEMENT_3D('',#397,#398,#399);
#397 = CARTESIAN_POINT('',(0.,0.,0.4));
#398 = DIRECTION('',(0.,0.,1.));
#399 = DIRECTION('',(1.,0.,0.));
#400 = AXIS2_PLACEMENT_3D('',#401,#402,#403);
#401 = CARTESIAN_POINT('',(2.54,0.,0.4));
#402 = DIRECTION('',(0.,0.,1.));
#403 = DIRECTION('',(1.,0.,0.));
#404 = ( GEOMETRIC_REPRESENTATION_CONTEXT(3) 
GLOBAL_UNCERTAINTY_ASSIGNED_CONTEXT((#408)) GLOBAL_UNIT_ASSIGNED_CONTEXT
((#405,#406,#407)) REPRESENTATION_CONTEXT('Context #1',
  '3D Context with UNIT and UNCERTAINTY') );
#405 = ( LENGTH_UNIT() NAMED_UNIT(*) SI_UNIT(.MILLI.,.METRE.) );
#406 = ( NAMED_UNIT(*) PLANE_ANGLE_UNIT() SI_UNIT($,.RADIAN.) );
#407 = ( NAMED_UNIT(*) SI_UNIT($,.STERADIAN.) SOLID_ANGLE_UNIT() );
#408 = UNCERTAINTY_MEASURE_WITH_UNIT(LENGTH_MEASURE(1.E-07),#405,
  'distance_accuracy_value','confusion accuracy');
#409 = ADVANCED_BREP_SHAPE_REPRESENTATION('',(#11,#410),#731);
#410 = MANIFOLD_SOLID_BREP('',#411);
#411 = CLOSED_SHELL('',(#412,#452,#483,#514,#545,#576,#607,#638,#660,
    #693,#712));
#412 = ADVANCED_FACE('',(#413),#447,.T.);
#413 = FACE_BOUND('',#414,.T.);
#414 = EDGE_LOOP('',(#415,#425,#433,#441));
#415 = ORIENTED_EDGE('',*,*,#416,.T.);
#416 = EDGE_CURVE('',#417,#419,#421,.T.);
#417 = VERTEX_POINT('',#418);
#418 = CARTESIAN_POINT('',(-1.17,-1.070000000001,0.));
#419 = VERTEX_POINT('',#420);
#420 = CARTESIAN_POINT('',(-1.17,-1.070000000001,4.));
#421 = LINE('',#422,#423);
#422 = CARTESIAN_POINT('',(-1.17,-1.070000000001,0.));
#423 = VECTOR('',#424,1.);
#424 = DIRECTION('',(0.,0.,1.));
#425 = ORIENTED_EDGE('',*,*,#426,.T.);
#426 = EDGE_CURVE('',#419,#427,#429,.T.);
#427 = VERTEX_POINT('',#428);
#428 = CARTESIAN_POINT('',(-1.17,1.070000000001,4.));
#429 = LINE('',#430,#431);
#430 = CARTESIAN_POINT('',(-1.17,-1.070000000001,4.));
#431 = VECTOR('',#432,1.);
#432 = DIRECTION('',(0.,1.,0.));
#433 = ORIENTED_EDGE('',*,*,#434,.F.);
#434 = EDGE_CURVE('',#435,#427,#437,.T.);
#435 = VERTEX_POINT('',#436);
#436 = CARTESIAN_POINT('',(-1.17,1.070000000001,0.));
#437 = LINE('',#438,#439);
#438 = CARTESIAN_POINT('',(-1.17,1.070000000001,0.));
#439 = VECTOR('',#440,1.);
#440 = DIRECTION('',(0.,0.,1.));
#441 = ORIENTED_EDGE('',*,*,#442,.F.);
#442 = EDGE_CURVE('',#417,#435,#443,.T.);
#443 = LINE('',#444,#445);
#444 = CARTESIAN_POINT('',(-1.17,-1.070000000001,0.));
#445 = VECTOR('',#446,1.);
#446 = DIRECTION('',(0.,1.,0.));
#447 = PLANE('',#448);
#448 = AXIS2_PLACEMENT_3D('',#449,#450,#451);
#449 = CARTESIAN_POINT('',(-1.17,-1.070000000001,0.));
#450 = DIRECTION('',(-1.,0.,0.));
#451 = DIRECTION('',(0.,1.,0.));
#452 = ADVANCED_FACE('',(#453),#478,.T.);
#453 = FACE_BOUND('',#454,.T.);
#454 = EDGE_LOOP('',(#455,#456,#464,#472));
#455 = ORIENTED_EDGE('',*,*,#434,.T.);
#456 = ORIENTED_EDGE('',*,*,#457,.T.);
#457 = EDGE_CURVE('',#427,#458,#460,.T.);
#458 = VERTEX_POINT('',#459);
#459 = CARTESIAN_POINT('',(-1.054529946163,1.269999999999,4.));
#460 = LINE('',#461,#462);
#461 = CARTESIAN_POINT('',(-1.17,1.070000000001,4.));
#462 = VECTOR('',#463,1.);
#463 = DIRECTION('',(0.5,0.866025403784,0.));
#464 = ORIENTED_EDGE('',*,*,#465,.F.);
#465 = EDGE_CURVE('',#466,#458,#468,.T.);
#466 = VERTEX_POINT('',#467);
#467 = CARTESIAN_POINT('',(-1.054529946163,1.269999999999,0.));
#468 = LINE('',#469,#470);
#469 = CARTESIAN_POINT('',(-1.054529946163,1.269999999999,0.));
#470 = VECTOR('',#471,1.);
#471 = DIRECTION('',(0.,0.,1.));
#472 = ORIENTED_EDGE('',*,*,#473,.F.);
#473 = EDGE_CURVE('',#435,#466,#474,.T.);
#474 = LINE('',#475,#476);
#475 = CARTESIAN_POINT('',(-1.17,1.070000000001,0.));
#476 = VECTOR('',#477,1.);
#477 = DIRECTION('',(0.5,0.866025403784,0.));
#478 = PLANE('',#479);
#479 = AXIS2_PLACEMENT_3D('',#480,#481,#482);
#480 = CARTESIAN_POINT('',(-1.17,1.070000000001,0.));
#481 = DIRECTION('',(-0.866025403784,0.5,0.));
#482 = DIRECTION('',(0.5,0.866025403784,0.));
#483 = ADVANCED_FACE('',(#484),#509,.T.);
#484 = FACE_BOUND('',#485,.T.);
#485 = EDGE_LOOP('',(#486,#487,#495,#503));
#486 = ORIENTED_EDGE('',*,*,#465,.T.);
#487 = ORIENTED_EDGE('',*,*,#488,.T.);
#488 = EDGE_CURVE('',#458,#489,#491,.T.);
#489 = VERTEX_POINT('',#490);
#490 = CARTESIAN_POINT('',(1.054529946163,1.269999999999,4.));
#491 = LINE('',#492,#493);
#492 = CARTESIAN_POINT('',(-1.054529946163,1.269999999999,4.));
#493 = VECTOR('',#494,1.);
#494 = DIRECTION('',(1.,0.,0.));
#495 = ORIENTED_EDGE('',*,*,#496,.F.);
#496 = EDGE_CURVE('',#497,#489,#499,.T.);
#497 = VERTEX_POINT('',#498);
#498 = CARTESIAN_POINT('',(1.054529946163,1.269999999999,0.));
#499 = LINE('',#500,#501);
#500 = CARTESIAN_POINT('',(1.054529946163,1.269999999999,0.));
#501 = VECTOR('',#502,1.);
#502 = DIRECTION('',(0.,0.,1.));
#503 = ORIENTED_EDGE('',*,*,#504,.F.);
#504 = EDGE_CURVE('',#466,#497,#505,.T.);
#505 = LINE('',#506,#507);
#506 = CARTESIAN_POINT('',(-1.054529946163,1.269999999999,0.));
#507 = VECTOR('',#508,1.);
#508 = DIRECTION('',(1.,0.,0.));
#509 = PLANE('',#510);
#510 = AXIS2_PLACEMENT_3D('',#511,#512,#513);
#511 = CARTESIAN_POINT('',(-1.054529946163,1.269999999999,0.));
#512 = DIRECTION('',(0.,1.,0.));
#513 = DIRECTION('',(1.,0.,0.));
#514 = ADVANCED_FACE('',(#515),#540,.T.);
#515 = FACE_BOUND('',#516,.T.);
#516 = EDGE_LOOP('',(#517,#518,#526,#534));
#517 = ORIENTED_EDGE('',*,*,#496,.T.);
#518 = ORIENTED_EDGE('',*,*,#519,.T.);
#519 = EDGE_CURVE('',#489,#520,#522,.T.);
#520 = VERTEX_POINT('',#521);
#521 = CARTESIAN_POINT('',(1.17,1.070000000001,4.));
#522 = LINE('',#523,#524);
#523 = CARTESIAN_POINT('',(1.054529946163,1.269999999999,4.));
#524 = VECTOR('',#525,1.);
#525 = DIRECTION('',(0.5,-0.866025403784,0.));
#526 = ORIENTED_EDGE('',*,*,#527,.F.);
#527 = EDGE_CURVE('',#528,#520,#530,.T.);
#528 = VERTEX_POINT('',#529);
#529 = CARTESIAN_POINT('',(1.17,1.070000000001,0.));
#530 = LINE('',#531,#532);
#531 = CARTESIAN_POINT('',(1.17,1.070000000001,0.));
#532 = VECTOR('',#533,1.);
#533 = DIRECTION('',(0.,0.,1.));
#534 = ORIENTED_EDGE('',*,*,#535,.F.);
#535 = EDGE_CURVE('',#497,#528,#536,.T.);
#536 = LINE('',#537,#538);
#537 = CARTESIAN_POINT('',(1.054529946163,1.269999999999,0.));
#538 = VECTOR('',#539,1.);
#539 = DIRECTION('',(0.5,-0.866025403784,0.));
#540 = PLANE('',#541);
#541 = AXIS2_PLACEMENT_3D('',#542,#543,#544);
#542 = CARTESIAN_POINT('',(1.054529946163,1.269999999999,0.));
#543 = DIRECTION('',(0.866025403784,0.5,0.));
#544 = DIRECTION('',(0.5,-0.866025403784,0.));
#545 = ADVANCED_FACE('',(#546),#571,.T.);
#546 = FACE_BOUND('',#547,.T.);
#547 = EDGE_LOOP('',(#548,#549,#557,#565));
#548 = ORIENTED_EDGE('',*,*,#527,.T.);
#549 = ORIENTED_EDGE('',*,*,#550,.T.);
#550 = EDGE_CURVE('',#520,#551,#553,.T.);
#551 = VERTEX_POINT('',#552);
#552 = CARTESIAN_POINT('',(1.17,-1.070000000001,4.));
#553 = LINE('',#554,#555);
#554 = CARTESIAN_POINT('',(1.17,1.070000000001,4.));
#555 = VECTOR('',#556,1.);
#556 = DIRECTION('',(0.,-1.,0.));
#557 = ORIENTED_EDGE('',*,*,#558,.F.);
#558 = EDGE_CURVE('',#559,#551,#561,.T.);
#559 = VERTEX_POINT('',#560);
#560 = CARTESIAN_POINT('',(1.17,-1.070000000001,0.));
#561 = LINE('',#562,#563);
#562 = CARTESIAN_POINT('',(1.17,-1.070000000001,0.));
#563 = VECTOR('',#564,1.);
#564 = DIRECTION('',(0.,0.,1.));
#565 = ORIENTED_EDGE('',*,*,#566,.F.);
#566 = EDGE_CURVE('',#528,#559,#567,.T.);
#567 = LINE('',#568,#569);
#568 = CARTESIAN_POINT('',(1.17,1.070000000001,0.));
#569 = VECTOR('',#570,1.);
#570 = DIRECTION('',(0.,-1.,0.));
#571 = PLANE('',#572);
#572 = AXIS2_PLACEMENT_3D('',#573,#574,#575);
#573 = CARTESIAN_POINT('',(1.17,1.070000000001,0.));
#574 = DIRECTION('',(1.,0.,0.));
#575 = DIRECTION('',(0.,-1.,0.));
#576 = ADVANCED_FACE('',(#577),#602,.T.);
#577 = FACE_BOUND('',#578,.T.);
#578 = EDGE_LOOP('',(#579,#580,#588,#596));
#579 = ORIENTED_EDGE('',*,*,#558,.T.);
#580 = ORIENTED_EDGE('',*,*,#581,.T.);
#581 = EDGE_CURVE('',#551,#582,#584,.T.);
#582 = VERTEX_POINT('',#583);
#583 = CARTESIAN_POINT('',(1.054529946163,-1.270000000001,4.));
#584 = LINE('',#585,#586);
#585 = CARTESIAN_POINT('',(1.17,-1.070000000001,4.));
#586 = VECTOR('',#587,1.);
#587 = DIRECTION('',(-0.499999999998,-0.866025403786,0.));
#588 = ORIENTED_EDGE('',*,*,#589,.F.);
#589 = EDGE_CURVE('',#590,#582,#592,.T.);
#590 = VERTEX_POINT('',#591);
#591 = CARTESIAN_POINT('',(1.054529946163,-1.270000000001,0.));
#592 = LINE('',#593,#594);
#593 = CARTESIAN_POINT('',(1.054529946163,-1.270000000001,0.));
#594 = VECTOR('',#595,1.);
#595 = DIRECTION('',(0.,0.,1.));
#596 = ORIENTED_EDGE('',*,*,#597,.F.);
#597 = EDGE_CURVE('',#559,#590,#598,.T.);
#598 = LINE('',#599,#600);
#599 = CARTESIAN_POINT('',(1.17,-1.070000000001,0.));
#600 = VECTOR('',#601,1.);
#601 = DIRECTION('',(-0.499999999998,-0.866025403786,0.));
#602 = PLANE('',#603);
#603 = AXIS2_PLACEMENT_3D('',#604,#605,#606);
#604 = CARTESIAN_POINT('',(1.17,-1.070000000001,0.));
#605 = DIRECTION('',(0.866025403786,-0.499999999998,0.));
#606 = DIRECTION('',(-0.499999999998,-0.866025403786,0.));
#607 = ADVANCED_FACE('',(#608),#633,.T.);
#608 = FACE_BOUND('',#609,.T.);
#609 = EDGE_LOOP('',(#610,#611,#619,#627));
#610 = ORIENTED_EDGE('',*,*,#589,.T.);
#611 = ORIENTED_EDGE('',*,*,#612,.T.);
#612 = EDGE_CURVE('',#582,#613,#615,.T.);
#613 = VERTEX_POINT('',#614);
#614 = CARTESIAN_POINT('',(-1.054529946163,-1.270000000001,4.));
#615 = LINE('',#616,#617);
#616 = CARTESIAN_POINT('',(1.054529946163,-1.270000000001,4.));
#617 = VECTOR('',#618,1.);
#618 = DIRECTION('',(-1.,0.,0.));
#619 = ORIENTED_EDGE('',*,*,#620,.F.);
#620 = EDGE_CURVE('',#621,#613,#623,.T.);
#621 = VERTEX_POINT('',#622);
#622 = CARTESIAN_POINT('',(-1.054529946163,-1.270000000001,0.));
#623 = LINE('',#624,#625);
#624 = CARTESIAN_POINT('',(-1.054529946163,-1.270000000001,0.));
#625 = VECTOR('',#626,1.);
#626 = DIRECTION('',(0.,0.,1.));
#627 = ORIENTED_EDGE('',*,*,#628,.F.);
#628 = EDGE_CURVE('',#590,#621,#629,.T.);
#629 = LINE('',#630,#631);
#630 = CARTESIAN_POINT('',(1.054529946163,-1.270000000001,0.));
#631 = VECTOR('',#632,1.);
#632 = DIRECTION('',(-1.,0.,0.));
#633 = PLANE('',#634);
#634 = AXIS2_PLACEMENT_3D('',#635,#636,#637);
#635 = CARTESIAN_POINT('',(1.054529946163,-1.270000000001,0.));
#636 = DIRECTION('',(0.,-1.,0.));
#637 = DIRECTION('',(-1.,0.,0.));
#638 = ADVANCED_FACE('',(#639),#655,.T.);
#639 = FACE_BOUND('',#640,.T.);
#640 = EDGE_LOOP('',(#641,#642,#648,#649));
#641 = ORIENTED_EDGE('',*,*,#620,.T.);
#642 = ORIENTED_EDGE('',*,*,#643,.T.);
#643 = EDGE_CURVE('',#613,#419,#644,.T.);
#644 = LINE('',#645,#646);
#645 = CARTESIAN_POINT('',(-1.054529946163,-1.270000000001,4.));
#646 = VECTOR('',#647,1.);
#647 = DIRECTION('',(-0.499999999999,0.866025403785,0.));
#648 = ORIENTED_EDGE('',*,*,#416,.F.);
#649 = ORIENTED_EDGE('',*,*,#650,.F.);
#650 = EDGE_CURVE('',#621,#417,#651,.T.);
#651 = LINE('',#652,#653);
#652 = CARTESIAN_POINT('',(-1.054529946163,-1.270000000001,0.));
#653 = VECTOR('',#654,1.);
#654 = DIRECTION('',(-0.499999999999,0.866025403785,0.));
#655 = PLANE('',#656);
#656 = AXIS2_PLACEMENT_3D('',#657,#658,#659);
#657 = CARTESIAN_POINT('',(-1.054529946163,-1.270000000001,0.));
#658 = DIRECTION('',(-0.866025403785,-0.499999999999,0.));
#659 = DIRECTION('',(-0.499999999999,0.866025403785,0.));
#660 = ADVANCED_FACE('',(#661),#688,.F.);
#661 = FACE_BOUND('',#662,.T.);
#662 = EDGE_LOOP('',(#663,#673,#680,#681));
#663 = ORIENTED_EDGE('',*,*,#664,.T.);
#664 = EDGE_CURVE('',#665,#667,#669,.T.);
#665 = VERTEX_POINT('',#666);
#666 = CARTESIAN_POINT('',(0.915,0.,0.));
#667 = VERTEX_POINT('',#668);
#668 = CARTESIAN_POINT('',(0.915,0.,4.));
#669 = LINE('',#670,#671);
#670 = CARTESIAN_POINT('',(0.915,0.,0.));
#671 = VECTOR('',#672,1.);
#672 = DIRECTION('',(0.,0.,1.));
#673 = ORIENTED_EDGE('',*,*,#674,.T.);
#674 = EDGE_CURVE('',#667,#667,#675,.T.);
#675 = CIRCLE('',#676,0.915);
#676 = AXIS2_PLACEMENT_3D('',#677,#678,#679);
#677 = CARTESIAN_POINT('',(0.,0.,4.));
#678 = DIRECTION('',(0.,0.,1.));
#679 = DIRECTION('',(1.,0.,0.));
#680 = ORIENTED_EDGE('',*,*,#664,.F.);
#681 = ORIENTED_EDGE('',*,*,#682,.F.);
#682 = EDGE_CURVE('',#665,#665,#683,.T.);
#683 = CIRCLE('',#684,0.915);
#684 = AXIS2_PLACEMENT_3D('',#685,#686,#687);
#685 = CARTESIAN_POINT('',(0.,0.,0.));
#686 = DIRECTION('',(0.,0.,1.));
#687 = DIRECTION('',(1.,0.,0.));
#688 = CYLINDRICAL_SURFACE('',#689,0.915);
#689 = AXIS2_PLACEMENT_3D('',#690,#691,#692);
#690 = CARTESIAN_POINT('',(0.,0.,0.));
#691 = DIRECTION('',(-0.,-0.,-1.));
#692 = DIRECTION('',(1.,0.,0.));
#693 = ADVANCED_FACE('',(#694,#704),#707,.T.);
#694 = FACE_BOUND('',#695,.T.);
#695 = EDGE_LOOP('',(#696,#697,#698,#699,#700,#701,#702,#703));
#696 = ORIENTED_EDGE('',*,*,#442,.T.);
#697 = ORIENTED_EDGE('',*,*,#473,.T.);
#698 = ORIENTED_EDGE('',*,*,#504,.T.);
#699 = ORIENTED_EDGE('',*,*,#535,.T.);
#700 = ORIENTED_EDGE('',*,*,#566,.T.);
#701 = ORIENTED_EDGE('',*,*,#597,.T.);
#702 = ORIENTED_EDGE('',*,*,#628,.T.);
#703 = ORIENTED_EDGE('',*,*,#650,.T.);
#704 = FACE_BOUND('',#705,.T.);
#705 = EDGE_LOOP('',(#706));
#706 = ORIENTED_EDGE('',*,*,#682,.T.);
#707 = PLANE('',#708);
#708 = AXIS2_PLACEMENT_3D('',#709,#710,#711);
#709 = CARTESIAN_POINT('',(-2.481301057399E-14,-5.88867858032E-13,0.));
#710 = DIRECTION('',(-0.,-0.,-1.));
#711 = DIRECTION('',(-1.,0.,0.));
#712 = ADVANCED_FACE('',(#713,#723),#726,.F.);
#713 = FACE_BOUND('',#714,.F.);
#714 = EDGE_LOOP('',(#715,#716,#717,#718,#719,#720,#721,#722));
#715 = ORIENTED_EDGE('',*,*,#426,.T.);
#716 = ORIENTED_EDGE('',*,*,#457,.T.);
#717 = ORIENTED_EDGE('',*,*,#488,.T.);
#718 = ORIENTED_EDGE('',*,*,#519,.T.);
#719 = ORIENTED_EDGE('',*,*,#550,.T.);
#720 = ORIENTED_EDGE('',*,*,#581,.T.);
#721 = ORIENTED_EDGE('',*,*,#612,.T.);
#722 = ORIENTED_EDGE('',*,*,#643,.T.);
#723 = FACE_BOUND('',#724,.F.);
#724 = EDGE_LOOP('',(#725));
#725 = ORIENTED_EDGE('',*,*,#674,.T.);
#726 = PLANE('',#727);
#727 = AXIS2_PLACEMENT_3D('',#728,#729,#730);
#728 = CARTESIAN_POINT('',(-2.481301057399E-14,-5.88867858032E-13,4.));
#729 = DIRECTION('',(-0.,-0.,-1.));
#730 = DIRECTION('',(-1.,0.,0.));
#731 = ( GEOMETRIC_REPRESENTATION_CONTEXT(3) 
GLOBAL_UNCERTAINTY_ASSIGNED_CONTEXT((#735)) GLOBAL_UNIT_ASSIGNED_CONTEXT
((#732,#733,#734)) REPRESENTATION_CONTEXT('Context #1',
  '3D Context with UNIT and UNCERTAINTY') );
#732 = ( LENGTH_UNIT() NAMED_UNIT(*) SI_UNIT(.MILLI.,.METRE.) );
#733 = ( NAMED_UNIT(*) PLANE_ANGLE_UNIT() SI_UNIT($,.RADIAN.) );
#734 = ( NAMED_UNIT(*) SI_UNIT($,.STERADIAN.) SOLID_ANGLE_UNIT() );
#735 = UNCERTAINTY_MEASURE_WITH_UNIT(LENGTH_MEASURE(1.E-07),#732,
  'distance_accuracy_value','confusion accuracy');
#736 = SHAPE_DEFINITION_REPRESENTATION(#737,#409);
#737 = PRODUCT_DEFINITION_SHAPE('','',#738);
#738 = PRODUCT_DEFINITION('design','',#739,#742);
#739 = PRODUCT_DEFINITION_FORMATION('','',#740);
#740 = PRODUCT('plastic_body','plastic_body','',(#741));
#741 = PRODUCT_CONTEXT('',#2,'mechanical');
#742 = PRODUCT_DEFINITION_CONTEXT('part definition',#2,'design');
#743 = CONTEXT_DEPENDENT_SHAPE_REPRESENTATION(#744,#746);
#744 = ( REPRESENTATION_RELATIONSHIP('','',#409,#395) 
REPRESENTATION_RELATIONSHIP_WITH_TRANSFORMATION(#745) 
SHAPE_REPRESENTATION_RELATIONSHIP() );
#745 = ITEM_DEFINED_TRANSFORMATION('','',#11,#396);
#746 = PRODUCT_DEFINITION_SHAPE('Placement','Placement of an item',#747
  );
#747 = NEXT_ASSEMBLY_USAGE_OCCURRENCE('6','0','',#390,#738,$);
#748 = PRODUCT_RELATED_PRODUCT_CATEGORY('part',$,(#740));
#749 = CONTEXT_DEPENDENT_SHAPE_REPRESENTATION(#750,#752);
#750 = ( REPRESENTATION_RELATIONSHIP('','',#409,#395) 
REPRESENTATION_RELATIONSHIP_WITH_TRANSFORMATION(#751) 
SHAPE_REPRESENTATION_RELATIONSHIP() );
#751 = ITEM_DEFINED_TRANSFORMATION('','',#11,#400);
#752 = PRODUCT_DEFINITION_SHAPE('Placement','Placement of an item',#753
  );
#753 = NEXT_ASSEMBLY_USAGE_OCCURRENCE('7','1','',#390,#738,$);
#754 = CONTEXT_DEPENDENT_SHAPE_REPRESENTATION(#755,#757);
#755 = ( REPRESENTATION_RELATIONSHIP('','',#395,#10) 
REPRESENTATION_RELATIONSHIP_WITH_TRANSFORMATION(#756) 
SHAPE_REPRESENTATION_RELATIONSHIP() );
#756 = ITEM_DEFINED_TRANSFORMATION('','',#11,#23);
#757 = PRODUCT_DEFINITION_SHAPE('Placement','Placement of an item',#758
  );
#758 = NEXT_ASSEMBLY_USAGE_OCCURRENCE('8','plastic_array','',#5,#390,$);
#759 = PRODUCT_RELATED_PRODUCT_CATEGORY('part',$,(#392));
#760 = MECHANICAL_DESIGN_GEOMETRIC_PRESENTATION_REPRESENTATION('',(#761)
  ,#163);
#761 = STYLED_ITEM('color',(#762),#55);
#762 = PRESENTATION_STYLE_ASSIGNMENT((#763,#769));
#763 = SURFACE_STYLE_USAGE(.BOTH.,#764);
#764 = SURFACE_SIDE_STYLE('',(#765));
#765 = SURFACE_STYLE_FILL_AREA(#766);
#766 = FILL_AREA_STYLE('',(#767));
#767 = FILL_AREA_STYLE_COLOUR('',#768);
#768 = COLOUR_RGB('',0.866666674614,0.784313738346,0.141176477075);
#769 = CURVE_STYLE('',#770,POSITIVE_LENGTH_MEASURE(0.1),#771);
#770 = DRAUGHTING_PRE_DEFINED_CURVE_FONT('continuous');
#771 = COLOUR_RGB('',9.803921729326E-02,9.803921729326E-02,
  9.803921729326E-02);
#772 = MECHANICAL_DESIGN_GEOMETRIC_PRESENTATION_REPRESENTATION('',(#773)
  ,#731);
#773 = STYLED_ITEM('color',(#774),#410);
#774 = PRESENTATION_STYLE_ASSIGNMENT((#775,#781));
#775 = SURFACE_STYLE_USAGE(.BOTH.,#776);
#776 = SURFACE_SIDE_STYLE('',(#777));
#777 = SURFACE_STYLE_FILL_AREA(#778);
#778 = FILL_AREA_STYLE('',(#779));
#779 = FILL_AREA_STYLE_COLOUR('',#780);
#780 = COLOUR_RGB('',0.23137255013,0.23137255013,0.23137255013);
#781 = CURVE_STYLE('',#782,POSITIVE_LENGTH_MEASURE(0.1),#771);
#782 = DRAUGHTING_PRE_DEFINED_CURVE_FONT('continuous');
#783 = MECHANICAL_DESIGN_GEOMETRIC_PRESENTATION_REPRESENTATION('',(#784)
  ,#364);
#784 = STYLED_ITEM('color',(#785),#210);
#785 = PRESENTATION_STYLE_ASSIGNMENT((#786,#791));
#786 = SURFACE_STYLE_USAGE(.BOTH.,#787);
#787 = SURFACE_SIDE_STYLE('',(#788));
#788 = SURFACE_STYLE_FILL_AREA(#789);
#789 = FILL_AREA_STYLE('',(#790));
#790 = FILL_AREA_STYLE_COLOUR('',#780);
#791 = CURVE_STYLE('',#792,POSITIVE_LENGTH_MEASURE(0.1),#771);
#792 = DRAUGHTING_PRE_DEFINED_CURVE_FONT('continuous');
ENDSEC;
END-ISO-10303-21;
