ISO-10303-21;
HEADER;
/* Generated by software containing ST-Developer
 * from STEP Tools, Inc. (www.steptools.com) 
 */

FILE_DESCRIPTION(
/* description */ (''),
/* implementation_level */ '2;1');

FILE_NAME(
/* name */ 
'C:\\Users\\huesof\\Downloads\\medtronic-pb560-ventilator-system-file-
set-2\\Electronic PCBAs\\GR106769_CPU_PCBA\\3D_Model\\GR106769B00\\cap
teur debit.stp',
/* time_stamp */ '2020-04-22T09:37:45-04:00',
/* author */ ('huesof'),
/* organization */ (''),
/* preprocessor_version */ 'ST-DEVELOPER v18',
/* originating_system */ 'Autodesk Inventor 2020',
/* authorisation */ '');

FILE_SCHEMA (('AUTOMOTIVE_DESIGN { 1 0 10303 214 3 1 1 }'));
ENDSEC;

DATA;
#10=MECHANICAL_DESIGN_GEOMETRIC_PRESENTATION_REPRESENTATION('',(#13),#375);
#11=SHAPE_REPRESENTATION_RELATIONSHIP('SRR','None',#382,#12);
#12=ADVANCED_BREP_SHAPE_REPRESENTATION('',(#14),#374);
#13=STYLED_ITEM('',(#391),#14);
#14=MANIFOLD_SOLID_BREP('Solid1',#215);
#15=CYLINDRICAL_SURFACE('',#246,2.65);
#16=CYLINDRICAL_SURFACE('',#249,2.65);
#17=FACE_OUTER_BOUND('',#29,.T.);
#18=FACE_OUTER_BOUND('',#30,.T.);
#19=FACE_OUTER_BOUND('',#31,.T.);
#20=FACE_OUTER_BOUND('',#32,.T.);
#21=FACE_OUTER_BOUND('',#33,.T.);
#22=FACE_OUTER_BOUND('',#34,.T.);
#23=FACE_OUTER_BOUND('',#35,.T.);
#24=FACE_OUTER_BOUND('',#36,.T.);
#25=FACE_OUTER_BOUND('',#37,.T.);
#26=FACE_OUTER_BOUND('',#38,.T.);
#27=FACE_OUTER_BOUND('',#39,.T.);
#28=FACE_OUTER_BOUND('',#40,.T.);
#29=EDGE_LOOP('',(#137,#138,#139,#140,#141,#142,#143,#144));
#30=EDGE_LOOP('',(#145,#146,#147,#148));
#31=EDGE_LOOP('',(#149,#150,#151,#152,#153,#154));
#32=EDGE_LOOP('',(#155,#156,#157,#158,#159,#160,#161,#162,#163));
#33=EDGE_LOOP('',(#164,#165,#166,#167));
#34=EDGE_LOOP('',(#168,#169,#170,#171));
#35=EDGE_LOOP('',(#172,#173,#174,#175));
#36=EDGE_LOOP('',(#176,#177,#178,#179));
#37=EDGE_LOOP('',(#180,#181,#182,#183));
#38=EDGE_LOOP('',(#184));
#39=EDGE_LOOP('',(#185,#186,#187,#188,#189,#190));
#40=EDGE_LOOP('',(#191,#192));
#41=CIRCLE('',#236,2.65);
#42=CIRCLE('',#240,2.65);
#43=CIRCLE('',#241,2.65);
#44=CIRCLE('',#247,2.65);
#45=CIRCLE('',#250,2.65);
#46=CIRCLE('',#251,2.65);
#47=LINE('',#317,#69);
#48=LINE('',#320,#70);
#49=LINE('',#322,#71);
#50=LINE('',#324,#72);
#51=LINE('',#326,#73);
#52=LINE('',#328,#74);
#53=LINE('',#329,#75);
#54=LINE('',#332,#76);
#55=LINE('',#334,#77);
#56=LINE('',#335,#78);
#57=LINE('',#338,#79);
#58=LINE('',#340,#80);
#59=LINE('',#342,#81);
#60=LINE('',#343,#82);
#61=LINE('',#348,#83);
#62=LINE('',#350,#84);
#63=LINE('',#352,#85);
#64=LINE('',#353,#86);
#65=LINE('',#355,#87);
#66=LINE('',#358,#88);
#67=LINE('',#362,#89);
#68=LINE('',#367,#90);
#69=VECTOR('',#257,8.09999999999994);
#70=VECTOR('',#260,23.3999999999997);
#71=VECTOR('',#261,15.4999999999999);
#72=VECTOR('',#262,2.79999999999996);
#73=VECTOR('',#263,7.24999999999996);
#74=VECTOR('',#264,28.6999999999997);
#75=VECTOR('',#265,8.24999999999996);
#76=VECTOR('',#268,30.5);
#77=VECTOR('',#269,28.6999999999997);
#78=VECTOR('',#270,30.5);
#79=VECTOR('',#273,30.5);
#80=VECTOR('',#274,8.09999999999994);
#81=VECTOR('',#275,23.3999999999998);
#82=VECTOR('',#276,30.5);
#83=VECTOR('',#283,8.24999999999995);
#84=VECTOR('',#284,7.24999999999997);
#85=VECTOR('',#285,2.8);
#86=VECTOR('',#286,15.4999999999999);
#87=VECTOR('',#289,30.5);
#88=VECTOR('',#294,30.5);
#89=VECTOR('',#299,2.65);
#90=VECTOR('',#306,2.65);
#91=VERTEX_POINT('',#315);
#92=VERTEX_POINT('',#316);
#93=VERTEX_POINT('',#319);
#94=VERTEX_POINT('',#321);
#95=VERTEX_POINT('',#323);
#96=VERTEX_POINT('',#325);
#97=VERTEX_POINT('',#327);
#98=VERTEX_POINT('',#331);
#99=VERTEX_POINT('',#333);
#100=VERTEX_POINT('',#337);
#101=VERTEX_POINT('',#339);
#102=VERTEX_POINT('',#341);
#103=VERTEX_POINT('',#345);
#104=VERTEX_POINT('',#349);
#105=VERTEX_POINT('',#351);
#106=VERTEX_POINT('',#361);
#107=VERTEX_POINT('',#366);
#108=VERTEX_POINT('',#368);
#109=EDGE_CURVE('',#91,#92,#47,.T.);
#110=EDGE_CURVE('',#91,#91,#41,.T.);
#111=EDGE_CURVE('',#93,#91,#48,.T.);
#112=EDGE_CURVE('',#94,#93,#49,.T.);
#113=EDGE_CURVE('',#95,#94,#50,.T.);
#114=EDGE_CURVE('',#95,#96,#51,.T.);
#115=EDGE_CURVE('',#96,#97,#52,.T.);
#116=EDGE_CURVE('',#97,#92,#53,.T.);
#117=EDGE_CURVE('',#98,#96,#54,.T.);
#118=EDGE_CURVE('',#98,#99,#55,.T.);
#119=EDGE_CURVE('',#99,#97,#56,.T.);
#120=EDGE_CURVE('',#92,#100,#57,.T.);
#121=EDGE_CURVE('',#101,#100,#58,.T.);
#122=EDGE_CURVE('',#102,#101,#59,.T.);
#123=EDGE_CURVE('',#93,#102,#60,.T.);
#124=EDGE_CURVE('',#101,#103,#42,.T.);
#125=EDGE_CURVE('',#103,#101,#43,.T.);
#126=EDGE_CURVE('',#100,#99,#61,.T.);
#127=EDGE_CURVE('',#98,#104,#62,.T.);
#128=EDGE_CURVE('',#104,#105,#63,.T.);
#129=EDGE_CURVE('',#102,#105,#64,.T.);
#130=EDGE_CURVE('',#105,#94,#65,.T.);
#131=EDGE_CURVE('',#104,#95,#66,.T.);
#132=EDGE_CURVE('',#91,#106,#67,.T.);
#133=EDGE_CURVE('',#106,#106,#44,.T.);
#134=EDGE_CURVE('',#103,#107,#68,.T.);
#135=EDGE_CURVE('',#107,#108,#45,.T.);
#136=EDGE_CURVE('',#108,#107,#46,.T.);
#137=ORIENTED_EDGE('',*,*,#109,.F.);
#138=ORIENTED_EDGE('',*,*,#110,.F.);
#139=ORIENTED_EDGE('',*,*,#111,.F.);
#140=ORIENTED_EDGE('',*,*,#112,.F.);
#141=ORIENTED_EDGE('',*,*,#113,.F.);
#142=ORIENTED_EDGE('',*,*,#114,.T.);
#143=ORIENTED_EDGE('',*,*,#115,.T.);
#144=ORIENTED_EDGE('',*,*,#116,.T.);
#145=ORIENTED_EDGE('',*,*,#117,.F.);
#146=ORIENTED_EDGE('',*,*,#118,.T.);
#147=ORIENTED_EDGE('',*,*,#119,.T.);
#148=ORIENTED_EDGE('',*,*,#115,.F.);
#149=ORIENTED_EDGE('',*,*,#111,.T.);
#150=ORIENTED_EDGE('',*,*,#109,.T.);
#151=ORIENTED_EDGE('',*,*,#120,.T.);
#152=ORIENTED_EDGE('',*,*,#121,.F.);
#153=ORIENTED_EDGE('',*,*,#122,.F.);
#154=ORIENTED_EDGE('',*,*,#123,.F.);
#155=ORIENTED_EDGE('',*,*,#122,.T.);
#156=ORIENTED_EDGE('',*,*,#124,.T.);
#157=ORIENTED_EDGE('',*,*,#125,.T.);
#158=ORIENTED_EDGE('',*,*,#121,.T.);
#159=ORIENTED_EDGE('',*,*,#126,.T.);
#160=ORIENTED_EDGE('',*,*,#118,.F.);
#161=ORIENTED_EDGE('',*,*,#127,.T.);
#162=ORIENTED_EDGE('',*,*,#128,.T.);
#163=ORIENTED_EDGE('',*,*,#129,.F.);
#164=ORIENTED_EDGE('',*,*,#112,.T.);
#165=ORIENTED_EDGE('',*,*,#123,.T.);
#166=ORIENTED_EDGE('',*,*,#129,.T.);
#167=ORIENTED_EDGE('',*,*,#130,.T.);
#168=ORIENTED_EDGE('',*,*,#116,.F.);
#169=ORIENTED_EDGE('',*,*,#119,.F.);
#170=ORIENTED_EDGE('',*,*,#126,.F.);
#171=ORIENTED_EDGE('',*,*,#120,.F.);
#172=ORIENTED_EDGE('',*,*,#127,.F.);
#173=ORIENTED_EDGE('',*,*,#117,.T.);
#174=ORIENTED_EDGE('',*,*,#114,.F.);
#175=ORIENTED_EDGE('',*,*,#131,.F.);
#176=ORIENTED_EDGE('',*,*,#130,.F.);
#177=ORIENTED_EDGE('',*,*,#128,.F.);
#178=ORIENTED_EDGE('',*,*,#131,.T.);
#179=ORIENTED_EDGE('',*,*,#113,.T.);
#180=ORIENTED_EDGE('',*,*,#110,.T.);
#181=ORIENTED_EDGE('',*,*,#132,.T.);
#182=ORIENTED_EDGE('',*,*,#133,.F.);
#183=ORIENTED_EDGE('',*,*,#132,.F.);
#184=ORIENTED_EDGE('',*,*,#133,.T.);
#185=ORIENTED_EDGE('',*,*,#124,.F.);
#186=ORIENTED_EDGE('',*,*,#125,.F.);
#187=ORIENTED_EDGE('',*,*,#134,.T.);
#188=ORIENTED_EDGE('',*,*,#135,.T.);
#189=ORIENTED_EDGE('',*,*,#136,.T.);
#190=ORIENTED_EDGE('',*,*,#134,.F.);
#191=ORIENTED_EDGE('',*,*,#136,.F.);
#192=ORIENTED_EDGE('',*,*,#135,.F.);
#193=PLANE('',#235);
#194=PLANE('',#237);
#195=PLANE('',#238);
#196=PLANE('',#239);
#197=PLANE('',#242);
#198=PLANE('',#243);
#199=PLANE('',#244);
#200=PLANE('',#245);
#201=PLANE('',#248);
#202=PLANE('',#252);
#203=ADVANCED_FACE('',(#17),#193,.F.);
#204=ADVANCED_FACE('',(#18),#194,.F.);
#205=ADVANCED_FACE('',(#19),#195,.F.);
#206=ADVANCED_FACE('',(#20),#196,.F.);
#207=ADVANCED_FACE('',(#21),#197,.T.);
#208=ADVANCED_FACE('',(#22),#198,.F.);
#209=ADVANCED_FACE('',(#23),#199,.F.);
#210=ADVANCED_FACE('',(#24),#200,.T.);
#211=ADVANCED_FACE('',(#25),#15,.T.);
#212=ADVANCED_FACE('',(#26),#201,.T.);
#213=ADVANCED_FACE('',(#27),#16,.T.);
#214=ADVANCED_FACE('',(#28),#202,.T.);
#215=CLOSED_SHELL('',(#203,#204,#205,#206,#207,#208,#209,#210,#211,#212,
#213,#214));
#216=DERIVED_UNIT_ELEMENT(#218,1.);
#217=DERIVED_UNIT_ELEMENT(#377,3.);
#218=(
MASS_UNIT()
NAMED_UNIT(*)
SI_UNIT($,.GRAM.)
);
#219=DERIVED_UNIT((#216,#217));
#220=MEASURE_REPRESENTATION_ITEM('density measure',
POSITIVE_RATIO_MEASURE(1.),#219);
#221=PROPERTY_DEFINITION_REPRESENTATION(#226,#223);
#222=PROPERTY_DEFINITION_REPRESENTATION(#227,#224);
#223=REPRESENTATION('material name',(#225),#374);
#224=REPRESENTATION('density',(#220),#374);
#225=DESCRIPTIVE_REPRESENTATION_ITEM('Generic','Generic');
#226=PROPERTY_DEFINITION('material property','material name',#384);
#227=PROPERTY_DEFINITION('material property','density of part',#384);
#228=DATE_TIME_ROLE('creation_date');
#229=APPLIED_DATE_AND_TIME_ASSIGNMENT(#230,#228,(#384));
#230=DATE_AND_TIME(#231,#232);
#231=CALENDAR_DATE(2002,21,1);
#232=LOCAL_TIME(10,0,32.,#233);
#233=COORDINATED_UNIVERSAL_TIME_OFFSET(0,0,.BEHIND.);
#234=AXIS2_PLACEMENT_3D('placement',#313,#253,#254);
#235=AXIS2_PLACEMENT_3D('',#314,#255,#256);
#236=AXIS2_PLACEMENT_3D('',#318,#258,#259);
#237=AXIS2_PLACEMENT_3D('',#330,#266,#267);
#238=AXIS2_PLACEMENT_3D('',#336,#271,#272);
#239=AXIS2_PLACEMENT_3D('',#344,#277,#278);
#240=AXIS2_PLACEMENT_3D('',#346,#279,#280);
#241=AXIS2_PLACEMENT_3D('',#347,#281,#282);
#242=AXIS2_PLACEMENT_3D('',#354,#287,#288);
#243=AXIS2_PLACEMENT_3D('',#356,#290,#291);
#244=AXIS2_PLACEMENT_3D('',#357,#292,#293);
#245=AXIS2_PLACEMENT_3D('',#359,#295,#296);
#246=AXIS2_PLACEMENT_3D('',#360,#297,#298);
#247=AXIS2_PLACEMENT_3D('',#363,#300,#301);
#248=AXIS2_PLACEMENT_3D('',#364,#302,#303);
#249=AXIS2_PLACEMENT_3D('',#365,#304,#305);
#250=AXIS2_PLACEMENT_3D('',#369,#307,#308);
#251=AXIS2_PLACEMENT_3D('',#370,#309,#310);
#252=AXIS2_PLACEMENT_3D('',#371,#311,#312);
#253=DIRECTION('axis',(0.,0.,1.));
#254=DIRECTION('refdir',(1.,0.,0.));
#255=DIRECTION('center_axis',(1.,-1.48061331964883E-15,-3.98619443357782E-16));
#256=DIRECTION('ref_axis',(-3.98619443357781E-16,0.,-1.));
#257=DIRECTION('',(1.09651656753103E-15,1.09651656753103E-15,-1.));
#258=DIRECTION('center_axis',(-1.,1.48061331964883E-15,3.98619443357782E-16));
#259=DIRECTION('ref_axis',(-1.88369887618497E-15,-1.,8.01442245901285E-16));
#260=DIRECTION('',(3.7956342722228E-16,7.59126854444561E-16,-1.));
#261=DIRECTION('',(-1.71905500587122E-15,-1.,8.5952750293561E-16));
#262=DIRECTION('',(0.,-1.58603289232167E-15,1.));
#263=DIRECTION('',(0.,-1.,6.12536841172504E-16));
#264=DIRECTION('',(6.18939665296261E-16,7.73674581620326E-16,-1.));
#265=DIRECTION('',(-1.07657990266682E-15,-1.,8.01442245901285E-16));
#266=DIRECTION('center_axis',(-2.01542778268068E-16,-1.,8.01442245901285E-16));
#267=DIRECTION('ref_axis',(0.,-8.01442245901285E-16,-1.));
#268=DIRECTION('',(-1.,-2.91206039245943E-16,4.36809058868915E-16));
#269=DIRECTION('',(4.64204748972195E-16,6.1893966529626E-16,-1.));
#270=DIRECTION('',(-1.,-1.45603019622972E-16,3.98619443357782E-16));
#271=DIRECTION('center_axis',(2.01542778268068E-16,1.,-8.01442245901285E-16));
#272=DIRECTION('ref_axis',(0.,8.01442245901285E-16,1.));
#273=DIRECTION('',(1.,2.18404529434457E-16,-3.98619443357782E-16));
#274=DIRECTION('',(5.48258283765514E-16,8.22387425648271E-16,-1.));
#275=DIRECTION('',(3.7956342722228E-16,8.54017711250129E-16,-1.));
#276=DIRECTION('',(1.,2.18404529434457E-16,-4.36809058868913E-16));
#277=DIRECTION('center_axis',(-1.,2.18996246211157E-16,3.98619443357782E-16));
#278=DIRECTION('ref_axis',(3.98619443357782E-16,0.,1.));
#279=DIRECTION('center_axis',(-1.,1.48061331964883E-15,3.98619443357782E-16));
#280=DIRECTION('ref_axis',(-1.88369887618497E-15,-1.,8.01442245901285E-16));
#281=DIRECTION('center_axis',(-1.,1.48061331964883E-15,3.98619443357782E-16));
#282=DIRECTION('ref_axis',(-1.88369887618497E-15,-1.,8.01442245901285E-16));
#283=DIRECTION('',(5.38289951333412E-16,1.,-8.01442245901284E-16));
#284=DIRECTION('',(6.12536841172503E-16,1.,-1.22507368234501E-15));
#285=DIRECTION('',(0.,-1.58603289232165E-15,1.));
#286=DIRECTION('',(5.73018335290407E-16,1.,-8.5952750293561E-16));
#287=DIRECTION('center_axis',(-3.98619443357783E-16,-8.01442245901286E-16,
1.));
#288=DIRECTION('ref_axis',(1.,0.,3.98619443357783E-16));
#289=DIRECTION('',(-1.,-2.91206039245943E-16,4.36809058868914E-16));
#290=DIRECTION('center_axis',(-3.98619443357783E-16,-8.01442245901286E-16,
1.));
#291=DIRECTION('ref_axis',(1.,0.,3.98619443357783E-16));
#292=DIRECTION('center_axis',(-3.98619443357783E-16,-8.01442245901286E-16,
1.));
#293=DIRECTION('ref_axis',(1.,0.,3.98619443357783E-16));
#294=DIRECTION('',(-1.,-2.91206039245943E-16,4.36809058868914E-16));
#295=DIRECTION('center_axis',(8.77904191876214E-17,1.,-8.01442245901285E-16));
#296=DIRECTION('ref_axis',(0.,8.01442245901285E-16,1.));
#297=DIRECTION('center_axis',(1.,-1.48061331964883E-15,-3.98619443357782E-16));
#298=DIRECTION('ref_axis',(1.88369887618497E-15,1.,-8.01442245901285E-16));
#299=DIRECTION('',(-1.,1.48061331964883E-15,3.98619443357782E-16));
#300=DIRECTION('center_axis',(-1.,1.48061331964883E-15,3.98619443357782E-16));
#301=DIRECTION('ref_axis',(-1.88369887618497E-15,-1.,8.01442245901285E-16));
#302=DIRECTION('center_axis',(-1.,1.48061331964883E-15,3.98619443357782E-16));
#303=DIRECTION('ref_axis',(3.98619443357781E-16,0.,1.));
#304=DIRECTION('center_axis',(-1.,1.48061331964883E-15,3.98619443357782E-16));
#305=DIRECTION('ref_axis',(-1.88369887618497E-15,-1.,8.01442245901285E-16));
#306=DIRECTION('',(1.,-1.48061331964883E-15,-3.98619443357782E-16));
#307=DIRECTION('center_axis',(-1.,1.48061331964883E-15,3.98619443357782E-16));
#308=DIRECTION('ref_axis',(-1.88369887618497E-15,-1.,8.01442245901285E-16));
#309=DIRECTION('center_axis',(-1.,1.48061331964883E-15,3.98619443357782E-16));
#310=DIRECTION('ref_axis',(-1.88369887618497E-15,-1.,8.01442245901285E-16));
#311=DIRECTION('center_axis',(1.,-1.48061331964883E-15,-3.98619443357782E-16));
#312=DIRECTION('ref_axis',(-3.98619443357781E-16,0.,-1.));
#313=CARTESIAN_POINT('',(0.,0.,0.));
#314=CARTESIAN_POINT('Origin',(-60.5877367896311,23.8172482552342,31.4999999999999));
#315=CARTESIAN_POINT('',(-60.5877367896311,15.5672482552343,8.1));
#316=CARTESIAN_POINT('',(-60.5877367896311,15.5672482552343,1.38777878078145E-14));
#317=CARTESIAN_POINT('',(-60.5877367896311,15.5672482552343,8.10000000000015));
#318=CARTESIAN_POINT('Origin',(-60.5877367896311,18.2172482552343,8.1));
#319=CARTESIAN_POINT('',(-60.5877367896311,15.5672482552342,31.4999999999999));
#320=CARTESIAN_POINT('',(-60.5877367896311,15.5672482552342,31.4999999999999));
#321=CARTESIAN_POINT('',(-60.5877367896311,31.0672482552342,31.4999999999999));
#322=CARTESIAN_POINT('',(-60.5877367896311,31.0672482552342,31.4999999999999));
#323=CARTESIAN_POINT('',(-60.5877367896311,31.0672482552342,28.6999999999999));
#324=CARTESIAN_POINT('',(-60.5877367896311,31.0672482552342,28.6999999999999));
#325=CARTESIAN_POINT('',(-60.5877367896311,23.8172482552342,28.6999999999999));
#326=CARTESIAN_POINT('',(-60.5877367896312,31.0672482552342,28.6999999999999));
#327=CARTESIAN_POINT('',(-60.5877367896311,23.8172482552343,1.38777878078145E-14));
#328=CARTESIAN_POINT('',(-60.5877367896311,23.8172482552342,28.6999999999999));
#329=CARTESIAN_POINT('',(-60.5877367896311,23.8172482552343,1.38777878078145E-14));
#330=CARTESIAN_POINT('Origin',(-60.5877367896311,23.8172482552342,31.4999999999999));
#331=CARTESIAN_POINT('',(-30.0877367896311,23.8172482552342,28.6999999999999));
#332=CARTESIAN_POINT('',(-30.0877367896311,23.8172482552342,28.6999999999999));
#333=CARTESIAN_POINT('',(-30.0877367896311,23.8172482552343,-4.85722573273506E-14));
#334=CARTESIAN_POINT('',(-30.0877367896311,23.8172482552342,28.6999999999999));
#335=CARTESIAN_POINT('',(-30.0877367896311,23.8172482552343,1.71989478540213E-15));
#336=CARTESIAN_POINT('Origin',(-60.5877367896311,15.5672482552342,31.4999999999999));
#337=CARTESIAN_POINT('',(-30.0877367896311,15.5672482552343,-1.38777878078145E-14));
#338=CARTESIAN_POINT('',(-60.5877367896311,15.5672482552343,1.38777878078145E-14));
#339=CARTESIAN_POINT('',(-30.0877367896311,15.5672482552343,8.09999999999997));
#340=CARTESIAN_POINT('',(-30.0877367896311,15.5672482552343,8.10000000000012));
#341=CARTESIAN_POINT('',(-30.0877367896311,15.5672482552343,31.4999999999999));
#342=CARTESIAN_POINT('',(-30.0877367896311,15.5672482552343,31.4999999999999));
#343=CARTESIAN_POINT('',(-60.5877367896311,15.5672482552342,31.4999999999999));
#344=CARTESIAN_POINT('Origin',(-30.0877367896311,23.8172482552342,31.4999999999999));
#345=CARTESIAN_POINT('',(-30.0877367896311,20.8672482552342,8.09999999999996));
#346=CARTESIAN_POINT('Origin',(-30.0877367896311,18.2172482552342,8.09999999999997));
#347=CARTESIAN_POINT('Origin',(-30.0877367896311,18.2172482552342,8.09999999999997));
#348=CARTESIAN_POINT('',(-30.0877367896311,15.5672482552343,-4.1960358798665E-14));
#349=CARTESIAN_POINT('',(-30.0877367896311,31.0672482552342,28.6999999999999));
#350=CARTESIAN_POINT('',(-30.0877367896311,23.8172482552342,28.6999999999999));
#351=CARTESIAN_POINT('',(-30.0877367896311,31.0672482552342,31.4999999999999));
#352=CARTESIAN_POINT('',(-30.0877367896311,31.0672482552342,28.6999999999999));
#353=CARTESIAN_POINT('',(-30.0877367896311,15.5672482552343,31.4999999999999));
#354=CARTESIAN_POINT('Origin',(-60.5877367896311,15.5672482552342,31.4999999999999));
#355=CARTESIAN_POINT('',(-30.0877367896311,31.0672482552342,31.4999999999999));
#356=CARTESIAN_POINT('Origin',(-60.5877367896311,15.5672482552343,1.38777878078145E-14));
#357=CARTESIAN_POINT('Origin',(-30.0877367896311,15.5672482552343,28.6999999999999));
#358=CARTESIAN_POINT('',(-30.0877367896311,31.0672482552342,28.6999999999999));
#359=CARTESIAN_POINT('Origin',(-30.0877367896311,31.0672482552342,28.6999999999999));
#360=CARTESIAN_POINT('Origin',(-72.5877367896311,18.2172482552343,8.1));
#361=CARTESIAN_POINT('',(-72.5877367896311,15.5672482552343,8.1));
#362=CARTESIAN_POINT('',(-72.5877367896311,15.5672482552343,8.1));
#363=CARTESIAN_POINT('Origin',(-72.5877367896311,18.2172482552343,8.1));
#364=CARTESIAN_POINT('Origin',(-72.5877367896311,18.2172482552343,8.1));
#365=CARTESIAN_POINT('Origin',(-18.087736789631,18.2172482552342,8.09999999999995));
#366=CARTESIAN_POINT('',(-18.087736789631,20.8672482552342,8.09999999999995));
#367=CARTESIAN_POINT('',(-18.087736789631,20.8672482552342,8.09999999999995));
#368=CARTESIAN_POINT('',(-18.087736789631,15.5672482552342,8.09999999999996));
#369=CARTESIAN_POINT('Origin',(-18.087736789631,18.2172482552342,8.09999999999995));
#370=CARTESIAN_POINT('Origin',(-18.087736789631,18.2172482552342,8.09999999999995));
#371=CARTESIAN_POINT('Origin',(-18.087736789631,18.2172482552342,8.09999999999995));
#372=UNCERTAINTY_MEASURE_WITH_UNIT(LENGTH_MEASURE(0.01),#376,
'DISTANCE_ACCURACY_VALUE',
'Maximum model space distance between geometric entities at asserted c
onnectivities');
#373=UNCERTAINTY_MEASURE_WITH_UNIT(LENGTH_MEASURE(0.01),#376,
'DISTANCE_ACCURACY_VALUE',
'Maximum model space distance between geometric entities at asserted c
onnectivities');
#374=(
GEOMETRIC_REPRESENTATION_CONTEXT(3)
GLOBAL_UNCERTAINTY_ASSIGNED_CONTEXT((#372))
GLOBAL_UNIT_ASSIGNED_CONTEXT((#376,#378,#379))
REPRESENTATION_CONTEXT('','3D')
);
#375=(
GEOMETRIC_REPRESENTATION_CONTEXT(3)
GLOBAL_UNCERTAINTY_ASSIGNED_CONTEXT((#373))
GLOBAL_UNIT_ASSIGNED_CONTEXT((#376,#378,#379))
REPRESENTATION_CONTEXT('','3D')
);
#376=(
LENGTH_UNIT()
NAMED_UNIT(*)
SI_UNIT(.MILLI.,.METRE.)
);
#377=(
LENGTH_UNIT()
NAMED_UNIT(*)
SI_UNIT(.CENTI.,.METRE.)
);
#378=(
NAMED_UNIT(*)
PLANE_ANGLE_UNIT()
SI_UNIT($,.RADIAN.)
);
#379=(
NAMED_UNIT(*)
SI_UNIT($,.STERADIAN.)
SOLID_ANGLE_UNIT()
);
#380=SHAPE_DEFINITION_REPRESENTATION(#381,#382);
#381=PRODUCT_DEFINITION_SHAPE('',$,#384);
#382=SHAPE_REPRESENTATION('',(#234),#374);
#383=PRODUCT_DEFINITION_CONTEXT('part definition',#388,'design');
#384=PRODUCT_DEFINITION('capteur debit','capteur debit',#385,#383);
#385=PRODUCT_DEFINITION_FORMATION('',$,#390);
#386=PRODUCT_RELATED_PRODUCT_CATEGORY('capteur debit','capteur debit',(#390));
#387=APPLICATION_PROTOCOL_DEFINITION('international standard',
'automotive_design',2009,#388);
#388=APPLICATION_CONTEXT(
'Core Data for Automotive Mechanical Design Process');
#389=PRODUCT_CONTEXT('part definition',#388,'mechanical');
#390=PRODUCT('capteur debit','capteur debit',$,(#389));
#391=PRESENTATION_STYLE_ASSIGNMENT((#392));
#392=SURFACE_STYLE_USAGE(.BOTH.,#395);
#393=SURFACE_STYLE_RENDERING_WITH_PROPERTIES($,#399,(#394));
#394=SURFACE_STYLE_TRANSPARENT(0.);
#395=SURFACE_SIDE_STYLE('',(#396,#393));
#396=SURFACE_STYLE_FILL_AREA(#397);
#397=FILL_AREA_STYLE('',(#398));
#398=FILL_AREA_STYLE_COLOUR('',#399);
#399=COLOUR_RGB('',0.756862745098039,0.737254901960784,0.866666666666667);
ENDSEC;
END-ISO-10303-21;
