ISO-10303-21;
HEADER;
/* Generated by software containing ST-Developer
 * from STEP Tools, Inc. (www.steptools.com) 
 */

FILE_DESCRIPTION(
/* description */ (''),
/* implementation_level */ '2;1');

FILE_NAME(
/* name */ 
'C:\\Users\\huesof\\Downloads\\medtronic-pb560-ventilator-system-file-
set-2\\3D CAD Models\\TO228P991X239-3N-R552X520.stp',
/* time_stamp */ '2020-04-13T18:38:04-04:00',
/* author */ ('huesof'),
/* organization */ (''),
/* preprocessor_version */ 'ST-DEVELOPER v18',
/* originating_system */ 'Autodesk Inventor 2020',
/* authorisation */ '');

FILE_SCHEMA (('AUTOMOTIVE_DESIGN { 1 0 10303 214 3 1 1 }'));
ENDSEC;

DATA;
#10=MECHANICAL_DESIGN_GEOMETRIC_PRESENTATION_REPRESENTATION('',(#37,#38,
#39,#40,#41,#42),#1668);
#11=SHAPE_REPRESENTATION_RELATIONSHIP('SRR','None',#1675,#12);
#12=ADVANCED_BREP_SHAPE_REPRESENTATION('',(#43,#44,#45,#46,#47,#48),#1667);
#13=CIRCLE('',#1049,1.2);
#14=CIRCLE('',#1050,1.2);
#15=CIRCLE('',#1052,1.2);
#16=CIRCLE('',#1053,1.2);
#17=CIRCLE('',#1058,1.78);
#18=CIRCLE('',#1059,1.78);
#19=CIRCLE('',#1061,0.62);
#20=CIRCLE('',#1062,0.62);
#21=CIRCLE('',#1069,1.2);
#22=CIRCLE('',#1070,1.2);
#23=CIRCLE('',#1072,1.2);
#24=CIRCLE('',#1073,1.2);
#25=CIRCLE('',#1078,1.78);
#26=CIRCLE('',#1079,1.78);
#27=CIRCLE('',#1081,0.62);
#28=CIRCLE('',#1082,0.62);
#29=CYLINDRICAL_SURFACE('',#1048,1.2);
#30=CYLINDRICAL_SURFACE('',#1051,1.2);
#31=CYLINDRICAL_SURFACE('',#1057,1.78);
#32=CYLINDRICAL_SURFACE('',#1060,0.62);
#33=CYLINDRICAL_SURFACE('',#1068,1.2);
#34=CYLINDRICAL_SURFACE('',#1071,1.2);
#35=CYLINDRICAL_SURFACE('',#1077,1.78);
#36=CYLINDRICAL_SURFACE('',#1080,0.62);
#37=STYLED_ITEM('',(#1685),#43);
#38=STYLED_ITEM('',(#1685),#44);
#39=STYLED_ITEM('',(#1685),#45);
#40=STYLED_ITEM('',(#1685),#46);
#41=STYLED_ITEM('',(#1685),#47);
#42=STYLED_ITEM('',(#1686),#48);
#43=MANIFOLD_SOLID_BREP('Solid1',#1011);
#44=MANIFOLD_SOLID_BREP('Solid2',#1012);
#45=MANIFOLD_SOLID_BREP('Solid3',#1013);
#46=MANIFOLD_SOLID_BREP('Solid4',#1014);
#47=MANIFOLD_SOLID_BREP('Solid5',#1015);
#48=MANIFOLD_SOLID_BREP('Solid6',#1016);
#49=FACE_OUTER_BOUND('',#107,.T.);
#50=FACE_OUTER_BOUND('',#108,.T.);
#51=FACE_OUTER_BOUND('',#109,.T.);
#52=FACE_OUTER_BOUND('',#110,.T.);
#53=FACE_OUTER_BOUND('',#111,.T.);
#54=FACE_OUTER_BOUND('',#112,.T.);
#55=FACE_OUTER_BOUND('',#113,.T.);
#56=FACE_OUTER_BOUND('',#114,.T.);
#57=FACE_OUTER_BOUND('',#115,.T.);
#58=FACE_OUTER_BOUND('',#116,.T.);
#59=FACE_OUTER_BOUND('',#117,.T.);
#60=FACE_OUTER_BOUND('',#118,.T.);
#61=FACE_OUTER_BOUND('',#119,.T.);
#62=FACE_OUTER_BOUND('',#120,.T.);
#63=FACE_OUTER_BOUND('',#121,.T.);
#64=FACE_OUTER_BOUND('',#122,.T.);
#65=FACE_OUTER_BOUND('',#123,.T.);
#66=FACE_OUTER_BOUND('',#124,.T.);
#67=FACE_OUTER_BOUND('',#125,.T.);
#68=FACE_OUTER_BOUND('',#126,.T.);
#69=FACE_OUTER_BOUND('',#127,.T.);
#70=FACE_OUTER_BOUND('',#128,.T.);
#71=FACE_OUTER_BOUND('',#129,.T.);
#72=FACE_OUTER_BOUND('',#130,.T.);
#73=FACE_OUTER_BOUND('',#131,.T.);
#74=FACE_OUTER_BOUND('',#132,.T.);
#75=FACE_OUTER_BOUND('',#133,.T.);
#76=FACE_OUTER_BOUND('',#134,.T.);
#77=FACE_OUTER_BOUND('',#135,.T.);
#78=FACE_OUTER_BOUND('',#136,.T.);
#79=FACE_OUTER_BOUND('',#137,.T.);
#80=FACE_OUTER_BOUND('',#138,.T.);
#81=FACE_OUTER_BOUND('',#139,.T.);
#82=FACE_OUTER_BOUND('',#140,.T.);
#83=FACE_OUTER_BOUND('',#141,.T.);
#84=FACE_OUTER_BOUND('',#142,.T.);
#85=FACE_OUTER_BOUND('',#143,.T.);
#86=FACE_OUTER_BOUND('',#144,.T.);
#87=FACE_OUTER_BOUND('',#145,.T.);
#88=FACE_OUTER_BOUND('',#146,.T.);
#89=FACE_OUTER_BOUND('',#147,.T.);
#90=FACE_OUTER_BOUND('',#148,.T.);
#91=FACE_OUTER_BOUND('',#149,.T.);
#92=FACE_OUTER_BOUND('',#150,.T.);
#93=FACE_OUTER_BOUND('',#151,.T.);
#94=FACE_OUTER_BOUND('',#152,.T.);
#95=FACE_OUTER_BOUND('',#153,.T.);
#96=FACE_OUTER_BOUND('',#154,.T.);
#97=FACE_OUTER_BOUND('',#155,.T.);
#98=FACE_OUTER_BOUND('',#156,.T.);
#99=FACE_OUTER_BOUND('',#157,.T.);
#100=FACE_OUTER_BOUND('',#158,.T.);
#101=FACE_OUTER_BOUND('',#159,.T.);
#102=FACE_OUTER_BOUND('',#160,.T.);
#103=FACE_OUTER_BOUND('',#161,.T.);
#104=FACE_OUTER_BOUND('',#162,.T.);
#105=FACE_OUTER_BOUND('',#163,.T.);
#106=FACE_OUTER_BOUND('',#164,.T.);
#107=EDGE_LOOP('',(#631,#632,#633,#634));
#108=EDGE_LOOP('',(#635,#636,#637,#638));
#109=EDGE_LOOP('',(#639,#640,#641,#642));
#110=EDGE_LOOP('',(#643,#644,#645,#646));
#111=EDGE_LOOP('',(#647,#648,#649,#650));
#112=EDGE_LOOP('',(#651,#652,#653,#654));
#113=EDGE_LOOP('',(#655,#656,#657,#658));
#114=EDGE_LOOP('',(#659,#660,#661,#662));
#115=EDGE_LOOP('',(#663,#664,#665,#666));
#116=EDGE_LOOP('',(#667,#668,#669,#670));
#117=EDGE_LOOP('',(#671,#672,#673,#674));
#118=EDGE_LOOP('',(#675,#676,#677,#678));
#119=EDGE_LOOP('',(#679,#680,#681,#682));
#120=EDGE_LOOP('',(#683,#684,#685,#686));
#121=EDGE_LOOP('',(#687,#688,#689,#690));
#122=EDGE_LOOP('',(#691,#692,#693,#694));
#123=EDGE_LOOP('',(#695,#696,#697,#698));
#124=EDGE_LOOP('',(#699,#700,#701,#702));
#125=EDGE_LOOP('',(#703,#704,#705,#706));
#126=EDGE_LOOP('',(#707,#708,#709,#710));
#127=EDGE_LOOP('',(#711,#712,#713,#714));
#128=EDGE_LOOP('',(#715,#716,#717,#718));
#129=EDGE_LOOP('',(#719,#720,#721,#722,#723,#724,#725,#726,#727,#728));
#130=EDGE_LOOP('',(#729,#730,#731,#732,#733,#734,#735,#736,#737,#738));
#131=EDGE_LOOP('',(#739,#740,#741,#742));
#132=EDGE_LOOP('',(#743,#744,#745,#746));
#133=EDGE_LOOP('',(#747,#748,#749,#750));
#134=EDGE_LOOP('',(#751,#752,#753,#754));
#135=EDGE_LOOP('',(#755,#756,#757,#758));
#136=EDGE_LOOP('',(#759,#760,#761,#762));
#137=EDGE_LOOP('',(#763,#764,#765,#766));
#138=EDGE_LOOP('',(#767,#768,#769,#770));
#139=EDGE_LOOP('',(#771,#772,#773,#774));
#140=EDGE_LOOP('',(#775,#776,#777,#778));
#141=EDGE_LOOP('',(#779,#780,#781,#782,#783,#784,#785,#786,#787,#788));
#142=EDGE_LOOP('',(#789,#790,#791,#792,#793,#794,#795,#796,#797,#798));
#143=EDGE_LOOP('',(#799,#800,#801,#802));
#144=EDGE_LOOP('',(#803,#804,#805,#806));
#145=EDGE_LOOP('',(#807,#808,#809,#810,#811,#812));
#146=EDGE_LOOP('',(#813,#814,#815,#816));
#147=EDGE_LOOP('',(#817,#818,#819,#820));
#148=EDGE_LOOP('',(#821,#822,#823,#824,#825,#826));
#149=EDGE_LOOP('',(#827,#828,#829,#830));
#150=EDGE_LOOP('',(#831,#832,#833,#834));
#151=EDGE_LOOP('',(#835,#836,#837,#838));
#152=EDGE_LOOP('',(#839,#840,#841,#842,#843,#844,#845,#846));
#153=EDGE_LOOP('',(#847,#848,#849,#850));
#154=EDGE_LOOP('',(#851,#852,#853,#854));
#155=EDGE_LOOP('',(#855,#856,#857,#858));
#156=EDGE_LOOP('',(#859,#860,#861,#862,#863,#864));
#157=EDGE_LOOP('',(#865,#866,#867,#868,#869,#870,#871));
#158=EDGE_LOOP('',(#872,#873,#874,#875));
#159=EDGE_LOOP('',(#876,#877,#878,#879,#880,#881,#882));
#160=EDGE_LOOP('',(#883,#884,#885,#886));
#161=EDGE_LOOP('',(#887,#888,#889,#890));
#162=EDGE_LOOP('',(#891,#892,#893,#894));
#163=EDGE_LOOP('',(#895,#896,#897,#898));
#164=EDGE_LOOP('',(#899,#900,#901,#902));
#165=LINE('',#1384,#285);
#166=LINE('',#1386,#286);
#167=LINE('',#1388,#287);
#168=LINE('',#1389,#288);
#169=LINE('',#1392,#289);
#170=LINE('',#1394,#290);
#171=LINE('',#1395,#291);
#172=LINE('',#1399,#292);
#173=LINE('',#1400,#293);
#174=LINE('',#1401,#294);
#175=LINE('',#1403,#295);
#176=LINE('',#1405,#296);
#177=LINE('',#1410,#297);
#178=LINE('',#1412,#298);
#179=LINE('',#1414,#299);
#180=LINE('',#1415,#300);
#181=LINE('',#1418,#301);
#182=LINE('',#1420,#302);
#183=LINE('',#1421,#303);
#184=LINE('',#1424,#304);
#185=LINE('',#1426,#305);
#186=LINE('',#1427,#306);
#187=LINE('',#1429,#307);
#188=LINE('',#1430,#308);
#189=LINE('',#1438,#309);
#190=LINE('',#1441,#310);
#191=LINE('',#1446,#311);
#192=LINE('',#1450,#312);
#193=LINE('',#1452,#313);
#194=LINE('',#1453,#314);
#195=LINE('',#1456,#315);
#196=LINE('',#1458,#316);
#197=LINE('',#1459,#317);
#198=LINE('',#1462,#318);
#199=LINE('',#1464,#319);
#200=LINE('',#1465,#320);
#201=LINE('',#1470,#321);
#202=LINE('',#1476,#322);
#203=LINE('',#1480,#323);
#204=LINE('',#1482,#324);
#205=LINE('',#1483,#325);
#206=LINE('',#1486,#326);
#207=LINE('',#1488,#327);
#208=LINE('',#1489,#328);
#209=LINE('',#1491,#329);
#210=LINE('',#1492,#330);
#211=LINE('',#1500,#331);
#212=LINE('',#1503,#332);
#213=LINE('',#1508,#333);
#214=LINE('',#1512,#334);
#215=LINE('',#1514,#335);
#216=LINE('',#1515,#336);
#217=LINE('',#1518,#337);
#218=LINE('',#1520,#338);
#219=LINE('',#1521,#339);
#220=LINE('',#1524,#340);
#221=LINE('',#1526,#341);
#222=LINE('',#1527,#342);
#223=LINE('',#1532,#343);
#224=LINE('',#1538,#344);
#225=LINE('',#1542,#345);
#226=LINE('',#1544,#346);
#227=LINE('',#1545,#347);
#228=LINE('',#1548,#348);
#229=LINE('',#1550,#349);
#230=LINE('',#1551,#350);
#231=LINE('',#1553,#351);
#232=LINE('',#1554,#352);
#233=LINE('',#1560,#353);
#234=LINE('',#1562,#354);
#235=LINE('',#1564,#355);
#236=LINE('',#1565,#356);
#237=LINE('',#1568,#357);
#238=LINE('',#1570,#358);
#239=LINE('',#1571,#359);
#240=LINE('',#1574,#360);
#241=LINE('',#1576,#361);
#242=LINE('',#1578,#362);
#243=LINE('',#1579,#363);
#244=LINE('',#1582,#364);
#245=LINE('',#1583,#365);
#246=LINE('',#1586,#366);
#247=LINE('',#1588,#367);
#248=LINE('',#1589,#368);
#249=LINE('',#1591,#369);
#250=LINE('',#1592,#370);
#251=LINE('',#1598,#371);
#252=LINE('',#1600,#372);
#253=LINE('',#1602,#373);
#254=LINE('',#1603,#374);
#255=LINE('',#1607,#375);
#256=LINE('',#1609,#376);
#257=LINE('',#1611,#377);
#258=LINE('',#1613,#378);
#259=LINE('',#1615,#379);
#260=LINE('',#1616,#380);
#261=LINE('',#1617,#381);
#262=LINE('',#1621,#382);
#263=LINE('',#1622,#383);
#264=LINE('',#1623,#384);
#265=LINE('',#1625,#385);
#266=LINE('',#1626,#386);
#267=LINE('',#1631,#387);
#268=LINE('',#1633,#388);
#269=LINE('',#1635,#389);
#270=LINE('',#1636,#390);
#271=LINE('',#1637,#391);
#272=LINE('',#1641,#392);
#273=LINE('',#1643,#393);
#274=LINE('',#1644,#394);
#275=LINE('',#1645,#395);
#276=LINE('',#1646,#396);
#277=LINE('',#1650,#397);
#278=LINE('',#1651,#398);
#279=LINE('',#1652,#399);
#280=LINE('',#1655,#400);
#281=LINE('',#1656,#401);
#282=LINE('',#1657,#402);
#283=LINE('',#1658,#403);
#284=LINE('',#1661,#404);
#285=VECTOR('',#1114,1.);
#286=VECTOR('',#1115,1.);
#287=VECTOR('',#1116,1.);
#288=VECTOR('',#1117,1.);
#289=VECTOR('',#1120,1.);
#290=VECTOR('',#1121,1.);
#291=VECTOR('',#1122,1.);
#292=VECTOR('',#1125,1.);
#293=VECTOR('',#1126,1.);
#294=VECTOR('',#1127,1.);
#295=VECTOR('',#1130,1.);
#296=VECTOR('',#1133,1.);
#297=VECTOR('',#1138,1.);
#298=VECTOR('',#1139,1.);
#299=VECTOR('',#1140,1.);
#300=VECTOR('',#1141,1.);
#301=VECTOR('',#1144,1.);
#302=VECTOR('',#1145,1.);
#303=VECTOR('',#1146,1.);
#304=VECTOR('',#1149,1.);
#305=VECTOR('',#1150,1.);
#306=VECTOR('',#1151,1.);
#307=VECTOR('',#1154,1.);
#308=VECTOR('',#1155,1.);
#309=VECTOR('',#1164,1.);
#310=VECTOR('',#1167,1.);
#311=VECTOR('',#1172,1.);
#312=VECTOR('',#1177,1.);
#313=VECTOR('',#1178,1.);
#314=VECTOR('',#1179,1.);
#315=VECTOR('',#1182,1.);
#316=VECTOR('',#1183,1.);
#317=VECTOR('',#1184,1.);
#318=VECTOR('',#1187,1.);
#319=VECTOR('',#1188,1.);
#320=VECTOR('',#1189,1.);
#321=VECTOR('',#1194,1.);
#322=VECTOR('',#1201,1.);
#323=VECTOR('',#1206,0.999999999999751);
#324=VECTOR('',#1207,1.);
#325=VECTOR('',#1208,0.999999999999751);
#326=VECTOR('',#1211,0.999999999999751);
#327=VECTOR('',#1212,1.);
#328=VECTOR('',#1213,0.999999999999751);
#329=VECTOR('',#1216,0.999999999999751);
#330=VECTOR('',#1217,0.999999999999751);
#331=VECTOR('',#1226,1.);
#332=VECTOR('',#1229,1.);
#333=VECTOR('',#1234,1.);
#334=VECTOR('',#1239,1.);
#335=VECTOR('',#1240,1.);
#336=VECTOR('',#1241,1.);
#337=VECTOR('',#1244,1.);
#338=VECTOR('',#1245,1.);
#339=VECTOR('',#1246,1.);
#340=VECTOR('',#1249,1.);
#341=VECTOR('',#1250,1.);
#342=VECTOR('',#1251,1.);
#343=VECTOR('',#1256,1.);
#344=VECTOR('',#1263,1.);
#345=VECTOR('',#1268,0.999999999999751);
#346=VECTOR('',#1269,1.);
#347=VECTOR('',#1270,0.999999999999751);
#348=VECTOR('',#1273,0.999999999999751);
#349=VECTOR('',#1274,1.);
#350=VECTOR('',#1275,0.999999999999751);
#351=VECTOR('',#1278,0.999999999999751);
#352=VECTOR('',#1279,0.999999999999751);
#353=VECTOR('',#1286,0.99999999999983);
#354=VECTOR('',#1287,1.);
#355=VECTOR('',#1288,0.99999999999983);
#356=VECTOR('',#1289,1.);
#357=VECTOR('',#1292,1.);
#358=VECTOR('',#1293,1.);
#359=VECTOR('',#1294,1.);
#360=VECTOR('',#1297,1.);
#361=VECTOR('',#1298,1.);
#362=VECTOR('',#1299,1.);
#363=VECTOR('',#1300,0.99999999999983);
#364=VECTOR('',#1303,0.99999999999983);
#365=VECTOR('',#1304,1.);
#366=VECTOR('',#1307,1.);
#367=VECTOR('',#1308,1.);
#368=VECTOR('',#1309,1.);
#369=VECTOR('',#1312,1.);
#370=VECTOR('',#1313,1.);
#371=VECTOR('',#1320,1.);
#372=VECTOR('',#1321,1.);
#373=VECTOR('',#1322,1.);
#374=VECTOR('',#1323,1.);
#375=VECTOR('',#1326,1.);
#376=VECTOR('',#1327,1.);
#377=VECTOR('',#1328,1.);
#378=VECTOR('',#1329,1.);
#379=VECTOR('',#1330,1.);
#380=VECTOR('',#1331,1.);
#381=VECTOR('',#1332,1.);
#382=VECTOR('',#1335,1.);
#383=VECTOR('',#1336,1.);
#384=VECTOR('',#1337,1.);
#385=VECTOR('',#1340,1.);
#386=VECTOR('',#1341,1.);
#387=VECTOR('',#1346,0.999999999999662);
#388=VECTOR('',#1347,1.);
#389=VECTOR('',#1348,0.999999999999662);
#390=VECTOR('',#1349,1.);
#391=VECTOR('',#1350,1.);
#392=VECTOR('',#1353,0.999999999999662);
#393=VECTOR('',#1354,1.);
#394=VECTOR('',#1355,0.999999999999662);
#395=VECTOR('',#1356,1.);
#396=VECTOR('',#1357,1.);
#397=VECTOR('',#1360,0.999999999999662);
#398=VECTOR('',#1361,1.);
#399=VECTOR('',#1362,1.);
#400=VECTOR('',#1365,1.);
#401=VECTOR('',#1366,1.);
#402=VECTOR('',#1367,1.);
#403=VECTOR('',#1368,0.999999999999662);
#404=VECTOR('',#1373,1.);
#405=VERTEX_POINT('',#1382);
#406=VERTEX_POINT('',#1383);
#407=VERTEX_POINT('',#1385);
#408=VERTEX_POINT('',#1387);
#409=VERTEX_POINT('',#1391);
#410=VERTEX_POINT('',#1393);
#411=VERTEX_POINT('',#1397);
#412=VERTEX_POINT('',#1398);
#413=VERTEX_POINT('',#1408);
#414=VERTEX_POINT('',#1409);
#415=VERTEX_POINT('',#1411);
#416=VERTEX_POINT('',#1413);
#417=VERTEX_POINT('',#1417);
#418=VERTEX_POINT('',#1419);
#419=VERTEX_POINT('',#1423);
#420=VERTEX_POINT('',#1425);
#421=VERTEX_POINT('',#1434);
#422=VERTEX_POINT('',#1435);
#423=VERTEX_POINT('',#1437);
#424=VERTEX_POINT('',#1439);
#425=VERTEX_POINT('',#1443);
#426=VERTEX_POINT('',#1445);
#427=VERTEX_POINT('',#1449);
#428=VERTEX_POINT('',#1451);
#429=VERTEX_POINT('',#1455);
#430=VERTEX_POINT('',#1457);
#431=VERTEX_POINT('',#1461);
#432=VERTEX_POINT('',#1463);
#433=VERTEX_POINT('',#1467);
#434=VERTEX_POINT('',#1469);
#435=VERTEX_POINT('',#1473);
#436=VERTEX_POINT('',#1475);
#437=VERTEX_POINT('',#1479);
#438=VERTEX_POINT('',#1481);
#439=VERTEX_POINT('',#1485);
#440=VERTEX_POINT('',#1487);
#441=VERTEX_POINT('',#1496);
#442=VERTEX_POINT('',#1497);
#443=VERTEX_POINT('',#1499);
#444=VERTEX_POINT('',#1501);
#445=VERTEX_POINT('',#1505);
#446=VERTEX_POINT('',#1507);
#447=VERTEX_POINT('',#1511);
#448=VERTEX_POINT('',#1513);
#449=VERTEX_POINT('',#1517);
#450=VERTEX_POINT('',#1519);
#451=VERTEX_POINT('',#1523);
#452=VERTEX_POINT('',#1525);
#453=VERTEX_POINT('',#1529);
#454=VERTEX_POINT('',#1531);
#455=VERTEX_POINT('',#1535);
#456=VERTEX_POINT('',#1537);
#457=VERTEX_POINT('',#1541);
#458=VERTEX_POINT('',#1543);
#459=VERTEX_POINT('',#1547);
#460=VERTEX_POINT('',#1549);
#461=VERTEX_POINT('',#1558);
#462=VERTEX_POINT('',#1559);
#463=VERTEX_POINT('',#1561);
#464=VERTEX_POINT('',#1563);
#465=VERTEX_POINT('',#1567);
#466=VERTEX_POINT('',#1569);
#467=VERTEX_POINT('',#1573);
#468=VERTEX_POINT('',#1575);
#469=VERTEX_POINT('',#1577);
#470=VERTEX_POINT('',#1581);
#471=VERTEX_POINT('',#1585);
#472=VERTEX_POINT('',#1587);
#473=VERTEX_POINT('',#1596);
#474=VERTEX_POINT('',#1597);
#475=VERTEX_POINT('',#1599);
#476=VERTEX_POINT('',#1601);
#477=VERTEX_POINT('',#1605);
#478=VERTEX_POINT('',#1606);
#479=VERTEX_POINT('',#1608);
#480=VERTEX_POINT('',#1610);
#481=VERTEX_POINT('',#1612);
#482=VERTEX_POINT('',#1614);
#483=VERTEX_POINT('',#1619);
#484=VERTEX_POINT('',#1620);
#485=VERTEX_POINT('',#1629);
#486=VERTEX_POINT('',#1630);
#487=VERTEX_POINT('',#1632);
#488=VERTEX_POINT('',#1634);
#489=VERTEX_POINT('',#1639);
#490=VERTEX_POINT('',#1640);
#491=VERTEX_POINT('',#1642);
#492=VERTEX_POINT('',#1648);
#493=VERTEX_POINT('',#1649);
#494=VERTEX_POINT('',#1654);
#495=EDGE_CURVE('',#405,#406,#165,.T.);
#496=EDGE_CURVE('',#407,#406,#166,.T.);
#497=EDGE_CURVE('',#408,#407,#167,.T.);
#498=EDGE_CURVE('',#408,#405,#168,.T.);
#499=EDGE_CURVE('',#407,#409,#169,.T.);
#500=EDGE_CURVE('',#409,#410,#170,.T.);
#501=EDGE_CURVE('',#410,#408,#171,.T.);
#502=EDGE_CURVE('',#411,#412,#172,.T.);
#503=EDGE_CURVE('',#410,#412,#173,.T.);
#504=EDGE_CURVE('',#409,#411,#174,.T.);
#505=EDGE_CURVE('',#412,#405,#175,.T.);
#506=EDGE_CURVE('',#406,#411,#176,.T.);
#507=EDGE_CURVE('',#413,#414,#177,.T.);
#508=EDGE_CURVE('',#415,#414,#178,.T.);
#509=EDGE_CURVE('',#415,#416,#179,.T.);
#510=EDGE_CURVE('',#416,#413,#180,.T.);
#511=EDGE_CURVE('',#414,#417,#181,.T.);
#512=EDGE_CURVE('',#418,#417,#182,.T.);
#513=EDGE_CURVE('',#418,#415,#183,.T.);
#514=EDGE_CURVE('',#417,#419,#184,.T.);
#515=EDGE_CURVE('',#420,#419,#185,.T.);
#516=EDGE_CURVE('',#420,#418,#186,.T.);
#517=EDGE_CURVE('',#419,#413,#187,.T.);
#518=EDGE_CURVE('',#416,#420,#188,.T.);
#519=EDGE_CURVE('',#421,#422,#13,.T.);
#520=EDGE_CURVE('',#423,#422,#189,.T.);
#521=EDGE_CURVE('',#424,#423,#14,.T.);
#522=EDGE_CURVE('',#424,#421,#190,.T.);
#523=EDGE_CURVE('',#422,#425,#15,.T.);
#524=EDGE_CURVE('',#426,#425,#191,.T.);
#525=EDGE_CURVE('',#423,#426,#16,.T.);
#526=EDGE_CURVE('',#425,#427,#192,.T.);
#527=EDGE_CURVE('',#428,#427,#193,.T.);
#528=EDGE_CURVE('',#426,#428,#194,.T.);
#529=EDGE_CURVE('',#427,#429,#195,.T.);
#530=EDGE_CURVE('',#430,#429,#196,.T.);
#531=EDGE_CURVE('',#428,#430,#197,.T.);
#532=EDGE_CURVE('',#429,#431,#198,.T.);
#533=EDGE_CURVE('',#432,#431,#199,.T.);
#534=EDGE_CURVE('',#430,#432,#200,.T.);
#535=EDGE_CURVE('',#431,#433,#17,.T.);
#536=EDGE_CURVE('',#434,#433,#201,.T.);
#537=EDGE_CURVE('',#432,#434,#18,.T.);
#538=EDGE_CURVE('',#433,#435,#19,.T.);
#539=EDGE_CURVE('',#436,#435,#202,.T.);
#540=EDGE_CURVE('',#434,#436,#20,.T.);
#541=EDGE_CURVE('',#435,#437,#203,.T.);
#542=EDGE_CURVE('',#438,#437,#204,.T.);
#543=EDGE_CURVE('',#436,#438,#205,.T.);
#544=EDGE_CURVE('',#437,#439,#206,.T.);
#545=EDGE_CURVE('',#440,#439,#207,.T.);
#546=EDGE_CURVE('',#438,#440,#208,.T.);
#547=EDGE_CURVE('',#439,#421,#209,.T.);
#548=EDGE_CURVE('',#440,#424,#210,.T.);
#549=EDGE_CURVE('',#441,#442,#21,.T.);
#550=EDGE_CURVE('',#443,#442,#211,.T.);
#551=EDGE_CURVE('',#444,#443,#22,.T.);
#552=EDGE_CURVE('',#444,#441,#212,.T.);
#553=EDGE_CURVE('',#442,#445,#23,.T.);
#554=EDGE_CURVE('',#446,#445,#213,.T.);
#555=EDGE_CURVE('',#443,#446,#24,.T.);
#556=EDGE_CURVE('',#445,#447,#214,.T.);
#557=EDGE_CURVE('',#448,#447,#215,.T.);
#558=EDGE_CURVE('',#446,#448,#216,.T.);
#559=EDGE_CURVE('',#447,#449,#217,.T.);
#560=EDGE_CURVE('',#450,#449,#218,.T.);
#561=EDGE_CURVE('',#448,#450,#219,.T.);
#562=EDGE_CURVE('',#449,#451,#220,.T.);
#563=EDGE_CURVE('',#452,#451,#221,.T.);
#564=EDGE_CURVE('',#450,#452,#222,.T.);
#565=EDGE_CURVE('',#451,#453,#25,.T.);
#566=EDGE_CURVE('',#454,#453,#223,.T.);
#567=EDGE_CURVE('',#452,#454,#26,.T.);
#568=EDGE_CURVE('',#453,#455,#27,.T.);
#569=EDGE_CURVE('',#456,#455,#224,.T.);
#570=EDGE_CURVE('',#454,#456,#28,.T.);
#571=EDGE_CURVE('',#455,#457,#225,.T.);
#572=EDGE_CURVE('',#458,#457,#226,.T.);
#573=EDGE_CURVE('',#456,#458,#227,.T.);
#574=EDGE_CURVE('',#457,#459,#228,.T.);
#575=EDGE_CURVE('',#460,#459,#229,.T.);
#576=EDGE_CURVE('',#458,#460,#230,.T.);
#577=EDGE_CURVE('',#459,#441,#231,.T.);
#578=EDGE_CURVE('',#460,#444,#232,.T.);
#579=EDGE_CURVE('',#461,#462,#233,.T.);
#580=EDGE_CURVE('',#462,#463,#234,.T.);
#581=EDGE_CURVE('',#463,#464,#235,.T.);
#582=EDGE_CURVE('',#464,#461,#236,.T.);
#583=EDGE_CURVE('',#465,#462,#237,.T.);
#584=EDGE_CURVE('',#466,#465,#238,.T.);
#585=EDGE_CURVE('',#466,#463,#239,.T.);
#586=EDGE_CURVE('',#461,#467,#240,.T.);
#587=EDGE_CURVE('',#468,#467,#241,.T.);
#588=EDGE_CURVE('',#468,#469,#242,.T.);
#589=EDGE_CURVE('',#465,#469,#243,.T.);
#590=EDGE_CURVE('',#470,#466,#244,.T.);
#591=EDGE_CURVE('',#469,#470,#245,.T.);
#592=EDGE_CURVE('',#467,#471,#246,.T.);
#593=EDGE_CURVE('',#472,#471,#247,.T.);
#594=EDGE_CURVE('',#472,#468,#248,.T.);
#595=EDGE_CURVE('',#470,#472,#249,.T.);
#596=EDGE_CURVE('',#471,#464,#250,.T.);
#597=EDGE_CURVE('',#473,#474,#251,.T.);
#598=EDGE_CURVE('',#475,#473,#252,.T.);
#599=EDGE_CURVE('',#476,#475,#253,.T.);
#600=EDGE_CURVE('',#474,#476,#254,.T.);
#601=EDGE_CURVE('',#477,#478,#255,.T.);
#602=EDGE_CURVE('',#479,#478,#256,.T.);
#603=EDGE_CURVE('',#480,#479,#257,.T.);
#604=EDGE_CURVE('',#480,#481,#258,.T.);
#605=EDGE_CURVE('',#481,#482,#259,.T.);
#606=EDGE_CURVE('',#476,#482,#260,.T.);
#607=EDGE_CURVE('',#475,#477,#261,.T.);
#608=EDGE_CURVE('',#483,#484,#262,.T.);
#609=EDGE_CURVE('',#478,#483,#263,.T.);
#610=EDGE_CURVE('',#477,#484,#264,.T.);
#611=EDGE_CURVE('',#483,#474,#265,.T.);
#612=EDGE_CURVE('',#484,#473,#266,.T.);
#613=EDGE_CURVE('',#485,#486,#267,.T.);
#614=EDGE_CURVE('',#487,#486,#268,.T.);
#615=EDGE_CURVE('',#488,#487,#269,.T.);
#616=EDGE_CURVE('',#488,#483,#270,.T.);
#617=EDGE_CURVE('',#474,#485,#271,.T.);
#618=EDGE_CURVE('',#489,#490,#272,.T.);
#619=EDGE_CURVE('',#490,#491,#273,.T.);
#620=EDGE_CURVE('',#491,#480,#274,.T.);
#621=EDGE_CURVE('',#479,#488,#275,.T.);
#622=EDGE_CURVE('',#487,#489,#276,.T.);
#623=EDGE_CURVE('',#492,#493,#277,.T.);
#624=EDGE_CURVE('',#490,#493,#278,.T.);
#625=EDGE_CURVE('',#492,#489,#279,.T.);
#626=EDGE_CURVE('',#493,#494,#280,.T.);
#627=EDGE_CURVE('',#486,#492,#281,.T.);
#628=EDGE_CURVE('',#482,#485,#282,.T.);
#629=EDGE_CURVE('',#494,#481,#283,.T.);
#630=EDGE_CURVE('',#491,#494,#284,.T.);
#631=ORIENTED_EDGE('',*,*,#495,.T.);
#632=ORIENTED_EDGE('',*,*,#496,.F.);
#633=ORIENTED_EDGE('',*,*,#497,.F.);
#634=ORIENTED_EDGE('',*,*,#498,.T.);
#635=ORIENTED_EDGE('',*,*,#499,.T.);
#636=ORIENTED_EDGE('',*,*,#500,.T.);
#637=ORIENTED_EDGE('',*,*,#501,.T.);
#638=ORIENTED_EDGE('',*,*,#497,.T.);
#639=ORIENTED_EDGE('',*,*,#502,.T.);
#640=ORIENTED_EDGE('',*,*,#503,.F.);
#641=ORIENTED_EDGE('',*,*,#500,.F.);
#642=ORIENTED_EDGE('',*,*,#504,.T.);
#643=ORIENTED_EDGE('',*,*,#505,.T.);
#644=ORIENTED_EDGE('',*,*,#498,.F.);
#645=ORIENTED_EDGE('',*,*,#501,.F.);
#646=ORIENTED_EDGE('',*,*,#503,.T.);
#647=ORIENTED_EDGE('',*,*,#502,.F.);
#648=ORIENTED_EDGE('',*,*,#506,.F.);
#649=ORIENTED_EDGE('',*,*,#495,.F.);
#650=ORIENTED_EDGE('',*,*,#505,.F.);
#651=ORIENTED_EDGE('',*,*,#506,.T.);
#652=ORIENTED_EDGE('',*,*,#504,.F.);
#653=ORIENTED_EDGE('',*,*,#499,.F.);
#654=ORIENTED_EDGE('',*,*,#496,.T.);
#655=ORIENTED_EDGE('',*,*,#507,.T.);
#656=ORIENTED_EDGE('',*,*,#508,.F.);
#657=ORIENTED_EDGE('',*,*,#509,.T.);
#658=ORIENTED_EDGE('',*,*,#510,.T.);
#659=ORIENTED_EDGE('',*,*,#511,.T.);
#660=ORIENTED_EDGE('',*,*,#512,.F.);
#661=ORIENTED_EDGE('',*,*,#513,.T.);
#662=ORIENTED_EDGE('',*,*,#508,.T.);
#663=ORIENTED_EDGE('',*,*,#514,.T.);
#664=ORIENTED_EDGE('',*,*,#515,.F.);
#665=ORIENTED_EDGE('',*,*,#516,.T.);
#666=ORIENTED_EDGE('',*,*,#512,.T.);
#667=ORIENTED_EDGE('',*,*,#517,.T.);
#668=ORIENTED_EDGE('',*,*,#510,.F.);
#669=ORIENTED_EDGE('',*,*,#518,.T.);
#670=ORIENTED_EDGE('',*,*,#515,.T.);
#671=ORIENTED_EDGE('',*,*,#507,.F.);
#672=ORIENTED_EDGE('',*,*,#517,.F.);
#673=ORIENTED_EDGE('',*,*,#514,.F.);
#674=ORIENTED_EDGE('',*,*,#511,.F.);
#675=ORIENTED_EDGE('',*,*,#518,.F.);
#676=ORIENTED_EDGE('',*,*,#509,.F.);
#677=ORIENTED_EDGE('',*,*,#513,.F.);
#678=ORIENTED_EDGE('',*,*,#516,.F.);
#679=ORIENTED_EDGE('',*,*,#519,.T.);
#680=ORIENTED_EDGE('',*,*,#520,.F.);
#681=ORIENTED_EDGE('',*,*,#521,.F.);
#682=ORIENTED_EDGE('',*,*,#522,.T.);
#683=ORIENTED_EDGE('',*,*,#520,.T.);
#684=ORIENTED_EDGE('',*,*,#523,.T.);
#685=ORIENTED_EDGE('',*,*,#524,.F.);
#686=ORIENTED_EDGE('',*,*,#525,.F.);
#687=ORIENTED_EDGE('',*,*,#526,.T.);
#688=ORIENTED_EDGE('',*,*,#527,.F.);
#689=ORIENTED_EDGE('',*,*,#528,.F.);
#690=ORIENTED_EDGE('',*,*,#524,.T.);
#691=ORIENTED_EDGE('',*,*,#529,.T.);
#692=ORIENTED_EDGE('',*,*,#530,.F.);
#693=ORIENTED_EDGE('',*,*,#531,.F.);
#694=ORIENTED_EDGE('',*,*,#527,.T.);
#695=ORIENTED_EDGE('',*,*,#532,.T.);
#696=ORIENTED_EDGE('',*,*,#533,.F.);
#697=ORIENTED_EDGE('',*,*,#534,.F.);
#698=ORIENTED_EDGE('',*,*,#530,.T.);
#699=ORIENTED_EDGE('',*,*,#535,.T.);
#700=ORIENTED_EDGE('',*,*,#536,.F.);
#701=ORIENTED_EDGE('',*,*,#537,.F.);
#702=ORIENTED_EDGE('',*,*,#533,.T.);
#703=ORIENTED_EDGE('',*,*,#536,.T.);
#704=ORIENTED_EDGE('',*,*,#538,.T.);
#705=ORIENTED_EDGE('',*,*,#539,.F.);
#706=ORIENTED_EDGE('',*,*,#540,.F.);
#707=ORIENTED_EDGE('',*,*,#541,.T.);
#708=ORIENTED_EDGE('',*,*,#542,.F.);
#709=ORIENTED_EDGE('',*,*,#543,.F.);
#710=ORIENTED_EDGE('',*,*,#539,.T.);
#711=ORIENTED_EDGE('',*,*,#544,.T.);
#712=ORIENTED_EDGE('',*,*,#545,.F.);
#713=ORIENTED_EDGE('',*,*,#546,.F.);
#714=ORIENTED_EDGE('',*,*,#542,.T.);
#715=ORIENTED_EDGE('',*,*,#547,.T.);
#716=ORIENTED_EDGE('',*,*,#522,.F.);
#717=ORIENTED_EDGE('',*,*,#548,.F.);
#718=ORIENTED_EDGE('',*,*,#545,.T.);
#719=ORIENTED_EDGE('',*,*,#519,.F.);
#720=ORIENTED_EDGE('',*,*,#547,.F.);
#721=ORIENTED_EDGE('',*,*,#544,.F.);
#722=ORIENTED_EDGE('',*,*,#541,.F.);
#723=ORIENTED_EDGE('',*,*,#538,.F.);
#724=ORIENTED_EDGE('',*,*,#535,.F.);
#725=ORIENTED_EDGE('',*,*,#532,.F.);
#726=ORIENTED_EDGE('',*,*,#529,.F.);
#727=ORIENTED_EDGE('',*,*,#526,.F.);
#728=ORIENTED_EDGE('',*,*,#523,.F.);
#729=ORIENTED_EDGE('',*,*,#548,.T.);
#730=ORIENTED_EDGE('',*,*,#521,.T.);
#731=ORIENTED_EDGE('',*,*,#525,.T.);
#732=ORIENTED_EDGE('',*,*,#528,.T.);
#733=ORIENTED_EDGE('',*,*,#531,.T.);
#734=ORIENTED_EDGE('',*,*,#534,.T.);
#735=ORIENTED_EDGE('',*,*,#537,.T.);
#736=ORIENTED_EDGE('',*,*,#540,.T.);
#737=ORIENTED_EDGE('',*,*,#543,.T.);
#738=ORIENTED_EDGE('',*,*,#546,.T.);
#739=ORIENTED_EDGE('',*,*,#549,.T.);
#740=ORIENTED_EDGE('',*,*,#550,.F.);
#741=ORIENTED_EDGE('',*,*,#551,.F.);
#742=ORIENTED_EDGE('',*,*,#552,.T.);
#743=ORIENTED_EDGE('',*,*,#550,.T.);
#744=ORIENTED_EDGE('',*,*,#553,.T.);
#745=ORIENTED_EDGE('',*,*,#554,.F.);
#746=ORIENTED_EDGE('',*,*,#555,.F.);
#747=ORIENTED_EDGE('',*,*,#556,.T.);
#748=ORIENTED_EDGE('',*,*,#557,.F.);
#749=ORIENTED_EDGE('',*,*,#558,.F.);
#750=ORIENTED_EDGE('',*,*,#554,.T.);
#751=ORIENTED_EDGE('',*,*,#559,.T.);
#752=ORIENTED_EDGE('',*,*,#560,.F.);
#753=ORIENTED_EDGE('',*,*,#561,.F.);
#754=ORIENTED_EDGE('',*,*,#557,.T.);
#755=ORIENTED_EDGE('',*,*,#562,.T.);
#756=ORIENTED_EDGE('',*,*,#563,.F.);
#757=ORIENTED_EDGE('',*,*,#564,.F.);
#758=ORIENTED_EDGE('',*,*,#560,.T.);
#759=ORIENTED_EDGE('',*,*,#565,.T.);
#760=ORIENTED_EDGE('',*,*,#566,.F.);
#761=ORIENTED_EDGE('',*,*,#567,.F.);
#762=ORIENTED_EDGE('',*,*,#563,.T.);
#763=ORIENTED_EDGE('',*,*,#566,.T.);
#764=ORIENTED_EDGE('',*,*,#568,.T.);
#765=ORIENTED_EDGE('',*,*,#569,.F.);
#766=ORIENTED_EDGE('',*,*,#570,.F.);
#767=ORIENTED_EDGE('',*,*,#571,.T.);
#768=ORIENTED_EDGE('',*,*,#572,.F.);
#769=ORIENTED_EDGE('',*,*,#573,.F.);
#770=ORIENTED_EDGE('',*,*,#569,.T.);
#771=ORIENTED_EDGE('',*,*,#574,.T.);
#772=ORIENTED_EDGE('',*,*,#575,.F.);
#773=ORIENTED_EDGE('',*,*,#576,.F.);
#774=ORIENTED_EDGE('',*,*,#572,.T.);
#775=ORIENTED_EDGE('',*,*,#577,.T.);
#776=ORIENTED_EDGE('',*,*,#552,.F.);
#777=ORIENTED_EDGE('',*,*,#578,.F.);
#778=ORIENTED_EDGE('',*,*,#575,.T.);
#779=ORIENTED_EDGE('',*,*,#549,.F.);
#780=ORIENTED_EDGE('',*,*,#577,.F.);
#781=ORIENTED_EDGE('',*,*,#574,.F.);
#782=ORIENTED_EDGE('',*,*,#571,.F.);
#783=ORIENTED_EDGE('',*,*,#568,.F.);
#784=ORIENTED_EDGE('',*,*,#565,.F.);
#785=ORIENTED_EDGE('',*,*,#562,.F.);
#786=ORIENTED_EDGE('',*,*,#559,.F.);
#787=ORIENTED_EDGE('',*,*,#556,.F.);
#788=ORIENTED_EDGE('',*,*,#553,.F.);
#789=ORIENTED_EDGE('',*,*,#578,.T.);
#790=ORIENTED_EDGE('',*,*,#551,.T.);
#791=ORIENTED_EDGE('',*,*,#555,.T.);
#792=ORIENTED_EDGE('',*,*,#558,.T.);
#793=ORIENTED_EDGE('',*,*,#561,.T.);
#794=ORIENTED_EDGE('',*,*,#564,.T.);
#795=ORIENTED_EDGE('',*,*,#567,.T.);
#796=ORIENTED_EDGE('',*,*,#570,.T.);
#797=ORIENTED_EDGE('',*,*,#573,.T.);
#798=ORIENTED_EDGE('',*,*,#576,.T.);
#799=ORIENTED_EDGE('',*,*,#579,.T.);
#800=ORIENTED_EDGE('',*,*,#580,.T.);
#801=ORIENTED_EDGE('',*,*,#581,.T.);
#802=ORIENTED_EDGE('',*,*,#582,.T.);
#803=ORIENTED_EDGE('',*,*,#580,.F.);
#804=ORIENTED_EDGE('',*,*,#583,.F.);
#805=ORIENTED_EDGE('',*,*,#584,.F.);
#806=ORIENTED_EDGE('',*,*,#585,.T.);
#807=ORIENTED_EDGE('',*,*,#579,.F.);
#808=ORIENTED_EDGE('',*,*,#586,.T.);
#809=ORIENTED_EDGE('',*,*,#587,.F.);
#810=ORIENTED_EDGE('',*,*,#588,.T.);
#811=ORIENTED_EDGE('',*,*,#589,.F.);
#812=ORIENTED_EDGE('',*,*,#583,.T.);
#813=ORIENTED_EDGE('',*,*,#590,.T.);
#814=ORIENTED_EDGE('',*,*,#584,.T.);
#815=ORIENTED_EDGE('',*,*,#589,.T.);
#816=ORIENTED_EDGE('',*,*,#591,.T.);
#817=ORIENTED_EDGE('',*,*,#592,.T.);
#818=ORIENTED_EDGE('',*,*,#593,.F.);
#819=ORIENTED_EDGE('',*,*,#594,.T.);
#820=ORIENTED_EDGE('',*,*,#587,.T.);
#821=ORIENTED_EDGE('',*,*,#581,.F.);
#822=ORIENTED_EDGE('',*,*,#585,.F.);
#823=ORIENTED_EDGE('',*,*,#590,.F.);
#824=ORIENTED_EDGE('',*,*,#595,.T.);
#825=ORIENTED_EDGE('',*,*,#593,.T.);
#826=ORIENTED_EDGE('',*,*,#596,.T.);
#827=ORIENTED_EDGE('',*,*,#582,.F.);
#828=ORIENTED_EDGE('',*,*,#596,.F.);
#829=ORIENTED_EDGE('',*,*,#592,.F.);
#830=ORIENTED_EDGE('',*,*,#586,.F.);
#831=ORIENTED_EDGE('',*,*,#591,.F.);
#832=ORIENTED_EDGE('',*,*,#588,.F.);
#833=ORIENTED_EDGE('',*,*,#594,.F.);
#834=ORIENTED_EDGE('',*,*,#595,.F.);
#835=ORIENTED_EDGE('',*,*,#597,.F.);
#836=ORIENTED_EDGE('',*,*,#598,.F.);
#837=ORIENTED_EDGE('',*,*,#599,.F.);
#838=ORIENTED_EDGE('',*,*,#600,.F.);
#839=ORIENTED_EDGE('',*,*,#601,.T.);
#840=ORIENTED_EDGE('',*,*,#602,.F.);
#841=ORIENTED_EDGE('',*,*,#603,.F.);
#842=ORIENTED_EDGE('',*,*,#604,.T.);
#843=ORIENTED_EDGE('',*,*,#605,.T.);
#844=ORIENTED_EDGE('',*,*,#606,.F.);
#845=ORIENTED_EDGE('',*,*,#599,.T.);
#846=ORIENTED_EDGE('',*,*,#607,.T.);
#847=ORIENTED_EDGE('',*,*,#608,.F.);
#848=ORIENTED_EDGE('',*,*,#609,.F.);
#849=ORIENTED_EDGE('',*,*,#601,.F.);
#850=ORIENTED_EDGE('',*,*,#610,.T.);
#851=ORIENTED_EDGE('',*,*,#597,.T.);
#852=ORIENTED_EDGE('',*,*,#611,.F.);
#853=ORIENTED_EDGE('',*,*,#608,.T.);
#854=ORIENTED_EDGE('',*,*,#612,.T.);
#855=ORIENTED_EDGE('',*,*,#612,.F.);
#856=ORIENTED_EDGE('',*,*,#610,.F.);
#857=ORIENTED_EDGE('',*,*,#607,.F.);
#858=ORIENTED_EDGE('',*,*,#598,.T.);
#859=ORIENTED_EDGE('',*,*,#613,.T.);
#860=ORIENTED_EDGE('',*,*,#614,.F.);
#861=ORIENTED_EDGE('',*,*,#615,.F.);
#862=ORIENTED_EDGE('',*,*,#616,.T.);
#863=ORIENTED_EDGE('',*,*,#611,.T.);
#864=ORIENTED_EDGE('',*,*,#617,.T.);
#865=ORIENTED_EDGE('',*,*,#618,.T.);
#866=ORIENTED_EDGE('',*,*,#619,.T.);
#867=ORIENTED_EDGE('',*,*,#620,.T.);
#868=ORIENTED_EDGE('',*,*,#603,.T.);
#869=ORIENTED_EDGE('',*,*,#621,.T.);
#870=ORIENTED_EDGE('',*,*,#615,.T.);
#871=ORIENTED_EDGE('',*,*,#622,.T.);
#872=ORIENTED_EDGE('',*,*,#623,.T.);
#873=ORIENTED_EDGE('',*,*,#624,.F.);
#874=ORIENTED_EDGE('',*,*,#618,.F.);
#875=ORIENTED_EDGE('',*,*,#625,.F.);
#876=ORIENTED_EDGE('',*,*,#626,.F.);
#877=ORIENTED_EDGE('',*,*,#623,.F.);
#878=ORIENTED_EDGE('',*,*,#627,.F.);
#879=ORIENTED_EDGE('',*,*,#613,.F.);
#880=ORIENTED_EDGE('',*,*,#628,.F.);
#881=ORIENTED_EDGE('',*,*,#605,.F.);
#882=ORIENTED_EDGE('',*,*,#629,.F.);
#883=ORIENTED_EDGE('',*,*,#600,.T.);
#884=ORIENTED_EDGE('',*,*,#606,.T.);
#885=ORIENTED_EDGE('',*,*,#628,.T.);
#886=ORIENTED_EDGE('',*,*,#617,.F.);
#887=ORIENTED_EDGE('',*,*,#626,.T.);
#888=ORIENTED_EDGE('',*,*,#630,.F.);
#889=ORIENTED_EDGE('',*,*,#619,.F.);
#890=ORIENTED_EDGE('',*,*,#624,.T.);
#891=ORIENTED_EDGE('',*,*,#629,.T.);
#892=ORIENTED_EDGE('',*,*,#604,.F.);
#893=ORIENTED_EDGE('',*,*,#620,.F.);
#894=ORIENTED_EDGE('',*,*,#630,.T.);
#895=ORIENTED_EDGE('',*,*,#609,.T.);
#896=ORIENTED_EDGE('',*,*,#616,.F.);
#897=ORIENTED_EDGE('',*,*,#621,.F.);
#898=ORIENTED_EDGE('',*,*,#602,.T.);
#899=ORIENTED_EDGE('',*,*,#627,.T.);
#900=ORIENTED_EDGE('',*,*,#625,.T.);
#901=ORIENTED_EDGE('',*,*,#622,.F.);
#902=ORIENTED_EDGE('',*,*,#614,.T.);
#903=PLANE('',#1036);
#904=PLANE('',#1037);
#905=PLANE('',#1038);
#906=PLANE('',#1039);
#907=PLANE('',#1040);
#908=PLANE('',#1041);
#909=PLANE('',#1042);
#910=PLANE('',#1043);
#911=PLANE('',#1044);
#912=PLANE('',#1045);
#913=PLANE('',#1046);
#914=PLANE('',#1047);
#915=PLANE('',#1054);
#916=PLANE('',#1055);
#917=PLANE('',#1056);
#918=PLANE('',#1063);
#919=PLANE('',#1064);
#920=PLANE('',#1065);
#921=PLANE('',#1066);
#922=PLANE('',#1067);
#923=PLANE('',#1074);
#924=PLANE('',#1075);
#925=PLANE('',#1076);
#926=PLANE('',#1083);
#927=PLANE('',#1084);
#928=PLANE('',#1085);
#929=PLANE('',#1086);
#930=PLANE('',#1087);
#931=PLANE('',#1088);
#932=PLANE('',#1089);
#933=PLANE('',#1090);
#934=PLANE('',#1091);
#935=PLANE('',#1092);
#936=PLANE('',#1093);
#937=PLANE('',#1094);
#938=PLANE('',#1095);
#939=PLANE('',#1096);
#940=PLANE('',#1097);
#941=PLANE('',#1098);
#942=PLANE('',#1099);
#943=PLANE('',#1100);
#944=PLANE('',#1101);
#945=PLANE('',#1102);
#946=PLANE('',#1103);
#947=PLANE('',#1104);
#948=PLANE('',#1105);
#949=PLANE('',#1106);
#950=PLANE('',#1107);
#951=PLANE('',#1108);
#952=PLANE('',#1109);
#953=ADVANCED_FACE('',(#49),#903,.T.);
#954=ADVANCED_FACE('',(#50),#904,.F.);
#955=ADVANCED_FACE('',(#51),#905,.T.);
#956=ADVANCED_FACE('',(#52),#906,.T.);
#957=ADVANCED_FACE('',(#53),#907,.T.);
#958=ADVANCED_FACE('',(#54),#908,.T.);
#959=ADVANCED_FACE('',(#55),#909,.T.);
#960=ADVANCED_FACE('',(#56),#910,.T.);
#961=ADVANCED_FACE('',(#57),#911,.T.);
#962=ADVANCED_FACE('',(#58),#912,.T.);
#963=ADVANCED_FACE('',(#59),#913,.F.);
#964=ADVANCED_FACE('',(#60),#914,.T.);
#965=ADVANCED_FACE('',(#61),#29,.T.);
#966=ADVANCED_FACE('',(#62),#30,.F.);
#967=ADVANCED_FACE('',(#63),#915,.T.);
#968=ADVANCED_FACE('',(#64),#916,.T.);
#969=ADVANCED_FACE('',(#65),#917,.T.);
#970=ADVANCED_FACE('',(#66),#31,.T.);
#971=ADVANCED_FACE('',(#67),#32,.F.);
#972=ADVANCED_FACE('',(#68),#918,.T.);
#973=ADVANCED_FACE('',(#69),#919,.T.);
#974=ADVANCED_FACE('',(#70),#920,.T.);
#975=ADVANCED_FACE('',(#71),#921,.F.);
#976=ADVANCED_FACE('',(#72),#922,.T.);
#977=ADVANCED_FACE('',(#73),#33,.T.);
#978=ADVANCED_FACE('',(#74),#34,.F.);
#979=ADVANCED_FACE('',(#75),#923,.T.);
#980=ADVANCED_FACE('',(#76),#924,.T.);
#981=ADVANCED_FACE('',(#77),#925,.T.);
#982=ADVANCED_FACE('',(#78),#35,.T.);
#983=ADVANCED_FACE('',(#79),#36,.F.);
#984=ADVANCED_FACE('',(#80),#926,.T.);
#985=ADVANCED_FACE('',(#81),#927,.T.);
#986=ADVANCED_FACE('',(#82),#928,.T.);
#987=ADVANCED_FACE('',(#83),#929,.F.);
#988=ADVANCED_FACE('',(#84),#930,.T.);
#989=ADVANCED_FACE('',(#85),#931,.T.);
#990=ADVANCED_FACE('',(#86),#932,.T.);
#991=ADVANCED_FACE('',(#87),#933,.T.);
#992=ADVANCED_FACE('',(#88),#934,.T.);
#993=ADVANCED_FACE('',(#89),#935,.T.);
#994=ADVANCED_FACE('',(#90),#936,.T.);
#995=ADVANCED_FACE('',(#91),#937,.F.);
#996=ADVANCED_FACE('',(#92),#938,.T.);
#997=ADVANCED_FACE('',(#93),#939,.F.);
#998=ADVANCED_FACE('',(#94),#940,.T.);
#999=ADVANCED_FACE('',(#95),#941,.F.);
#1000=ADVANCED_FACE('',(#96),#942,.F.);
#1001=ADVANCED_FACE('',(#97),#943,.F.);
#1002=ADVANCED_FACE('',(#98),#944,.T.);
#1003=ADVANCED_FACE('',(#99),#945,.T.);
#1004=ADVANCED_FACE('',(#100),#946,.T.);
#1005=ADVANCED_FACE('',(#101),#947,.F.);
#1006=ADVANCED_FACE('',(#102),#948,.T.);
#1007=ADVANCED_FACE('',(#103),#949,.T.);
#1008=ADVANCED_FACE('',(#104),#950,.T.);
#1009=ADVANCED_FACE('',(#105),#951,.T.);
#1010=ADVANCED_FACE('',(#106),#952,.T.);
#1011=CLOSED_SHELL('',(#953,#954,#955,#956,#957,#958));
#1012=CLOSED_SHELL('',(#959,#960,#961,#962,#963,#964));
#1013=CLOSED_SHELL('',(#965,#966,#967,#968,#969,#970,#971,#972,#973,#974,
#975,#976));
#1014=CLOSED_SHELL('',(#977,#978,#979,#980,#981,#982,#983,#984,#985,#986,
#987,#988));
#1015=CLOSED_SHELL('',(#989,#990,#991,#992,#993,#994,#995,#996));
#1016=CLOSED_SHELL('',(#997,#998,#999,#1000,#1001,#1002,#1003,#1004,#1005,
#1006,#1007,#1008,#1009,#1010));
#1017=DERIVED_UNIT_ELEMENT(#1019,1.);
#1018=DERIVED_UNIT_ELEMENT(#1670,3.);
#1019=(
MASS_UNIT()
NAMED_UNIT(*)
SI_UNIT($,.GRAM.)
);
#1020=DERIVED_UNIT((#1017,#1018));
#1021=MEASURE_REPRESENTATION_ITEM('density measure',
POSITIVE_RATIO_MEASURE(1.),#1020);
#1022=PROPERTY_DEFINITION_REPRESENTATION(#1027,#1024);
#1023=PROPERTY_DEFINITION_REPRESENTATION(#1028,#1025);
#1024=REPRESENTATION('material name',(#1026),#1667);
#1025=REPRESENTATION('density',(#1021),#1667);
#1026=DESCRIPTIVE_REPRESENTATION_ITEM('Generic','Generic');
#1027=PROPERTY_DEFINITION('material property','material name',#1677);
#1028=PROPERTY_DEFINITION('material property','density of part',#1677);
#1029=DATE_TIME_ROLE('creation_date');
#1030=APPLIED_DATE_AND_TIME_ASSIGNMENT(#1031,#1029,(#1677));
#1031=DATE_AND_TIME(#1032,#1033);
#1032=CALENDAR_DATE(2020,12,4);
#1033=LOCAL_TIME(23,14,33.,#1034);
#1034=COORDINATED_UNIVERSAL_TIME_OFFSET(0,0,.BEHIND.);
#1035=AXIS2_PLACEMENT_3D('placement',#1380,#1110,#1111);
#1036=AXIS2_PLACEMENT_3D('',#1381,#1112,#1113);
#1037=AXIS2_PLACEMENT_3D('',#1390,#1118,#1119);
#1038=AXIS2_PLACEMENT_3D('',#1396,#1123,#1124);
#1039=AXIS2_PLACEMENT_3D('',#1402,#1128,#1129);
#1040=AXIS2_PLACEMENT_3D('',#1404,#1131,#1132);
#1041=AXIS2_PLACEMENT_3D('',#1406,#1134,#1135);
#1042=AXIS2_PLACEMENT_3D('',#1407,#1136,#1137);
#1043=AXIS2_PLACEMENT_3D('',#1416,#1142,#1143);
#1044=AXIS2_PLACEMENT_3D('',#1422,#1147,#1148);
#1045=AXIS2_PLACEMENT_3D('',#1428,#1152,#1153);
#1046=AXIS2_PLACEMENT_3D('',#1431,#1156,#1157);
#1047=AXIS2_PLACEMENT_3D('',#1432,#1158,#1159);
#1048=AXIS2_PLACEMENT_3D('',#1433,#1160,#1161);
#1049=AXIS2_PLACEMENT_3D('',#1436,#1162,#1163);
#1050=AXIS2_PLACEMENT_3D('',#1440,#1165,#1166);
#1051=AXIS2_PLACEMENT_3D('',#1442,#1168,#1169);
#1052=AXIS2_PLACEMENT_3D('',#1444,#1170,#1171);
#1053=AXIS2_PLACEMENT_3D('',#1447,#1173,#1174);
#1054=AXIS2_PLACEMENT_3D('',#1448,#1175,#1176);
#1055=AXIS2_PLACEMENT_3D('',#1454,#1180,#1181);
#1056=AXIS2_PLACEMENT_3D('',#1460,#1185,#1186);
#1057=AXIS2_PLACEMENT_3D('',#1466,#1190,#1191);
#1058=AXIS2_PLACEMENT_3D('',#1468,#1192,#1193);
#1059=AXIS2_PLACEMENT_3D('',#1471,#1195,#1196);
#1060=AXIS2_PLACEMENT_3D('',#1472,#1197,#1198);
#1061=AXIS2_PLACEMENT_3D('',#1474,#1199,#1200);
#1062=AXIS2_PLACEMENT_3D('',#1477,#1202,#1203);
#1063=AXIS2_PLACEMENT_3D('',#1478,#1204,#1205);
#1064=AXIS2_PLACEMENT_3D('',#1484,#1209,#1210);
#1065=AXIS2_PLACEMENT_3D('',#1490,#1214,#1215);
#1066=AXIS2_PLACEMENT_3D('',#1493,#1218,#1219);
#1067=AXIS2_PLACEMENT_3D('',#1494,#1220,#1221);
#1068=AXIS2_PLACEMENT_3D('',#1495,#1222,#1223);
#1069=AXIS2_PLACEMENT_3D('',#1498,#1224,#1225);
#1070=AXIS2_PLACEMENT_3D('',#1502,#1227,#1228);
#1071=AXIS2_PLACEMENT_3D('',#1504,#1230,#1231);
#1072=AXIS2_PLACEMENT_3D('',#1506,#1232,#1233);
#1073=AXIS2_PLACEMENT_3D('',#1509,#1235,#1236);
#1074=AXIS2_PLACEMENT_3D('',#1510,#1237,#1238);
#1075=AXIS2_PLACEMENT_3D('',#1516,#1242,#1243);
#1076=AXIS2_PLACEMENT_3D('',#1522,#1247,#1248);
#1077=AXIS2_PLACEMENT_3D('',#1528,#1252,#1253);
#1078=AXIS2_PLACEMENT_3D('',#1530,#1254,#1255);
#1079=AXIS2_PLACEMENT_3D('',#1533,#1257,#1258);
#1080=AXIS2_PLACEMENT_3D('',#1534,#1259,#1260);
#1081=AXIS2_PLACEMENT_3D('',#1536,#1261,#1262);
#1082=AXIS2_PLACEMENT_3D('',#1539,#1264,#1265);
#1083=AXIS2_PLACEMENT_3D('',#1540,#1266,#1267);
#1084=AXIS2_PLACEMENT_3D('',#1546,#1271,#1272);
#1085=AXIS2_PLACEMENT_3D('',#1552,#1276,#1277);
#1086=AXIS2_PLACEMENT_3D('',#1555,#1280,#1281);
#1087=AXIS2_PLACEMENT_3D('',#1556,#1282,#1283);
#1088=AXIS2_PLACEMENT_3D('',#1557,#1284,#1285);
#1089=AXIS2_PLACEMENT_3D('',#1566,#1290,#1291);
#1090=AXIS2_PLACEMENT_3D('',#1572,#1295,#1296);
#1091=AXIS2_PLACEMENT_3D('',#1580,#1301,#1302);
#1092=AXIS2_PLACEMENT_3D('',#1584,#1305,#1306);
#1093=AXIS2_PLACEMENT_3D('',#1590,#1310,#1311);
#1094=AXIS2_PLACEMENT_3D('',#1593,#1314,#1315);
#1095=AXIS2_PLACEMENT_3D('',#1594,#1316,#1317);
#1096=AXIS2_PLACEMENT_3D('',#1595,#1318,#1319);
#1097=AXIS2_PLACEMENT_3D('',#1604,#1324,#1325);
#1098=AXIS2_PLACEMENT_3D('',#1618,#1333,#1334);
#1099=AXIS2_PLACEMENT_3D('',#1624,#1338,#1339);
#1100=AXIS2_PLACEMENT_3D('',#1627,#1342,#1343);
#1101=AXIS2_PLACEMENT_3D('',#1628,#1344,#1345);
#1102=AXIS2_PLACEMENT_3D('',#1638,#1351,#1352);
#1103=AXIS2_PLACEMENT_3D('',#1647,#1358,#1359);
#1104=AXIS2_PLACEMENT_3D('',#1653,#1363,#1364);
#1105=AXIS2_PLACEMENT_3D('',#1659,#1369,#1370);
#1106=AXIS2_PLACEMENT_3D('',#1660,#1371,#1372);
#1107=AXIS2_PLACEMENT_3D('',#1662,#1374,#1375);
#1108=AXIS2_PLACEMENT_3D('',#1663,#1376,#1377);
#1109=AXIS2_PLACEMENT_3D('',#1664,#1378,#1379);
#1110=DIRECTION('axis',(0.,0.,1.));
#1111=DIRECTION('refdir',(1.,0.,0.));
#1112=DIRECTION('center_axis',(0.,-1.,0.));
#1113=DIRECTION('ref_axis',(1.,0.,0.));
#1114=DIRECTION('',(-1.,0.,0.));
#1115=DIRECTION('',(0.,0.,1.));
#1116=DIRECTION('',(-1.,0.,0.));
#1117=DIRECTION('',(0.,0.,1.));
#1118=DIRECTION('center_axis',(0.,0.,1.));
#1119=DIRECTION('ref_axis',(0.,-1.,0.));
#1120=DIRECTION('',(0.,1.,0.));
#1121=DIRECTION('',(1.,0.,0.));
#1122=DIRECTION('',(0.,-1.,0.));
#1123=DIRECTION('center_axis',(0.,1.,0.));
#1124=DIRECTION('ref_axis',(-1.,0.,0.));
#1125=DIRECTION('',(1.,0.,0.));
#1126=DIRECTION('',(0.,0.,1.));
#1127=DIRECTION('',(0.,0.,1.));
#1128=DIRECTION('center_axis',(1.,0.,0.));
#1129=DIRECTION('ref_axis',(0.,1.,0.));
#1130=DIRECTION('',(0.,-1.,0.));
#1131=DIRECTION('center_axis',(0.,0.,1.));
#1132=DIRECTION('ref_axis',(0.,-1.,0.));
#1133=DIRECTION('',(0.,1.,0.));
#1134=DIRECTION('center_axis',(-1.,0.,0.));
#1135=DIRECTION('ref_axis',(0.,-1.,0.));
#1136=DIRECTION('center_axis',(0.,-1.,0.));
#1137=DIRECTION('ref_axis',(1.,0.,0.));
#1138=DIRECTION('',(0.,0.,-1.));
#1139=DIRECTION('',(-1.,0.,0.));
#1140=DIRECTION('',(0.,0.,1.));
#1141=DIRECTION('',(-1.,0.,0.));
#1142=DIRECTION('center_axis',(0.,0.,-1.));
#1143=DIRECTION('ref_axis',(0.,1.,0.));
#1144=DIRECTION('',(0.,1.,0.));
#1145=DIRECTION('',(-1.,0.,0.));
#1146=DIRECTION('',(0.,-1.,0.));
#1147=DIRECTION('center_axis',(0.,1.,0.));
#1148=DIRECTION('ref_axis',(-1.,0.,0.));
#1149=DIRECTION('',(0.,0.,1.));
#1150=DIRECTION('',(-1.,0.,0.));
#1151=DIRECTION('',(0.,0.,-1.));
#1152=DIRECTION('center_axis',(0.,0.,1.));
#1153=DIRECTION('ref_axis',(0.,-1.,0.));
#1154=DIRECTION('',(0.,-1.,0.));
#1155=DIRECTION('',(0.,1.,0.));
#1156=DIRECTION('center_axis',(1.,0.,0.));
#1157=DIRECTION('ref_axis',(0.,1.,0.));
#1158=DIRECTION('center_axis',(1.,0.,0.));
#1159=DIRECTION('ref_axis',(0.,1.,0.));
#1160=DIRECTION('center_axis',(2.220446E-16,1.,-3.061516E-16));
#1161=DIRECTION('ref_axis',(0.496608918088104,-3.76001084022693E-16,-0.867974413491183));
#1162=DIRECTION('center_axis',(-1.867255E-16,-1.,3.263593E-16));
#1163=DIRECTION('ref_axis',(0.496608918088104,-3.76001070539353E-16,-0.867974413491183));
#1164=DIRECTION('',(0.,1.,0.));
#1165=DIRECTION('center_axis',(-1.867255E-16,-1.,3.263593E-16));
#1166=DIRECTION('ref_axis',(0.496608918088104,-3.76001070539353E-16,-0.867974413491183));
#1167=DIRECTION('',(0.,1.,0.));
#1168=DIRECTION('center_axis',(2.220446E-16,1.,-3.061516E-16));
#1169=DIRECTION('ref_axis',(-0.478458857056947,3.75073978292114E-16,0.878109971531903));
#1170=DIRECTION('center_axis',(1.794575E-16,1.,-3.293562E-16));
#1171=DIRECTION('ref_axis',(-0.478458857056947,3.75073993746153E-16,0.878109971531903));
#1172=DIRECTION('',(0.,1.,0.));
#1173=DIRECTION('center_axis',(1.794575E-16,1.,-3.293562E-16));
#1174=DIRECTION('ref_axis',(-0.478458857056947,3.75073993746153E-16,0.878109971531903));
#1175=DIRECTION('center_axis',(0.,0.,-1.));
#1176=DIRECTION('ref_axis',(0.,1.,0.));
#1177=DIRECTION('',(1.,0.,0.));
#1178=DIRECTION('',(0.,1.,0.));
#1179=DIRECTION('',(1.,0.,0.));
#1180=DIRECTION('center_axis',(1.,0.,0.));
#1181=DIRECTION('ref_axis',(0.,1.,0.));
#1182=DIRECTION('',(0.,0.,1.));
#1183=DIRECTION('',(0.,1.,0.));
#1184=DIRECTION('',(0.,0.,1.));
#1185=DIRECTION('center_axis',(0.,0.,1.));
#1186=DIRECTION('ref_axis',(0.,-1.,0.));
#1187=DIRECTION('',(-1.,0.,0.));
#1188=DIRECTION('',(0.,1.,0.));
#1189=DIRECTION('',(-1.,0.,0.));
#1190=DIRECTION('center_axis',(2.220446E-16,1.,-3.061516E-16));
#1191=DIRECTION('ref_axis',(-0.478458857056947,3.75073978292114E-16,0.878109971531903));
#1192=DIRECTION('center_axis',(-1.794575E-16,-1.,3.293562E-16));
#1193=DIRECTION('ref_axis',(-0.478458857056947,3.75073993746153E-16,0.878109971531903));
#1194=DIRECTION('',(0.,1.,0.));
#1195=DIRECTION('center_axis',(-1.794575E-16,-1.,3.293562E-16));
#1196=DIRECTION('ref_axis',(-0.478458857056947,3.75073993746153E-16,0.878109971531903));
#1197=DIRECTION('center_axis',(2.220446E-16,1.,-3.061516E-16));
#1198=DIRECTION('ref_axis',(0.496608918088104,-3.76001084022693E-16,-0.867974413491183));
#1199=DIRECTION('center_axis',(1.867255E-16,1.,-3.263593E-16));
#1200=DIRECTION('ref_axis',(0.496608918088104,-3.76001070539353E-16,-0.867974413491183));
#1201=DIRECTION('',(0.,1.,0.));
#1202=DIRECTION('center_axis',(1.867255E-16,1.,-3.263593E-16));
#1203=DIRECTION('ref_axis',(0.496608918088104,-3.76001070539353E-16,-0.867974413491183));
#1204=DIRECTION('center_axis',(-0.0415654109052203,3.15116400000078E-16,
0.999135784874248));
#1205=DIRECTION('ref_axis',(-1.30979426489752E-17,-1.,3.14844071640826E-16));
#1206=DIRECTION('',(-0.999135784874248,0.,-0.0415654109052203));
#1207=DIRECTION('',(0.,1.,0.));
#1208=DIRECTION('',(-0.999135784874248,3.27232700000081E-16,-0.0415654109052203));
#1209=DIRECTION('center_axis',(-0.999135784874249,2.09127400000052E-16,
-0.0415654109052104));
#1210=DIRECTION('ref_axis',(-2.08946668937763E-16,-1.,-8.69246631253962E-18));
#1211=DIRECTION('',(0.0415654109052103,0.,-0.999135784874249));
#1212=DIRECTION('',(0.,1.,0.));
#1213=DIRECTION('',(0.0415654109052103,-3.82835500000095E-16,-0.999135784874249));
#1214=DIRECTION('center_axis',(0.0415654109052203,-3.15116400000078E-16,
-0.999135784874248));
#1215=DIRECTION('ref_axis',(1.30979426489752E-17,1.,-3.14844071640826E-16));
#1216=DIRECTION('',(0.999135784874248,0.,0.0415654109052203));
#1217=DIRECTION('',(0.999135784874248,-3.27232700000081E-16,0.0415654109052203));
#1218=DIRECTION('center_axis',(0.,-1.,0.));
#1219=DIRECTION('ref_axis',(1.,0.,0.));
#1220=DIRECTION('center_axis',(0.,-1.,0.));
#1221=DIRECTION('ref_axis',(1.,0.,0.));
#1222=DIRECTION('center_axis',(2.220446E-16,1.,-3.061516E-16));
#1223=DIRECTION('ref_axis',(0.496608918088104,-3.76001084022693E-16,-0.867974413491183));
#1224=DIRECTION('center_axis',(-1.867255E-16,-1.,3.263593E-16));
#1225=DIRECTION('ref_axis',(0.496608918088104,-3.76001070539353E-16,-0.867974413491183));
#1226=DIRECTION('',(0.,1.,0.));
#1227=DIRECTION('center_axis',(-1.867255E-16,-1.,3.263593E-16));
#1228=DIRECTION('ref_axis',(0.496608918088104,-3.76001070539353E-16,-0.867974413491183));
#1229=DIRECTION('',(0.,1.,0.));
#1230=DIRECTION('center_axis',(2.220446E-16,1.,-3.061516E-16));
#1231=DIRECTION('ref_axis',(-0.478458857056947,3.75073978292114E-16,0.878109971531903));
#1232=DIRECTION('center_axis',(1.794575E-16,1.,-3.293562E-16));
#1233=DIRECTION('ref_axis',(-0.478458857056947,3.75073993746153E-16,0.878109971531903));
#1234=DIRECTION('',(0.,1.,0.));
#1235=DIRECTION('center_axis',(1.794575E-16,1.,-3.293562E-16));
#1236=DIRECTION('ref_axis',(-0.478458857056947,3.75073993746153E-16,0.878109971531903));
#1237=DIRECTION('center_axis',(0.,0.,-1.));
#1238=DIRECTION('ref_axis',(0.,1.,0.));
#1239=DIRECTION('',(1.,0.,0.));
#1240=DIRECTION('',(0.,1.,0.));
#1241=DIRECTION('',(1.,0.,0.));
#1242=DIRECTION('center_axis',(1.,0.,0.));
#1243=DIRECTION('ref_axis',(0.,1.,0.));
#1244=DIRECTION('',(0.,0.,1.));
#1245=DIRECTION('',(0.,1.,0.));
#1246=DIRECTION('',(0.,0.,1.));
#1247=DIRECTION('center_axis',(0.,0.,1.));
#1248=DIRECTION('ref_axis',(0.,-1.,0.));
#1249=DIRECTION('',(-1.,0.,0.));
#1250=DIRECTION('',(0.,1.,0.));
#1251=DIRECTION('',(-1.,0.,0.));
#1252=DIRECTION('center_axis',(2.220446E-16,1.,-3.061516E-16));
#1253=DIRECTION('ref_axis',(-0.478458857056947,3.75073978292114E-16,0.878109971531903));
#1254=DIRECTION('center_axis',(-1.794575E-16,-1.,3.293562E-16));
#1255=DIRECTION('ref_axis',(-0.478458857056947,3.75073993746153E-16,0.878109971531903));
#1256=DIRECTION('',(0.,1.,0.));
#1257=DIRECTION('center_axis',(-1.794575E-16,-1.,3.293562E-16));
#1258=DIRECTION('ref_axis',(-0.478458857056947,3.75073993746153E-16,0.878109971531903));
#1259=DIRECTION('center_axis',(2.220446E-16,1.,-3.061516E-16));
#1260=DIRECTION('ref_axis',(0.496608918088104,-3.76001084022693E-16,-0.867974413491183));
#1261=DIRECTION('center_axis',(1.867255E-16,1.,-3.263593E-16));
#1262=DIRECTION('ref_axis',(0.496608918088104,-3.76001070539353E-16,-0.867974413491183));
#1263=DIRECTION('',(0.,1.,0.));
#1264=DIRECTION('center_axis',(1.867255E-16,1.,-3.263593E-16));
#1265=DIRECTION('ref_axis',(0.496608918088104,-3.76001070539353E-16,-0.867974413491183));
#1266=DIRECTION('center_axis',(-0.0415654109052203,3.15116400000078E-16,
0.999135784874248));
#1267=DIRECTION('ref_axis',(-1.30979426489752E-17,-1.,3.14844071640826E-16));
#1268=DIRECTION('',(-0.999135784874248,3.27232700000081E-16,-0.0415654109052203));
#1269=DIRECTION('',(0.,1.,0.));
#1270=DIRECTION('',(-0.999135784874248,0.,-0.0415654109052203));
#1271=DIRECTION('center_axis',(-0.999135784874249,2.09127400000052E-16,
-0.0415654109052104));
#1272=DIRECTION('ref_axis',(-2.08946668937763E-16,-1.,-8.69246631253962E-18));
#1273=DIRECTION('',(0.0415654109052103,-3.82835500000095E-16,-0.999135784874249));
#1274=DIRECTION('',(0.,1.,0.));
#1275=DIRECTION('',(0.0415654109052103,0.,-0.999135784874249));
#1276=DIRECTION('center_axis',(0.0415654109052203,-3.15116400000078E-16,
-0.999135784874248));
#1277=DIRECTION('ref_axis',(1.30979426489752E-17,1.,-3.14844071640826E-16));
#1278=DIRECTION('',(0.999135784874248,-3.27232700000081E-16,0.0415654109052203));
#1279=DIRECTION('',(0.999135784874248,0.,0.0415654109052203));
#1280=DIRECTION('center_axis',(0.,-1.,0.));
#1281=DIRECTION('ref_axis',(1.,0.,0.));
#1282=DIRECTION('center_axis',(0.,-1.,0.));
#1283=DIRECTION('ref_axis',(1.,0.,0.));
#1284=DIRECTION('center_axis',(0.847998304005144,0.52999894000309,4.02620300000069E-16));
#1285=DIRECTION('ref_axis',(-0.52999894000309,0.847998304005144,-6.12666200000104E-16));
#1286=DIRECTION('',(0.52999894000309,-0.847998304005144,5.884170000001E-16));
#1287=DIRECTION('',(0.,0.,-1.));
#1288=DIRECTION('',(-0.52999894000309,0.847998304005144,-6.17837900000105E-16));
#1289=DIRECTION('',(0.,0.,1.));
#1290=DIRECTION('center_axis',(1.,0.,0.));
#1291=DIRECTION('ref_axis',(0.,1.,0.));
#1292=DIRECTION('',(0.,1.,0.));
#1293=DIRECTION('',(0.,0.,1.));
#1294=DIRECTION('',(0.,1.,0.));
#1295=DIRECTION('center_axis',(0.,0.,1.));
#1296=DIRECTION('ref_axis',(0.,-1.,0.));
#1297=DIRECTION('',(-1.,0.,0.));
#1298=DIRECTION('',(0.,1.,0.));
#1299=DIRECTION('',(1.,0.,0.));
#1300=DIRECTION('',(-0.52999894000309,-0.847998304005144,0.));
#1301=DIRECTION('center_axis',(0.847998304005144,-0.52999894000309,7.27140400000124E-16));
#1302=DIRECTION('ref_axis',(0.52999894000309,0.847998304005144,9.34341900000159E-17));
#1303=DIRECTION('',(0.52999894000309,0.847998304005144,8.8262550000015E-17));
#1304=DIRECTION('',(0.,0.,-1.));
#1305=DIRECTION('center_axis',(-1.,0.,0.));
#1306=DIRECTION('ref_axis',(0.,-1.,0.));
#1307=DIRECTION('',(0.,0.,-1.));
#1308=DIRECTION('',(0.,1.,0.));
#1309=DIRECTION('',(0.,0.,1.));
#1310=DIRECTION('center_axis',(0.,0.,-1.));
#1311=DIRECTION('ref_axis',(0.,1.,0.));
#1312=DIRECTION('',(-1.,0.,0.));
#1313=DIRECTION('',(1.,0.,0.));
#1314=DIRECTION('center_axis',(0.,-1.,0.));
#1315=DIRECTION('ref_axis',(1.,0.,0.));
#1316=DIRECTION('center_axis',(0.,-1.,0.));
#1317=DIRECTION('ref_axis',(1.,0.,0.));
#1318=DIRECTION('center_axis',(0.,1.,0.));
#1319=DIRECTION('ref_axis',(-1.,0.,0.));
#1320=DIRECTION('',(1.,0.,0.));
#1321=DIRECTION('',(0.,0.,1.));
#1322=DIRECTION('',(-1.,0.,0.));
#1323=DIRECTION('',(0.,0.,-1.));
#1324=DIRECTION('center_axis',(0.,0.,-1.));
#1325=DIRECTION('ref_axis',(0.,1.,0.));
#1326=DIRECTION('',(1.,0.,0.));
#1327=DIRECTION('',(0.,1.,0.));
#1328=DIRECTION('',(1.,0.,0.));
#1329=DIRECTION('',(0.,1.,0.));
#1330=DIRECTION('',(1.,0.,0.));
#1331=DIRECTION('',(0.,1.,0.));
#1332=DIRECTION('',(0.,-1.,0.));
#1333=DIRECTION('center_axis',(0.,-1.,0.));
#1334=DIRECTION('ref_axis',(1.,0.,0.));
#1335=DIRECTION('',(-1.,0.,0.));
#1336=DIRECTION('',(0.,0.,1.));
#1337=DIRECTION('',(0.,0.,1.));
#1338=DIRECTION('center_axis',(0.,0.,1.));
#1339=DIRECTION('ref_axis',(0.,-1.,0.));
#1340=DIRECTION('',(0.,1.,0.));
#1341=DIRECTION('',(0.,1.,0.));
#1342=DIRECTION('center_axis',(-1.,0.,0.));
#1343=DIRECTION('ref_axis',(0.,-1.,0.));
#1344=DIRECTION('center_axis',(0.992546151641335,-1.83079000000062E-16,
0.121869343405041));
#1345=DIRECTION('ref_axis',(1.81714356896402E-16,1.,2.23117175212826E-17));
#1346=DIRECTION('',(-0.121869343405041,2.43524300000082E-16,0.992546151641335));
#1347=DIRECTION('',(0.,1.,0.));
#1348=DIRECTION('',(-0.121869343405041,2.43524300000082E-16,0.992546151641335));
#1349=DIRECTION('',(0.,1.,0.));
#1350=DIRECTION('',(0.,1.,0.));
#1351=DIRECTION('center_axis',(0.,-1.,0.));
#1352=DIRECTION('ref_axis',(1.,0.,0.));
#1353=DIRECTION('',(-0.121869343405041,-5.44171600000184E-16,-0.992546151641335));
#1354=DIRECTION('',(0.,0.,-1.));
#1355=DIRECTION('',(0.121869343405041,-4.40779000000149E-16,-0.992546151641335));
#1356=DIRECTION('',(0.,0.,1.));
#1357=DIRECTION('',(-1.,0.,0.));
#1358=DIRECTION('center_axis',(-0.992546151641335,2.57700000000087E-16,
0.121869343405041));
#1359=DIRECTION('ref_axis',(-2.55779143278055E-16,-1.,3.14057297955168E-17));
#1360=DIRECTION('',(-0.121869343405041,-5.44171600000184E-16,-0.992546151641335));
#1361=DIRECTION('',(0.,1.,0.));
#1362=DIRECTION('',(0.,-1.,0.));
#1363=DIRECTION('center_axis',(0.,-1.,0.));
#1364=DIRECTION('ref_axis',(1.,0.,0.));
#1365=DIRECTION('',(0.,0.,-1.));
#1366=DIRECTION('',(-1.,0.,0.));
#1367=DIRECTION('',(0.,0.,1.));
#1368=DIRECTION('',(0.121869343405041,-4.40779000000149E-16,-0.992546151641335));
#1369=DIRECTION('center_axis',(1.,0.,0.));
#1370=DIRECTION('ref_axis',(0.,1.,0.));
#1371=DIRECTION('center_axis',(-1.,0.,0.));
#1372=DIRECTION('ref_axis',(0.,-1.,0.));
#1373=DIRECTION('',(0.,1.,0.));
#1374=DIRECTION('center_axis',(-0.992546151641335,1.83079000000062E-16,
-0.121869343405041));
#1375=DIRECTION('ref_axis',(-1.81714356896404E-16,-1.,-2.23117175212727E-17));
#1376=DIRECTION('center_axis',(1.,0.,0.));
#1377=DIRECTION('ref_axis',(0.,1.,0.));
#1378=DIRECTION('center_axis',(0.,0.,1.));
#1379=DIRECTION('ref_axis',(0.,-1.,0.));
#1380=CARTESIAN_POINT('',(0.,0.,0.));
#1381=CARTESIAN_POINT('Origin',(3.927946030837,-2.605,0.06299853844817));
#1382=CARTESIAN_POINT('',(3.927946030837,-2.605,0.642998538448));
#1383=CARTESIAN_POINT('',(-0.642053969163,-2.605,0.642998538448));
#1384=CARTESIAN_POINT('',(3.927946030837,-2.605,0.642998538448));
#1385=CARTESIAN_POINT('',(-0.642053969163,-2.605,0.06299853844817));
#1386=CARTESIAN_POINT('',(-0.642053969163,-2.605,0.06299853844817));
#1387=CARTESIAN_POINT('',(3.927946030837,-2.605,0.06299853844817));
#1388=CARTESIAN_POINT('',(3.927946030837,-2.605,0.06299853844817));
#1389=CARTESIAN_POINT('',(3.927946030837,-2.605,0.06299853844817));
#1390=CARTESIAN_POINT('Origin',(1.322946030837,-1.332268E-14,0.06299853844818));
#1391=CARTESIAN_POINT('',(-0.642053969163,2.605,0.06299853844817));
#1392=CARTESIAN_POINT('',(-0.642053969163,-2.605,0.06299853844817));
#1393=CARTESIAN_POINT('',(3.927946030837,2.605,0.06299853844817));
#1394=CARTESIAN_POINT('',(-0.642053969163,2.605,0.06299853844817));
#1395=CARTESIAN_POINT('',(3.927946030837,2.605,0.06299853844817));
#1396=CARTESIAN_POINT('Origin',(-1.282053969163,2.605,0.06299853844817));
#1397=CARTESIAN_POINT('',(-0.642053969163,2.605,0.642998538448));
#1398=CARTESIAN_POINT('',(3.927946030837,2.605,0.642998538448));
#1399=CARTESIAN_POINT('',(-0.642053969163,2.605,0.642998538448));
#1400=CARTESIAN_POINT('',(3.927946030837,2.605,0.06299853844817));
#1401=CARTESIAN_POINT('',(-0.642053969163,2.605,0.06299853844817));
#1402=CARTESIAN_POINT('Origin',(3.927946030837,2.605,0.06299853844817));
#1403=CARTESIAN_POINT('',(3.927946030837,2.605,0.642998538448));
#1404=CARTESIAN_POINT('Origin',(1.322946030837,-1.465494E-14,0.642998538448));
#1405=CARTESIAN_POINT('',(-0.642053969163,-2.605,0.642998538448));
#1406=CARTESIAN_POINT('Origin',(-0.642053969163,-2.605,0.06299853844817));
#1407=CARTESIAN_POINT('Origin',(-2.292053969163,-0.445,1.642998538448));
#1408=CARTESIAN_POINT('',(-3.292053969162,-0.445,1.642998538448));
#1409=CARTESIAN_POINT('',(-3.292053969162,-0.445,1.062998538448));
#1410=CARTESIAN_POINT('',(-3.292053969163,-0.445,1.642998538448));
#1411=CARTESIAN_POINT('',(-2.292053969163,-0.445,1.062998538448));
#1412=CARTESIAN_POINT('',(-2.292053969163,-0.445,1.062998538448));
#1413=CARTESIAN_POINT('',(-2.292053969163,-0.445,1.642998538448));
#1414=CARTESIAN_POINT('',(-2.292053969163,-0.445,1.062998538448));
#1415=CARTESIAN_POINT('',(-2.292053969163,-0.445,1.642998538448));
#1416=CARTESIAN_POINT('Origin',(-2.292053969163,-0.445,1.062998538448));
#1417=CARTESIAN_POINT('',(-3.292053969162,0.445,1.062998538448));
#1418=CARTESIAN_POINT('',(-3.292053969163,-0.445,1.062998538448));
#1419=CARTESIAN_POINT('',(-2.292053969163,0.445,1.062998538448));
#1420=CARTESIAN_POINT('',(-2.292053969163,0.445,1.062998538448));
#1421=CARTESIAN_POINT('',(-2.292053969163,0.445,1.062998538448));
#1422=CARTESIAN_POINT('Origin',(-2.292053969163,0.445,1.062998538448));
#1423=CARTESIAN_POINT('',(-3.292053969162,0.445,1.642998538448));
#1424=CARTESIAN_POINT('',(-3.292053969163,0.445,1.062998538448));
#1425=CARTESIAN_POINT('',(-2.292053969163,0.445,1.642998538448));
#1426=CARTESIAN_POINT('',(-2.292053969163,0.445,1.642998538448));
#1427=CARTESIAN_POINT('',(-2.292053969163,0.445,1.642998538448));
#1428=CARTESIAN_POINT('Origin',(-2.292053969163,0.445,1.642998538448));
#1429=CARTESIAN_POINT('',(-3.292053969163,0.445,1.642998538448));
#1430=CARTESIAN_POINT('',(-2.292053969163,-0.445,1.642998538448));
#1431=CARTESIAN_POINT('Origin',(-3.292053969162,2.220446E-15,1.352998538448));
#1432=CARTESIAN_POINT('Origin',(-2.292053969162,2.220446E-15,1.352998538448));
#1433=CARTESIAN_POINT('Origin',(-4.569858255104,1.835,1.164168724545));
#1434=CARTESIAN_POINT('',(-4.519979762018,2.725,-0.03479421730389));
#1435=CARTESIAN_POINT('',(-3.561523471065,2.725,0.513583631497));
#1436=CARTESIAN_POINT('Origin',(-4.569858255104,2.725,1.164168724545));
#1437=CARTESIAN_POINT('',(-3.561523471065,1.835,0.513583631497));
#1438=CARTESIAN_POINT('',(-3.561523471065,1.835,0.513583631497));
#1439=CARTESIAN_POINT('',(-4.519979762018,1.835,-0.03479421730389));
#1440=CARTESIAN_POINT('Origin',(-4.569858255104,1.835,1.164168724545));
#1441=CARTESIAN_POINT('',(-4.519979762018,1.835,-0.03479421730389));
#1442=CARTESIAN_POINT('Origin',(-2.553188687026,1.835,-0.137001461552));
#1443=CARTESIAN_POINT('',(-2.553188687026,2.725,1.062998538448));
#1444=CARTESIAN_POINT('Origin',(-2.553188687026,2.725,-0.137001461552));
#1445=CARTESIAN_POINT('',(-2.553188687026,1.835,1.062998538448));
#1446=CARTESIAN_POINT('',(-2.553188687026,1.835,1.062998538448));
#1447=CARTESIAN_POINT('Origin',(-2.553188687026,1.835,-0.137001461552));
#1448=CARTESIAN_POINT('Origin',(-2.553188687026,1.835,1.062998538448));
#1449=CARTESIAN_POINT('',(-2.292053969163,2.725,1.062998538448));
#1450=CARTESIAN_POINT('',(-2.553188687026,2.725,1.062998538448));
#1451=CARTESIAN_POINT('',(-2.292053969163,1.835,1.062998538448));
#1452=CARTESIAN_POINT('',(-2.292053969163,1.835,1.062998538448));
#1453=CARTESIAN_POINT('',(-2.553188687026,1.835,1.062998538448));
#1454=CARTESIAN_POINT('Origin',(-2.292053969163,1.835,1.062998538448));
#1455=CARTESIAN_POINT('',(-2.292053969163,2.725,1.642998538448));
#1456=CARTESIAN_POINT('',(-2.292053969163,2.725,1.062998538448));
#1457=CARTESIAN_POINT('',(-2.292053969163,1.835,1.642998538448));
#1458=CARTESIAN_POINT('',(-2.292053969163,1.835,1.642998538448));
#1459=CARTESIAN_POINT('',(-2.292053969163,1.835,1.062998538448));
#1460=CARTESIAN_POINT('Origin',(-2.292053969163,1.835,1.642998538448));
#1461=CARTESIAN_POINT('',(-2.553188687025,2.725,1.642998538448));
#1462=CARTESIAN_POINT('',(-2.292053969163,2.725,1.642998538448));
#1463=CARTESIAN_POINT('',(-2.553188687025,1.835,1.642998538448));
#1464=CARTESIAN_POINT('',(-2.553188687025,1.835,1.642998538448));
#1465=CARTESIAN_POINT('',(-2.292053969163,1.835,1.642998538448));
#1466=CARTESIAN_POINT('Origin',(-2.553188687026,1.835,-0.137001461552));
#1467=CARTESIAN_POINT('',(-4.048885283351,2.725,0.828033093137));
#1468=CARTESIAN_POINT('Origin',(-2.553188687026,2.725,-0.137001461552));
#1469=CARTESIAN_POINT('',(-4.048885283351,1.835,0.828033093137));
#1470=CARTESIAN_POINT('',(-4.048885283351,1.835,0.828033093137));
#1471=CARTESIAN_POINT('Origin',(-2.553188687026,1.835,-0.137001461552));
#1472=CARTESIAN_POINT('Origin',(-4.569858255104,1.835,1.164168724545));
#1473=CARTESIAN_POINT('',(-4.544087700343,2.725,0.544704537923));
#1474=CARTESIAN_POINT('Origin',(-4.569858255104,2.725,1.164168724545));
#1475=CARTESIAN_POINT('',(-4.544087700343,1.835,0.544704537923));
#1476=CARTESIAN_POINT('',(-4.544087700343,1.835,0.544704537923));
#1477=CARTESIAN_POINT('Origin',(-4.569858255104,1.835,1.164168724545));
#1478=CARTESIAN_POINT('Origin',(-4.544087700343,1.835,0.544704537923));
#1479=CARTESIAN_POINT('',(-5.222053969162,2.725,0.516500216779));
#1480=CARTESIAN_POINT('',(-4.544087700343,2.725,0.544704537923));
#1481=CARTESIAN_POINT('',(-5.222053969162,1.835,0.516500216779));
#1482=CARTESIAN_POINT('',(-5.222053969162,1.835,0.516500216779));
#1483=CARTESIAN_POINT('',(-4.544087700343,1.835,0.544704537923));
#1484=CARTESIAN_POINT('Origin',(-5.222053969162,1.835,0.516500216779));
#1485=CARTESIAN_POINT('',(-5.197946030837,2.725,-0.06299853844819));
#1486=CARTESIAN_POINT('',(-5.222053969162,2.725,0.516500216779));
#1487=CARTESIAN_POINT('',(-5.197946030837,1.835,-0.06299853844819));
#1488=CARTESIAN_POINT('',(-5.197946030837,1.835,-0.06299853844819));
#1489=CARTESIAN_POINT('',(-5.222053969162,1.835,0.516500216779));
#1490=CARTESIAN_POINT('Origin',(-5.197946030837,1.835,-0.06299853844819));
#1491=CARTESIAN_POINT('',(-5.197946030837,2.725,-0.06299853844819));
#1492=CARTESIAN_POINT('',(-5.197946030837,1.835,-0.06299853844819));
#1493=CARTESIAN_POINT('Origin',(-3.745142510481,2.725,0.769007098787));
#1494=CARTESIAN_POINT('Origin',(-3.745142510481,1.835,0.769007098787));
#1495=CARTESIAN_POINT('Origin',(-4.569858255104,-2.725,1.164168724545));
#1496=CARTESIAN_POINT('',(-4.519979762018,-1.835,-0.03479421730389));
#1497=CARTESIAN_POINT('',(-3.561523471065,-1.835,0.513583631497));
#1498=CARTESIAN_POINT('Origin',(-4.569858255104,-1.835,1.164168724545));
#1499=CARTESIAN_POINT('',(-3.561523471065,-2.725,0.513583631497));
#1500=CARTESIAN_POINT('',(-3.561523471065,-2.725,0.513583631497));
#1501=CARTESIAN_POINT('',(-4.519979762018,-2.725,-0.03479421730389));
#1502=CARTESIAN_POINT('Origin',(-4.569858255104,-2.725,1.164168724545));
#1503=CARTESIAN_POINT('',(-4.519979762018,-2.725,-0.03479421730389));
#1504=CARTESIAN_POINT('Origin',(-2.553188687026,-2.725,-0.137001461552));
#1505=CARTESIAN_POINT('',(-2.553188687026,-1.835,1.062998538448));
#1506=CARTESIAN_POINT('Origin',(-2.553188687026,-1.835,-0.137001461552));
#1507=CARTESIAN_POINT('',(-2.553188687026,-2.725,1.062998538448));
#1508=CARTESIAN_POINT('',(-2.553188687026,-2.725,1.062998538448));
#1509=CARTESIAN_POINT('Origin',(-2.553188687026,-2.725,-0.137001461552));
#1510=CARTESIAN_POINT('Origin',(-2.553188687026,-2.725,1.062998538448));
#1511=CARTESIAN_POINT('',(-2.292053969163,-1.835,1.062998538448));
#1512=CARTESIAN_POINT('',(-2.553188687026,-1.835,1.062998538448));
#1513=CARTESIAN_POINT('',(-2.292053969163,-2.725,1.062998538448));
#1514=CARTESIAN_POINT('',(-2.292053969163,-2.725,1.062998538448));
#1515=CARTESIAN_POINT('',(-2.553188687026,-2.725,1.062998538448));
#1516=CARTESIAN_POINT('Origin',(-2.292053969163,-2.725,1.062998538448));
#1517=CARTESIAN_POINT('',(-2.292053969163,-1.835,1.642998538448));
#1518=CARTESIAN_POINT('',(-2.292053969163,-1.835,1.062998538448));
#1519=CARTESIAN_POINT('',(-2.292053969163,-2.725,1.642998538448));
#1520=CARTESIAN_POINT('',(-2.292053969163,-2.725,1.642998538448));
#1521=CARTESIAN_POINT('',(-2.292053969163,-2.725,1.062998538448));
#1522=CARTESIAN_POINT('Origin',(-2.292053969163,-2.725,1.642998538448));
#1523=CARTESIAN_POINT('',(-2.553188687025,-1.835,1.642998538448));
#1524=CARTESIAN_POINT('',(-2.292053969163,-1.835,1.642998538448));
#1525=CARTESIAN_POINT('',(-2.553188687025,-2.725,1.642998538448));
#1526=CARTESIAN_POINT('',(-2.553188687025,-2.725,1.642998538448));
#1527=CARTESIAN_POINT('',(-2.292053969163,-2.725,1.642998538448));
#1528=CARTESIAN_POINT('Origin',(-2.553188687026,-2.725,-0.137001461552));
#1529=CARTESIAN_POINT('',(-4.048885283351,-1.835,0.828033093137));
#1530=CARTESIAN_POINT('Origin',(-2.553188687026,-1.835,-0.137001461552));
#1531=CARTESIAN_POINT('',(-4.048885283351,-2.725,0.828033093137));
#1532=CARTESIAN_POINT('',(-4.048885283351,-2.725,0.828033093137));
#1533=CARTESIAN_POINT('Origin',(-2.553188687026,-2.725,-0.137001461552));
#1534=CARTESIAN_POINT('Origin',(-4.569858255104,-2.725,1.164168724545));
#1535=CARTESIAN_POINT('',(-4.544087700343,-1.835,0.544704537923));
#1536=CARTESIAN_POINT('Origin',(-4.569858255104,-1.835,1.164168724545));
#1537=CARTESIAN_POINT('',(-4.544087700343,-2.725,0.544704537923));
#1538=CARTESIAN_POINT('',(-4.544087700343,-2.725,0.544704537923));
#1539=CARTESIAN_POINT('Origin',(-4.569858255104,-2.725,1.164168724545));
#1540=CARTESIAN_POINT('Origin',(-4.544087700343,-2.725,0.544704537923));
#1541=CARTESIAN_POINT('',(-5.222053969162,-1.835,0.516500216779));
#1542=CARTESIAN_POINT('',(-4.544087700343,-1.835,0.544704537923));
#1543=CARTESIAN_POINT('',(-5.222053969162,-2.725,0.516500216779));
#1544=CARTESIAN_POINT('',(-5.222053969162,-2.725,0.516500216779));
#1545=CARTESIAN_POINT('',(-4.544087700343,-2.725,0.544704537923));
#1546=CARTESIAN_POINT('Origin',(-5.222053969162,-2.725,0.516500216779));
#1547=CARTESIAN_POINT('',(-5.197946030837,-1.835,-0.06299853844819));
#1548=CARTESIAN_POINT('',(-5.222053969162,-1.835,0.516500216779));
#1549=CARTESIAN_POINT('',(-5.197946030837,-2.725,-0.06299853844819));
#1550=CARTESIAN_POINT('',(-5.197946030837,-2.725,-0.06299853844819));
#1551=CARTESIAN_POINT('',(-5.222053969162,-2.725,0.516500216779));
#1552=CARTESIAN_POINT('Origin',(-5.197946030837,-2.725,-0.06299853844819));
#1553=CARTESIAN_POINT('',(-5.197946030837,-1.835,-0.06299853844819));
#1554=CARTESIAN_POINT('',(-5.197946030837,-2.725,-0.06299853844819));
#1555=CARTESIAN_POINT('Origin',(-3.745142510481,-1.835,0.769007098787));
#1556=CARTESIAN_POINT('Origin',(-3.745142510481,-2.725,0.769007098787));
#1557=CARTESIAN_POINT('Origin',(4.947946030837,2.33,0.207998538448));
#1558=CARTESIAN_POINT('',(4.697946030837,2.73,0.642998538448));
#1559=CARTESIAN_POINT('',(5.197946030837,1.93,0.642998538448));
#1560=CARTESIAN_POINT('',(4.697946030837,2.73,0.642998538448));
#1561=CARTESIAN_POINT('',(5.197946030837,1.93,0.06299853844819));
#1562=CARTESIAN_POINT('',(5.197946030837,1.93,0.642998538448));
#1563=CARTESIAN_POINT('',(4.697946030837,2.73,0.06299853844819));
#1564=CARTESIAN_POINT('',(5.197946030837,1.93,0.06299853844819));
#1565=CARTESIAN_POINT('',(4.697946030837,2.73,0.06299853844819));
#1566=CARTESIAN_POINT('Origin',(5.197946030837,-2.73,0.06299853844819));
#1567=CARTESIAN_POINT('',(5.197946030837,-1.93,0.642998538448));
#1568=CARTESIAN_POINT('',(5.197946030837,-1.93,0.642998538448));
#1569=CARTESIAN_POINT('',(5.197946030837,-1.93,0.06299853844819));
#1570=CARTESIAN_POINT('',(5.197946030837,-1.93,0.06299853844819));
#1571=CARTESIAN_POINT('',(5.197946030837,-1.93,0.06299853844819));
#1572=CARTESIAN_POINT('Origin',(5.197946030837,-2.73,0.642998538448));
#1573=CARTESIAN_POINT('',(3.927946030837,2.73,0.642998538448));
#1574=CARTESIAN_POINT('',(4.697946030837,2.73,0.642998538448));
#1575=CARTESIAN_POINT('',(3.927946030837,-2.73,0.642998538448));
#1576=CARTESIAN_POINT('',(3.927946030837,-2.73,0.642998538448));
#1577=CARTESIAN_POINT('',(4.697946030837,-2.73,0.642998538448));
#1578=CARTESIAN_POINT('',(3.927946030837,-2.73,0.642998538448));
#1579=CARTESIAN_POINT('',(5.197946030837,-1.93,0.642998538448));
#1580=CARTESIAN_POINT('Origin',(4.947946030837,-2.33,0.207998538448));
#1581=CARTESIAN_POINT('',(4.697946030837,-2.73,0.06299853844819));
#1582=CARTESIAN_POINT('',(4.697946030837,-2.73,0.06299853844819));
#1583=CARTESIAN_POINT('',(4.697946030837,-2.73,0.642998538448));
#1584=CARTESIAN_POINT('Origin',(3.927946030837,-2.73,0.642998538448));
#1585=CARTESIAN_POINT('',(3.927946030837,2.73,0.06299853844819));
#1586=CARTESIAN_POINT('',(3.927946030837,2.73,0.642998538448));
#1587=CARTESIAN_POINT('',(3.927946030837,-2.73,0.06299853844819));
#1588=CARTESIAN_POINT('',(3.927946030837,-2.73,0.06299853844819));
#1589=CARTESIAN_POINT('',(3.927946030837,-2.73,0.06299853844819));
#1590=CARTESIAN_POINT('Origin',(3.927946030837,-2.73,0.06299853844819));
#1591=CARTESIAN_POINT('',(4.697946030837,-2.73,0.06299853844819));
#1592=CARTESIAN_POINT('',(3.927946030837,2.73,0.06299853844819));
#1593=CARTESIAN_POINT('Origin',(4.562946030837,2.73,0.352998538448));
#1594=CARTESIAN_POINT('Origin',(4.562946030837,-2.73,0.352998538448));
#1595=CARTESIAN_POINT('Origin',(-1.282053969163,2.605,0.06299853844817));
#1596=CARTESIAN_POINT('',(-0.642053969163,2.605,0.642998538448));
#1597=CARTESIAN_POINT('',(3.927946030837,2.605,0.642998538448));
#1598=CARTESIAN_POINT('',(-0.642053969163,2.605,0.642998538448));
#1599=CARTESIAN_POINT('',(-0.642053969163,2.605,0.06299853844817));
#1600=CARTESIAN_POINT('',(-0.642053969163,2.605,0.06299853844817));
#1601=CARTESIAN_POINT('',(3.927946030837,2.605,0.06299853844817));
#1602=CARTESIAN_POINT('',(3.927946030837,2.605,0.06299853844818));
#1603=CARTESIAN_POINT('',(3.927946030837,2.605,0.642998538448));
#1604=CARTESIAN_POINT('Origin',(-2.16926940826,-3.365,0.06299853844817));
#1605=CARTESIAN_POINT('',(-0.642053969163,-2.605,0.06299853844817));
#1606=CARTESIAN_POINT('',(3.927946030837,-2.605,0.06299853844817));
#1607=CARTESIAN_POINT('',(-0.642053969163,-2.605,0.06299853844818));
#1608=CARTESIAN_POINT('',(3.927946030837,-3.365,0.06299853844819));
#1609=CARTESIAN_POINT('',(3.927946030837,-3.365,0.06299853844819));
#1610=CARTESIAN_POINT('',(-2.16926940826,-3.365,0.06299853844817));
#1611=CARTESIAN_POINT('',(-2.16926940826,-3.365,0.06299853844817));
#1612=CARTESIAN_POINT('',(-2.16926940826,3.365,0.06299853844817));
#1613=CARTESIAN_POINT('',(-2.16926940826,-3.365,0.06299853844817));
#1614=CARTESIAN_POINT('',(3.927946030837,3.365,0.06299853844819));
#1615=CARTESIAN_POINT('',(-2.16926940826,3.365,0.06299853844817));
#1616=CARTESIAN_POINT('',(3.927946030837,2.605,0.06299853844819));
#1617=CARTESIAN_POINT('',(-0.642053969163,2.605,0.06299853844817));
#1618=CARTESIAN_POINT('Origin',(3.927946030837,-2.605,0.06299853844817));
#1619=CARTESIAN_POINT('',(3.927946030837,-2.605,0.642998538448));
#1620=CARTESIAN_POINT('',(-0.642053969163,-2.605,0.642998538448));
#1621=CARTESIAN_POINT('',(3.927946030837,-2.605,0.642998538448));
#1622=CARTESIAN_POINT('',(3.927946030837,-2.605,0.06299853844817));
#1623=CARTESIAN_POINT('',(-0.642053969163,-2.605,0.06299853844817));
#1624=CARTESIAN_POINT('Origin',(1.322946030837,-1.465494E-14,0.642998538448));
#1625=CARTESIAN_POINT('',(3.927946030837,-2.605,0.642998538448));
#1626=CARTESIAN_POINT('',(-0.642053969163,-2.605,0.642998538448));
#1627=CARTESIAN_POINT('Origin',(-0.642053969163,-2.605,0.06299853844817));
#1628=CARTESIAN_POINT('Origin',(3.927946030837,-3.365,0.642998538448));
#1629=CARTESIAN_POINT('',(3.927946030837,3.365,0.642998538448));
#1630=CARTESIAN_POINT('',(3.705705975603,3.365,2.452998538448));
#1631=CARTESIAN_POINT('',(3.927946030837,3.365,0.642998538448));
#1632=CARTESIAN_POINT('',(3.705705975603,-3.365,2.452998538448));
#1633=CARTESIAN_POINT('',(3.705705975603,-3.365,2.452998538448));
#1634=CARTESIAN_POINT('',(3.927946030837,-3.365,0.642998538448));
#1635=CARTESIAN_POINT('',(3.927946030837,-3.365,0.642998538448));
#1636=CARTESIAN_POINT('',(3.927946030837,-3.365,0.642998538448));
#1637=CARTESIAN_POINT('',(3.927946030837,2.605,0.642998538448));
#1638=CARTESIAN_POINT('Origin',(0.812768525577,-3.365,1.239278127684));
#1639=CARTESIAN_POINT('',(-2.192598474831,-3.365,2.452998538448));
#1640=CARTESIAN_POINT('',(-2.292053969163,-3.365,1.642998538448));
#1641=CARTESIAN_POINT('',(-2.192598474831,-3.365,2.452998538448));
#1642=CARTESIAN_POINT('',(-2.292053969163,-3.365,1.062998538448));
#1643=CARTESIAN_POINT('',(-2.292053969163,-3.365,1.642998538448));
#1644=CARTESIAN_POINT('',(-2.292053969163,-3.365,1.062998538448));
#1645=CARTESIAN_POINT('',(3.927946030837,-3.365,0.06299853844819));
#1646=CARTESIAN_POINT('',(3.705705975603,-3.365,2.452998538448));
#1647=CARTESIAN_POINT('Origin',(-2.19382632044,-3.365,2.442998538448));
#1648=CARTESIAN_POINT('',(-2.192598474831,3.365,2.452998538448));
#1649=CARTESIAN_POINT('',(-2.292053969163,3.365,1.642998538448));
#1650=CARTESIAN_POINT('',(-2.192598474831,3.365,2.452998538448));
#1651=CARTESIAN_POINT('',(-2.292053969163,-3.365,1.642998538448));
#1652=CARTESIAN_POINT('',(-2.192598474831,3.365,2.452998538448));
#1653=CARTESIAN_POINT('Origin',(0.812768525577,3.365,1.239278127684));
#1654=CARTESIAN_POINT('',(-2.292053969163,3.365,1.062998538448));
#1655=CARTESIAN_POINT('',(-2.292053969163,3.365,1.642998538448));
#1656=CARTESIAN_POINT('',(3.705705975603,3.365,2.452998538448));
#1657=CARTESIAN_POINT('',(3.927946030837,3.365,0.06299853844819));
#1658=CARTESIAN_POINT('',(-2.292053969163,3.365,1.062998538448));
#1659=CARTESIAN_POINT('Origin',(3.927946030837,-3.365,0.06299853844819));
#1660=CARTESIAN_POINT('Origin',(-2.292053969163,-3.365,1.642998538448));
#1661=CARTESIAN_POINT('',(-2.292053969163,-3.365,1.062998538448));
#1662=CARTESIAN_POINT('Origin',(-2.292053969163,-3.365,1.062998538448));
#1663=CARTESIAN_POINT('Origin',(3.927946030837,-3.365,0.06299853844819));
#1664=CARTESIAN_POINT('Origin',(3.706933821212,-3.365,2.452998538448));
#1665=UNCERTAINTY_MEASURE_WITH_UNIT(LENGTH_MEASURE(0.01),#1669,
'DISTANCE_ACCURACY_VALUE',
'Maximum model space distance between geometric entities at asserted c
onnectivities');
#1666=UNCERTAINTY_MEASURE_WITH_UNIT(LENGTH_MEASURE(0.01),#1669,
'DISTANCE_ACCURACY_VALUE',
'Maximum model space distance between geometric entities at asserted c
onnectivities');
#1667=(
GEOMETRIC_REPRESENTATION_CONTEXT(3)
GLOBAL_UNCERTAINTY_ASSIGNED_CONTEXT((#1665))
GLOBAL_UNIT_ASSIGNED_CONTEXT((#1669,#1671,#1672))
REPRESENTATION_CONTEXT('','3D')
);
#1668=(
GEOMETRIC_REPRESENTATION_CONTEXT(3)
GLOBAL_UNCERTAINTY_ASSIGNED_CONTEXT((#1666))
GLOBAL_UNIT_ASSIGNED_CONTEXT((#1669,#1671,#1672))
REPRESENTATION_CONTEXT('','3D')
);
#1669=(
LENGTH_UNIT()
NAMED_UNIT(*)
SI_UNIT(.MILLI.,.METRE.)
);
#1670=(
LENGTH_UNIT()
NAMED_UNIT(*)
SI_UNIT(.CENTI.,.METRE.)
);
#1671=(
NAMED_UNIT(*)
PLANE_ANGLE_UNIT()
SI_UNIT($,.RADIAN.)
);
#1672=(
NAMED_UNIT(*)
SI_UNIT($,.STERADIAN.)
SOLID_ANGLE_UNIT()
);
#1673=SHAPE_DEFINITION_REPRESENTATION(#1674,#1675);
#1674=PRODUCT_DEFINITION_SHAPE('',$,#1677);
#1675=SHAPE_REPRESENTATION('',(#1035),#1667);
#1676=PRODUCT_DEFINITION_CONTEXT('part definition',#1681,'design');
#1677=PRODUCT_DEFINITION('TO228P991X239-3N-R552X520',
'TO228P991X239-3N-R552X520',#1678,#1676);
#1678=PRODUCT_DEFINITION_FORMATION('',$,#1683);
#1679=PRODUCT_RELATED_PRODUCT_CATEGORY('TO228P991X239-3N-R552X520',
'TO228P991X239-3N-R552X520',(#1683));
#1680=APPLICATION_PROTOCOL_DEFINITION('international standard',
'automotive_design',2009,#1681);
#1681=APPLICATION_CONTEXT(
'Core Data for Automotive Mechanical Design Process');
#1682=PRODUCT_CONTEXT('part definition',#1681,'mechanical');
#1683=PRODUCT('TO228P991X239-3N-R552X520','TO228P991X239-3N-R552X520',$,
(#1682));
#1684=PRESENTATION_STYLE_ASSIGNMENT((#1687));
#1685=PRESENTATION_STYLE_ASSIGNMENT((#1688));
#1686=PRESENTATION_STYLE_ASSIGNMENT((#1689));
#1687=SURFACE_STYLE_USAGE(.BOTH.,#1696);
#1688=SURFACE_STYLE_USAGE(.BOTH.,#1697);
#1689=SURFACE_STYLE_USAGE(.BOTH.,#1698);
#1690=SURFACE_STYLE_RENDERING_WITH_PROPERTIES($,#1708,(#1693));
#1691=SURFACE_STYLE_RENDERING_WITH_PROPERTIES($,#1709,(#1694));
#1692=SURFACE_STYLE_RENDERING_WITH_PROPERTIES($,#1710,(#1695));
#1693=SURFACE_STYLE_TRANSPARENT(0.);
#1694=SURFACE_STYLE_TRANSPARENT(0.);
#1695=SURFACE_STYLE_TRANSPARENT(0.);
#1696=SURFACE_SIDE_STYLE('',(#1699,#1690));
#1697=SURFACE_SIDE_STYLE('',(#1700,#1691));
#1698=SURFACE_SIDE_STYLE('',(#1701,#1692));
#1699=SURFACE_STYLE_FILL_AREA(#1702);
#1700=SURFACE_STYLE_FILL_AREA(#1703);
#1701=SURFACE_STYLE_FILL_AREA(#1704);
#1702=FILL_AREA_STYLE('',(#1705));
#1703=FILL_AREA_STYLE('',(#1706));
#1704=FILL_AREA_STYLE('',(#1707));
#1705=FILL_AREA_STYLE_COLOUR('',#1708);
#1706=FILL_AREA_STYLE_COLOUR('',#1709);
#1707=FILL_AREA_STYLE_COLOUR('',#1710);
#1708=COLOUR_RGB('',0.749019607843137,0.749019607843137,0.749019607843137);
#1709=COLOUR_RGB('',0.733333333333333,0.733333333333333,0.733333333333333);
#1710=COLOUR_RGB('',0.329411764705882,0.329411764705882,0.329411764705882);
ENDSEC;
END-ISO-10303-21;
