EESchema Schematic File Version 4
EELAYER 30 0
EELAYER END
$Descr User 17335 11946
encoding utf-8
Sheet 5 9
Title "RB0505 CPU Board"
Date "2020-04-15"
Rev ""
Comp ""
Comment1 ""
Comment2 ""
Comment3 ""
Comment4 ""
$EndDescr
Wire Wire Line
	2400 7100 2400 7200
Connection ~ 2400 7100
Wire Wire Line
	11900 3213 11700 3213
Wire Wire Line
	11700 3213 11600 3213
Wire Wire Line
	11600 3213 11500 3213
Wire Wire Line
	11500 3213 11300 3213
Connection ~ 11700 3213
Connection ~ 11600 3213
Connection ~ 11500 3213
Wire Wire Line
	5350 2450 5100 2450
Wire Wire Line
	5100 2450 5100 2500
Wire Wire Line
	5350 3050 5250 3050
Wire Wire Line
	5350 3150 5250 3150
Wire Wire Line
	5350 3250 5250 3250
Wire Wire Line
	5250 3250 5100 3250
Wire Wire Line
	5100 3250 5100 3300
Wire Wire Line
	5250 3150 5250 3250
Wire Wire Line
	5250 3050 5250 3150
Connection ~ 5250 3250
Connection ~ 5250 3150
Text HLabel 10850 7100 2    56   Output ~ 0
DEF-TURB
Text HLabel 10850 6700 2    56   Input ~ 0
CONS-VIT
Text HLabel 10850 6500 2    56   Output ~ 0
SPEED_MEASURE
Text HLabel 10850 6900 2    56   Input ~ 0
BRAKE
Wire Wire Line
	12100 2300 11500 2300
Wire Wire Line
	11500 2300 11250 2300
Connection ~ 11500 2300
Wire Wire Line
	12100 2500 11700 2500
Wire Wire Line
	11700 2500 11250 2500
Connection ~ 11700 2500
Wire Wire Line
	12100 2700 11900 2700
Wire Wire Line
	11900 2700 11250 2700
Connection ~ 11900 2700
Text HLabel 14500 1900 2    70   Input ~ 0
CON-FIO2-MEAS
Wire Wire Line
	2400 6650 2550 6650
Connection ~ 2400 6650
Wire Wire Line
	3600 6250 3600 6350
Wire Wire Line
	4375 6350 3600 6350
Connection ~ 3600 6350
Wire Wire Line
	3800 6050 3800 6250
Wire Wire Line
	4375 6250 3800 6250
Connection ~ 3800 6250
Wire Wire Line
	4000 5850 4000 6150
Wire Wire Line
	4375 6150 4000 6150
Connection ~ 4000 6150
Connection ~ 3400 5650
Wire Wire Line
	4375 6450 3400 6450
Connection ~ 3400 6450
Text HLabel 5000 6450 2    56   Input ~ 0
PWM-BUZ
Text HLabel 5300 6350 2    56   Input ~ 0
INV-STOP
Text HLabel 5000 5850 2    56   Input ~ 0
INHIB-STOP-INV
Text HLabel 3050 3600 2    56   Input ~ 0
EXHALATION-VALVE
Text HLabel 14600 3650 2    70   Input ~ 0
O2_VALVE
Text HLabel 14575 5800 2    56   Output ~ 0
Q-O2-MEAS
Connection ~ 6350 6250
Text HLabel 6650 6250 2    70   Output ~ 0
TESTBUZ
Text HLabel 9825 1700 0    56   Input ~ 0
TX_RAP_AL
Wire Wire Line
	5350 2950 5200 2950
Text HLabel 5200 2950 0    66   Input ~ 0
TX_RAP_AL
Wire Wire Line
	6800 2950 6650 2950
Text HLabel 6800 2950 2    56   Input ~ 0
RX_RAP_AL
Wire Wire Line
	11250 1700 11300 1700
Wire Wire Line
	11300 1700 12100 1700
Connection ~ 11300 1700
Wire Wire Line
	10300 6500 8850 6500
Connection ~ 10300 6500
Text HLabel 9700 5700 2    56   Output ~ 0
TURBINE-TEMP
Text HLabel 10850 7300 2    56   Output ~ 0
ENABLE-TURB
Wire Wire Line
	11250 1900 11300 1900
Wire Wire Line
	11300 1900 12100 1900
Connection ~ 11300 1900
Text HLabel 10050 3100 0    56   Output ~ 0
TEST-RAP-ALARM
Text HLabel 8850 4300 0    56   Input ~ 0
RAP-ALAR
Wire Wire Line
	5350 2050 5250 2050
Wire Wire Line
	5350 2150 5050 2150
Wire Wire Line
	5350 2250 4850 2250
Wire Wire Line
	6650 2850 6700 2850
Wire Wire Line
	6650 3250 6700 3250
Wire Wire Line
	6700 2850 6700 3250
Connection ~ 6700 3250
Wire Wire Line
	8350 3550 8350 3750
Wire Wire Line
	8350 3750 8600 3750
Wire Wire Line
	8350 3750 7900 3750
Connection ~ 8350 3750
Text HLabel 7900 3750 0    56   Input ~ 0
RF
Text HLabel 10050 1500 0    56   Input ~ 0
ALIM_RAP_AL
$Comp
L V_Power:0VANA #U$0180
U 1 1 3541E6BB
P 14800 2100
F 0 "#U$0180" H 14800 2100 50  0001 C CNN
F 1 "0VANA" H 14687 1925 59  0000 L BNN
F 2 "" H 14800 2100 50  0001 C CNN
F 3 "" H 14800 2100 50  0001 C CNN
	1    14800 2100
	0    -1   -1   0   
$EndComp
$Comp
L V_Connector:B3B_ZR J11
U 1 1 54BD1E4C
P 13600 1900
F 0 "J11" H 13500 1437 85  0000 L BNN
F 1 "B3B_ZR" H 13500 1362 59  0001 L BNN
F 2 "GR106772-A:B3BZR-SM3TF" H 13600 1900 50  0001 C CNN
F 3 "" H 13600 1900 50  0001 C CNN
F 4 "CONNECTOR,FIO2, 3 CONTACTS" H 13600 1900 50  0001 C CNN "Description"
F 5 "10097262" H 13600 1900 50  0001 C CNN "Item Number"
F 6 "J.S.T. CORPORATION" H 13600 1900 50  0001 C CNN "Manufacturer"
F 7 "B3B-ZR-SM4-TF (LF)(SN)" H 13600 1900 50  0001 C CNN "Manufacturer_No"
	1    13600 1900
	1    0    0    -1  
$EndComp
$Comp
L V_Connector:B7B_ZR_SM3_TF J18
U 1 1 CDC055CB
P 1850 6950
F 0 "J18" H 1850 6800 85  0000 L BNN
F 1 "B7B_ZR_SM3_TF" H 1850 6712 59  0001 L BNN
F 2 "GR106772-A:B7BZR-SM3TF" H 1850 6950 50  0001 C CNN
F 3 "" H 1850 6950 50  0001 C CNN
F 4 "CONNECTOR, BUZZER CARD, 7 CONTACTS" H 1850 6950 50  0001 C CNN "Description"
F 5 "10097265" H 1850 6950 50  0001 C CNN "Item Number"
F 6 "J.S.T. CORPORATION" H 1850 6950 50  0001 C CNN "Manufacturer"
F 7 "B7B-ZR-SM4-TF (LF)(SN)" H 1850 6950 50  0001 C CNN "Manufacturer_No"
	1    1850 6950
	1    0    0    -1  
$EndComp
$Comp
L V_Capacitor:C0612_47pF_50V_10% C56
U 1 1 A4E15BB6
P 9500 7750
F 0 "C56" H 9950 7775 64  0000 L BNN
F 1 "47pF" H 9975 7700 42  0000 L BNN
F 2 "GR106772-A:C0612-4" H 9500 7750 50  0001 C CNN
F 3 "http://datasheets.avx.com/CapArray.pdf" H 9500 7750 50  0001 C CNN
F 4 "CAPACITOR ARRAY, 47PF, 50V, +/-10%,NPO,0612" H 9500 7750 50  0001 C CNN "Description"
F 5 "10095973" H 9500 7750 50  0001 C CNN "Item Number"
F 6 "AVX_RMS1" H 9500 7750 50  0001 C CNN "Manufacturer"
F 7 "W3A45A470KAT2A" H 9500 7750 50  0001 C CNN "Manufacturer_No"
F 8 "YAGEO_RMS1" H 0   0   50  0001 C CNN "Manufacturer2"
F 9 "CA0612JRNPO9BN470" H 0   0   50  0001 C CNN "Manufacturer_No2"
	1    9500 7750
	1    0    0    -1  
$EndComp
$Comp
L V_Inductor:L_10022911 L?
U 1 1 0A232DEA
P 11100 2300
AR Path="/0A232DEA" Ref="L?"  Part="1" 
AR Path="/5E9258C0/0A232DEA" Ref="L11"  Part="1" 
F 0 "L11" H 11025 2362 42  0000 L BNN
F 1 " " H 11000 2350 34  0000 L BNN
F 2 "GR106772-A:RC1206" H 11100 2300 50  0001 C CNN
F 3 "" H 11100 2300 50  0001 C CNN
F 4 "SMD FERRITE, 1A,1206" H 11100 2300 50  0001 C CNN "Description"
F 5 "10022911" H 11100 2300 50  0001 C CNN "Item Number"
F 6 "WURTH ELEKTRONIK GMBH" H 11100 2300 50  0001 C CNN "Manufacturer"
F 7 "74279218" H 11100 2300 50  0001 C CNN "Manufacturer_No"
	1    11100 2300
	-1   0    0    -1  
$EndComp
$Comp
L V_Inductor:L_10022911 L?
U 1 1 1E5F25AC
P 11100 2500
AR Path="/1E5F25AC" Ref="L?"  Part="1" 
AR Path="/5E9258C0/1E5F25AC" Ref="L19"  Part="1" 
F 0 "L19" H 11012 2562 42  0000 L BNN
F 1 " " H 11000 2550 34  0000 L BNN
F 2 "GR106772-A:RC1206" H 11100 2500 50  0001 C CNN
F 3 "" H 11100 2500 50  0001 C CNN
F 4 "SMD FERRITE, 1A,1206" H 11100 2500 50  0001 C CNN "Description"
F 5 "10022911" H 11100 2500 50  0001 C CNN "Item Number"
F 6 "WURTH ELEKTRONIK GMBH" H 11100 2500 50  0001 C CNN "Manufacturer"
F 7 "74279218" H 11100 2500 50  0001 C CNN "Manufacturer_No"
	1    11100 2500
	-1   0    0    -1  
$EndComp
$Comp
L V_Inductor:L_10022911 L?
U 1 1 19F4C54D
P 11100 2700
AR Path="/19F4C54D" Ref="L?"  Part="1" 
AR Path="/5E9258C0/19F4C54D" Ref="L20"  Part="1" 
F 0 "L20" H 11012 2750 42  0000 L BNN
F 1 " " H 11000 2750 34  0000 L BNN
F 2 "GR106772-A:RC1206" H 11100 2700 50  0001 C CNN
F 3 "" H 11100 2700 50  0001 C CNN
F 4 "SMD FERRITE, 1A,1206" H 11100 2700 50  0001 C CNN "Description"
F 5 "10022911" H 11100 2700 50  0001 C CNN "Item Number"
F 6 "WURTH ELEKTRONIK GMBH" H 11100 2700 50  0001 C CNN "Manufacturer"
F 7 "74279218" H 11100 2700 50  0001 C CNN "Manufacturer_No"
	1    11100 2700
	-1   0    0    -1  
$EndComp
$Comp
L V_Inductor:L_10022907 L?
U 1 1 4DF659C7
P 14250 1900
AR Path="/4DF659C7" Ref="L?"  Part="1" 
AR Path="/5E9258C0/4DF659C7" Ref="L21"  Part="1" 
F 0 "L21" H 14200 1962 42  0000 L BNN
F 1 "74279263" H 14150 1950 34  0001 L BNN
F 2 "GR106772-A:C0603" H 14250 1900 50  0001 C CNN
F 3 "" H 14250 1900 50  0001 C CNN
F 4 "SMD FERRITE 200MA" H 14250 1900 50  0001 C CNN "Description"
F 5 "10022907" H 14250 1900 50  0001 C CNN "Item Number"
F 6 "WURTH ELEKTRONIK GMBH" H 14250 1900 50  0001 C CNN "Manufacturer"
F 7 "74279266" H 14250 1900 50  0001 C CNN "Manufacturer_No"
	1    14250 1900
	1    0    0    -1  
$EndComp
$Comp
L V_Capacitor:C0402_150pF_50V C99
U 1 1 155BCB57
P 14000 1550
F 0 "C99" H 14118 1588 64  0000 L BNN
F 1 "150pF" H 14112 1506 42  0000 L BNN
F 2 "GR106772-A:C0402" H 14000 1550 50  0001 C CNN
F 3 "" H 14000 1550 50  0001 C CNN
F 4 "CAPACITOR CERAMIC, 150PF,50V,+/-5,NPO, 0402" H 14000 1550 50  0001 C CNN "Description"
F 5 "10022975" H 14000 1550 50  0001 C CNN "Item Number"
F 6 "YAGEO_RMS1" H 14000 1550 50  0001 C CNN "Manufacturer"
F 7 "CC0402JRNPO9BN151" H 14000 1550 50  0001 C CNN "Manufacturer_No"
F 8 "KEMET_RMS1" H 14000 1550 50  0001 C CNN "Manufacturer2"
F 9 "C0402C151J5GACTU" H 14000 1550 50  0001 C CNN "Manufacturer_No2"
F 10 "YAGEO_RMS1" H 14000 1550 50  0001 C CNN "Manufacturer3"
F 11 "CC0402JRNPO9BN151" H 14000 1550 50  0001 C CNN "Manufacturer_No3"
	1    14000 1550
	1    0    0    -1  
$EndComp
$Comp
L V_Power:0VANA #U$0248
U 1 1 27C1F247
P 14000 1325
F 0 "#U$0248" H 14000 1325 50  0001 C CNN
F 1 "0VANA" H 13913 1138 59  0000 L BNN
F 2 "" H 14000 1325 50  0001 C CNN
F 3 "" H 14000 1325 50  0001 C CNN
	1    14000 1325
	-1   0    0    1   
$EndComp
$Comp
L V_Capacitor:C0612_47pF_50V_10% C100
U 1 1 809CF3B7
P 3700 7350
F 0 "C100" H 4150 7350 64  0000 L BNN
F 1 "47pF" H 4175 7275 42  0000 L BNN
F 2 "GR106772-A:C0612-4" H 3700 7350 50  0001 C CNN
F 3 "http://datasheets.avx.com/CapArray.pdf" H 3700 7350 50  0001 C CNN
F 4 "CAPACITOR ARRAY, 47PF, 50V, +/-10%,NPO,0612" H 3700 7350 50  0001 C CNN "Description"
F 5 "10095973" H 3700 7350 50  0001 C CNN "Item Number"
F 6 "AVX_RMS1" H 3700 7350 50  0001 C CNN "Manufacturer"
F 7 "W3A45A470KAT2A" H 3700 7350 50  0001 C CNN "Manufacturer_No"
F 8 "YAGEO_RMS1" H 0   0   50  0001 C CNN "Manufacturer2"
F 9 "CA0612JRNPO9BN470" H 0   0   50  0001 C CNN "Manufacturer_No2"
	1    3700 7350
	1    0    0    -1  
$EndComp
$Comp
L V_Inductor:L_10022911 L?
U 1 1 60EE4B83
P 2700 6650
AR Path="/60EE4B83" Ref="L?"  Part="1" 
AR Path="/5E9258C0/60EE4B83" Ref="L22"  Part="1" 
F 0 "L22" H 2638 6712 42  0000 L BNN
F 1 "74279263" H 2600 6700 34  0001 L BNN
F 2 "GR106772-A:RC1206" H 2700 6650 50  0001 C CNN
F 3 "" H 2700 6650 50  0001 C CNN
F 4 "SMD FERRITE, 1A,1206" H 2700 6650 50  0001 C CNN "Description"
F 5 "10022911" H 2700 6650 50  0001 C CNN "Item Number"
F 6 "WURTH ELEKTRONIK GMBH" H 2700 6650 50  0001 C CNN "Manufacturer"
F 7 "74279218" H 2700 6650 50  0001 C CNN "Manufacturer_No"
	1    2700 6650
	1    0    0    -1  
$EndComp
$Comp
L V_Capacitor:C0402_150pF_50V C115
U 1 1 D42B91C8
P 2400 6900
F 0 "C115" H 2493 6925 64  0000 L BNN
F 1 "150pF" H 2500 6844 42  0000 L BNN
F 2 "GR106772-A:C0402" H 2400 6900 50  0001 C CNN
F 3 "" H 2400 6900 50  0001 C CNN
F 4 "CAPACITOR CERAMIC, 150PF,50V,+/-5,NPO, 0402" H 2400 6900 50  0001 C CNN "Description"
F 5 "10022975" H 2400 6900 50  0001 C CNN "Item Number"
F 6 "YAGEO_RMS1" H 2400 6900 50  0001 C CNN "Manufacturer"
F 7 "CC0402JRNPO9BN151" H 2400 6900 50  0001 C CNN "Manufacturer_No"
F 8 "KEMET_RMS1" H 2400 6900 50  0001 C CNN "Manufacturer2"
F 9 "C0402C151J5GACTU" H 2400 6900 50  0001 C CNN "Manufacturer_No2"
F 10 "YAGEO_RMS1" H 2400 6900 50  0001 C CNN "Manufacturer3"
F 11 "CC0402JRNPO9BN151" H 2400 6900 50  0001 C CNN "Manufacturer_No3"
	1    2400 6900
	1    0    0    -1  
$EndComp
$Comp
L V_Connector:B2B_ZR J19
U 1 1 69705732
P 1850 3700
F 0 "J19" H 1750 3350 85  0000 L BNN
F 1 "B2B_ZR" H 1750 3262 59  0001 L BNN
F 2 "GR106772-A:B2BZR-SM3TF" H 1850 3700 50  0001 C CNN
F 3 "" H 1850 3700 50  0001 C CNN
F 4 "CONNECTOR, TEMPERATURE MEASURE, 2 CONTACTS" H 1850 3700 50  0001 C CNN "Description"
F 5 "10097260" H 1850 3700 50  0001 C CNN "Item Number"
F 6 "J.S.T. CORPORATION" H 1850 3700 50  0001 C CNN "Manufacturer"
F 7 "B2B-ZR-SM4-TF (LF)(SN)" H 1850 3700 50  0001 C CNN "Manufacturer_No"
	1    1850 3700
	1    0    0    -1  
$EndComp
$Comp
L V_Inductor:L_10022907 L?
U 1 1 2891A197
P 2550 3600
AR Path="/2891A197" Ref="L?"  Part="1" 
AR Path="/5E9258C0/2891A197" Ref="L23"  Part="1" 
F 0 "L23" H 2475 3662 42  0000 L BNN
F 1 " " H 2450 3650 34  0000 L BNN
F 2 "GR106772-A:C0603" H 2550 3600 50  0001 C CNN
F 3 "" H 2550 3600 50  0001 C CNN
F 4 "SMD FERRITE 200MA" H 2550 3600 50  0001 C CNN "Description"
F 5 "10022907" H 2550 3600 50  0001 C CNN "Item Number"
F 6 "WURTH ELEKTRONIK GMBH" H 2550 3600 50  0001 C CNN "Manufacturer"
F 7 "74279266" H 2550 3600 50  0001 C CNN "Manufacturer_No"
	1    2550 3600
	1    0    0    -1  
$EndComp
$Comp
L V_Capacitor:C0402_150pF_50V C121
U 1 1 84C1574D
P 2300 3300
F 0 "C121" H 2393 3337 64  0000 L BNN
F 1 "150pF" H 2400 3256 42  0000 L BNN
F 2 "GR106772-A:C0402" H 2300 3300 50  0001 C CNN
F 3 "" H 2300 3300 50  0001 C CNN
F 4 "CAPACITOR CERAMIC, 150PF,50V,+/-5,NPO, 0402" H 2300 3300 50  0001 C CNN "Description"
F 5 "10022975" H 2300 3300 50  0001 C CNN "Item Number"
F 6 "YAGEO_RMS1" H 2300 3300 50  0001 C CNN "Manufacturer"
F 7 "CC0402JRNPO9BN151" H 2300 3300 50  0001 C CNN "Manufacturer_No"
F 8 "KEMET_RMS1" H 2300 3300 50  0001 C CNN "Manufacturer2"
F 9 "C0402C151J5GACTU" H 2300 3300 50  0001 C CNN "Manufacturer_No2"
F 10 "YAGEO_RMS1" H 2300 3300 50  0001 C CNN "Manufacturer3"
F 11 "CC0402JRNPO9BN151" H 2300 3300 50  0001 C CNN "Manufacturer_No3"
	1    2300 3300
	1    0    0    -1  
$EndComp
$Comp
L V_Inductor:L_10022907 L?
U 1 1 AE3312F6
P 2550 3800
AR Path="/AE3312F6" Ref="L?"  Part="1" 
AR Path="/5E9258C0/AE3312F6" Ref="L24"  Part="1" 
F 0 "L24" H 2463 3850 42  0000 L BNN
F 1 " " H 2450 3850 34  0000 L BNN
F 2 "GR106772-A:C0603" H 2550 3800 50  0001 C CNN
F 3 "" H 2550 3800 50  0001 C CNN
F 4 "SMD FERRITE 200MA" H 2550 3800 50  0001 C CNN "Description"
F 5 "10022907" H 2550 3800 50  0001 C CNN "Item Number"
F 6 "WURTH ELEKTRONIK GMBH" H 2550 3800 50  0001 C CNN "Manufacturer"
F 7 "74279266" H 2550 3800 50  0001 C CNN "Manufacturer_No"
	1    2550 3800
	1    0    0    -1  
$EndComp
$Comp
L V_Capacitor:C0402_150pF_50V C122
U 1 1 AE0F7B61
P 2300 4050
F 0 "C122" H 2406 4062 64  0000 L BNN
F 1 "150pF" H 2412 3981 42  0000 L BNN
F 2 "GR106772-A:C0402" H 2300 4050 50  0001 C CNN
F 3 "" H 2300 4050 50  0001 C CNN
F 4 "CAPACITOR CERAMIC, 150PF,50V,+/-5,NPO, 0402" H 2300 4050 50  0001 C CNN "Description"
F 5 "10022975" H 2300 4050 50  0001 C CNN "Item Number"
F 6 "YAGEO_RMS1" H 2300 4050 50  0001 C CNN "Manufacturer"
F 7 "CC0402JRNPO9BN151" H 2300 4050 50  0001 C CNN "Manufacturer_No"
F 8 "KEMET_RMS1" H 2300 4050 50  0001 C CNN "Manufacturer2"
F 9 "C0402C151J5GACTU" H 2300 4050 50  0001 C CNN "Manufacturer_No2"
F 10 "YAGEO_RMS1" H 2300 4050 50  0001 C CNN "Manufacturer3"
F 11 "CC0402JRNPO9BN151" H 2300 4050 50  0001 C CNN "Manufacturer_No3"
	1    2300 4050
	1    0    0    -1  
$EndComp
$Comp
L V_Inductor:L_10022907 L?
U 1 1 6491CA69
P 14400 3650
AR Path="/6491CA69" Ref="L?"  Part="1" 
AR Path="/5E9258C0/6491CA69" Ref="L25"  Part="1" 
F 0 "L25" H 14325 3700 42  0000 L BNN
F 1 " " H 14300 3700 34  0000 L BNN
F 2 "GR106772-A:C0603" H 14400 3650 50  0001 C CNN
F 3 "" H 14400 3650 50  0001 C CNN
F 4 "SMD FERRITE 200MA" H 14400 3650 50  0001 C CNN "Description"
F 5 "10022907" H 14400 3650 50  0001 C CNN "Item Number"
F 6 "WURTH ELEKTRONIK GMBH" H 14400 3650 50  0001 C CNN "Manufacturer"
F 7 "74279266" H 14400 3650 50  0001 C CNN "Manufacturer_No"
	1    14400 3650
	1    0    0    -1  
$EndComp
$Comp
L V_Capacitor:C0402_150pF_50V C123
U 1 1 E72891DF
P 14125 3375
F 0 "C123" H 14219 3400 64  0000 L BNN
F 1 "150pF" H 14225 3319 42  0000 L BNN
F 2 "GR106772-A:C0402" H 14125 3375 50  0001 C CNN
F 3 "" H 14125 3375 50  0001 C CNN
F 4 "CAPACITOR CERAMIC, 150PF,50V,+/-5,NPO, 0402" H 14125 3375 50  0001 C CNN "Description"
F 5 "10022975" H 14125 3375 50  0001 C CNN "Item Number"
F 6 "YAGEO_RMS1" H 14125 3375 50  0001 C CNN "Manufacturer"
F 7 "CC0402JRNPO9BN151" H 14125 3375 50  0001 C CNN "Manufacturer_No"
F 8 "KEMET_RMS1" H 14125 3375 50  0001 C CNN "Manufacturer2"
F 9 "C0402C151J5GACTU" H 14125 3375 50  0001 C CNN "Manufacturer_No2"
F 10 "YAGEO_RMS1" H 14125 3375 50  0001 C CNN "Manufacturer3"
F 11 "CC0402JRNPO9BN151" H 14125 3375 50  0001 C CNN "Manufacturer_No3"
	1    14125 3375
	1    0    0    -1  
$EndComp
$Comp
L V_Inductor:L_10022907 L?
U 1 1 5FB96120
P 14400 3850
AR Path="/5FB96120" Ref="L?"  Part="1" 
AR Path="/5E9258C0/5FB96120" Ref="L26"  Part="1" 
F 0 "L26" H 14312 3912 42  0000 L BNN
F 1 " " H 14300 3900 34  0000 L BNN
F 2 "GR106772-A:C0603" H 14400 3850 50  0001 C CNN
F 3 "" H 14400 3850 50  0001 C CNN
F 4 "SMD FERRITE 200MA" H 14400 3850 50  0001 C CNN "Description"
F 5 "10022907" H 14400 3850 50  0001 C CNN "Item Number"
F 6 "WURTH ELEKTRONIK GMBH" H 14400 3850 50  0001 C CNN "Manufacturer"
F 7 "74279266" H 14400 3850 50  0001 C CNN "Manufacturer_No"
	1    14400 3850
	1    0    0    -1  
$EndComp
$Comp
L V_Capacitor:C0402_150pF_50V C124
U 1 1 F26774BC
P 14125 4100
F 0 "C124" H 14219 4113 64  0000 L BNN
F 1 "150pF" H 14225 4044 42  0000 L BNN
F 2 "GR106772-A:C0402" H 14125 4100 50  0001 C CNN
F 3 "" H 14125 4100 50  0001 C CNN
F 4 "CAPACITOR CERAMIC, 150PF,50V,+/-5,NPO, 0402" H 14125 4100 50  0001 C CNN "Description"
F 5 "10022975" H 14125 4100 50  0001 C CNN "Item Number"
F 6 "YAGEO_RMS1" H 14125 4100 50  0001 C CNN "Manufacturer"
F 7 "CC0402JRNPO9BN151" H 14125 4100 50  0001 C CNN "Manufacturer_No"
F 8 "KEMET_RMS1" H 14125 4100 50  0001 C CNN "Manufacturer2"
F 9 "C0402C151J5GACTU" H 14125 4100 50  0001 C CNN "Manufacturer_No2"
F 10 "YAGEO_RMS1" H 14125 4100 50  0001 C CNN "Manufacturer3"
F 11 "CC0402JRNPO9BN151" H 14125 4100 50  0001 C CNN "Manufacturer_No3"
	1    14125 4100
	1    0    0    -1  
$EndComp
$Comp
L V_Inductor:L_10022907 L?
U 1 1 B91119A5
P 13600 5600
AR Path="/B91119A5" Ref="L?"  Part="1" 
AR Path="/5E9258C0/B91119A5" Ref="L27"  Part="1" 
F 0 "L27" H 13550 5663 42  0000 L BNN
F 1 "74279263" H 13500 5650 34  0001 L BNN
F 2 "GR106772-A:C0603" H 13600 5600 50  0001 C CNN
F 3 "" H 13600 5600 50  0001 C CNN
F 4 "10022907" H 13600 5600 50  0001 C CNN "Item Number"
F 5 "SMD FERRITE 200MA" H 0   0   50  0001 C CNN "Description"
F 6 "WURTH ELEKTRONIK GMBH" H 0   0   50  0001 C CNN "Manufacturer"
F 7 "74279266" H 0   0   50  0001 C CNN "Manufacturer_No"
	1    13600 5600
	1    0    0    -1  
$EndComp
$Comp
L V_Capacitor:C0402_150pF_50V C126
U 1 1 D8DBD313
P 13225 6000
F 0 "C126" H 13331 6013 64  0000 L BNN
F 1 "150pF" H 13338 5931 42  0000 L BNN
F 2 "GR106772-A:C0402" H 13225 6000 50  0001 C CNN
F 3 "" H 13225 6000 50  0001 C CNN
F 4 "10022975" H 13225 6000 50  0001 C CNN "Item Number"
F 5 "CAPACITOR CERAMIC, 150PF,50V,+/-5,NPO, 0402" H 0   0   50  0001 C CNN "Description"
F 6 "YAGEO_RMS1" H 0   0   50  0001 C CNN "Manufacturer"
F 7 "KEMET_RMS1" H 0   0   50  0001 C CNN "Manufacturer2"
F 8 "YAGEO_RMS1" H 0   0   50  0001 C CNN "Manufacturer3"
F 9 "CC0402JRNPO9BN151" H 0   0   50  0001 C CNN "Manufacturer_No"
F 10 "C0402C151J5GACTU" H 0   0   50  0001 C CNN "Manufacturer_No2"
F 11 "CC0402JRNPO9BN151" H 0   0   50  0001 C CNN "Manufacturer_No3"
	1    13225 6000
	1    0    0    -1  
$EndComp
$Comp
L V_Connector:2BR254C J21
U 1 1 46F3F097
P 13575 3950
F 0 "J21" H 13550 3825 85  0000 L BNN
F 1 "2BR254C" H 13575 3950 50  0001 C CNN
F 2 "GR106772-A:MOL7395-2_100001100001" H 13575 3950 50  0001 C CNN
F 3 "https://www.molex.com/pdm_docs/sd/022057028_sd.pdf" H 13575 3950 50  0001 C CNN
F 4 "CONNECTOR, O2 VALVE, 2 CONTACTS" H 13575 3950 50  0001 C CNN "Description"
F 5 "10022542" H 13575 3950 50  0001 C CNN "Item Number"
F 6 "MOLEX_RMS1" H 13575 3950 50  0001 C CNN "Manufacturer"
F 7 "22057028" H 13575 3950 50  0001 C CNN "Manufacturer_No"
	1    13575 3950
	1    0    0    -1  
$EndComp
$Comp
L V_Resistor:R0603_4k7_5% R49
U 1 1 8EE7C6AB
P 13975 5800
F 0 "R49" H 14075 5950 64  0000 R TNN
F 1 "4.7k" H 14050 6025 42  0000 R TNN
F 2 "GR106772-A:R0603" H 13975 5800 50  0001 C CNN
F 3 "https://www.bourns.com/docs/Product-Datasheets/CHPREZTR.pdf" H 13975 5800 50  0001 C CNN
F 4 "10022617" H 13975 5800 50  0001 C CNN "Item Number"
F 5 "RESISTOR, 4.7 K OHM, 0.063W +/-5%" H 0   0   50  0001 C CNN "Description"
F 6 "BOURNS_RMS1" H 0   0   50  0001 C CNN "Manufacturer"
F 7 "YAGEO_RMS1" H 0   0   50  0001 C CNN "Manufacturer2"
F 8 "YAGEO_RMS1" H 0   0   50  0001 C CNN "Manufacturer3"
F 9 "CR0603-FX-4701ELF " H 0   0   50  0001 C CNN "Manufacturer_No"
F 10 "RC0603JR-074K7L" H 0   0   50  0001 C CNN "Manufacturer_No2"
F 11 "RC0603JR-074K7L" H 0   0   50  0001 C CNN "Manufacturer_No3"
	1    13975 5800
	1    0    0    1   
$EndComp
$Comp
L V_Capacitor:C0402_100nF_16V_10% C130
U 1 1 A2A653D3
P 14175 6100
F 0 "C130" H 14300 6050 64  0000 L CNN
F 1 "100nF" H 14307 6129 42  0000 L CNN
F 2 "GR106772-A:C0402" H 14175 6100 50  0001 C CNN
F 3 "https://www.yageo.com/upload/media/product/productsearch/datasheet/mlcc/UPY-GPHC_X7R_6.3V-to-50V_18.pdf" H 14175 6100 50  0001 C CNN
F 4 "10022607" H 14175 6100 50  0001 C CNN "Item Number"
F 5 "CAPACITOR,100NF,16V,+/-10%,X7R,0402" H 0   0   50  0001 C CNN "Description"
F 6 "YAGEO_RMS1" H 0   0   50  0001 C CNN "Manufacturer"
F 7 "YAGEO_RMS1" H 0   0   50  0001 C CNN "Manufacturer2"
F 8 "MURATA MANUFACTURING CO., LTD." H 0   0   50  0001 C CNN "Manufacturer3"
F 9 "CC0402KRX7R7BB104" H 0   0   50  0001 C CNN "Manufacturer_No"
F 10 "223878715649" H 0   0   50  0001 C CNN "Manufacturer_No2"
F 11 "GRM155R71C104KA88D" H 0   0   50  0001 C CNN "Manufacturer_No3"
	1    14175 6100
	1    0    0    1   
$EndComp
$Comp
L V_Power:0VANA #U$0272
U 1 1 573EEE1A
P 14175 6300
F 0 "#U$0272" H 14175 6300 50  0001 C CNN
F 1 "0VANA" H 14075 6113 59  0000 L BNN
F 2 "" H 14175 6300 50  0001 C CNN
F 3 "" H 14175 6300 50  0001 C CNN
	1    14175 6300
	1    0    0    -1  
$EndComp
$Comp
L V_Capacitor:C0402_100nF_16V_10% C93
U 1 1 F2D14F41
P 6550 6700
F 0 "C93" H 6675 6650 64  0000 L CNN
F 1 "100nF" H 6675 6725 42  0000 L CNN
F 2 "GR106772-A:C0402" H 6550 6700 50  0001 C CNN
F 3 "https://www.yageo.com/upload/media/product/productsearch/datasheet/mlcc/UPY-GPHC_X7R_6.3V-to-50V_18.pdf" H 6550 6700 50  0001 C CNN
F 4 "10022607" H 6550 6700 50  0001 C CNN "Item Number"
F 5 "CAPACITOR,100NF,16V,+/-10%,X7R,0402" H 0   0   50  0001 C CNN "Description"
F 6 "YAGEO_RMS1" H 0   0   50  0001 C CNN "Manufacturer"
F 7 "YAGEO_RMS1" H 0   0   50  0001 C CNN "Manufacturer2"
F 8 "MURATA MANUFACTURING CO., LTD." H 0   0   50  0001 C CNN "Manufacturer3"
F 9 "CC0402KRX7R7BB104" H 0   0   50  0001 C CNN "Manufacturer_No"
F 10 "223878715649" H 0   0   50  0001 C CNN "Manufacturer_No2"
F 11 "GRM155R71C104KA88D" H 0   0   50  0001 C CNN "Manufacturer_No3"
	1    6550 6700
	1    0    0    1   
$EndComp
$Comp
L V_Power:0VANA #U$065
U 1 1 92CBB1CF
P 6350 7150
F 0 "#U$065" H 6350 7150 50  0001 C CNN
F 1 "0VANA" H 6212 6950 59  0000 L BNN
F 2 "" H 6350 7150 50  0001 C CNN
F 3 "" H 6350 7150 50  0001 C CNN
	1    6350 7150
	1    0    0    -1  
$EndComp
$Comp
L V_Inductor:L_10022911 L?
U 1 1 769AA1BD
P 11100 1500
AR Path="/769AA1BD" Ref="L?"  Part="1" 
AR Path="/5E9258C0/769AA1BD" Ref="L7"  Part="1" 
F 0 "L7" H 11062 1562 42  0000 L BNN
F 1 " " H 11000 1550 34  0000 L BNN
F 2 "GR106772-A:RC1206" H 11100 1500 50  0001 C CNN
F 3 "" H 11100 1500 50  0001 C CNN
F 4 "SMD FERRITE, 1A,1206" H 11100 1500 50  0001 C CNN "Description"
F 5 "10022911" H 11100 1500 50  0001 C CNN "Item Number"
F 6 "WURTH ELEKTRONIK GMBH" H 11100 1500 50  0001 C CNN "Manufacturer"
F 7 "74279218" H 11100 1500 50  0001 C CNN "Manufacturer_No"
	1    11100 1500
	-1   0    0    -1  
$EndComp
$Comp
L V_Inductor:L_10022907 L?
U 1 1 FB4D7CA5
P 11100 1700
AR Path="/FB4D7CA5" Ref="L?"  Part="1" 
AR Path="/5E9258C0/FB4D7CA5" Ref="L9"  Part="1" 
F 0 "L9" H 11062 1762 42  0000 L BNN
F 1 " " H 11000 1750 34  0000 L BNN
F 2 "GR106772-A:C0603" H 11100 1700 50  0001 C CNN
F 3 "" H 11100 1700 50  0001 C CNN
F 4 "SMD FERRITE 200MA" H 11100 1700 50  0001 C CNN "Description"
F 5 "10022907" H 11100 1700 50  0001 C CNN "Item Number"
F 6 "WURTH ELEKTRONIK GMBH" H 11100 1700 50  0001 C CNN "Manufacturer"
F 7 "74279266" H 11100 1700 50  0001 C CNN "Manufacturer_No"
	1    11100 1700
	-1   0    0    -1  
$EndComp
$Comp
L V_Inductor:L_10022907 L?
U 1 1 0E380C20
P 11100 1900
AR Path="/0E380C20" Ref="L?"  Part="1" 
AR Path="/5E9258C0/0E380C20" Ref="L10"  Part="1" 
F 0 "L10" H 11012 1962 42  0000 L BNN
F 1 " " H 11000 1950 34  0000 L BNN
F 2 "GR106772-A:C0603" H 11100 1900 50  0001 C CNN
F 3 "" H 11100 1900 50  0001 C CNN
F 4 "SMD FERRITE 200MA" H 11100 1900 50  0001 C CNN "Description"
F 5 "10022907" H 11100 1900 50  0001 C CNN "Item Number"
F 6 "WURTH ELEKTRONIK GMBH" H 11100 1900 50  0001 C CNN "Manufacturer"
F 7 "74279266" H 11100 1900 50  0001 C CNN "Manufacturer_No"
	1    11100 1900
	-1   0    0    -1  
$EndComp
$Comp
L V_Capacitor:C0612_47pF_50V_10% C38
U 1 1 897E4B72
P 11600 2950
F 0 "C38" H 12075 2950 64  0000 L BNN
F 1 "47pF" H 12100 2875 42  0000 L BNN
F 2 "GR106772-A:C0612-4" H 11600 2950 50  0001 C CNN
F 3 "http://datasheets.avx.com/CapArray.pdf" H 11600 2950 50  0001 C CNN
F 4 "CAPACITOR ARRAY, 47PF, 50V, +/-10%,NPO,0612" H 11600 2950 50  0001 C CNN "Description"
F 5 "10095973" H 11600 2950 50  0001 C CNN "Item Number"
F 6 "AVX_RMS1" H 11600 2950 50  0001 C CNN "Manufacturer"
F 7 "W3A45A470KAT2A" H 11600 2950 50  0001 C CNN "Manufacturer_No"
F 8 "YAGEO_RMS1" H 0   0   50  0001 C CNN "Manufacturer2"
F 9 "CA0612JRNPO9BN470" H 0   0   50  0001 C CNN "Manufacturer_No2"
	1    11600 2950
	-1   0    0    -1  
$EndComp
$Comp
L V_Inductor:L_10022907 L?
U 1 1 9CA3DB02
P 4525 5850
AR Path="/9CA3DB02" Ref="L?"  Part="1" 
AR Path="/5E9258C0/9CA3DB02" Ref="L12"  Part="1" 
F 0 "L12" H 4463 5913 42  0000 L BNN
F 1 " " H 4425 5900 34  0000 L BNN
F 2 "GR106772-A:C0603" H 4525 5850 50  0001 C CNN
F 3 "" H 4525 5850 50  0001 C CNN
F 4 "SMD FERRITE 200MA" H 4525 5850 50  0001 C CNN "Description"
F 5 "10022907" H 4525 5850 50  0001 C CNN "Item Number"
F 6 "WURTH ELEKTRONIK GMBH" H 4525 5850 50  0001 C CNN "Manufacturer"
F 7 "74279266" H 4525 5850 50  0001 C CNN "Manufacturer_No"
	1    4525 5850
	1    0    0    -1  
$EndComp
$Comp
L V_Inductor:L_10022907 L?
U 1 1 4AF5E44F
P 4525 6150
AR Path="/4AF5E44F" Ref="L?"  Part="1" 
AR Path="/5E9258C0/4AF5E44F" Ref="L13"  Part="1" 
F 0 "L13" H 4463 6287 42  0000 L BNN
F 1 "DNP" H 4475 6200 34  0000 L BNN
F 2 "GR106772-A:C0603" H 4525 6150 50  0001 C CNN
F 3 "" H 4525 6150 50  0001 C CNN
F 4 "10022907" H 4525 6150 50  0001 C CNN "Item Number"
F 5 "SMD FERRITE 200MA" H 0   0   50  0001 C CNN "Description"
F 6 "WURTH ELEKTRONIK GMBH" H 0   0   50  0001 C CNN "Manufacturer"
F 7 "74279266" H 0   0   50  0001 C CNN "Manufacturer_No"
	1    4525 6150
	1    0    0    -1  
$EndComp
$Comp
L V_Inductor:L_10022907 L?
U 1 1 1FFF9411
P 4525 6250
AR Path="/1FFF9411" Ref="L?"  Part="1" 
AR Path="/5E9258C0/1FFF9411" Ref="L14"  Part="1" 
F 0 "L14" H 4675 6262 42  0000 L BNN
F 1 " " H 4425 6300 34  0000 L BNN
F 2 "GR106772-A:C0603" H 4525 6250 50  0001 C CNN
F 3 "" H 4525 6250 50  0001 C CNN
F 4 "SMD FERRITE 200MA" H 4525 6250 50  0001 C CNN "Description"
F 5 "10022907" H 4525 6250 50  0001 C CNN "Item Number"
F 6 "WURTH ELEKTRONIK GMBH" H 4525 6250 50  0001 C CNN "Manufacturer"
F 7 "74279266" H 4525 6250 50  0001 C CNN "Manufacturer_No"
	1    4525 6250
	1    0    0    -1  
$EndComp
$Comp
L V_Inductor:L_10022907 L?
U 1 1 3DD13E20
P 4525 6350
AR Path="/3DD13E20" Ref="L?"  Part="1" 
AR Path="/5E9258C0/3DD13E20" Ref="L15"  Part="1" 
F 0 "L15" H 4675 6375 42  0000 L BNN
F 1 " " H 4425 6400 34  0000 L BNN
F 2 "GR106772-A:C0603" H 4525 6350 50  0001 C CNN
F 3 "" H 4525 6350 50  0001 C CNN
F 4 "SMD FERRITE 200MA" H 4525 6350 50  0001 C CNN "Description"
F 5 "10022907" H 4525 6350 50  0001 C CNN "Item Number"
F 6 "WURTH ELEKTRONIK GMBH" H 4525 6350 50  0001 C CNN "Manufacturer"
F 7 "74279266" H 4525 6350 50  0001 C CNN "Manufacturer_No"
	1    4525 6350
	1    0    0    -1  
$EndComp
$Comp
L V_Inductor:L_10022907 L?
U 1 1 DF33D3D6
P 4525 6450
AR Path="/DF33D3D6" Ref="L?"  Part="1" 
AR Path="/5E9258C0/DF33D3D6" Ref="L17"  Part="1" 
F 0 "L17" H 4663 6462 42  0000 L BNN
F 1 " " H 4663 6587 34  0000 L BNN
F 2 "GR106772-A:C0603" H 4525 6450 50  0001 C CNN
F 3 "" H 4525 6450 50  0001 C CNN
F 4 "SMD FERRITE 200MA" H 4525 6450 50  0001 C CNN "Description"
F 5 "10022907" H 4525 6450 50  0001 C CNN "Item Number"
F 6 "WURTH ELEKTRONIK GMBH" H 4525 6450 50  0001 C CNN "Manufacturer"
F 7 "74279266" H 4525 6450 50  0001 C CNN "Manufacturer_No"
	1    4525 6450
	1    0    0    -1  
$EndComp
$Comp
L V_Connector:10BRMF J4
U 1 1 FA7CA15B
P 8650 7600
F 0 "J4" H 8650 7450 85  0000 L BNN
F 1 "10BRMF" H 8650 7600 50  0001 C CNN
F 2 "GR106772-A:BP2X5C_111101100001100001100001100001100001100001100001100001100101" H 8650 7600 50  0001 C CNN
F 3 "" H 8650 7600 50  0001 C CNN
F 4 "HEADER CONNECTOR, RIGHT ANGLE, 10 PINS" H 8650 7600 50  0001 C CNN "Description"
F 5 "10052329" H 8650 7600 50  0001 C CNN "Item Number"
F 6 "FCI/BERG" H 8650 7600 50  0001 C CNN "Manufacturer"
F 7 "75867-101LF" H 8650 7600 50  0001 C CNN "Manufacturer_No"
F 8 "FCI/BERG" H 8650 7600 50  0001 C CNN "Manufacturer2"
F 9 "88874-010LF" H 8650 7600 50  0001 C CNN "Manufacturer_No2"
	1    8650 7600
	1    0    0    -1  
$EndComp
$Comp
L V_Inductor:L_10022907 L?
U 1 1 0382B5B7
P 10550 6700
AR Path="/0382B5B7" Ref="L?"  Part="1" 
AR Path="/5E9258C0/0382B5B7" Ref="L33"  Part="1" 
F 0 "L33" H 10450 6750 42  0000 L BNN
F 1 " " H 10450 6750 34  0000 L BNN
F 2 "GR106772-A:C0603" H 10550 6700 50  0001 C CNN
F 3 "" H 10550 6700 50  0001 C CNN
F 4 "SMD FERRITE 200MA" H 10550 6700 50  0001 C CNN "Description"
F 5 "10022907" H 10550 6700 50  0001 C CNN "Item Number"
F 6 "WURTH ELEKTRONIK GMBH" H 10550 6700 50  0001 C CNN "Manufacturer"
F 7 "74279266" H 10550 6700 50  0001 C CNN "Manufacturer_No"
	1    10550 6700
	1    0    0    -1  
$EndComp
$Comp
L V_Inductor:L_10022907 L?
U 1 1 04EF688F
P 10550 6500
AR Path="/04EF688F" Ref="L?"  Part="1" 
AR Path="/5E9258C0/04EF688F" Ref="L34"  Part="1" 
F 0 "L34" H 10450 6550 42  0000 L BNN
F 1 " " H 10450 6550 34  0000 L BNN
F 2 "GR106772-A:C0603" H 10550 6500 50  0001 C CNN
F 3 "" H 10550 6500 50  0001 C CNN
F 4 "SMD FERRITE 200MA" H 10550 6500 50  0001 C CNN "Description"
F 5 "10022907" H 10550 6500 50  0001 C CNN "Item Number"
F 6 "WURTH ELEKTRONIK GMBH" H 10550 6500 50  0001 C CNN "Manufacturer"
F 7 "74279266" H 10550 6500 50  0001 C CNN "Manufacturer_No"
	1    10550 6500
	1    0    0    -1  
$EndComp
$Comp
L V_Resistor:R0603_3k3_1% R11
U 1 1 D126BCF1
P 9300 5450
F 0 "R11" H 9025 5350 64  0000 L BNN
F 1 "3.3k" H 9075 5450 42  0000 L BNN
F 2 "GR106772-A:R0603" H 9300 5450 50  0001 C CNN
F 3 "" H 9300 5450 50  0001 C CNN
F 4 "RESISTOR,3.3K OHM,0.063W,+/-1%,0603" H 9300 5450 50  0001 C CNN "Description"
F 5 "10022731" H 9300 5450 50  0001 C CNN "Item Number"
F 6 "YAGEO_RMS1" H 9300 5450 50  0001 C CNN "Manufacturer"
F 7 "RC0603FR-073K3L" H 9300 5450 50  0001 C CNN "Manufacturer_No"
F 8 "YAGEO_RMS1" H 9300 5450 50  0001 C CNN "Manufacturer2"
F 9 "RC0603FR-073K3L" H 9300 5450 50  0001 C CNN "Manufacturer_No2"
F 10 "BOURNS_RMS1" H 9300 5450 50  0001 C CNN "Manufacturer3"
F 11 "CR0603-FX-3301ELF" H 9300 5450 50  0001 C CNN "Manufacturer_No3"
	1    9300 5450
	-1   0    0    1   
$EndComp
$Comp
L V_Capacitor:C0402_100nF_16V_10% C11
U 1 1 F1735AC7
P 9300 5850
F 0 "C11" H 9425 5825 64  0000 L CNN
F 1 "100nF" H 9425 5900 42  0000 L CNN
F 2 "GR106772-A:C0402" H 9300 5850 50  0001 C CNN
F 3 "https://www.yageo.com/upload/media/product/productsearch/datasheet/mlcc/UPY-GPHC_X7R_6.3V-to-50V_18.pdf" H 9300 5850 50  0001 C CNN
F 4 "CAPACITOR,100NF,16V,+/-10%,X7R,0402" H 9300 5850 50  0001 C CNN "Description"
F 5 "10022607" H 9300 5850 50  0001 C CNN "Item Number"
F 6 "YAGEO_RMS1" H 9300 5850 50  0001 C CNN "Manufacturer"
F 7 "CC0402KRX7R7BB104" H 9300 5850 50  0001 C CNN "Manufacturer_No"
F 8 "YAGEO_RMS1" H 9300 5850 50  0001 C CNN "Manufacturer2"
F 9 "223878715649" H 9300 5850 50  0001 C CNN "Manufacturer_No2"
F 10 "MURATA MANUFACTURING CO., LTD." H 9300 5850 50  0001 C CNN "Manufacturer3"
F 11 "GRM155R71C104KA88D" H 9300 5850 50  0001 C CNN "Manufacturer_No3"
	1    9300 5850
	1    0    0    1   
$EndComp
$Comp
L V_Capacitor:C0402_47pF_50V_5% C12
U 1 1 DF23C80B
P 11300 1300
F 0 "C12" H 11000 1175 64  0000 L BNN
F 1 "47pF" H 11025 1275 42  0000 L BNN
F 2 "GR106772-A:C0402" H 11300 1300 50  0001 C CNN
F 3 "" H 11300 1300 50  0001 C CNN
F 4 "CAPACITOR,47 PF,+/-5%,50V,0402" H 11300 1300 50  0001 C CNN "Description"
F 5 "10022623" H 11300 1300 50  0001 C CNN "Item Number"
F 6 "MURATA MANUFACTURING CO., LTD." H 11300 1300 50  0001 C CNN "Manufacturer"
F 7 "GRM1555C1H470JA01D" H 11300 1300 50  0001 C CNN "Manufacturer_No"
F 8 "SAMSUNG_RMS1" H 11300 1300 50  0001 C CNN "Manufacturer2"
F 9 "CL05C470JB5NNNC" H 11300 1300 50  0001 C CNN "Manufacturer_No2"
F 10 "KEMET_RMS1" H 11300 1300 50  0001 C CNN "Manufacturer3"
F 11 "C0402C470J5GACTU" H 11300 1300 50  0001 C CNN "Manufacturer_No3"
	1    11300 1300
	-1   0    0    1   
$EndComp
$Comp
L V_Capacitor:C0402_47pF_50V_5% C13
U 1 1 F7DD181D
P 3400 5400
F 0 "C13" H 3500 5325 64  0000 L BNN
F 1 "47pF" H 3500 5425 42  0000 L BNN
F 2 "GR106772-A:C0402" H 3400 5400 50  0001 C CNN
F 3 "" H 3400 5400 50  0001 C CNN
F 4 "CAPACITOR,47 PF,+/-5%,50V,0402" H 3400 5400 50  0001 C CNN "Description"
F 5 "10022623" H 3400 5400 50  0001 C CNN "Item Number"
F 6 "MURATA MANUFACTURING CO., LTD." H 3400 5400 50  0001 C CNN "Manufacturer"
F 7 "GRM1555C1H470JA01D" H 3400 5400 50  0001 C CNN "Manufacturer_No"
F 8 "SAMSUNG_RMS1" H 3400 5400 50  0001 C CNN "Manufacturer2"
F 9 "CL05C470JB5NNNC" H 3400 5400 50  0001 C CNN "Manufacturer_No2"
F 10 "KEMET_RMS1" H 3400 5400 50  0001 C CNN "Manufacturer3"
F 11 "C0402C470J5GACTU" H 3400 5400 50  0001 C CNN "Manufacturer_No3"
	1    3400 5400
	1    0    0    1   
$EndComp
$Comp
L V_Connector:B8B_ZR J2
U 1 1 C3E76336
P 12300 2450
F 0 "J2" H 12250 1987 85  0000 L BNN
F 1 "B8B_ZR" H 12200 1862 59  0000 L BNN
F 2 "GR106772-A:B8BZR-SM3TF" H 12300 2450 50  0001 C CNN
F 3 "" H 12300 2450 50  0001 C CNN
F 4 "CONNECTOR, 8 CONTACTS" H 12300 2450 50  0001 C CNN "Description"
F 5 "10097257" H 12300 2450 50  0001 C CNN "Item Number"
F 6 "J.S.T. CORPORATION" H 12300 2450 50  0001 C CNN "Manufacturer"
F 7 "B8B-ZR-SM4-TF (LF)(SN)" H 12300 2450 50  0001 C CNN "Manufacturer_No"
	1    12300 2450
	-1   0    0    -1  
$EndComp
$Comp
L V_Relay:G6K2G RL1
U 1 1 AE3C6605
P 10200 2400
F 0 "RL1" H 10525 2375 45  0001 L BNN
F 1 "G6K2G" H 10200 2650 59  0001 L BNN
F 2 "GR106772-A:G6K2G" H 10200 2400 50  0001 C CNN
F 3 "" H 10200 2400 50  0001 C CNN
F 4 "RELAY,LOW VOLTAGE 1A COIL 5VDC" H 10200 2400 50  0001 C CNN "Description"
F 5 "10023252" H 10200 2400 50  0001 C CNN "Item Number"
F 6 "OMRON ELECTRONICS INC" H 10200 2400 50  0001 C CNN "Manufacturer"
F 7 "G6K-2G-TR DC5" H 10200 2400 50  0001 C CNN "Manufacturer_No"
F 8 "OMRON ELECTRONICS INC" H 10200 2400 50  0001 C CNN "Manufacturer2"
F 9 "G6K-2G DC5" H 10200 2400 50  0001 C CNN "Manufacturer_No2"
	1    10200 2400
	1    0    0    -1  
$EndComp
$Comp
L V_Relay:G6K2G RL1
U 3 1 AE3C660D
P 10650 3000
F 0 "RL1" H 10625 3050 45  0001 L BNN
F 1 "G6K2G" H 10650 3250 59  0001 L BNN
F 2 "GR106772-A:G6K2G" H 10650 3000 50  0001 C CNN
F 3 "" H 10650 3000 50  0001 C CNN
F 4 "RELAY,LOW VOLTAGE 1A COIL 5VDC" H 10225 2400 50  0001 C CNN "Description"
F 5 "10023252" H 10225 2400 50  0001 C CNN "Item Number"
F 6 "OMRON ELECTRONICS INC" H 10225 2400 50  0001 C CNN "Manufacturer"
F 7 "G6K-2G-TR DC5" H 10225 2400 50  0001 C CNN "Manufacturer_No"
F 8 "OMRON ELECTRONICS INC" H 10225 2400 50  0001 C CNN "Manufacturer2"
F 9 "G6K-2G DC5" H 10225 2400 50  0001 C CNN "Manufacturer_No2"
	3    10650 3000
	-1   0    0    1   
$EndComp
$Comp
L V_Diode:D_Schottky_A1K3_10022652 D13
U 1 1 7D634AE3
P 9800 3750
F 0 "D13" H 9771 3904 59  0000 L BNN
F 1 "BAT54" H 9786 3836 42  0000 L BNN
F 2 "GR106772-A:SOT23-1G" H 9800 3750 50  0001 C CNN
F 3 "" H 9800 3750 50  0001 C CNN
F 4 "DIODE SCHOTTKY, 30V, 200MA" H 9800 3750 50  0001 C CNN "Description"
F 5 "10022652" H 9800 3750 50  0001 C CNN "Item Number"
F 6 "NXP SEMICONDUCTORS_RMS1" H 9800 3750 50  0001 C CNN "Manufacturer"
F 7 "BAT54,215" H 9800 3750 50  0001 C CNN "Manufacturer_No"
F 8 "NXP SEMICONDUCTORS_RMS1" H 9800 3750 50  0001 C CNN "Manufacturer2"
F 9 "BAT54" H 9800 3750 50  0001 C CNN "Manufacturer_No2"
	1    9800 3750
	1    0    0    -1  
$EndComp
$Comp
L V_Transistor:Q_PMOS_GSD_10022157 T19
U 1 1 EE28C6DF
P 9300 3850
F 0 "T19" V 9650 3765 59  0000 L BNN
F 1 "BSS84" V 9570 3777 56  0000 L BNN
F 2 "GR106772-A:SOT23-GSD" H 9300 3850 50  0001 C CNN
F 3 "" H 9300 3850 50  0001 C CNN
F 4 "TRANSISTOR, P CHANNEL, 50V, 0.13A,      5 OHM, SOT23" H 9300 3850 50  0001 C CNN "Description"
F 5 "10022157" H 9300 3850 50  0001 C CNN "Item Number"
F 6 "NXP SEMICONDUCTORS_RMS1" H 9300 3850 50  0001 C CNN "Manufacturer"
F 7 "BSS84" H 9300 3850 50  0001 C CNN "Manufacturer_No"
F 8 "ON SEMICONDUCTOR_RMS1" H 9300 3850 50  0001 C CNN "Manufacturer2"
F 9 "BSS84LT1G" H 9300 3850 50  0001 C CNN "Manufacturer_No2"
F 10 "NXP SEMICONDUCTORS_RMS1" H 9300 3850 50  0001 C CNN "Manufacturer3"
F 11 "BSS84,215" H 9300 3850 50  0001 C CNN "Manufacturer_No3"
	1    9300 3850
	0    1    -1   0   
$EndComp
$Comp
L V_IC:ARF34 IC37
U 1 1 629CAE50
P 5850 3250
F 0 "IC37" H 6350 4775 59  0000 L BNN
F 1 "ARF34" H 6312 4675 59  0000 L BNN
F 2 "GR106772-A:ARF7151A" H 5850 3250 50  0001 C CNN
F 3 "" H 5850 3250 50  0001 C CNN
	1    5850 3250
	1    0    0    -1  
$EndComp
$Comp
L V_Connector:ANTENNE_1PIN ANT1
U 1 1 9927FDA6
P 5050 1800
F 0 "ANT1" H 5150 2000 59  0000 L BNN
F 1 "ANTENNE" H 5050 1800 50  0001 C CNN
F 2 "GR106772-A:PT-1.0MM_TEST_100001" H 5050 1800 50  0001 C CNN
F 3 "" H 5050 1800 50  0001 C CNN
	1    5050 1800
	1    0    0    -1  
$EndComp
$Comp
L V_Capacitor:C_22uF_10V_10% C89
U 1 1 71EBD326
P 7525 2775
F 0 "C89" H 7450 2750 56  0000 R CNN
F 1 "22uF" H 7450 2825 42  0000 R CNN
F 2 "GR106772-A:C3216" H 7525 2775 50  0001 C CNN
F 3 "https://api.kemet.com/component-edge/download/datasheet/T495A226K010ATE1K2.pdf" H 7525 2775 50  0001 C CNN
F 4 "CAPACITOR TANTALUM, 22UF, 10V,+/-10%" H 7525 2775 50  0001 C CNN "Description"
F 5 "10022973" H 7525 2775 50  0001 C CNN "Item Number"
F 6 "KEMET" H 7525 2775 50  0001 C CNN "Manufacturer"
F 7 "T495A226K010ATE1K2" H 7525 2775 50  0001 C CNN "Manufacturer_No"
	1    7525 2775
	-1   0    0    1   
$EndComp
$Comp
L V_Capacitor:C0402_100nF_16V_10% C98
U 1 1 57D09F0C
P 7950 2775
F 0 "C98" H 8075 2725 64  0000 L CNN
F 1 "100nF" H 8075 2800 42  0000 L CNN
F 2 "GR106772-A:C0402" H 7950 2775 50  0001 C CNN
F 3 "https://www.yageo.com/upload/media/product/productsearch/datasheet/mlcc/UPY-GPHC_X7R_6.3V-to-50V_18.pdf" H 7950 2775 50  0001 C CNN
F 4 "10022607" H 7950 2775 50  0001 C CNN "Item Number"
F 5 "CAPACITOR,100NF,16V,+/-10%,X7R,0402" H 0   0   50  0001 C CNN "Description"
F 6 "YAGEO_RMS1" H 0   0   50  0001 C CNN "Manufacturer"
F 7 "YAGEO_RMS1" H 0   0   50  0001 C CNN "Manufacturer2"
F 8 "MURATA MANUFACTURING CO., LTD." H 0   0   50  0001 C CNN "Manufacturer3"
F 9 "CC0402KRX7R7BB104" H 0   0   50  0001 C CNN "Manufacturer_No"
F 10 "223878715649" H 0   0   50  0001 C CNN "Manufacturer_No2"
F 11 "GRM155R71C104KA88D" H 0   0   50  0001 C CNN "Manufacturer_No3"
	1    7950 2775
	1    0    0    1   
$EndComp
$Comp
L V_Transistor:Q_PMOS_GSD_10022933 T17
U 1 1 E3A7CA7E
P 8350 3350
F 0 "T17" V 8737 3415 59  0000 L BNN
F 1 "IRLML5103" V 8645 3165 56  0000 L BNN
F 2 "GR106772-A:SOT23-GSD" H 8350 3350 50  0001 C CNN
F 3 "" H 8350 3350 50  0001 C CNN
F 4 "RSPTRANSISTOR MOSFET, P CHANNEL, 30V,0.6A" H 8350 3350 50  0001 C CNN "Description"
F 5 "10022933" H 8350 3350 50  0001 C CNN "Item Number"
F 6 "INTERNATIONAL RECTIFIER_RMS1" H 8350 3350 50  0001 C CNN "Manufacturer"
F 7 "IRLML5103TRPBF" H 8350 3350 50  0001 C CNN "Manufacturer_No"
	1    8350 3350
	0    -1   -1   0   
$EndComp
$Comp
L V_Resistor:R_100k_5% R48
U 1 1 19AB9E8C
P 8600 3500
F 0 "R48" V 8525 3762 64  0000 R TNN
F 1 "100k" V 8650 3587 42  0000 L BNN
F 2 "GR106772-A:R0603" H 8600 3500 50  0001 C CNN
F 3 "" H 8600 3500 50  0001 C CNN
F 4 "RESISTOR,100 K OHM, 0.063W +/-5%" H 8600 3500 50  0001 C CNN "Description"
F 5 "10022732" H 8600 3500 50  0001 C CNN "Item Number"
F 6 "YAGEO_RMS1" H 8600 3500 50  0001 C CNN "Manufacturer"
F 7 "RC0603JR-07100KL" H 8600 3500 50  0001 C CNN "Manufacturer_No"
F 8 "YAGEO_RMS1" H 8600 3500 50  0001 C CNN "Manufacturer2"
F 9 "RC0603JR-07100KL" H 8600 3500 50  0001 C CNN "Manufacturer_No2"
F 10 "YAGEO_RMS1" H 8600 3500 50  0001 C CNN "Manufacturer3"
F 11 "RC0603JR-07100KL" H 8600 3500 50  0001 C CNN "Manufacturer_No3"
F 12 "PANASONIC_RMS1" H 8600 3500 50  0001 C CNN "Manufacturer4"
F 13 "ERJ3GEYJ104V" H 8600 3500 50  0001 C CNN "Manufacturer_No4"
	1    8600 3500
	0    1    1    0   
$EndComp
$Comp
L V_Capacitor:C0402_4n7F_25V_10% C101
U 1 1 D5229C91
P 10300 7750
F 0 "C101" H 10425 7813 64  0000 L CNN
F 1 "4.7nF" H 10425 7713 42  0000 L CNN
F 2 "GR106772-A:C0402" H 10300 7750 50  0001 C CNN
F 3 "" H 10300 7750 50  0001 C CNN
F 4 "CAPACITOR CERAMIC,4.7NF,25V,+/-10%,0402" H 10300 7750 50  0001 C CNN "Description"
F 5 "10022976" H 10300 7750 50  0001 C CNN "Item Number"
F 6 "KYOCERA_RMS1" H 10300 7750 50  0001 C CNN "Manufacturer"
F 7 "CM05X7R472K25AT" H 10300 7750 50  0001 C CNN "Manufacturer_No"
F 8 "KEMET_RMS1" H 10300 7750 50  0001 C CNN "Manufacturer2"
F 9 "C0402C472K3RACTU" H 10300 7750 50  0001 C CNN "Manufacturer_No2"
F 10 "AVX_RMS1" H 10300 7750 50  0001 C CNN "Manufacturer3"
F 11 "04023C472KAT2A" H 10300 7750 50  0001 C CNN "Manufacturer_No3"
	1    10300 7750
	1    0    0    -1  
$EndComp
Wire Notes Line
	7562 4600 12012 4600
Wire Notes Line
	7562 8263 7562 4600
Wire Notes Line
	12812 863  4512 863 
Wire Notes Line
	4512 863  4512 4538
Wire Notes Line
	12812 863  12812 4538
Wire Notes Line
	12812 4538 4512 4538
Wire Notes Line
	15925 850  12887 850 
Wire Notes Line
	12887 850  12887 2788
Wire Notes Line
	15925 2788 12887 2788
Wire Notes Line
	15925 850  15925 2788
Wire Notes Line
	7487 4600 987  4600
Wire Notes Line
	7487 8263 987  8263
Wire Notes Line
	7487 4600 7487 8263
Wire Notes Line
	7562 8263 12012 8263
Wire Notes Line
	12012 8263 12012 4600
Wire Notes Line
	1995 6913 2002 6916
Wire Notes Line
	987  2713 4450 2713
Wire Notes Line
	4450 2713 4450 4538
Wire Notes Line
	4450 4538 987  4538
Wire Notes Line
	987  4538 987  2713
Wire Notes Line
	13870 2863 13877 2866
Wire Notes Line
	12887 2863 15925 2863
Wire Notes Line
	15925 2863 15925 4538
Wire Notes Line
	15925 4538 12887 4538
Wire Notes Line
	12887 4538 12887 2863
Wire Notes Line
	12062 4600 15937 4600
Wire Notes Line
	12062 6975 12062 4600
Wire Notes Line
	12062 6975 15937 6975
Wire Notes Line
	15937 6975 15937 4600
Wire Notes Line
	4450 863  987  863 
Wire Notes Line
	987  863  987  2650
Wire Notes Line
	4450 863  4450 2650
Wire Notes Line
	4450 2650 987  2650
Wire Notes Line
	10425 3663 10412 3663
Wire Notes Line
	10412 3663 10412 2738
Wire Notes Line
	10412 2663 10412 2438
Wire Notes Line
	10412 2438 10425 2438
Wire Notes Line
	987  4600 987  8263
Text Notes 4550 1025 0    59   ~ 0
ALARM REPEATER
Text Notes 12600 2375 1    59   ~ 0
To Alarm Repeater
Text Notes 13475 2175 1    59   ~ 0
To FIO2 sensor
Text Notes 7650 4850 0    59   ~ 0
BLOWER CONNECTOR
Text Notes 13012 988  0    59   ~ 0
FiO2 SENSOR CONNECTOR
Text Notes 1087 4788 0    59   ~ 0
BUZZER BOARD CONNECTOR
Text Notes 1062 5688 0    59   ~ 0
INHIB-STOP-INV
Text Notes 1050 5888 0    59   ~ 0
SUPPLY-BUZ
Text Notes 1050 6088 0    59   ~ 0
TESTBUZ
Text Notes 1050 6263 0    59   ~ 0
STOP-INV
Text Notes 1062 6475 0    59   ~ 0
PWM-BUZ
Text Notes 1062 6875 0    59   ~ 0
GND
Text Notes 1062 6675 0    59   ~ 0
+5V
Text Notes 1062 2863 0    59   ~ 0
EXHALATION VALVE CONNECTOR
Text Notes 12937 3025 0    59   ~ 0
O2 VALVE CONNECTOR
Text Notes 12262 5650 0    59   ~ 0
+10VREF
Text Notes 12150 5850 0    59   ~ 0
MES-Q-O2
Text Notes 12362 6050 0    59   ~ 0
0VANA
Text Notes 12375 6250 0    59   ~ 0
0VANA
Text Notes 12125 4750 0    59   ~ 0
O2 FLOW SENSOR CONNECTOR
Text Notes 15750 10750 0    59   ~ 0
A
Text Notes 15925 10750 0    59   ~ 0
05/03/14
Text Notes 16500 10750 0    59   ~ 0
JR
Text Notes 7775 7550 0    59   ~ 0
GND
Text Notes 7762 6125 0    59   ~ 0
NC
Text Notes 7762 6325 0    59   ~ 0
NC
Text Notes 1050 1013 0    59   ~ 0
AMBIENT TEMPERATURE SENSOR CONNECTOR
Text Notes 7775 5950 0    59   ~ 0
0VANA
Text Notes 7775 5750 0    59   ~ 0
TURBINE-TEMP
Text Notes 7775 6525 0    59   ~ 0
SPEED-MEASURE
Text Notes 7775 6700 0    59   ~ 0
SPEED-SETPOINT
Text Notes 7775 6900 0    59   ~ 0
BRAKE/
Text Notes 7775 7100 0    59   ~ 0
FAULT/
Text Notes 7775 7300 0    59   ~ 0
ENABLE
$Comp
L V_Inductor:L_10022907 L?
U 1 1 A9F7421E
P 2450 1900
AR Path="/A9F7421E" Ref="L?"  Part="1" 
AR Path="/5E9258C0/A9F7421E" Ref="L37"  Part="1" 
F 0 "L37" H 2388 1962 64  0000 L BNN
F 1 " " H 2350 1950 34  0000 L BNN
F 2 "GR106772-A:C0603" H 2450 1900 50  0001 C CNN
F 3 "" H 2450 1900 50  0001 C CNN
F 4 "SMD FERRITE 200MA" H 2450 1900 50  0001 C CNN "Description"
F 5 "10022907" H 2450 1900 50  0001 C CNN "Item Number"
F 6 "WURTH ELEKTRONIK GMBH" H 2450 1900 50  0001 C CNN "Manufacturer"
F 7 "74279266" H 2450 1900 50  0001 C CNN "Manufacturer_No"
	1    2450 1900
	1    0    0    -1  
$EndComp
$Comp
L V_Capacitor:C0402_100nF_16V_10% C76
U 1 1 D58B9C26
P 2700 2100
F 0 "C76" H 2800 2025 64  0000 L BNN
F 1 "100nF" H 2800 2100 42  0000 L BNN
F 2 "GR106772-A:C0402" H 2700 2100 50  0001 C CNN
F 3 "https://www.yageo.com/upload/media/product/productsearch/datasheet/mlcc/UPY-GPHC_X7R_6.3V-to-50V_18.pdf" H 2700 2100 50  0001 C CNN
F 4 "CAPACITOR,100NF,16V,+/-10%,X7R,0402" H 2700 2100 50  0001 C CNN "Description"
F 5 "10022607" H 2700 2100 50  0001 C CNN "Item Number"
F 6 "YAGEO_RMS1" H 2700 2100 50  0001 C CNN "Manufacturer"
F 7 "CC0402KRX7R7BB104" H 2700 2100 50  0001 C CNN "Manufacturer_No"
F 8 "YAGEO_RMS1" H 2700 2100 50  0001 C CNN "Manufacturer2"
F 9 "223878715649" H 2700 2100 50  0001 C CNN "Manufacturer_No2"
F 10 "MURATA MANUFACTURING CO., LTD." H 2700 2100 50  0001 C CNN "Manufacturer3"
F 11 "GRM155R71C104KA88D" H 2700 2100 50  0001 C CNN "Manufacturer_No3"
	1    2700 2100
	1    0    0    1   
$EndComp
$Comp
L V_Resistor:R0603_10k_5% R43
U 1 1 DA0B1885
P 2700 1600
F 0 "R43" V 2788 1338 64  0000 L BNN
F 1 "10k" V 2688 1388 42  0000 L BNN
F 2 "GR106772-A:R0603" H 2700 1600 50  0001 C CNN
F 3 "" H 2700 1600 50  0001 C CNN
F 4 "RESISTOR,10K OHM, 0.063W,+/-5%,0603" H 2700 1600 50  0001 C CNN "Description"
F 5 "10097266" H 2700 1600 50  0001 C CNN "Item Number"
F 6 "YAGEO_RMS1" H 2700 1600 50  0001 C CNN "Manufacturer"
F 7 "RC0603JR-0710KL" H 2700 1600 50  0001 C CNN "Manufacturer_No"
F 8 "YAGEO_RMS1" H 2700 1600 50  0001 C CNN "Manufacturer2"
F 9 "RC0603JR-0710KL" H 2700 1600 50  0001 C CNN "Manufacturer_No2"
F 10 "VISHAY_RMS1" H 2700 1600 50  0001 C CNN "Manufacturer3"
F 11 "CRCW060310K0JNEA" H 2700 1600 50  0001 C CNN "Manufacturer_No3"
	1    2700 1600
	0    -1   -1   0   
$EndComp
$Comp
L V_Power:0VANA #U$0405
U 1 1 F4807D6B
P 2600 2400
F 0 "#U$0405" H 2600 2400 50  0001 C CNN
F 1 "0VANA" H 2500 2225 59  0000 L BNN
F 2 "" H 2600 2400 50  0001 C CNN
F 3 "" H 2600 2400 50  0001 C CNN
	1    2600 2400
	1    0    0    -1  
$EndComp
Text HLabel 3050 1900 2    56   Input ~ 0
FLOW-TEMP
Wire Wire Line
	2600 2400 2600 2300
$Comp
L V_Resistor:R0603_10k_5% R70
U 1 1 AC81A314
P 6350 6700
F 0 "R70" V 6350 6963 64  0000 R TNN
F 1 "10k" V 6275 6950 42  0000 R TNN
F 2 "GR106772-A:R0603" H 6350 6700 50  0001 C CNN
F 3 "" H 6350 6700 50  0001 C CNN
F 4 "RESISTOR,10K OHM, 0.063W,+/-5%,0603" H 6350 6700 50  0001 C CNN "Description"
F 5 "10097266" H 6350 6700 50  0001 C CNN "Item Number"
F 6 "YAGEO_RMS1" H 6350 6700 50  0001 C CNN "Manufacturer"
F 7 "RC0603JR-0710KL" H 6350 6700 50  0001 C CNN "Manufacturer_No"
F 8 "YAGEO_RMS1" H 6350 6700 50  0001 C CNN "Manufacturer2"
F 9 "RC0603JR-0710KL" H 6350 6700 50  0001 C CNN "Manufacturer_No2"
F 10 "VISHAY_RMS1" H 6350 6700 50  0001 C CNN "Manufacturer3"
F 11 "CRCW060310K0JNEA" H 6350 6700 50  0001 C CNN "Manufacturer_No3"
	1    6350 6700
	0    -1   -1   0   
$EndComp
$Comp
L V_Power:0VANA #U$0132
U 1 1 30C30973
P 9050 6000
F 0 "#U$0132" H 9050 6000 50  0001 C CNN
F 1 "0VANA" H 8938 5812 59  0000 L BNN
F 2 "" H 9050 6000 50  0001 C CNN
F 3 "" H 9050 6000 50  0001 C CNN
	1    9050 6000
	1    0    0    -1  
$EndComp
NoConn ~ 8850 6100
NoConn ~ 8850 6300
$Comp
L V_Inductor:L_10022907 L?
U 1 1 4B3EEFE3
P 10550 7100
AR Path="/4B3EEFE3" Ref="L?"  Part="1" 
AR Path="/5E9258C0/4B3EEFE3" Ref="L31"  Part="1" 
F 0 "L31" H 10450 7150 42  0000 L BNN
F 1 " " H 10450 7150 34  0000 L BNN
F 2 "GR106772-A:C0603" H 10550 7100 50  0001 C CNN
F 3 "" H 10550 7100 50  0001 C CNN
F 4 "SMD FERRITE 200MA" H 10550 7100 50  0001 C CNN "Description"
F 5 "10022907" H 10550 7100 50  0001 C CNN "Item Number"
F 6 "WURTH ELEKTRONIK GMBH" H 10550 7100 50  0001 C CNN "Manufacturer"
F 7 "74279266" H 10550 7100 50  0001 C CNN "Manufacturer_No"
	1    10550 7100
	1    0    0    -1  
$EndComp
$Comp
L V_Inductor:L_10022907 L?
U 1 1 2B9F3777
P 10550 7300
AR Path="/2B9F3777" Ref="L?"  Part="1" 
AR Path="/5E9258C0/2B9F3777" Ref="L29"  Part="1" 
F 0 "L29" H 10450 7350 42  0000 L BNN
F 1 " " H 10450 7350 34  0000 L BNN
F 2 "GR106772-A:C0603" H 10550 7300 50  0001 C CNN
F 3 "" H 10550 7300 50  0001 C CNN
F 4 "SMD FERRITE 200MA" H 10550 7300 50  0001 C CNN "Description"
F 5 "10022907" H 10550 7300 50  0001 C CNN "Item Number"
F 6 "WURTH ELEKTRONIK GMBH" H 10550 7300 50  0001 C CNN "Manufacturer"
F 7 "74279266" H 10550 7300 50  0001 C CNN "Manufacturer_No"
	1    10550 7300
	1    0    0    -1  
$EndComp
$Comp
L V_Inductor:L_10022907 L?
U 1 1 BACB79CB
P 13600 5800
AR Path="/BACB79CB" Ref="L?"  Part="1" 
AR Path="/5E9258C0/BACB79CB" Ref="L28"  Part="1" 
F 0 "L28" H 13538 5863 42  0000 L BNN
F 1 "74279263" H 13500 5850 34  0001 L BNN
F 2 "GR106772-A:C0603" H 13600 5800 50  0001 C CNN
F 3 "" H 13600 5800 50  0001 C CNN
F 4 "10022907" H 13600 5800 50  0001 C CNN "Item Number"
F 5 "SMD FERRITE 200MA" H 0   0   50  0001 C CNN "Description"
F 6 "WURTH ELEKTRONIK GMBH" H 0   0   50  0001 C CNN "Manufacturer"
F 7 "74279266" H 0   0   50  0001 C CNN "Manufacturer_No"
	1    13600 5800
	1    0    0    -1  
$EndComp
$Comp
L V_Connector:B4B_ZR J20
U 1 1 DB725FC6
P 12775 5900
F 0 "J20" H 12675 5350 85  0000 L BNN
F 1 "B4B_ZR" H 12675 5263 59  0001 L BNN
F 2 "GR106772-A:B4BZR-SM3TF" H 12775 5900 50  0001 C CNN
F 3 "" H 12775 5900 50  0001 C CNN
F 4 "F-COCMS-B4BZR-SM4TF (JST)" H 12775 5900 50  0001 C CNN "Description"
	1    12775 5900
	1    0    0    -1  
$EndComp
$Comp
L V_Power:0VANA #U$0263
U 1 1 DEDC7F62
P 13225 6300
F 0 "#U$0263" H 13225 6300 50  0001 C CNN
F 1 "0VANA" H 13138 6113 59  0000 L BNN
F 2 "" H 13225 6300 50  0001 C CNN
F 3 "" H 13225 6300 50  0001 C CNN
	1    13225 6300
	1    0    0    -1  
$EndComp
Wire Wire Line
	13225 6300 13225 6200
Wire Wire Line
	13075 6000 13075 6200
Wire Wire Line
	13075 6200 13225 6200
Connection ~ 13075 6200
Connection ~ 13225 6200
Wire Wire Line
	13225 6200 13225 6100
Wire Wire Line
	13225 5900 13225 5800
Connection ~ 13225 5800
Wire Wire Line
	13225 5800 13450 5800
Connection ~ 13225 5600
Wire Wire Line
	13225 5600 13450 5600
Wire Wire Line
	13750 5600 13975 5600
Wire Wire Line
	13975 5600 13975 5200
Wire Wire Line
	14550 3650 14600 3650
Wire Wire Line
	14550 3850 14600 3850
Wire Wire Line
	14125 4000 14125 3850
Wire Wire Line
	14125 3850 14250 3850
Wire Wire Line
	14125 4275 14125 4200
Wire Wire Line
	14125 3475 14125 3650
Wire Wire Line
	14125 3650 14250 3650
Wire Wire Line
	14125 3225 14125 3275
Wire Wire Line
	14000 1325 14000 1450
Wire Wire Line
	14000 1650 14000 1900
Wire Wire Line
	14000 1900 13800 1900
NoConn ~ 13800 1700
Wire Wire Line
	14100 1900 14000 1900
Connection ~ 14000 1900
Wire Wire Line
	13800 2100 14800 2100
Wire Wire Line
	14400 1900 14500 1900
$Comp
L V_Capacitor:C_47uF_10V_10% C75
U 1 1 C2D1BC15
P 11750 2100
F 0 "C75" V 11719 2338 56  0000 L BNN
F 1 "47uF" V 11782 2338 42  0000 L BNN
F 2 "GR106772-A:C3528" H 11750 2100 50  0001 C CNN
F 3 "" H 11750 2100 50  0001 C CNN
F 4 "CAPACITOR TANALUM, 47UF, 10V +/-10%" H 11750 2100 50  0001 C CNN "Description"
F 5 "10022962" H 11750 2100 50  0001 C CNN "Item Number"
F 6 "KEMET" H 11750 2100 50  0001 C CNN "Manufacturer"
F 7 "T495B476K010ATE500" H 11750 2100 50  0001 C CNN "Manufacturer_No"
	1    11750 2100
	0    -1   1    0   
$EndComp
Wire Wire Line
	11250 1500 11550 1500
Wire Wire Line
	11550 2100 11650 2100
Wire Wire Line
	11550 2100 11550 1500
Connection ~ 11550 1500
Wire Wire Line
	11550 1500 12100 1500
Wire Wire Line
	10950 1500 10050 1500
Wire Wire Line
	10950 1700 9825 1700
Wire Wire Line
	10950 1900 9825 1900
Text HLabel 9825 1900 0    56   Output ~ 0
RX_RAP_AL
Wire Wire Line
	9100 3750 9050 3750
Connection ~ 9050 3750
Wire Wire Line
	10250 4050 10050 4050
Wire Wire Line
	10050 4050 10050 3750
Connection ~ 10050 3750
Wire Wire Line
	10050 3750 10050 3325
Wire Wire Line
	10050 3325 9700 3325
$Comp
L V_Diode:D_Schottky D6
U 1 1 D13B7196
P 10400 4050
F 0 "D6" H 10516 4208 59  0000 R TNN
F 1 "PRLL5819" H 10513 4289 42  0000 R TNN
F 2 "GR106772-A:SOD87" H 10400 4050 50  0001 C CNN
F 3 "https://www.diodes.com/assets/Datasheets/ds30217.pdf" H 10400 4050 50  0001 C CNN
F 4 "DIODE SCHOTTKY, 40V, 1A" H 10400 4050 50  0001 C CNN "Description"
F 5 "10097253" H 10400 4050 50  0001 C CNN "Item Number"
F 6 "DIODES INC_RMS1" H 10400 4050 50  0001 C CNN "Manufacturer"
F 7 "1N5819HW-7-F" H 10400 4050 50  0001 C CNN "Manufacturer_No"
	1    10400 4050
	-1   0    0    1   
$EndComp
Wire Wire Line
	10700 4050 10700 4300
Connection ~ 10700 4050
Wire Wire Line
	10050 3100 10150 3100
NoConn ~ 10150 2800
Wire Wire Line
	10900 3050 10900 3000
Wire Wire Line
	10900 3000 10650 3000
Wire Wire Line
	11600 3213 11600 3250
NoConn ~ 12100 1300
Wire Wire Line
	11300 1100 11300 1150
NoConn ~ 6650 2050
NoConn ~ 6650 2150
NoConn ~ 6650 2250
NoConn ~ 6650 2550
NoConn ~ 6650 2650
NoConn ~ 6650 2750
NoConn ~ 6650 3050
NoConn ~ 6650 3150
Connection ~ 7950 2450
Wire Wire Line
	7950 2450 8000 2450
Connection ~ 7950 3250
Wire Wire Line
	8600 3050 8600 3250
Wire Wire Line
	8550 3250 8600 3250
Connection ~ 8600 3250
NoConn ~ 5350 2550
NoConn ~ 5350 2650
NoConn ~ 5350 2750
NoConn ~ 5350 2850
Wire Wire Line
	5050 2000 5050 2150
Wire Wire Line
	8850 6700 9800 6700
Wire Wire Line
	8850 6900 9600 6900
Wire Wire Line
	8850 7100 9400 7100
Wire Wire Line
	8850 7300 9200 7300
Wire Wire Line
	9800 7900 9800 8000
Wire Wire Line
	9800 8000 9600 8000
Wire Wire Line
	9200 7900 9200 8000
Connection ~ 9200 8000
Wire Wire Line
	9200 8000 9000 8000
Wire Wire Line
	9400 7900 9400 8000
Connection ~ 9400 8000
Wire Wire Line
	9400 8000 9200 8000
Wire Wire Line
	9600 7900 9600 8000
Connection ~ 9600 8000
Wire Wire Line
	9600 8000 9400 8000
Wire Wire Line
	9000 8000 9000 7500
Wire Wire Line
	9000 7500 8850 7500
Wire Wire Line
	9200 7600 9200 7300
Connection ~ 9200 7300
Wire Wire Line
	9400 7600 9400 7100
Connection ~ 9400 7100
Wire Wire Line
	9600 7600 9600 6900
Connection ~ 9600 6900
Wire Wire Line
	9800 7600 9800 6700
Connection ~ 9800 6700
Text Notes 1900 8025 0    50   ~ 0
*Note: in earlier version, L22 connects to +5V instead of +5VSUPPLYBOARD
Wire Wire Line
	2600 1900 2700 1900
Wire Wire Line
	2700 1750 2700 1900
Connection ~ 2700 1900
Wire Wire Line
	2700 1900 3050 1900
Wire Wire Line
	2700 1950 2700 1900
Wire Wire Line
	2700 1350 2700 1450
Wire Wire Line
	2050 2100 2100 2100
$Comp
L V_Connector:B2B_ZR J5
U 1 1 7C49DE93
P 1850 2000
F 0 "J5" H 1750 1650 85  0000 L BNN
F 1 "B2B_ZR" H 1750 1562 59  0001 L BNN
F 2 "GR106772-A:B2BZR-SM3TF" H 1850 2000 50  0001 C CNN
F 3 "" H 1850 2000 50  0001 C CNN
F 4 "CONNECTOR, TEMPERATURE MEASURE, 2 CONTACTS" H 1850 2000 50  0001 C CNN "Description"
F 5 "10097260" H 1850 2000 50  0001 C CNN "Item Number"
F 6 "J.S.T. CORPORATION" H 1850 2000 50  0001 C CNN "Manufacturer"
F 7 "B2B-ZR-SM4-TF (LF)(SN)" H 1850 2000 50  0001 C CNN "Manufacturer_No"
	1    1850 2000
	1    0    0    -1  
$EndComp
Wire Wire Line
	2200 1900 2300 1900
Connection ~ 2200 1900
Wire Wire Line
	2050 1900 2200 1900
Wire Wire Line
	2200 1900 2200 1950
Wire Wire Line
	2300 3150 2300 3200
Wire Wire Line
	2300 4150 2300 4200
Wire Wire Line
	2050 3800 2300 3800
Wire Wire Line
	2300 3950 2300 3800
Connection ~ 2300 3800
Wire Wire Line
	2300 3800 2400 3800
Wire Wire Line
	2050 3600 2300 3600
Wire Wire Line
	2300 3600 2300 3400
Connection ~ 2300 3600
Wire Wire Line
	2300 3600 2400 3600
Wire Wire Line
	2700 3600 3050 3600
Wire Wire Line
	2800 3800 2700 3800
Wire Wire Line
	2150 6650 2400 6650
Wire Wire Line
	2150 6250 3600 6250
Wire Wire Line
	2150 6050 3800 6050
Wire Wire Line
	2150 5850 4000 5850
Wire Wire Line
	2150 5650 3400 5650
Wire Wire Line
	2150 6450 3400 6450
Wire Wire Line
	2250 6850 2250 7100
Wire Wire Line
	2150 6850 2250 6850
Wire Wire Line
	2250 7100 2400 7100
Wire Wire Line
	2400 7000 2400 7100
Wire Wire Line
	2400 6650 2400 6800
Wire Wire Line
	3400 5650 4200 5650
Wire Wire Line
	4200 5650 4200 5850
Wire Wire Line
	4200 5850 4375 5850
Wire Wire Line
	4675 5850 5000 5850
Wire Wire Line
	4675 6450 5000 6450
Wire Wire Line
	4675 6350 5300 6350
Wire Wire Line
	4675 6150 5000 6150
Wire Wire Line
	4675 6250 5850 6250
Wire Wire Line
	6150 6250 6350 6250
Wire Wire Line
	6350 6250 6350 6550
Connection ~ 6550 6250
Wire Wire Line
	6550 6250 6650 6250
Wire Wire Line
	6350 6850 6350 7000
Wire Wire Line
	6350 6250 6550 6250
Wire Wire Line
	6350 7000 6550 7000
Connection ~ 6350 7000
Wire Wire Line
	6350 7000 6350 7150
Wire Wire Line
	3400 6450 3400 7200
Wire Wire Line
	3600 6350 3600 7200
Wire Wire Line
	3800 6250 3800 7200
Wire Wire Line
	4000 6150 4000 7200
Wire Wire Line
	3800 7500 3800 7650
Wire Wire Line
	3800 7650 3600 7650
Wire Wire Line
	3600 7500 3600 7650
Connection ~ 3600 7650
Wire Wire Line
	3600 7650 3400 7650
Wire Wire Line
	3400 7500 3400 7650
Wire Wire Line
	3800 7650 4000 7650
Wire Wire Line
	4000 7500 4000 7650
Connection ~ 3800 7650
Wire Wire Line
	2850 6650 3100 6650
Wire Wire Line
	10300 6500 10400 6500
Wire Wire Line
	9800 6700 10400 6700
Wire Wire Line
	9600 6900 10400 6900
Wire Wire Line
	9400 7100 10400 7100
Wire Wire Line
	9200 7300 10400 7300
Wire Wire Line
	10700 7300 10850 7300
Wire Wire Line
	10700 7100 10850 7100
Wire Wire Line
	10700 6900 10850 6900
Wire Wire Line
	10700 6700 10850 6700
Wire Wire Line
	10700 6500 10850 6500
Wire Wire Line
	9300 5150 9300 5300
Wire Wire Line
	9300 5600 9300 5700
Wire Wire Line
	8850 5700 9300 5700
Connection ~ 9300 5700
Wire Wire Line
	9300 5700 9700 5700
Wire Wire Line
	8850 5900 9050 5900
Wire Wire Line
	9300 6000 9050 6000
Connection ~ 9050 6000
Wire Wire Line
	9050 6000 9050 5900
Wire Wire Line
	10300 7850 10300 8000
Wire Wire Line
	10300 6500 10300 7650
Wire Wire Line
	12975 6000 13075 6000
Wire Wire Line
	12975 5800 13225 5800
Wire Wire Line
	12975 5600 13225 5600
Wire Wire Line
	12975 6200 13075 6200
$Comp
L V_Power:0VANA #U$0265
U 1 1 3BAA26EC
P 13225 5200
F 0 "#U$0265" H 13225 5200 50  0001 C CNN
F 1 "0VANA" H 13137 5013 59  0000 L BNN
F 2 "" H 13225 5200 50  0001 C CNN
F 3 "" H 13225 5200 50  0001 C CNN
	1    13225 5200
	-1   0    0    1   
$EndComp
$Comp
L V_Capacitor:C0402_150pF_50V C127
U 1 1 6407AC1D
P 13225 5350
F 0 "C127" H 13331 5375 64  0000 L BNN
F 1 "150pF" H 13338 5293 42  0000 L BNN
F 2 "GR106772-A:C0402" H 13225 5350 50  0001 C CNN
F 3 "" H 13225 5350 50  0001 C CNN
F 4 "10022975" H 13225 5350 50  0001 C CNN "Item Number"
F 5 "CAPACITOR CERAMIC, 150PF,50V,+/-5,NPO, 0402" H 0   0   50  0001 C CNN "Description"
F 6 "YAGEO_RMS1" H 0   0   50  0001 C CNN "Manufacturer"
F 7 "KEMET_RMS1" H 0   0   50  0001 C CNN "Manufacturer2"
F 8 "YAGEO_RMS1" H 0   0   50  0001 C CNN "Manufacturer3"
F 9 "CC0402JRNPO9BN151" H 0   0   50  0001 C CNN "Manufacturer_No"
F 10 "C0402C151J5GACTU" H 0   0   50  0001 C CNN "Manufacturer_No2"
F 11 "CC0402JRNPO9BN151" H 0   0   50  0001 C CNN "Manufacturer_No3"
	1    13225 5350
	1    0    0    -1  
$EndComp
Wire Wire Line
	13750 5800 13825 5800
Wire Wire Line
	13225 5450 13225 5600
Wire Wire Line
	13225 5200 13225 5250
Wire Wire Line
	11900 3100 11900 3213
Wire Wire Line
	11700 3100 11700 3213
Wire Wire Line
	11300 3100 11300 3213
Wire Wire Line
	11500 3100 11500 3213
Wire Wire Line
	11500 2300 11500 2800
Wire Wire Line
	11700 2500 11700 2800
Wire Wire Line
	11900 2700 11900 2800
Wire Wire Line
	11300 1900 11300 2800
Wire Wire Line
	10700 2300 10925 2300
Wire Wire Line
	10200 2400 10200 2700
Wire Wire Line
	10700 4050 10700 3750
$Comp
L V_Relay:G6K2G RL1
U 2 1 AE3C6609
P 10250 3850
F 0 "RL1" H 10550 4150 85  0000 L BNN
F 1 "G6K2G" H 10550 4075 59  0000 L BNN
F 2 "GR106772-A:G6K2G" H 10250 3850 50  0001 C CNN
F 3 "" H 10250 3850 50  0001 C CNN
F 4 "RELAY,LOW VOLTAGE 1A COIL 5VDC" H 10200 2400 50  0001 C CNN "Description"
F 5 "10023252" H 10200 2400 50  0001 C CNN "Item Number"
F 6 "OMRON ELECTRONICS INC" H 10200 2400 50  0001 C CNN "Manufacturer"
F 7 "G6K-2G-TR DC5" H 10200 2400 50  0001 C CNN "Manufacturer_No"
F 8 "OMRON ELECTRONICS INC" H 10200 2400 50  0001 C CNN "Manufacturer2"
F 9 "G6K-2G DC5" H 10200 2400 50  0001 C CNN "Manufacturer_No2"
	2    10250 3850
	1    0    0    -1  
$EndComp
Wire Wire Line
	10150 3750 10050 3750
Wire Wire Line
	10650 3750 10700 3750
Wire Wire Line
	10200 2700 10950 2700
Wire Wire Line
	10700 2600 10700 2500
Wire Wire Line
	10700 2500 10925 2500
Wire Wire Line
	9950 3750 10050 3750
Wire Wire Line
	9500 3750 9650 3750
$Comp
L V_Resistor:R_100k_5% R68
U 1 1 49CDDF81
P 9050 4000
F 0 "R68" V 9050 4263 64  0000 R TNN
F 1 "100k" V 8975 4263 42  0000 R TNN
F 2 "GR106772-A:R0603" H 9050 4000 50  0001 C CNN
F 3 "" H 9050 4000 50  0001 C CNN
F 4 "RESISTOR,100 K OHM, 0.063W +/-5%" H 9050 4000 50  0001 C CNN "Description"
F 5 "10022732" H 9050 4000 50  0001 C CNN "Item Number"
F 6 "YAGEO_RMS1" H 9050 4000 50  0001 C CNN "Manufacturer"
F 7 "RC0603JR-07100KL" H 9050 4000 50  0001 C CNN "Manufacturer_No"
F 8 "YAGEO_RMS1" H 9050 4000 50  0001 C CNN "Manufacturer2"
F 9 "RC0603JR-07100KL" H 9050 4000 50  0001 C CNN "Manufacturer_No2"
F 10 "YAGEO_RMS1" H 9050 4000 50  0001 C CNN "Manufacturer3"
F 11 "RC0603JR-07100KL" H 9050 4000 50  0001 C CNN "Manufacturer_No3"
	1    9050 4000
	0    -1   -1   0   
$EndComp
Wire Wire Line
	9050 3750 9050 3850
Wire Wire Line
	8850 4300 9050 4300
Wire Wire Line
	9050 4150 9050 4300
Wire Wire Line
	9050 4300 9300 4300
Wire Wire Line
	9300 4050 9300 4300
Connection ~ 9050 4300
Wire Wire Line
	9050 3600 9050 3750
Wire Wire Line
	8600 3650 8600 3750
Wire Wire Line
	8600 3250 8600 3350
Wire Wire Line
	7950 2450 7950 2625
Wire Wire Line
	6650 2450 7525 2450
Wire Wire Line
	6700 3250 7525 3250
Wire Wire Line
	7525 2875 7525 3250
Connection ~ 7525 3250
Wire Wire Line
	7525 3250 7950 3250
Wire Wire Line
	7525 2675 7525 2450
Connection ~ 7525 2450
Wire Wire Line
	7525 2450 7950 2450
Wire Wire Line
	7950 3250 8150 3250
Wire Wire Line
	10550 4050 10700 4050
Wire Wire Line
	3400 5550 3400 5650
Wire Wire Line
	7950 2925 7950 3250
Wire Wire Line
	11300 1450 11300 1700
Wire Wire Line
	6550 6550 6550 6250
Wire Wire Line
	6550 6850 6550 7000
$Comp
L V_Capacitor:C0402_47pF_50V_5% C86
U 1 1 908E3118
P 2200 2100
F 0 "C86" H 2300 2050 64  0000 L CNN
F 1 "47pF" H 2300 2125 42  0000 L CNN
F 2 "GR106772-A:C0402" H 2200 2100 50  0001 C CNN
F 3 "" H 2200 2100 50  0001 C CNN
F 4 "CAPACITOR,47 PF,+/-5%,50V,0402" H 2200 2100 50  0001 C CNN "Description"
F 5 "10022623" H 2200 2100 50  0001 C CNN "Item Number"
F 6 "MURATA MANUFACTURING CO., LTD." H 2200 2100 50  0001 C CNN "Manufacturer"
F 7 "GRM1555C1H470JA01D" H 2200 2100 50  0001 C CNN "Manufacturer_No"
F 8 "SAMSUNG_RMS1" H 2200 2100 50  0001 C CNN "Manufacturer2"
F 9 "CL05C470JB5NNNC" H 2200 2100 50  0001 C CNN "Manufacturer_No2"
F 10 "KEMET_RMS1" H 2200 2100 50  0001 C CNN "Manufacturer3"
F 11 "C0402C470J5GACTU" H 2200 2100 50  0001 C CNN "Manufacturer_No3"
	1    2200 2100
	1    0    0    1   
$EndComp
Connection ~ 14125 3850
Wire Wire Line
	13775 3850 14125 3850
Connection ~ 14125 3650
Wire Wire Line
	13775 3650 14125 3650
Wire Wire Line
	2700 2250 2700 2300
Wire Wire Line
	2700 2300 2600 2300
Connection ~ 2600 2300
Wire Wire Line
	2200 2250 2200 2300
Wire Wire Line
	2200 2300 2600 2300
Wire Wire Line
	2200 2300 2100 2300
Connection ~ 2200 2300
Wire Wire Line
	2100 2100 2100 2300
Wire Wire Line
	14175 6300 14175 6250
Wire Wire Line
	14125 5800 14175 5800
Wire Wire Line
	14175 5950 14175 5800
Connection ~ 14175 5800
Wire Wire Line
	14175 5800 14575 5800
$Comp
L V_Resistor:R0603_0R_5% R69
U 1 1 E29E9980
P 6000 6250
F 0 "R69" H 6000 6425 64  0000 C CNN
F 1 "0R" H 6000 6350 42  0000 C CNN
F 2 "GR106772-A:R0603" H 6000 6250 50  0001 C CNN
F 3 "" H 6000 6250 50  0001 C CNN
F 4 "10023185" H 6000 6250 50  0001 C CNN "Item Number"
	1    6000 6250
	1    0    0    -1  
$EndComp
Wire Wire Line
	11850 2100 11950 2100
$Comp
L V_Power:+5VREF #0112
U 1 1 5EC3F83B
P 2700 1350
F 0 "#0112" H 2750 1400 50  0001 C CNN
F 1 "+5VREF" H 2525 1500 59  0000 L CNN
F 2 "" H 2700 1450 50  0001 C CNN
F 3 "" H 2700 1450 50  0001 C CNN
	1    2700 1350
	1    0    0    -1  
$EndComp
$Comp
L V_Power:GND #PWR0147
U 1 1 5EC42482
P 2300 4200
F 0 "#PWR0147" H 2450 4150 50  0001 C CNN
F 1 "GND" H 2300 4050 50  0000 C CNN
F 2 "" H 2300 4100 50  0001 C CNN
F 3 "" H 2300 4100 50  0001 C CNN
	1    2300 4200
	1    0    0    -1  
$EndComp
$Comp
L V_Power:GND #PWR0148
U 1 1 5EC42DD7
P 2300 3150
F 0 "#PWR0148" H 2450 3100 50  0001 C CNN
F 1 "GND" H 2300 3000 50  0000 C CNN
F 2 "" H 2300 3050 50  0001 C CNN
F 3 "" H 2300 3050 50  0001 C CNN
	1    2300 3150
	-1   0    0    1   
$EndComp
$Comp
L V_Power:GND #PWR0149
U 1 1 5EC6AB7F
P 5100 2500
F 0 "#PWR0149" H 5250 2450 50  0001 C CNN
F 1 "GND" H 5100 2350 50  0000 C CNN
F 2 "" H 5100 2400 50  0001 C CNN
F 3 "" H 5100 2400 50  0001 C CNN
	1    5100 2500
	1    0    0    -1  
$EndComp
$Comp
L V_Power:GND #PWR0150
U 1 1 5EC72217
P 5100 3300
F 0 "#PWR0150" H 5250 3250 50  0001 C CNN
F 1 "GND" H 5100 3150 50  0000 C CNN
F 2 "" H 5100 3200 50  0001 C CNN
F 3 "" H 5100 3200 50  0001 C CNN
	1    5100 3300
	1    0    0    -1  
$EndComp
$Comp
L V_Power:GND #PWR0151
U 1 1 5EC7583D
P 8000 2450
F 0 "#PWR0151" H 8150 2400 50  0001 C CNN
F 1 "GND" H 8000 2300 50  0000 C CNN
F 2 "" H 8000 2350 50  0001 C CNN
F 3 "" H 8000 2350 50  0001 C CNN
	1    8000 2450
	0    -1   -1   0   
$EndComp
$Comp
L V_Power:GND #PWR0152
U 1 1 5EC8129C
P 10700 4300
F 0 "#PWR0152" H 10850 4250 50  0001 C CNN
F 1 "GND" H 10700 4150 50  0000 C CNN
F 2 "" H 10700 4200 50  0001 C CNN
F 3 "" H 10700 4200 50  0001 C CNN
	1    10700 4300
	1    0    0    -1  
$EndComp
$Comp
L V_Power:GND #PWR0153
U 1 1 5EC842C4
P 11600 3250
F 0 "#PWR0153" H 11750 3200 50  0001 C CNN
F 1 "GND" H 11600 3100 50  0000 C CNN
F 2 "" H 11600 3150 50  0001 C CNN
F 3 "" H 11600 3150 50  0001 C CNN
	1    11600 3250
	1    0    0    -1  
$EndComp
$Comp
L V_Power:GND #PWR0154
U 1 1 5EC8708D
P 10900 3050
F 0 "#PWR0154" H 11050 3000 50  0001 C CNN
F 1 "GND" H 10900 2900 50  0000 C CNN
F 2 "" H 10900 2950 50  0001 C CNN
F 3 "" H 10900 2950 50  0001 C CNN
	1    10900 3050
	1    0    0    -1  
$EndComp
$Comp
L V_Power:GND #PWR0155
U 1 1 5EC88F4F
P 11300 1100
F 0 "#PWR0155" H 11450 1050 50  0001 C CNN
F 1 "GND" H 11300 950 50  0000 C CNN
F 2 "" H 11300 1000 50  0001 C CNN
F 3 "" H 11300 1000 50  0001 C CNN
	1    11300 1100
	-1   0    0    1   
$EndComp
$Comp
L V_Power:GND #PWR0156
U 1 1 5EC90300
P 11950 2100
F 0 "#PWR0156" H 12100 2050 50  0001 C CNN
F 1 "GND" H 11950 1950 50  0000 C CNN
F 2 "" H 11950 2000 50  0001 C CNN
F 3 "" H 11950 2000 50  0001 C CNN
	1    11950 2100
	1    0    0    -1  
$EndComp
Connection ~ 11950 2100
Wire Wire Line
	11950 2100 12100 2100
$Comp
L V_Power:GND #PWR0157
U 1 1 5EC94A71
P 14125 3225
F 0 "#PWR0157" H 14275 3175 50  0001 C CNN
F 1 "GND" H 14125 3075 50  0000 C CNN
F 2 "" H 14125 3125 50  0001 C CNN
F 3 "" H 14125 3125 50  0001 C CNN
	1    14125 3225
	-1   0    0    1   
$EndComp
$Comp
L V_Power:GND #PWR0158
U 1 1 5EC97108
P 14125 4275
F 0 "#PWR0158" H 14275 4225 50  0001 C CNN
F 1 "GND" H 14125 4125 50  0000 C CNN
F 2 "" H 14125 4175 50  0001 C CNN
F 3 "" H 14125 4175 50  0001 C CNN
	1    14125 4275
	1    0    0    -1  
$EndComp
$Comp
L V_Power:+10VREF #0114
U 1 1 5EC9C49B
P 13975 5200
F 0 "#0114" H 14025 5250 50  0001 C CNN
F 1 "+10VREF" H 13775 5375 59  0000 L CNN
F 2 "" H 13975 5200 50  0001 C CNN
F 3 "" H 13975 5200 50  0001 C CNN
	1    13975 5200
	1    0    0    -1  
$EndComp
$Comp
L V_Power:GND #PWR0159
U 1 1 5ECA16CF
P 9000 8000
F 0 "#PWR0159" H 9150 7950 50  0001 C CNN
F 1 "GND" H 9000 7850 50  0000 C CNN
F 2 "" H 9000 7900 50  0001 C CNN
F 3 "" H 9000 7900 50  0001 C CNN
	1    9000 8000
	1    0    0    -1  
$EndComp
Connection ~ 9000 8000
$Comp
L V_Power:GND #PWR0160
U 1 1 5ECA5044
P 10300 8000
F 0 "#PWR0160" H 10450 7950 50  0001 C CNN
F 1 "GND" H 10300 7850 50  0000 C CNN
F 2 "" H 10300 7900 50  0001 C CNN
F 3 "" H 10300 7900 50  0001 C CNN
	1    10300 8000
	1    0    0    -1  
$EndComp
$Comp
L V_Power:GND #PWR0161
U 1 1 5ECA7A0D
P 3600 7650
F 0 "#PWR0161" H 3750 7600 50  0001 C CNN
F 1 "GND" H 3600 7500 50  0000 C CNN
F 2 "" H 3600 7550 50  0001 C CNN
F 3 "" H 3600 7550 50  0001 C CNN
	1    3600 7650
	1    0    0    -1  
$EndComp
$Comp
L V_Power:GND #PWR0162
U 1 1 5ECAA328
P 2400 7200
F 0 "#PWR0162" H 2550 7150 50  0001 C CNN
F 1 "GND" H 2400 7050 50  0000 C CNN
F 2 "" H 2400 7100 50  0001 C CNN
F 3 "" H 2400 7100 50  0001 C CNN
	1    2400 7200
	1    0    0    -1  
$EndComp
$Comp
L V_Power:GND #PWR0163
U 1 1 5ECAD38C
P 3400 5250
F 0 "#PWR0163" H 3550 5200 50  0001 C CNN
F 1 "GND" H 3400 5100 50  0000 C CNN
F 2 "" H 3400 5150 50  0001 C CNN
F 3 "" H 3400 5150 50  0001 C CNN
	1    3400 5250
	-1   0    0    1   
$EndComp
$Comp
L V_Power:+5VREF #0116
U 1 1 5ECB9DE0
P 9300 5150
F 0 "#0116" H 9350 5200 50  0001 C CNN
F 1 "+5VREF" H 9125 5325 59  0000 L CNN
F 2 "" H 9300 5250 50  0001 C CNN
F 3 "" H 9300 5250 50  0001 C CNN
	1    9300 5150
	1    0    0    -1  
$EndComp
$Comp
L V_Power:+5V #0117
U 1 1 5ECD5E61
P 9050 3600
F 0 "#0117" H 9100 3650 50  0001 C CNN
F 1 "+5V" H 8950 3750 59  0000 L CNN
F 2 "" H 9050 3700 50  0001 C CNN
F 3 "" H 9050 3700 50  0001 C CNN
	1    9050 3600
	1    0    0    -1  
$EndComp
$Comp
L V_Power:+24V #PWR0213
U 1 1 5F3D05B4
P 2800 3800
F 0 "#PWR0213" H 2950 3700 50  0001 C CNN
F 1 "+24V" V 2800 3925 50  0000 L CNN
F 2 "" H 2800 3800 50  0001 C CNN
F 3 "" H 2800 3800 50  0001 C CNN
	1    2800 3800
	0    1    1    0   
$EndComp
$Comp
L V_Power:+24V #PWR0214
U 1 1 5F3D795C
P 14600 3850
F 0 "#PWR0214" H 14750 3750 50  0001 C CNN
F 1 "+24V" V 14600 3975 50  0000 L CNN
F 2 "" H 14600 3850 50  0001 C CNN
F 3 "" H 14600 3850 50  0001 C CNN
	1    14600 3850
	0    1    1    0   
$EndComp
$Comp
L V_Power:+3.3V #PWR?
U 1 1 5ED525BD
P 8600 3050
AR Path="/5E92540F/5ED525BD" Ref="#PWR?"  Part="1" 
AR Path="/5E924110/5ED525BD" Ref="#PWR?"  Part="1" 
AR Path="/5E9258C0/5ED525BD" Ref="#PWR0221"  Part="1" 
F 0 "#PWR0221" H 8600 2900 50  0001 C CNN
F 1 "+3.3V" H 8615 3223 50  0000 C CNN
F 2 "" H 8600 3050 50  0001 C CNN
F 3 "" H 8600 3050 50  0001 C CNN
	1    8600 3050
	1    0    0    -1  
$EndComp
Text Label 4825 6350 0    50   ~ 0
INV-STOP
Text Label 9925 7100 0    50   ~ 0
~FAULT~
Text GLabel 14300 9575 0    50   Input ~ 0
N$81
Text Label 14300 9575 0    50   ~ 0
N$81
Text Label 7075 3250 0    50   ~ 0
N$81
Text Label 14300 9325 0    50   ~ 0
N$72
Text GLabel 14300 9325 0    50   Input ~ 0
N$72
Text Label 14300 9450 0    50   ~ 0
N$71
Text GLabel 14300 9450 0    50   Input ~ 0
N$71
Text Label 2300 6050 0    50   ~ 0
N$72
Text Label 2300 6250 0    50   ~ 0
N$71
Text Label 14300 9200 0    50   ~ 0
N$43
Text GLabel 14300 9200 0    50   Input ~ 0
N$43
Text Label 11875 2500 0    50   ~ 0
N$43
Text Label 14300 9075 0    50   ~ 0
N$42
Text GLabel 14300 9075 0    50   Input ~ 0
N$42
Text Label 11600 2300 0    50   ~ 0
N$42
Text Label 15325 9175 0    50   ~ 0
~FAULT~
Text Label 15350 9350 0    50   ~ 0
~BRAKE~
Text HLabel 15350 9350 0    56   Input ~ 0
~BRAKE~
Text HLabel 15325 9175 0    56   Input ~ 0
~FAULT~
Text HLabel 9700 3325 0    56   Input ~ 0
V-ALIM-BUZ
Text HLabel 5000 6150 2    56   Input ~ 0
V-ALIM-BUZ
Text Label 9925 6900 0    50   ~ 0
~BRAKE~
$Comp
L V_Inductor:L_10022907 L?
U 1 1 324ADF67
P 10550 6900
AR Path="/324ADF67" Ref="L?"  Part="1" 
AR Path="/5E9258C0/324ADF67" Ref="L32"  Part="1" 
F 0 "L32" H 10450 6950 42  0000 L BNN
F 1 " " H 10450 6950 34  0000 L BNN
F 2 "GR106772-A:C0603" H 10550 6900 50  0001 C CNN
F 3 "" H 10550 6900 50  0001 C CNN
F 4 "SMD FERRITE 200MA" H 10550 6900 50  0001 C CNN "Description"
F 5 "10022907" H 10550 6900 50  0001 C CNN "Item Number"
F 6 "WURTH ELEKTRONIK GMBH" H 10550 6900 50  0001 C CNN "Manufacturer"
F 7 "74279266" H 10550 6900 50  0001 C CNN "Manufacturer_No"
	1    10550 6900
	1    0    0    -1  
$EndComp
Text Label 9930 7300 0    50   ~ 0
ENABLE
Text Label 9930 6700 0    50   ~ 0
SPEED-SETPOINT
Text Label 9940 6500 0    50   ~ 0
SPEED-MEASURE
Text HLabel 10150 2700 0    56   Input ~ 0
C-RAP-AL
Text HLabel 10875 2375 0    56   Output ~ 0
R-RAP-AL
Text HLabel 10875 2200 0    56   Output ~ 0
T-RAP-AL
Text GLabel 3100 6650 2    50   Input ~ 0
+5VSUPPLY-BOARD
Wire Wire Line
	10875 2375 10925 2375
Wire Wire Line
	10925 2375 10925 2500
Connection ~ 10925 2500
Wire Wire Line
	10925 2500 10950 2500
Wire Wire Line
	10875 2200 10925 2200
Wire Wire Line
	10925 2200 10925 2300
Connection ~ 10925 2300
Wire Wire Line
	10925 2300 10950 2300
Wire Wire Line
	10150 2700 10200 2700
Connection ~ 10200 2700
Wire Wire Line
	5250 1625 4850 1625
Wire Wire Line
	4850 1625 4850 2250
Wire Wire Line
	5250 1625 5250 2050
$EndSCHEMATC
