EESchema Schematic File Version 4
EELAYER 30 0
EELAYER END
$Descr User 17335 11946
encoding utf-8
Sheet 2 9
Title "RB0505 CPU Board"
Date "2020-04-15"
Rev ""
Comp ""
Comment1 ""
Comment2 ""
Comment3 ""
Comment4 ""
$EndDescr
Text HLabel 2550 6250 0    70   Input ~ 0
MTSR_SPI_0
Text HLabel 6400 6150 0    56   Input ~ 0
MTSR_SPI_0
Text HLabel 2550 6100 0    70   Input ~ 0
SCLK_SPI_0
Text HLabel 6400 5950 0    56   Input ~ 0
SCLK_SPI_0
Text HLabel 2550 6550 0    70   Input ~ 0
CE-RTC1
Text HLabel 12550 3050 0    70   Input ~ 0
CD-O2
Text HLabel 13950 2750 2    56   Output ~ 0
O2_VALVE
Text HLabel 11100 5800 0    56   Input ~ 0
CD-VALVE
Text HLabel 14250 5500 2    56   Output ~ 0
EXHALATION-VALVE
Text HLabel 6400 6350 0    56   Input ~ 0
~CE~-RTC2
Text HLabel 14800 6200 2    56   Output ~ 0
MES-I-VALVE
Text HLabel 8150 2650 2    56   Output ~ 0
FIO2-MEAS
Text HLabel 5700 2550 0    56   Input ~ 0
CON-FIO2-MEAS
Text HLabel 9575 3500 0    56   Input ~ 0
SEC-BUZ
Text HLabel 9550 3000 0    56   Input ~ 0
RESET
Text HLabel 1900 2650 0    56   Input ~ 0
WDOG
Text HLabel 1700 2450 2    56   Output ~ 0
PFI
Text HLabel 4150 2650 2    56   Output ~ 0
POWER_FAIL
$Comp
L V_Capacitor:C0402_100nF_16V_10% C42
U 1 1 E64E96FA
P 3050 4950
AR Path="/E64E96FA" Ref="C42"  Part="1" 
AR Path="/5E924756/E64E96FA" Ref="C42"  Part="1" 
F 0 "C42" V 3213 5044 64  0000 R TNN
F 1 "100nF" V 3144 5038 42  0000 R TNN
F 2 "GR106772-A:C0402" H 3050 4950 50  0001 C CNN
F 3 "https://www.yageo.com/upload/media/product/productsearch/datasheet/mlcc/UPY-GPHC_X7R_6.3V-to-50V_18.pdf" H 3050 4950 50  0001 C CNN
F 4 "CAPACITOR,100NF,16V,+/-10%,X7R,0402" H 3050 4950 50  0001 C CNN "Description"
F 5 "10022607" H 3050 4950 50  0001 C CNN "Item Number"
F 6 "YAGEO_RMS1" H 3050 4950 50  0001 C CNN "Manufacturer"
F 7 "CC0402KRX7R7BB104" H 3050 4950 50  0001 C CNN "Manufacturer_No"
F 8 "YAGEO_RMS1" H 3050 4950 50  0001 C CNN "Manufacturer2"
F 9 "223878715649" H 3050 4950 50  0001 C CNN "Manufacturer_No2"
F 10 "MURATA MANUFACTURING CO., LTD." H 3050 4950 50  0001 C CNN "Manufacturer3"
F 11 "GRM155R71C104KA88D" H 3050 4950 50  0001 C CNN "Manufacturer_No3"
	1    3050 4950
	0    1    -1   0   
$EndComp
$Comp
L V_IC:DS1305E IC10
U 1 1 E884BF5E
P 3250 6250
AR Path="/E884BF5E" Ref="IC10"  Part="1" 
AR Path="/5E924756/E884BF5E" Ref="IC10"  Part="1" 
F 0 "IC10" H 3900 7412 64  0000 L BNN
F 1 "DS1305E" H 3900 7337 42  0000 L BNN
F 2 "GR106772-A:TSSOP20_SANS-MIRE" H 3250 6250 50  0001 C CNN
F 3 "https://datasheet.datasheetarchive.com/originals/dk/DKDS-7/134798.pdf" H 3250 6250 50  0001 C CNN
F 4 "IC,REALTIMECLOCK, TSSOP" H 3250 6250 50  0001 C CNN "Description"
F 5 "10022965" H 3250 6250 50  0001 C CNN "Item Number"
F 6 "MAXIM_RMS1" H 3250 6250 50  0001 C CNN "Manufacturer"
F 7 "DS1305E+" H 3250 6250 50  0001 C CNN "Manufacturer_No"
F 8 "MAXIM_RMS1" H 3250 6250 50  0001 C CNN "Manufacturer2"
F 9 "DS1305E+T&R" H 3250 6250 50  0001 C CNN "Manufacturer_No2"
	1    3250 6250
	1    0    0    -1  
$EndComp
$Comp
L V_Battery:KEY_3000 G1
U 1 1 7E939E76
P 4550 6750
AR Path="/7E939E76" Ref="G1"  Part="1" 
AR Path="/5E924756/7E939E76" Ref="G1"  Part="1" 
F 0 "G1" V 4600 6600 59  0000 R TNN
F 1 "3V" V 4525 6587 59  0000 R TNN
F 2 "GR106772-A:CR1220-3000" H 4550 6750 50  0001 C CNN
F 3 "" H 4550 6750 50  0001 C CNN
F 4 "LITHIUM, 3V, 35MAH" H 4550 6750 50  0001 C CNN "Description"
F 5 "10022884" H 4550 6750 50  0001 C CNN "Item Number"
F 6 "SONY_RMS1" H 4550 6750 50  0001 C CNN "Manufacturer"
F 7 "CR1220-B1A" H 4550 6750 50  0001 C CNN "Manufacturer_No"
F 8 "MAXELL" H 4550 6750 50  0001 C CNN "Manufacturer2"
F 9 "CR1220" H 4550 6750 50  0001 C CNN "Manufacturer_No2"
F 10 "VARTA                           (917650)" H 4550 6750 50  0001 C CNN "Manufacturer3"
F 11 "CR 1220" H 4550 6750 50  0001 C CNN "Manufacturer_No3"
	1    4550 6750
	0    -1   -1   0   
$EndComp
$Comp
L V_Resistor:R_100k_5% R8
U 1 1 C507FD3A
P 13200 3350
AR Path="/C507FD3A" Ref="R8"  Part="1" 
AR Path="/5E924756/C507FD3A" Ref="R8"  Part="1" 
F 0 "R8" V 13212 3575 64  0000 R TNN
F 1 "100k" V 13137 3575 42  0000 R TNN
F 2 "GR106772-A:R0603" H 13200 3350 50  0001 C CNN
F 3 "" H 13200 3350 50  0001 C CNN
F 4 "RESISTOR,100 K OHM, 0.063W +/-5%" H 13200 3350 50  0001 C CNN "Description"
F 5 "10022732" H 13200 3350 50  0001 C CNN "Item Number"
F 6 "YAGEO_RMS1" H 13200 3350 50  0001 C CNN "Manufacturer"
F 7 "RC0603JR-07100KL" H 13200 3350 50  0001 C CNN "Manufacturer_No"
F 8 "YAGEO_RMS1" H 13200 3350 50  0001 C CNN "Manufacturer2"
F 9 "RC0603JR-07100KL" H 13200 3350 50  0001 C CNN "Manufacturer_No2"
F 10 "YAGEO_RMS1" H 13200 3350 50  0001 C CNN "Manufacturer3"
F 11 "RC0603JR-07100KL" H 13200 3350 50  0001 C CNN "Manufacturer_No3"
	1    13200 3350
	0    -1   -1   0   
$EndComp
$Comp
L V_Diode:D_Schottky D15
U 1 1 557FCCAF
P 13550 2600
AR Path="/557FCCAF" Ref="D15"  Part="1" 
AR Path="/5E924756/557FCCAF" Ref="D15"  Part="1" 
F 0 "D15" V 13646 2834 59  0000 L BNN
F 1 "PRLL5819" V 13552 2699 42  0000 L BNN
F 2 "GR106772-A:SOD87" H 13550 2600 50  0001 C CNN
F 3 "https://www.diodes.com/assets/Datasheets/ds30217.pdf" H 13550 2600 50  0001 C CNN
F 4 "DIODE SCHOTTKY, 40V, 1A" H 13550 2600 50  0001 C CNN "Description"
F 5 "10097253" H 13550 2600 50  0001 C CNN "Item Number"
F 6 "DIODES INC_RMS1" H 13550 2600 50  0001 C CNN "Manufacturer"
F 7 "1N5819HW-7-F" H 13550 2600 50  0001 C CNN "Manufacturer_No"
	1    13550 2600
	0    -1   -1   0   
$EndComp
$Comp
L V_Resistor:R_100k_5% R9
U 1 1 D76F26ED
P 11350 6050
AR Path="/D76F26ED" Ref="R9"  Part="1" 
AR Path="/5E924756/D76F26ED" Ref="R9"  Part="1" 
F 0 "R9" V 11425 6163 64  0000 L BNN
F 1 "100k" V 11337 6125 42  0000 L BNN
F 2 "GR106772-A:R0603" H 11350 6050 50  0001 C CNN
F 3 "" H 11350 6050 50  0001 C CNN
F 4 "RESISTOR,100 K OHM, 0.063W +/-5%" H 11350 6050 50  0001 C CNN "Description"
F 5 "10022732" H 11350 6050 50  0001 C CNN "Item Number"
F 6 "YAGEO_RMS1" H 11350 6050 50  0001 C CNN "Manufacturer"
F 7 "RC0603JR-07100KL" H 11350 6050 50  0001 C CNN "Manufacturer_No"
F 8 "YAGEO_RMS1" H 11350 6050 50  0001 C CNN "Manufacturer2"
F 9 "RC0603JR-07100KL" H 11350 6050 50  0001 C CNN "Manufacturer_No2"
F 10 "YAGEO_RMS1" H 11350 6050 50  0001 C CNN "Manufacturer3"
F 11 "RC0603JR-07100KL" H 11350 6050 50  0001 C CNN "Manufacturer_No3"
	1    11350 6050
	0    -1   -1   0   
$EndComp
$Comp
L V_Diode:D_Schottky D16
U 1 1 16F46E82
P 11900 5000
AR Path="/16F46E82" Ref="D16"  Part="1" 
AR Path="/5E924756/16F46E82" Ref="D16"  Part="1" 
F 0 "D16" V 11954 5416 59  0000 R TNN
F 1 "PRLL5819" V 11886 5413 42  0000 R TNN
F 2 "GR106772-A:SOD87" H 11900 5000 50  0001 C CNN
F 3 "https://www.diodes.com/assets/Datasheets/ds30217.pdf" H 11900 5000 50  0001 C CNN
F 4 "DIODE SCHOTTKY, 40V, 1A" H 11900 5000 50  0001 C CNN "Description"
F 5 "10097253" H 11900 5000 50  0001 C CNN "Item Number"
F 6 "DIODES INC_RMS1" H 11900 5000 50  0001 C CNN "Manufacturer"
F 7 "1N5819HW-7-F" H 11900 5000 50  0001 C CNN "Manufacturer_No"
	1    11900 5000
	0    -1   -1   0   
$EndComp
$Comp
L V_Valve:FAS-PPS-1P-3NIP-INJ V2
U 1 1 F1FC2759
P 13550 5250
AR Path="/F1FC2759" Ref="V2"  Part="1" 
AR Path="/5E924756/F1FC2759" Ref="V2"  Part="1" 
F 0 "V2" H 14150 5775 59  0000 L BNN
F 1 "FAS-PPS-1P-3NIP-INJ" H 14012 5787 59  0001 L BNN
F 2 "GR106772-A:S142.0011-SANS-FIX_100001100001" H 13550 5250 50  0001 C CNN
F 3 "" H 13550 5250 50  0001 C CNN
F 4 "3 WAY, PROPORTIONAL VALVE" H 13550 5250 50  0001 C CNN "Description"
F 5 "10025112" H 13550 5250 50  0001 C CNN "Item Number"
F 6 "FAS" H 13550 5250 50  0001 C CNN "Manufacturer"
F 7 "S142.0048A" H 13550 5250 50  0001 C CNN "Manufacturer_No"
	1    13550 5250
	-1   0    0    -1  
$EndComp
$Comp
L V_Crystal:Crystal_Small_Pin1Pin4 Q3
U 1 1 7ABFF94E
P 6350 5550
AR Path="/7ABFF94E" Ref="Q3"  Part="1" 
AR Path="/5E924756/7ABFF94E" Ref="Q3"  Part="1" 
F 0 "Q3" V 6350 5825 53  0000 R TNN
F 1 "DNP" V 6275 5825 42  0000 R TNN
F 2 "GR106772-A:85SMX" H 6350 5550 50  0001 C CNN
F 3 "" H 6350 5550 50  0001 C CNN
F 4 "IQD" V 6350 5550 50  0001 C CNN "Manufacturer"
F 5 "LFXTAL003000REEL" V 6350 5550 50  0001 C CNN "Manufacturer_No"
F 6 "10023250" V 6350 5550 50  0001 C CNN "Item Number"
F 7 "CRYSTAL QUARTZ 32.768KHZ" V 6350 5550 50  0001 C CNN "Description"
	1    6350 5550
	0    -1   -1   0   
$EndComp
$Comp
L V_Resistor:R0603_10k_5% R53
U 1 1 CFBE9597
P 12450 6100
AR Path="/CFBE9597" Ref="R53"  Part="1" 
AR Path="/5E924756/CFBE9597" Ref="R53"  Part="1" 
F 0 "R53" H 12387 6250 64  0000 L BNN
F 1 "10k" H 12387 6187 42  0000 L BNN
F 2 "GR106772-A:R0603" H 12450 6100 50  0001 C CNN
F 3 "" H 12450 6100 50  0001 C CNN
F 4 "RESISTOR,10K OHM, 0.063W,+/-5%,0603" H 12450 6100 50  0001 C CNN "Description"
F 5 "10097266" H 12450 6100 50  0001 C CNN "Item Number"
F 6 "YAGEO_RMS1" H 12450 6100 50  0001 C CNN "Manufacturer"
F 7 "RC0603JR-0710KL" H 12450 6100 50  0001 C CNN "Manufacturer_No"
F 8 "YAGEO_RMS1" H 12450 6100 50  0001 C CNN "Manufacturer2"
F 9 "RC0603JR-0710KL" H 12450 6100 50  0001 C CNN "Manufacturer_No2"
F 10 "VISHAY_RMS1" H 12450 6100 50  0001 C CNN "Manufacturer3"
F 11 "CRCW060310K0JNEA" H 12450 6100 50  0001 C CNN "Manufacturer_No3"
	1    12450 6100
	1    0    0    -1  
$EndComp
$Comp
L V_Resistor:R0603_10k_5% R54
U 1 1 E78706DF
P 12400 6925
AR Path="/E78706DF" Ref="R54"  Part="1" 
AR Path="/5E924756/E78706DF" Ref="R54"  Part="1" 
F 0 "R54" H 12313 7063 64  0000 L BNN
F 1 "10k" H 12313 7000 42  0000 L BNN
F 2 "GR106772-A:R0603" H 12400 6925 50  0001 C CNN
F 3 "" H 12400 6925 50  0001 C CNN
F 4 "RESISTOR,10K OHM, 0.063W,+/-5%,0603" H 12400 6925 50  0001 C CNN "Description"
F 5 "10097266" H 12400 6925 50  0001 C CNN "Item Number"
F 6 "YAGEO_RMS1" H 12400 6925 50  0001 C CNN "Manufacturer"
F 7 "RC0603JR-0710KL" H 12400 6925 50  0001 C CNN "Manufacturer_No"
F 8 "YAGEO_RMS1" H 12400 6925 50  0001 C CNN "Manufacturer2"
F 9 "RC0603JR-0710KL" H 12400 6925 50  0001 C CNN "Manufacturer_No2"
F 10 "VISHAY_RMS1" H 12400 6925 50  0001 C CNN "Manufacturer3"
F 11 "CRCW060310K0JNEA" H 12400 6925 50  0001 C CNN "Manufacturer_No3"
	1    12400 6925
	1    0    0    -1  
$EndComp
$Comp
L V_Resistor:R_100k_5% R55
U 1 1 19D405B0
P 13000 6350
AR Path="/19D405B0" Ref="R55"  Part="1" 
AR Path="/5E924756/19D405B0" Ref="R55"  Part="1" 
F 0 "R55" V 13013 6263 64  0000 R TNN
F 1 "100k" V 12988 6100 42  0000 L BNN
F 2 "GR106772-A:R0603" H 13000 6350 50  0001 C CNN
F 3 "" H 13000 6350 50  0001 C CNN
F 4 "RESISTOR,100 K OHM, 0.063W +/-5%" H 13000 6350 50  0001 C CNN "Description"
F 5 "10022732" H 13000 6350 50  0001 C CNN "Item Number"
F 6 "YAGEO_RMS1" H 13000 6350 50  0001 C CNN "Manufacturer"
F 7 "RC0603JR-07100KL" H 13000 6350 50  0001 C CNN "Manufacturer_No"
F 8 "YAGEO_RMS1" H 13000 6350 50  0001 C CNN "Manufacturer2"
F 9 "RC0603JR-07100KL" H 13000 6350 50  0001 C CNN "Manufacturer_No2"
F 10 "YAGEO_RMS1" H 13000 6350 50  0001 C CNN "Manufacturer3"
F 11 "RC0603JR-07100KL" H 13000 6350 50  0001 C CNN "Manufacturer_No3"
	1    13000 6350
	0    -1   -1   0   
$EndComp
$Comp
L V_Resistor:R_100k_5% R56
U 1 1 D165D9D0
P 13900 6925
AR Path="/D165D9D0" Ref="R56"  Part="1" 
AR Path="/5E924756/D165D9D0" Ref="R56"  Part="1" 
F 0 "R56" H 13812 6712 64  0000 L BNN
F 1 "100k" H 13825 6800 42  0000 L BNN
F 2 "GR106772-A:R0603" H 13900 6925 50  0001 C CNN
F 3 "" H 13900 6925 50  0001 C CNN
F 4 "RESISTOR,100 K OHM, 0.063W +/-5%" H 13900 6925 50  0001 C CNN "Description"
F 5 "10022732" H 13900 6925 50  0001 C CNN "Item Number"
F 6 "YAGEO_RMS1" H 13900 6925 50  0001 C CNN "Manufacturer"
F 7 "RC0603JR-07100KL" H 13900 6925 50  0001 C CNN "Manufacturer_No"
F 8 "YAGEO_RMS1" H 13900 6925 50  0001 C CNN "Manufacturer2"
F 9 "RC0603JR-07100KL" H 13900 6925 50  0001 C CNN "Manufacturer_No2"
F 10 "YAGEO_RMS1" H 13900 6925 50  0001 C CNN "Manufacturer3"
F 11 "RC0603JR-07100KL" H 13900 6925 50  0001 C CNN "Manufacturer_No3"
	1    13900 6925
	-1   0    0    1   
$EndComp
$Comp
L V_Power:0VANA #U$298
U 1 1 9D64A308
P 13000 6625
AR Path="/9D64A308" Ref="#U$298"  Part="1" 
AR Path="/5E924756/9D64A308" Ref="#U$0298"  Part="1" 
F 0 "#U$0298" H 13000 6625 50  0001 C CNN
F 1 "0VANA" H 12887 6450 59  0000 L BNN
F 2 "" H 13000 6625 50  0001 C CNN
F 3 "" H 13000 6625 50  0001 C CNN
	1    13000 6625
	1    0    0    -1  
$EndComp
$Comp
L V_Capacitor:C0603_10nF_50V_10% C39
U 1 1 849D34A1
P 13900 7250
AR Path="/849D34A1" Ref="C39"  Part="1" 
AR Path="/5E924756/849D34A1" Ref="C39"  Part="1" 
F 0 "C39" V 14075 7350 64  0000 R TNN
F 1 "10nF" V 14000 7325 42  0000 R TNN
F 2 "GR106772-A:C0603" H 13900 7250 50  0001 C CNN
F 3 "" H 13900 7250 50  0001 C CNN
F 4 "CAPACITOR CERAMIC,10NF,+/-10%,50V,0603" H 13900 7250 50  0001 C CNN "Description"
F 5 "10022508" H 13900 7250 50  0001 C CNN "Item Number"
F 6 "YAGEO_RMS1" H 13900 7250 50  0001 C CNN "Manufacturer"
F 7 "CC0603KRX7R9BB103" H 13900 7250 50  0001 C CNN "Manufacturer_No"
F 8 "YAGEO_RMS1" H 13900 7250 50  0001 C CNN "Manufacturer2"
F 9 "CC0603KRX7R9BB104" H 13900 7250 50  0001 C CNN "Manufacturer_No2"
F 10 "KEMET_RMS1" H 13900 7250 50  0001 C CNN "Manufacturer3"
F 11 "C0603C103K5RACTU" H 13900 7250 50  0001 C CNN "Manufacturer_No3"
	1    13900 7250
	0    1    -1   0   
$EndComp
$Comp
L V_Capacitor:C0603_10nF_50V_10% C45
U 1 1 72A1248A
P 14550 6750
AR Path="/72A1248A" Ref="C45"  Part="1" 
AR Path="/5E924756/72A1248A" Ref="C45"  Part="1" 
F 0 "C45" H 14675 6675 64  0000 L BNN
F 1 "10nF" H 14700 6775 42  0000 L BNN
F 2 "GR106772-A:C0603" H 14550 6750 50  0001 C CNN
F 3 "" H 14550 6750 50  0001 C CNN
F 4 "CAPACITOR CERAMIC,10NF,+/-10%,50V,0603" H 14550 6750 50  0001 C CNN "Description"
F 5 "10022508" H 14550 6750 50  0001 C CNN "Item Number"
F 6 "YAGEO_RMS1" H 14550 6750 50  0001 C CNN "Manufacturer"
F 7 "CC0603KRX7R9BB103" H 14550 6750 50  0001 C CNN "Manufacturer_No"
F 8 "YAGEO_RMS1" H 14550 6750 50  0001 C CNN "Manufacturer2"
F 9 "CC0603KRX7R9BB104" H 14550 6750 50  0001 C CNN "Manufacturer_No2"
F 10 "KEMET_RMS1" H 14550 6750 50  0001 C CNN "Manufacturer3"
F 11 "C0603C103K5RACTU" H 14550 6750 50  0001 C CNN "Manufacturer_No3"
	1    14550 6750
	1    0    0    1   
$EndComp
$Comp
L V_Power:0VANA #U$324
U 1 1 CBB6799F
P 14550 7250
AR Path="/CBB6799F" Ref="#U$324"  Part="1" 
AR Path="/5E924756/CBB6799F" Ref="#U$0324"  Part="1" 
F 0 "#U$0324" H 14550 7250 50  0001 C CNN
F 1 "0VANA" H 14450 7075 59  0000 L BNN
F 2 "" H 14550 7250 50  0001 C CNN
F 3 "" H 14550 7250 50  0001 C CNN
	1    14550 7250
	1    0    0    -1  
$EndComp
$Comp
L V_Resistor:R0805_10R_5% R52
U 1 1 9AA44C7C
P 11900 6500
AR Path="/9AA44C7C" Ref="R52"  Part="1" 
AR Path="/5E924756/9AA44C7C" Ref="R52"  Part="1" 
F 0 "R52" V 11900 6750 64  0000 R TNN
F 1 "10" V 11825 6750 42  0000 R TNN
F 2 "GR106772-A:R0805" H 11900 6500 50  0001 C CNN
F 3 "" H 11900 6500 50  0001 C CNN
F 4 "RESISTOR 10 OHM, 0.125W, +/-5%,0805" H 11900 6500 50  0001 C CNN "Description"
F 5 "10023242" H 11900 6500 50  0001 C CNN "Item Number"
F 6 "YAGEO_RMS1" H 11900 6500 50  0001 C CNN "Manufacturer"
F 7 "RC0805JR-0710RL" H 11900 6500 50  0001 C CNN "Manufacturer_No"
F 8 "KOA SPEER" H 11900 6500 50  0001 C CNN "Manufacturer2"
F 9 "RK73B2ATTD100J" H 11900 6500 50  0001 C CNN "Manufacturer_No2"
F 10 "YAGEO_RMS1" H 11900 6500 50  0001 C CNN "Manufacturer3"
F 11 "RC0805JR-0710RL" H 11900 6500 50  0001 C CNN "Manufacturer_No3"
	1    11900 6500
	0    -1   -1   0   
$EndComp
$Comp
L V_Resistor:R0603_1k37_0.1%_10097270 R57
U 1 1 E37BEEA0
P 6650 3950
AR Path="/E37BEEA0" Ref="R57"  Part="1" 
AR Path="/5E924756/E37BEEA0" Ref="R57"  Part="1" 
F 0 "R57" H 6550 4100 64  0000 L BNN
F 1 "1.37k" H 6562 4075 42  0000 L TNN
F 2 "GR106772-A:R0603" H 6650 3950 50  0001 C CNN
F 3 "" H 6650 3950 50  0001 C CNN
F 4 "RESISTOR,1.37K OHM,0.063W,+/-0.1%,0603" H 6650 3950 50  0001 C CNN "Description"
F 5 "10097270" H 6650 3950 50  0001 C CNN "Item Number"
F 6 "SUSUMU CO." H 6650 3950 50  0001 C CNN "Manufacturer"
F 7 "RG1608P-1371-B-T5" H 6650 3950 50  0001 C CNN "Manufacturer_No"
F 8 "TYCO ELECTRONICS" H 6650 3950 50  0001 C CNN "Manufacturer2"
F 9 "3-1879219-4" H 6650 3950 50  0001 C CNN "Manufacturer_No2"
F 10 "TYCO ELECTRONICS" H 6650 3950 50  0001 C CNN "Manufacturer3"
F 11 "CPF0603B-1K37E" H 6650 3950 50  0001 C CNN "Manufacturer_No3"
	1    6650 3950
	1    0    0    -1  
$EndComp
$Comp
L V_Resistor:R0603_100k_0.1%_10097271 R58
U 1 1 699A423E
P 7350 3750
AR Path="/699A423E" Ref="R58"  Part="1" 
AR Path="/5E924756/699A423E" Ref="R58"  Part="1" 
F 0 "R58" H 7250 3900 64  0000 L BNN
F 1 "100k" H 7263 3825 42  0000 L BNN
F 2 "GR106772-A:R0603" H 7350 3750 50  0001 C CNN
F 3 "" H 7350 3750 50  0001 C CNN
F 4 "RESISTOR, 100K OHM, 0.063W,+/-0.1%,0603" H 7350 3750 50  0001 C CNN "Description"
F 5 "10097271" H 7350 3750 50  0001 C CNN "Item Number"
F 6 "SUSUMU CO." H 7350 3750 50  0001 C CNN "Manufacturer"
F 7 "RG1608P-104-B-T5" H 7350 3750 50  0001 C CNN "Manufacturer_No"
F 8 "WELWYN" H 7350 3750 50  0001 C CNN "Manufacturer2"
F 9 "PCF0603R-100KBI" H 7350 3750 50  0001 C CNN "Manufacturer_No2"
F 10 "YAGEO_RMS1" H 7350 3750 50  0001 C CNN "Manufacturer3"
F 11 "RT0603BRD07100KL" H 7350 3750 50  0001 C CNN "Manufacturer_No3"
	1    7350 3750
	1    0    0    -1  
$EndComp
$Comp
L V_Capacitor:C0603_10nF_50V_10% C53
U 1 1 EE013C0B
P 6400 3250
AR Path="/EE013C0B" Ref="C53"  Part="1" 
AR Path="/5E924756/EE013C0B" Ref="C53"  Part="1" 
F 0 "C53" H 6500 3175 64  0000 L BNN
F 1 "10nF" H 6525 3275 42  0000 L BNN
F 2 "GR106772-A:C0603" H 6400 3250 50  0001 C CNN
F 3 "" H 6400 3250 50  0001 C CNN
F 4 "CAPACITOR CERAMIC,10NF,+/-10%,50V,0603" H 6400 3250 50  0001 C CNN "Description"
F 5 "10022508" H 6400 3250 50  0001 C CNN "Item Number"
F 6 "YAGEO_RMS1" H 6400 3250 50  0001 C CNN "Manufacturer"
F 7 "CC0603KRX7R9BB103" H 6400 3250 50  0001 C CNN "Manufacturer_No"
F 8 "YAGEO_RMS1" H 6400 3250 50  0001 C CNN "Manufacturer2"
F 9 "CC0603KRX7R9BB104" H 6400 3250 50  0001 C CNN "Manufacturer_No2"
F 10 "KEMET_RMS1" H 6400 3250 50  0001 C CNN "Manufacturer3"
F 11 "C0603C103K5RACTU" H 6400 3250 50  0001 C CNN "Manufacturer_No3"
	1    6400 3250
	1    0    0    1   
$EndComp
$Comp
L V_Capacitor:C0805_1uF_16V_10%_10022967 C54
U 1 1 B2D23927
P 7350 3950
AR Path="/B2D23927" Ref="C54"  Part="1" 
AR Path="/5E924756/B2D23927" Ref="C54"  Part="1" 
F 0 "C54" V 7450 4050 64  0000 R TNN
F 1 "1uF" V 7531 4012 42  0000 R TNN
F 2 "GR106772-A:C0805" H 7350 3950 50  0001 C CNN
F 3 "" H 7350 3950 50  0001 C CNN
F 4 "CAPACITOR CERAMIC,1UF,16V,+/-10%, 0805" H 7350 3950 50  0001 C CNN "Description"
F 5 "10022967" H 7350 3950 50  0001 C CNN "Item Number"
F 6 "KEMET_RMS1" H 7350 3950 50  0001 C CNN "Manufacturer"
F 7 "C0805C105Z4VACTU" H 7350 3950 50  0001 C CNN "Manufacturer_No"
F 8 "KEMET_RMS1" H 7350 3950 50  0001 C CNN "Manufacturer2"
F 9 "C0805C105Z4VAC" H 7350 3950 50  0001 C CNN "Manufacturer_No2"
F 10 "YAGEO_RMS1" H 0   0   50  0001 C CNN "Manufacturer3"
F 11 "CC0805ZRY5V7BB105" H 0   0   50  0001 C CNN "Manufacturer_No3"
	1    7350 3950
	0    -1   1    0   
$EndComp
$Comp
L V_Capacitor:C0402_100nF_16V_10% C78
U 1 1 7765160B
P 7600 2200
AR Path="/7765160B" Ref="C78"  Part="1" 
AR Path="/5E924756/7765160B" Ref="C78"  Part="1" 
F 0 "C78" V 7775 2275 64  0000 R TNN
F 1 "100nF" V 7700 2300 42  0000 R TNN
F 2 "GR106772-A:C0402" H 7600 2200 50  0001 C CNN
F 3 "https://www.yageo.com/upload/media/product/productsearch/datasheet/mlcc/UPY-GPHC_X7R_6.3V-to-50V_18.pdf" H 7600 2200 50  0001 C CNN
F 4 "CAPACITOR,100NF,16V,+/-10%,X7R,0402" H 7600 2200 50  0001 C CNN "Description"
F 5 "10022607" H 7600 2200 50  0001 C CNN "Item Number"
F 6 "YAGEO_RMS1" H 7600 2200 50  0001 C CNN "Manufacturer"
F 7 "CC0402KRX7R7BB104" H 7600 2200 50  0001 C CNN "Manufacturer_No"
F 8 "YAGEO_RMS1" H 7600 2200 50  0001 C CNN "Manufacturer2"
F 9 "223878715649" H 7600 2200 50  0001 C CNN "Manufacturer_No2"
F 10 "MURATA MANUFACTURING CO., LTD." H 7600 2200 50  0001 C CNN "Manufacturer3"
F 11 "GRM155R71C104KA88D" H 7600 2200 50  0001 C CNN "Manufacturer_No3"
	1    7600 2200
	0    1    -1   0   
$EndComp
$Comp
L V_Capacitor:C0402_1nF_50V_10% C84
U 1 1 86B4EA67
P 8050 3000
AR Path="/86B4EA67" Ref="C84"  Part="1" 
AR Path="/5E924756/86B4EA67" Ref="C84"  Part="1" 
F 0 "C84" H 8125 3000 64  0000 L BNN
F 1 "1nF" H 8150 2925 42  0000 L BNN
F 2 "GR106772-A:C0402" H 8050 3000 50  0001 C CNN
F 3 "" H 8050 3000 50  0001 C CNN
F 4 "CAPACITOR CERAMIC, 1NF,50V,+/-10%, 0402" H 8050 3000 50  0001 C CNN "Description"
F 5 "10022971" H 8050 3000 50  0001 C CNN "Item Number"
F 6 "YAGEO_RMS1" H 8050 3000 50  0001 C CNN "Manufacturer"
F 7 "CC0402KRX7R9BB102" H 8050 3000 50  0001 C CNN "Manufacturer_No"
F 8 "YAGEO_RMS1" H 8050 3000 50  0001 C CNN "Manufacturer2"
F 9 "CC0402KRX7R9BB102" H 8050 3000 50  0001 C CNN "Manufacturer_No2"
F 10 "KEMET_RMS1" H 8050 3000 50  0001 C CNN "Manufacturer3"
F 11 "C0402C102K5RACTU" H 8050 3000 50  0001 C CNN "Manufacturer_No3"
	1    8050 3000
	1    0    0    -1  
$EndComp
$Comp
L V_Power:0VANA #U$334
U 1 1 03007719
P 8050 3225
AR Path="/03007719" Ref="#U$334"  Part="1" 
AR Path="/5E924756/03007719" Ref="#U$0334"  Part="1" 
F 0 "#U$0334" H 8050 3225 50  0001 C CNN
F 1 "0VANA" H 7950 3050 59  0000 L BNN
F 2 "" H 8050 3225 50  0001 C CNN
F 3 "" H 8050 3225 50  0001 C CNN
	1    8050 3225
	1    0    0    -1  
$EndComp
$Comp
L V_Power:0VANA #U$335
U 1 1 0B15C6BC
P 6400 4050
AR Path="/0B15C6BC" Ref="#U$335"  Part="1" 
AR Path="/5E924756/0B15C6BC" Ref="#U$0335"  Part="1" 
F 0 "#U$0335" H 6400 4050 50  0001 C CNN
F 1 "0VANA" H 6288 3875 59  0000 L BNN
F 2 "" H 6400 4050 50  0001 C CNN
F 3 "" H 6400 4050 50  0001 C CNN
	1    6400 4050
	1    0    0    -1  
$EndComp
$Comp
L V_Power:0VANA #U$341
U 1 1 860440EB
P 7300 3200
AR Path="/860440EB" Ref="#U$341"  Part="1" 
AR Path="/5E924756/860440EB" Ref="#U$0341"  Part="1" 
F 0 "#U$0341" H 7300 3200 50  0001 C CNN
F 1 "0VANA" H 7200 3025 59  0000 L BNN
F 2 "" H 7300 3200 50  0001 C CNN
F 3 "" H 7300 3200 50  0001 C CNN
	1    7300 3200
	1    0    0    -1  
$EndComp
$Comp
L V_Power:0VANA #U$342
U 1 1 C1C3A0AE
P 7925 2200
AR Path="/C1C3A0AE" Ref="#U$342"  Part="1" 
AR Path="/5E924756/C1C3A0AE" Ref="#U$0342"  Part="1" 
F 0 "#U$0342" H 7925 2200 50  0001 C CNN
F 1 "0VANA" H 7800 2025 59  0000 L BNN
F 2 "" H 7925 2200 50  0001 C CNN
F 3 "" H 7925 2200 50  0001 C CNN
	1    7925 2200
	0    -1   -1   0   
$EndComp
$Comp
L V_Resistor:R_100k_5% R59
U 1 1 C270A6BB
P 6200 3250
AR Path="/C270A6BB" Ref="R59"  Part="1" 
AR Path="/5E924756/C270A6BB" Ref="R59"  Part="1" 
F 0 "R59" V 6288 3338 64  0000 L BNN
F 1 "100k" V 6150 3350 42  0000 L TNN
F 2 "GR106772-A:R0603" H 6200 3250 50  0001 C CNN
F 3 "" H 6200 3250 50  0001 C CNN
F 4 "RESISTOR,100 K OHM, 0.063W +/-5%" H 6200 3250 50  0001 C CNN "Description"
F 5 "10022732" H 6200 3250 50  0001 C CNN "Item Number"
F 6 "YAGEO_RMS1" H 6200 3250 50  0001 C CNN "Manufacturer"
F 7 "RC0603JR-07100KL" H 6200 3250 50  0001 C CNN "Manufacturer_No"
F 8 "YAGEO_RMS1" H 6200 3250 50  0001 C CNN "Manufacturer2"
F 9 "RC0603JR-07100KL" H 6200 3250 50  0001 C CNN "Manufacturer_No2"
F 10 "YAGEO_RMS1" H 6200 3250 50  0001 C CNN "Manufacturer3"
F 11 "RC0603JR-07100KL" H 6200 3250 50  0001 C CNN "Manufacturer_No3"
	1    6200 3250
	0    -1   -1   0   
$EndComp
$Comp
L V_Resistor:R_100k_5% R65
U 1 1 3D749CE4
P 10550 3500
AR Path="/3D749CE4" Ref="R65"  Part="1" 
AR Path="/5E924756/3D749CE4" Ref="R65"  Part="1" 
F 0 "R65" V 10550 3425 64  0000 R TNN
F 1 "100k" V 10487 3425 42  0000 R TNN
F 2 "GR106772-A:R0603" H 10550 3500 50  0001 C CNN
F 3 "" H 10550 3500 50  0001 C CNN
F 4 "RESISTOR,100 K OHM, 0.063W +/-5%" H 10550 3500 50  0001 C CNN "Description"
F 5 "10022732" H 10550 3500 50  0001 C CNN "Item Number"
F 6 "YAGEO_RMS1" H 10550 3500 50  0001 C CNN "Manufacturer"
F 7 "RC0603JR-07100KL" H 10550 3500 50  0001 C CNN "Manufacturer_No"
F 8 "YAGEO_RMS1" H 10550 3500 50  0001 C CNN "Manufacturer2"
F 9 "RC0603JR-07100KL" H 10550 3500 50  0001 C CNN "Manufacturer_No2"
F 10 "YAGEO_RMS1" H 10550 3500 50  0001 C CNN "Manufacturer3"
F 11 "RC0603JR-07100KL" H 10550 3500 50  0001 C CNN "Manufacturer_No3"
	1    10550 3500
	0    -1   -1   0   
$EndComp
$Comp
L V_IC:M41T94MQ6E IC31
U 1 1 E249C229
P 7300 6150
AR Path="/E249C229" Ref="IC31"  Part="1" 
AR Path="/5E924756/E249C229" Ref="IC31"  Part="1" 
F 0 "IC31" H 7650 7150 64  0000 L BNN
F 1 "DNP" H 7662 7075 42  0000 L BNN
F 2 "GR106772-A:MX.A16_COMPOSANT" H 7300 6150 50  0001 C CNN
F 3 "" H 7300 6150 50  0001 C CNN
	1    7300 6150
	1    0    0    -1  
$EndComp
$Comp
L V_Capacitor:C0402_100nF_16V_10% C44
U 1 1 43269358
P 2650 2250
AR Path="/43269358" Ref="C44"  Part="1" 
AR Path="/5E924756/43269358" Ref="C44"  Part="1" 
F 0 "C44" V 2900 2150 64  0000 L BNN
F 1 "100nF" V 2800 2150 42  0000 L BNN
F 2 "GR106772-A:C0402" H 2650 2250 50  0001 C CNN
F 3 "https://www.yageo.com/upload/media/product/productsearch/datasheet/mlcc/UPY-GPHC_X7R_6.3V-to-50V_18.pdf" H 2650 2250 50  0001 C CNN
F 4 "CAPACITOR,100NF,16V,+/-10%,X7R,0402" H 2650 2250 50  0001 C CNN "Description"
F 5 "10022607" H 2650 2250 50  0001 C CNN "Item Number"
F 6 "YAGEO_RMS1" H 2650 2250 50  0001 C CNN "Manufacturer"
F 7 "CC0402KRX7R7BB104" H 2650 2250 50  0001 C CNN "Manufacturer_No"
F 8 "YAGEO_RMS1" H 2650 2250 50  0001 C CNN "Manufacturer2"
F 9 "223878715649" H 2650 2250 50  0001 C CNN "Manufacturer_No2"
F 10 "MURATA MANUFACTURING CO., LTD." H 2650 2250 50  0001 C CNN "Manufacturer3"
F 11 "GRM155R71C104KA88D" H 2650 2250 50  0001 C CNN "Manufacturer_No3"
	1    2650 2250
	0    -1   -1   0   
$EndComp
$Comp
L V_Resistor:R0603_15k_1% R17
U 1 1 73F99271
P 1700 3300
AR Path="/73F99271" Ref="R17"  Part="1" 
AR Path="/5E924756/73F99271" Ref="R17"  Part="1" 
F 0 "R17" H 1750 3225 64  0000 L BNN
F 1 "15k" H 1800 3325 42  0000 L BNN
F 2 "GR106772-A:R0603" H 1700 3300 50  0001 C CNN
F 3 "" H 1700 3300 50  0001 C CNN
F 4 "RESISTOR, 15K OHM, 0603, +/-1%" H 1700 3300 50  0001 C CNN "Description"
F 5 "10023238" H 1700 3300 50  0001 C CNN "Item Number"
F 6 "PANASONIC_RMS1" H 1700 3300 50  0001 C CNN "Manufacturer"
F 7 "ERJ3EKF1502V" H 1700 3300 50  0001 C CNN "Manufacturer_No"
F 8 "VISHAY_RMS1" H 1700 3300 50  0001 C CNN "Manufacturer2"
F 9 "CRCW060315K0FKEA" H 1700 3300 50  0001 C CNN "Manufacturer_No2"
F 10 "YAGEO_RMS1" H 1700 3300 50  0001 C CNN "Manufacturer3"
F 11 "RC0603FR-0715KL" H 1700 3300 50  0001 C CNN "Manufacturer_No3"
	1    1700 3300
	-1   0    0    1   
$EndComp
$Comp
L V_Resistor:R0603_1k5_1% R18
U 1 1 2BB405CC
P 1700 3750
AR Path="/2BB405CC" Ref="R18"  Part="1" 
AR Path="/5E924756/2BB405CC" Ref="R18"  Part="1" 
F 0 "R18" H 1775 3675 64  0000 L BNN
F 1 "1.5k" H 1825 3775 42  0000 L BNN
F 2 "GR106772-A:R0603" H 1700 3750 50  0001 C CNN
F 3 "" H 1700 3750 50  0001 C CNN
F 4 "RESISTOR,1.5K OHM,0.063W,+/-1%,0603" H 1700 3750 50  0001 C CNN "Description"
F 5 "10022700" H 1700 3750 50  0001 C CNN "Item Number"
F 6 "YAGEO_RMS1" H 1700 3750 50  0001 C CNN "Manufacturer"
F 7 "RC0603FR-071K5L" H 1700 3750 50  0001 C CNN "Manufacturer_No"
F 8 "YAGEO_RMS1" H 1700 3750 50  0001 C CNN "Manufacturer2"
F 9 "RC0603FR-071K5L" H 1700 3750 50  0001 C CNN "Manufacturer_No2"
F 10 "KOA SPEER" H 1700 3750 50  0001 C CNN "Manufacturer3"
F 11 "RK73H1JTTD1501F" H 1700 3750 50  0001 C CNN "Manufacturer_No3"
	1    1700 3750
	-1   0    0    1   
$EndComp
$Comp
L V_Resistor:R0603_75k_1% R19
U 1 1 9DB3FBAD
P 2600 3750
AR Path="/9DB3FBAD" Ref="R19"  Part="1" 
AR Path="/5E924756/9DB3FBAD" Ref="R19"  Part="1" 
F 0 "R19" H 2525 3600 64  0000 L BNN
F 1 "75k" H 2525 3525 42  0000 L BNN
F 2 "GR106772-A:R0603" H 2600 3750 50  0001 C CNN
F 3 "https://www.bourns.com/docs/Product-Datasheets/CHPREZTR.pdf" H 2600 3750 50  0001 C CNN
F 4 "RESISTOR, 75K OHM, 0603, +/-1%" H 2600 3750 50  0001 C CNN "Description"
F 5 "10023239" H 2600 3750 50  0001 C CNN "Item Number"
F 6 "BOURNS_RMS1" H 2600 3750 50  0001 C CNN "Manufacturer"
F 7 "CR0603-FX-7502ELF " H 2600 3750 50  0001 C CNN "Manufacturer_No"
	1    2600 3750
	1    0    0    -1  
$EndComp
$Comp
L V_Resistor:R0603_10k_5% R28
U 1 1 29F9BCC2
P 3350 2450
AR Path="/29F9BCC2" Ref="R28"  Part="1" 
AR Path="/5E924756/29F9BCC2" Ref="R28"  Part="1" 
F 0 "R28" V 3362 2363 64  0000 R TNN
F 1 "10k" V 3287 2363 42  0000 R TNN
F 2 "GR106772-A:R0603" H 3350 2450 50  0001 C CNN
F 3 "" H 3350 2450 50  0001 C CNN
F 4 "RESISTOR,10K OHM, 0.063W,+/-5%,0603" H 3350 2450 50  0001 C CNN "Description"
F 5 "10097266" H 3350 2450 50  0001 C CNN "Item Number"
F 6 "YAGEO_RMS1" H 3350 2450 50  0001 C CNN "Manufacturer"
F 7 "RC0603JR-0710KL" H 3350 2450 50  0001 C CNN "Manufacturer_No"
F 8 "YAGEO_RMS1" H 3350 2450 50  0001 C CNN "Manufacturer2"
F 9 "RC0603JR-0710KL" H 3350 2450 50  0001 C CNN "Manufacturer_No2"
F 10 "VISHAY_RMS1" H 3350 2450 50  0001 C CNN "Manufacturer3"
F 11 "CRCW060310K0JNEA" H 3350 2450 50  0001 C CNN "Manufacturer_No3"
	1    3350 2450
	0    -1   -1   0   
$EndComp
$Comp
L V_Capacitor:C0402_100nF_16V_10% C49
U 1 1 36DDF578
P 1900 3800
AR Path="/36DDF578" Ref="C49"  Part="1" 
AR Path="/5E924756/36DDF578" Ref="C49"  Part="1" 
F 0 "C49" H 2000 3750 64  0000 L BNN
F 1 "100nF" H 2025 3850 42  0000 L BNN
F 2 "GR106772-A:C0402" H 1900 3800 50  0001 C CNN
F 3 "https://www.yageo.com/upload/media/product/productsearch/datasheet/mlcc/UPY-GPHC_X7R_6.3V-to-50V_18.pdf" H 1900 3800 50  0001 C CNN
F 4 "CAPACITOR,100NF,16V,+/-10%,X7R,0402" H 1900 3800 50  0001 C CNN "Description"
F 5 "10022607" H 1900 3800 50  0001 C CNN "Item Number"
F 6 "YAGEO_RMS1" H 1900 3800 50  0001 C CNN "Manufacturer"
F 7 "CC0402KRX7R7BB104" H 1900 3800 50  0001 C CNN "Manufacturer_No"
F 8 "YAGEO_RMS1" H 1900 3800 50  0001 C CNN "Manufacturer2"
F 9 "223878715649" H 1900 3800 50  0001 C CNN "Manufacturer_No2"
F 10 "MURATA MANUFACTURING CO., LTD." H 1900 3800 50  0001 C CNN "Manufacturer3"
F 11 "GRM155R71C104KA88D" H 1900 3800 50  0001 C CNN "Manufacturer_No3"
	1    1900 3800
	1    0    0    1   
$EndComp
$Comp
L V_Capacitor:C0603_10nF_50V_10% C50
U 1 1 38BC030E
P 3500 3850
AR Path="/38BC030E" Ref="C50"  Part="1" 
AR Path="/5E924756/38BC030E" Ref="C50"  Part="1" 
F 0 "C50" H 3200 3825 64  0000 L BNN
F 1 "10nF" H 3225 3925 42  0000 L BNN
F 2 "GR106772-A:C0603" H 3500 3850 50  0001 C CNN
F 3 "" H 3500 3850 50  0001 C CNN
F 4 "CAPACITOR CERAMIC,10NF,+/-10%,50V,0603" H 3500 3850 50  0001 C CNN "Description"
F 5 "10022508" H 3500 3850 50  0001 C CNN "Item Number"
F 6 "YAGEO_RMS1" H 3500 3850 50  0001 C CNN "Manufacturer"
F 7 "CC0603KRX7R9BB103" H 3500 3850 50  0001 C CNN "Manufacturer_No"
F 8 "YAGEO_RMS1" H 3500 3850 50  0001 C CNN "Manufacturer2"
F 9 "CC0603KRX7R9BB104" H 3500 3850 50  0001 C CNN "Manufacturer_No2"
F 10 "KEMET_RMS1" H 3500 3850 50  0001 C CNN "Manufacturer3"
F 11 "C0603C103K5RACTU" H 3500 3850 50  0001 C CNN "Manufacturer_No3"
	1    3500 3850
	1    0    0    1   
$EndComp
$Comp
L V_Transistor:Q_PMOS_GSD_10022157 T3
U 1 1 22208D74
P 3750 3300
AR Path="/22208D74" Ref="T3"  Part="1" 
AR Path="/5E924756/22208D74" Ref="T3"  Part="1" 
F 0 "T3" H 3603 3000 59  0000 L BNN
F 1 "BSS84" H 3615 3093 42  0000 L BNN
F 2 "GR106772-A:SOT23-GSD" H 3750 3300 50  0001 C CNN
F 3 "" H 3750 3300 50  0001 C CNN
F 4 "TRANSISTOR, P CHANNEL, 50V, 0.13A,      5 OHM, SOT23" H 3750 3300 50  0001 C CNN "Description"
F 5 "10022157" H 3750 3300 50  0001 C CNN "Item Number"
F 6 "NXP SEMICONDUCTORS_RMS1" H 3750 3300 50  0001 C CNN "Manufacturer"
F 7 "BSS84" H 3750 3300 50  0001 C CNN "Manufacturer_No"
F 8 "ON SEMICONDUCTOR_RMS1" H 3750 3300 50  0001 C CNN "Manufacturer2"
F 9 "BSS84LT1G" H 3750 3300 50  0001 C CNN "Manufacturer_No2"
F 10 "NXP SEMICONDUCTORS_RMS1" H 3750 3300 50  0001 C CNN "Manufacturer3"
F 11 "BSS84,215" H 3750 3300 50  0001 C CNN "Manufacturer_No3"
	1    3750 3300
	1    0    0    1   
$EndComp
$Comp
L V_Resistor:R0603_10k_5% R29
U 1 1 437CF36C
P 3850 3850
AR Path="/437CF36C" Ref="R29"  Part="1" 
AR Path="/5E924756/437CF36C" Ref="R29"  Part="1" 
F 0 "R29" V 3775 4113 64  0000 R TNN
F 1 "10k" V 3863 4050 42  0000 R TNN
F 2 "GR106772-A:R0603" H 3850 3850 50  0001 C CNN
F 3 "" H 3850 3850 50  0001 C CNN
F 4 "RESISTOR,10K OHM, 0.063W,+/-5%,0603" H 3850 3850 50  0001 C CNN "Description"
F 5 "10097266" H 3850 3850 50  0001 C CNN "Item Number"
F 6 "YAGEO_RMS1" H 3850 3850 50  0001 C CNN "Manufacturer"
F 7 "RC0603JR-0710KL" H 3850 3850 50  0001 C CNN "Manufacturer_No"
F 8 "YAGEO_RMS1" H 3850 3850 50  0001 C CNN "Manufacturer2"
F 9 "RC0603JR-0710KL" H 3850 3850 50  0001 C CNN "Manufacturer_No2"
F 10 "VISHAY_RMS1" H 3850 3850 50  0001 C CNN "Manufacturer3"
F 11 "CRCW060310K0JNEA" H 3850 3850 50  0001 C CNN "Manufacturer_No3"
	1    3850 3850
	0    1    1    0   
$EndComp
Wire Notes Line
	8898 7523 1373 7523
Wire Notes Line
	1375 4387 8887 4387
Wire Notes Line
	8887 4387 8887 7538
Wire Notes Line
	1375 7525 1375 4387
Wire Notes Line
	8948 1847 11736 1847
Wire Notes Line
	8948 4285 8948 1847
Wire Notes Line
	8948 4285 11736 4285
Wire Notes Line
	11737 4282 11737 1850
Wire Notes Line
	11800 1850 15887 1850
Wire Notes Line
	11800 4288 11800 1850
Wire Notes Line
	11800 4288 15887 4288
Wire Notes Line
	15887 4288 15887 1850
Wire Notes Line
	14525 2250 14575 2250
Wire Notes Line
	14575 2250 14612 2288
Wire Notes Line
	14612 2288 14612 2463
Wire Notes Line
	14612 2463 14650 2500
Wire Notes Line
	14650 2500 14612 2538
Wire Notes Line
	14612 2538 14612 2738
Wire Notes Line
	14612 2738 14575 2775
Wire Notes Line
	14575 2775 14525 2775
Wire Notes Line
	8950 4375 8950 7525
Wire Notes Line
	15900 4375 15900 7525
Wire Notes Line
	8950 7525 15900 7525
Wire Notes Line
	8950 4375 15900 4375
Wire Notes Line
	4837 4288 8877 4288
Wire Notes Line
	4837 4288 4837 1850
Wire Notes Line
	8875 4282 8875 1850
Wire Notes Line
	4787 4288 1375 4288
Wire Notes Line
	1375 4288 1375 1850
Wire Notes Line
	1375 1850 4787 1850
Wire Notes Line
	4787 1850 4787 4288
Text Notes 1427 4542 0    59   ~ 0
CLOCK
Text Notes 9011 1972 0    59   ~ 0
SECURITY BUZZER
Text Notes 11862 1975 0    59   ~ 0
O2 VALVE COMMAND (1)
Text Notes 14675 2538 0    59   ~ 0
To FiO2 VALVE
Text Notes 10312 4525 0    59   ~ 0
VALVE COMMAND
Text Notes 4887 1975 0    59   ~ 0
FIO2
Text Notes 4925 2713 0    59   ~ 0
From FiO2 connector
Text Notes 15937 10763 0    59   ~ 0
05/03/14
Text Notes 16487 10775 0    59   ~ 0
JR
Text Notes 1400 1950 0    59   ~ 0
WATCHDOG
Text Notes 1400 2050 0    59   ~ 0
RESET
Text Notes 1400 2150 0    59   ~ 0
POWER SUPERVISOR
Wire Notes Line
	4837 1850 8877 1850
Wire Wire Line
	1900 3550 1700 3550
Connection ~ 1700 3550
Connection ~ 1700 4000
Connection ~ 1900 3550
Wire Wire Line
	1450 3550 1450 2450
Wire Wire Line
	1450 3550 1700 3550
Wire Wire Line
	1900 3550 2200 3550
Wire Wire Line
	2200 3550 2200 3750
Wire Wire Line
	2200 3750 2450 3750
Wire Wire Line
	2750 3750 3350 3750
Connection ~ 3500 3300
Wire Wire Line
	4150 2800 3500 2800
Wire Wire Line
	3500 2800 3500 3300
NoConn ~ 3200 2850
NoConn ~ 2100 3350
Wire Wire Line
	3550 3300 3500 3300
Wire Wire Line
	5700 2550 6400 2550
Wire Wire Line
	6200 3050 6400 3050
Wire Wire Line
	6400 3050 6400 3100
Wire Wire Line
	6400 3050 6400 2550
Connection ~ 6400 3050
Connection ~ 6400 2550
Wire Wire Line
	6500 3950 6400 3950
Connection ~ 6400 3950
Wire Wire Line
	6400 3950 6400 4050
Wire Wire Line
	6200 3450 6400 3450
Connection ~ 6400 3450
Wire Wire Line
	6400 3450 6400 3950
Wire Wire Line
	6900 3950 6900 3750
Wire Wire Line
	6900 2750 7050 2750
Connection ~ 6900 3950
Wire Wire Line
	7900 3950 7900 3750
Connection ~ 7900 3750
Wire Wire Line
	7900 3750 7900 2650
Connection ~ 6900 3750
Wire Wire Line
	6900 3750 6900 2750
Wire Wire Line
	6900 3950 7200 3950
Wire Wire Line
	7925 2200 7750 2200
Connection ~ 7300 2200
Wire Wire Line
	7300 2200 7300 2075
Wire Wire Line
	8150 2650 8050 2650
Connection ~ 7900 2650
Wire Wire Line
	8050 2900 8050 2650
Connection ~ 8050 2650
Wire Wire Line
	8050 2650 7900 2650
Wire Wire Line
	8050 3100 8050 3225
Wire Wire Line
	9550 3000 9750 3000
Wire Wire Line
	9750 3500 9575 3500
Wire Wire Line
	12550 3050 13200 3050
Connection ~ 13200 3050
Wire Wire Line
	13200 3050 13250 3050
Wire Wire Line
	13200 3550 13550 3550
Wire Wire Line
	13550 3550 13550 3625
Wire Wire Line
	13550 3550 13550 3250
Connection ~ 13550 3550
Wire Wire Line
	13550 2850 13550 2750
Wire Wire Line
	13950 2750 13550 2750
Connection ~ 13550 2750
Wire Wire Line
	4650 6550 4650 6400
Wire Wire Line
	4650 6400 4550 6400
Wire Wire Line
	4550 6400 4550 6550
Wire Wire Line
	4550 6400 4550 6250
Wire Wire Line
	4550 6250 4700 6250
Connection ~ 4550 6400
Wire Wire Line
	4550 6250 4100 6250
Connection ~ 4550 6250
Wire Wire Line
	2900 4700 2900 4950
Connection ~ 2900 4950
Wire Wire Line
	2900 4950 2900 5100
Wire Wire Line
	3250 5100 3250 4950
Connection ~ 3250 4950
Wire Wire Line
	3850 4950 3850 5100
Wire Wire Line
	2550 6550 2650 6550
Text HLabel 2550 6400 0    70   Output ~ 0
MRST_SPI_0_E
Wire Wire Line
	2550 6100 2650 6100
Wire Wire Line
	2550 6250 2650 6250
Wire Wire Line
	2550 6400 2650 6400
NoConn ~ 2650 5950
NoConn ~ 2650 5800
NoConn ~ 2650 5650
Wire Wire Line
	6400 6350 6500 6350
Wire Wire Line
	6500 6150 6400 6150
Wire Wire Line
	6400 5950 6500 5950
Wire Wire Line
	6500 5750 6350 5750
Wire Wire Line
	6350 5750 6350 5650
Wire Wire Line
	6350 5450 6350 5350
Wire Wire Line
	6350 5350 6500 5350
Wire Wire Line
	7000 5050 7000 4950
Connection ~ 7000 4950
Wire Wire Line
	7000 4950 7000 4700
Wire Wire Line
	7600 4950 7600 5050
Connection ~ 7600 4950
NoConn ~ 6500 6550
NoConn ~ 6500 6750
NoConn ~ 6500 6950
NoConn ~ 6500 7150
NoConn ~ 8000 6050
NoConn ~ 8000 6250
NoConn ~ 8000 6450
Text HLabel 8100 6650 2    56   Output ~ 0
MRST_SPI_0_E
Wire Wire Line
	8100 6650 8000 6650
Wire Wire Line
	8000 6950 8100 6950
$Comp
L V_IC:OP295 IC11
U 2 1 D9B4621C
P 13850 6200
AR Path="/D9B4621C" Ref="IC11"  Part="2" 
AR Path="/5E924756/D9B4621C" Ref="IC11"  Part="2" 
F 0 "IC11" H 13875 6475 73  0000 L BNN
F 1 "OP295" H 13900 6400 42  0000 L BNN
F 2 "GR106772-A:MX.A8_COMPOSANT" H 13850 6200 50  0001 C CNN
F 3 "https://datasheet.datasheetarchive.com/originals/dk/DKDS-11/218856.pdf" H 13850 6200 50  0001 C CNN
F 4 "DOUBLE AMPLIFIER RAIL TO RAIL, SO8" H 7300 2625 50  0001 C CNN "Description"
F 5 "10022969" H 7300 2625 50  0001 C CNN "Item Number"
F 6 "ANALOG DEVICES, INC." H 7300 2625 50  0001 C CNN "Manufacturer"
F 7 "OP295GSZ-REEL7" H 7300 2625 50  0001 C CNN "Manufacturer_No"
F 8 "ANALOG DEVICES, INC." H 7300 2625 50  0001 C CNN "Manufacturer2"
F 9 "OP295GSZ" H 7300 2625 50  0001 C CNN "Manufacturer_No2"
	2    13850 6200
	1    0    0    -1  
$EndComp
Wire Wire Line
	11600 5800 11350 5800
Wire Wire Line
	11350 5800 11350 5900
Connection ~ 11350 5800
Wire Wire Line
	11350 6200 11350 6300
Wire Wire Line
	11900 6000 11900 6100
Connection ~ 12850 6100
Wire Wire Line
	12850 6100 13000 6100
Wire Wire Line
	12850 6600 13000 6600
Wire Wire Line
	13000 6625 13000 6600
Connection ~ 13000 6600
Connection ~ 13000 6100
Connection ~ 14550 6200
Wire Wire Line
	14550 6200 14800 6200
Wire Wire Line
	14050 6925 14400 6925
Wire Wire Line
	14400 6200 14550 6200
Wire Wire Line
	14400 7250 14400 6925
Wire Wire Line
	13400 6300 13550 6300
Wire Wire Line
	13400 7250 13400 6925
Wire Wire Line
	14250 5500 11900 5500
Connection ~ 11900 5500
Wire Wire Line
	11900 5500 11900 5600
Wire Wire Line
	12250 5250 12250 5300
Wire Wire Line
	12250 5300 11900 5300
Connection ~ 11900 5300
Wire Wire Line
	11900 5300 11900 5500
Wire Wire Line
	4550 6950 4550 7200
$Comp
L V_IC:MAX690ACSA IC12
U 1 1 EEDDF45D
P 2600 3000
AR Path="/EEDDF45D" Ref="IC12"  Part="1" 
AR Path="/5E924756/EEDDF45D" Ref="IC12"  Part="1" 
F 0 "IC12" H 2862 3600 59  0000 L BNN
F 1 "MAX690ACSA" H 2850 3525 42  0000 L BNN
F 2 "GR106772-A:MX.A8_COMPOSANT" H 2600 3000 50  0001 C CNN
F 3 "https://datasheet.datasheetarchive.com/originals/dk/DKDS41/DSANUWW0037327.pdf" H 2600 3000 50  0001 C CNN
F 4 "IC,MICROPROCESSOR SUPERVISOR CIRCUIT,SO8" H 2600 3000 50  0001 C CNN "Description"
F 5 "10022970" H 2600 3000 50  0001 C CNN "Item Number"
F 6 "MAXIM_RMS1" H 2600 3000 50  0001 C CNN "Manufacturer"
F 7 "MAX690ACSA+T" H 2600 3000 50  0001 C CNN "Manufacturer_No"
F 8 "MAXIM_RMS1" H 2600 3000 50  0001 C CNN "Manufacturer2"
F 9 "MAX690ACSA+" H 2600 3000 50  0001 C CNN "Manufacturer_No2"
	1    2600 3000
	1    0    0    -1  
$EndComp
$Comp
L V_Diode:BAT54C D14
U 1 1 DDBEAB72
P 10050 3300
AR Path="/DDBEAB72" Ref="D14"  Part="1" 
AR Path="/5E924756/DDBEAB72" Ref="D14"  Part="1" 
F 0 "D14" H 9875 3550 64  0000 L BNN
F 1 "BAT54C" H 9875 3475 42  0000 L BNN
F 2 "GR106772-A:SOT23-1G" H 10062 3300 50  0001 C CNN
F 3 "https://assets.nexperia.com/documents/data-sheet/BAT54_SER.pdf" H 10062 3300 50  0001 C CNN
F 4 "DIODE SCHOTTKY DOUBLE,30V, 200MA,SOT23" H 10050 3300 50  0001 C CNN "Description"
F 5 "10022653" H 10050 3300 50  0001 C CNN "Item Number"
F 6 "NXP SEMICONDUCTORS_RMS1" H 10050 3300 50  0001 C CNN "Manufacturer"
F 7 "BAT54C,215" H 10050 3300 50  0001 C CNN "Manufacturer_No"
F 8 "NXP SEMICONDUCTORS_RMS1" H 10050 3300 50  0001 C CNN "Manufacturer2"
F 9 "BAT54C" H 10050 3300 50  0001 C CNN "Manufacturer_No2"
	1    10050 3300
	1    0    0    -1  
$EndComp
Connection ~ 3350 3100
Wire Wire Line
	3350 3100 3350 3750
Wire Wire Line
	1900 3100 1900 3550
Text Label 4700 6250 0    50   ~ 0
V-BATTERY
Text Label 8100 6950 0    50   ~ 0
V-BATTERY
Wire Wire Line
	3250 4950 3850 4950
NoConn ~ 3550 5100
$Comp
L V_Power:PWR_FLAG #FLG0104
U 1 1 5ED7B35B
P 11350 6300
F 0 "#FLG0104" H 11350 6375 50  0001 C CNN
F 1 "PWR_FLAG" V 11350 6427 50  0000 L CNN
F 2 "" H 11350 6300 50  0001 C CNN
F 3 "" H 11350 6300 50  0001 C CNN
	1    11350 6300
	0    -1   -1   0   
$EndComp
$Comp
L V_Power:PWR_FLAG #FLG0105
U 1 1 5ED7BF1F
P 14550 7250
F 0 "#FLG0105" H 14550 7325 50  0001 C CNN
F 1 "PWR_FLAG" V 14550 7378 50  0000 L CNN
F 2 "" H 14550 7250 50  0001 C CNN
F 3 "" H 14550 7250 50  0001 C CNN
	1    14550 7250
	0    1    1    0   
$EndComp
Connection ~ 14550 7250
$Comp
L V_IC:OP295 IC11
U 1 1 D9B46210
P 7350 2650
AR Path="/D9B46210" Ref="IC11"  Part="1" 
AR Path="/5E924756/D9B46210" Ref="IC11"  Part="1" 
F 0 "IC11" H 7400 2900 64  0000 L BNN
F 1 "OP295" H 7425 2813 42  0000 L BNN
F 2 "GR106772-A:MX.A8_COMPOSANT" H 7350 2650 50  0001 C CNN
F 3 "https://datasheet.datasheetarchive.com/originals/dk/DKDS-11/218856.pdf" H 7350 2650 50  0001 C CNN
F 4 "DOUBLE AMPLIFIER RAIL TO RAIL, SO8" H 7300 2650 50  0001 C CNN "Description"
F 5 "10022969" H 7300 2650 50  0001 C CNN "Item Number"
F 6 "ANALOG DEVICES, INC." H 7300 2650 50  0001 C CNN "Manufacturer"
F 7 "OP295GSZ-REEL7" H 7300 2650 50  0001 C CNN "Manufacturer_No"
F 8 "ANALOG DEVICES, INC." H 7300 2650 50  0001 C CNN "Manufacturer2"
F 9 "OP295GSZ" H 7300 2650 50  0001 C CNN "Manufacturer_No2"
	1    7350 2650
	1    0    0    -1  
$EndComp
$Comp
L V_IC:OP295 IC11
U 3 1 D9B46218
P 7400 2650
AR Path="/D9B46218" Ref="IC11"  Part="3" 
AR Path="/5E924756/D9B46218" Ref="IC11"  Part="3" 
F 0 "IC11" H 7600 2900 73  0001 L BNN
F 1 "OP295" H 7750 2800 73  0001 L BNN
F 2 "GR106772-A:MX.A8_COMPOSANT" H 7400 2650 50  0001 C CNN
F 3 "https://datasheet.datasheetarchive.com/originals/dk/DKDS-11/218856.pdf" H 7400 2650 50  0001 C CNN
F 4 "DOUBLE AMPLIFIER RAIL TO RAIL, SO8" H 7400 2650 50  0001 C CNN "Description"
F 5 "10022969" H 7400 2650 50  0001 C CNN "Item Number"
F 6 "ANALOG DEVICES, INC." H 7400 2650 50  0001 C CNN "Manufacturer"
F 7 "OP295GSZ-REEL7" H 7400 2650 50  0001 C CNN "Manufacturer_No"
F 8 "ANALOG DEVICES, INC." H 7400 2650 50  0001 C CNN "Manufacturer2"
F 9 "OP295GSZ" H 7400 2650 50  0001 C CNN "Manufacturer_No2"
	3    7400 2650
	1    0    0    -1  
$EndComp
Wire Wire Line
	10550 3650 10550 3700
Wire Wire Line
	14150 2350 13550 2350
Connection ~ 13550 2350
Wire Wire Line
	13550 2350 13550 2450
Wire Wire Line
	13200 3050 13200 3200
Wire Wire Line
	13200 3550 13200 3500
Connection ~ 11900 6100
Wire Wire Line
	11900 6925 12250 6925
Wire Wire Line
	12550 6925 13400 6925
Wire Wire Line
	13400 6925 13750 6925
Connection ~ 13400 6925
Connection ~ 14400 6925
Wire Wire Line
	14400 6200 14400 6925
Connection ~ 11900 6925
Wire Wire Line
	13400 6300 13400 6925
Connection ~ 14400 6200
Wire Wire Line
	11900 4650 11900 4700
Connection ~ 11900 4700
Wire Wire Line
	12250 4750 12250 4700
Wire Wire Line
	12250 4700 11900 4700
Wire Wire Line
	6200 3050 6200 3100
Wire Wire Line
	6200 3400 6200 3450
Wire Wire Line
	6800 3950 6900 3950
Wire Wire Line
	7500 3750 7900 3750
Wire Wire Line
	6900 3750 7200 3750
Wire Wire Line
	2100 3100 1900 3100
Wire Wire Line
	3850 3050 3850 3100
Wire Wire Line
	3350 2650 3350 3100
Wire Wire Line
	3350 2650 4150 2650
Wire Wire Line
	3350 2650 3350 2600
Connection ~ 3350 2650
Wire Wire Line
	3350 2200 3350 2300
Wire Wire Line
	3200 3300 3500 3300
Wire Wire Line
	3200 3100 3350 3100
Wire Wire Line
	2450 2050 2450 2250
Wire Wire Line
	2850 2050 2850 2250
Wire Wire Line
	2850 2250 2800 2250
Connection ~ 2850 2250
Wire Wire Line
	2850 2250 2850 2300
Wire Wire Line
	2450 2250 2500 2250
Connection ~ 2450 2250
Wire Wire Line
	2450 2250 2450 2300
Wire Wire Line
	1450 2450 1700 2450
Wire Wire Line
	1700 3450 1700 3550
Wire Wire Line
	1700 3550 1700 3600
Wire Wire Line
	1700 3900 1700 4000
Wire Wire Line
	1700 4000 1700 4050
Wire Wire Line
	1700 4000 1900 4000
Wire Wire Line
	1900 4000 1900 3950
$Comp
L V_Capacitor:C0402_100nF_16V_10% C77
U 1 1 28576E5F
P 7300 4950
AR Path="/28576E5F" Ref="C77"  Part="1" 
AR Path="/5E924756/28576E5F" Ref="C77"  Part="1" 
F 0 "C77" V 7550 4850 64  0000 L BNN
F 1 "100nF" V 7450 4850 42  0000 L BNN
F 2 "GR106772-A:C0402" H 7300 4950 50  0001 C CNN
F 3 "https://www.yageo.com/upload/media/product/productsearch/datasheet/mlcc/UPY-GPHC_X7R_6.3V-to-50V_18.pdf" H 7300 4950 50  0001 C CNN
F 4 "CAPACITOR,100NF,16V,+/-10%,X7R,0402" H 7300 4950 50  0001 C CNN "Description"
F 5 "10022607" H 7300 4950 50  0001 C CNN "Item Number"
F 6 "YAGEO_RMS1" H 7300 4950 50  0001 C CNN "Manufacturer"
F 7 "CC0402KRX7R7BB104" H 7300 4950 50  0001 C CNN "Manufacturer_No"
F 8 "YAGEO_RMS1" H 7300 4950 50  0001 C CNN "Manufacturer2"
F 9 "223878715649" H 7300 4950 50  0001 C CNN "Manufacturer_No2"
F 10 "MURATA MANUFACTURING CO., LTD." H 7300 4950 50  0001 C CNN "Manufacturer3"
F 11 "GRM155R71C104KA88D" H 7300 4950 50  0001 C CNN "Manufacturer_No3"
	1    7300 4950
	0    1    -1   0   
$EndComp
Wire Wire Line
	4100 6550 4200 6550
Wire Wire Line
	2100 2850 2000 2850
Wire Wire Line
	2000 2850 2000 2650
Wire Wire Line
	2000 2650 1900 2650
Wire Wire Line
	1700 3050 1700 3150
Wire Wire Line
	3850 4000 3850 4050
Wire Wire Line
	3850 4050 3500 4050
Connection ~ 3500 4050
Wire Wire Line
	3500 4050 3500 4100
Wire Wire Line
	9750 3400 9750 3500
Wire Wire Line
	9750 3000 9750 3200
Wire Wire Line
	10550 3350 10550 3300
Wire Wire Line
	10550 3300 10750 3300
Wire Wire Line
	10550 3300 10250 3300
Connection ~ 10550 3300
Wire Wire Line
	10550 3700 11050 3700
Wire Wire Line
	11050 3700 11050 3500
$Comp
L V_Buzzer:F_HMB BUZ1
U 1 1 A198C796
P 11150 2750
AR Path="/A198C796" Ref="BUZ1"  Part="1" 
AR Path="/5E924756/A198C796" Ref="BUZ1"  Part="1" 
F 0 "BUZ1" V 11175 2987 59  0000 L BNN
F 1 "HMB12" V 11263 2987 42  0000 L BNN
F 2 "GR106772-A:HMB12_100001100001" H 11150 2750 50  0001 C CNN
F 3 "" H 11150 2750 50  0001 C CNN
F 4 "BUZZER, 12V, 30MA, 85DB" H 11150 2750 50  0001 C CNN "Description"
F 5 "10023244" H 11150 2750 50  0001 C CNN "Item Number"
F 6 "STAR MICRONICS INC." H 11150 2750 50  0001 C CNN "Manufacturer"
F 7 "HMB-12" H 11150 2750 50  0001 C CNN "Manufacturer_No"
	1    11150 2750
	0    1    1    0   
$EndComp
Wire Wire Line
	11050 2950 11050 3100
Wire Wire Line
	11050 2650 11050 2550
Wire Wire Line
	11050 2150 11050 2250
Wire Wire Line
	13550 2200 13550 2350
Wire Wire Line
	11900 4700 11900 4850
Wire Wire Line
	11100 5800 11350 5800
Wire Wire Line
	11900 6650 11900 6925
Wire Wire Line
	11900 6100 11900 6350
Wire Wire Line
	12600 6100 12850 6100
Wire Wire Line
	11900 6100 12300 6100
Wire Wire Line
	12850 6100 12850 6200
Wire Wire Line
	13000 6100 13000 6200
Wire Wire Line
	13000 6500 13000 6600
Wire Wire Line
	11900 6925 11900 7250
Wire Wire Line
	7600 4700 7600 4950
Wire Wire Line
	3250 4700 3250 4950
Wire Wire Line
	4350 5700 4350 5650
Wire Wire Line
	4100 5650 4350 5650
Wire Wire Line
	4350 5900 4350 5950
Wire Wire Line
	4100 5950 4350 5950
$Comp
L V_Crystal:Crystal_Small_Pin1Pin4 Q5
U 1 1 4396189E
P 4350 5800
AR Path="/4396189E" Ref="Q5"  Part="1" 
AR Path="/5E924756/4396189E" Ref="Q5"  Part="1" 
F 0 "Q5" V 4365 5675 51  0000 R TNN
F 1 "32,768KHz" V 4287 5675 51  0000 R TNN
F 2 "GR106772-A:85SMX" H 4350 5800 50  0001 C CNN
F 3 "" H 4350 5800 50  0001 C CNN
F 4 "CRYSTAL QUARTZ 32.768KHZ" H 4350 5800 50  0001 C CNN "Description"
F 5 "10023250" H 4350 5800 50  0001 C CNN "Item Number"
F 6 "IQD" H 4350 5800 50  0001 C CNN "Manufacturer"
F 7 "LFXTAL003000REEL" H 4350 5800 50  0001 C CNN "Manufacturer_No"
	1    4350 5800
	0    -1   -1   0   
$EndComp
Wire Wire Line
	7300 2200 7300 2350
Wire Wire Line
	7300 2950 7300 3200
Wire Wire Line
	6400 2550 7050 2550
Wire Wire Line
	7650 2650 7900 2650
Wire Wire Line
	13000 6100 13550 6100
Wire Wire Line
	14150 6200 14400 6200
$Comp
L V_Transistor:Q_NMOS_GSD_10097274 T14
U 1 1 B63BD651
P 10950 3300
AR Path="/B63BD651" Ref="T14"  Part="1" 
AR Path="/5E924756/B63BD651" Ref="T14"  Part="1" 
F 0 "T14" H 11162 3390 64  0000 L BNN
F 1 "2N7002" H 11169 3321 42  0000 L BNN
F 2 "GR106772-A:SOT23-GSD" H 10950 3300 50  0001 C CNN
F 3 "" H 10950 3300 50  0001 C CNN
F 4 "TRANSISTOR MOSFET N CHANNEL 60V, 0.18A" H 10950 3300 50  0001 C CNN "Description"
F 5 "10097274" H 10950 3300 50  0001 C CNN "Item Number"
F 6 "ON SEMICONDUCTOR_RMS1" H 10950 3300 50  0001 C CNN "Manufacturer"
F 7 "2N7002LT1G" H 10950 3300 50  0001 C CNN "Manufacturer_No"
F 8 "NXP SEMICONDUCTORS_RMS1" H 10950 3300 50  0001 C CNN "Manufacturer2"
F 9 "2N7002,215" H 10950 3300 50  0001 C CNN "Manufacturer_No2"
F 10 "NXP SEMICONDUCTORS_RMS1" H 10950 3300 50  0001 C CNN "Manufacturer3"
F 11 "2N7002" H 10950 3300 50  0001 C CNN "Manufacturer_No3"
	1    10950 3300
	1    0    0    -1  
$EndComp
$Comp
L V_Transistor:Q_NMOS_GSD_10022956 T20
U 1 1 71F1869B
P 13450 3050
AR Path="/71F1869B" Ref="T20"  Part="1" 
AR Path="/5E924756/71F1869B" Ref="T20"  Part="1" 
F 0 "T20" H 13627 3050 64  0000 L BNN
F 1 "BS170F" H 13627 2955 42  0000 L BNN
F 2 "GR106772-A:SOT23-GSD" H 13450 3050 50  0001 C CNN
F 3 "" H 13450 3050 50  0001 C CNN
F 4 "TRANSISTOR, MOSFET, N-CHANNEL, 60V, 0.5A.SOT23" H 13450 3050 50  0001 C CNN "Description"
F 5 "10022956" H 13450 3050 50  0001 C CNN "Item Number"
F 6 "FAIRCHILD SEMICONDUCTOR_RMS1" H 13450 3050 50  0001 C CNN "Manufacturer"
F 7 "MMBF170" H 13450 3050 50  0001 C CNN "Manufacturer_No"
F 8 "DIODES INC_RMS1" H 13450 3050 50  0001 C CNN "Manufacturer2"
F 9 "MMBF170-7-F" H 13450 3050 50  0001 C CNN "Manufacturer_No2"
	1    13450 3050
	1    0    0    -1  
$EndComp
$Comp
L V_Transistor:Q_NMOS_GSD_10097274 T21
U 1 1 2CDC58F9
P 11800 5800
AR Path="/2CDC58F9" Ref="T21"  Part="1" 
AR Path="/5E924756/2CDC58F9" Ref="T21"  Part="1" 
F 0 "T21" H 12026 5891 64  0000 L BNN
F 1 "2N7002" H 12022 5810 42  0000 L BNN
F 2 "GR106772-A:SOT23-GSD" H 11800 5800 50  0001 C CNN
F 3 "" H 11800 5800 50  0001 C CNN
F 4 "TRANSISTOR MOSFET N CHANNEL 60V, 0.18A" H 11800 5800 50  0001 C CNN "Description"
F 5 "10097274" H 11800 5800 50  0001 C CNN "Item Number"
F 6 "ON SEMICONDUCTOR_RMS1" H 11800 5800 50  0001 C CNN "Manufacturer"
F 7 "2N7002LT1G" H 11800 5800 50  0001 C CNN "Manufacturer_No"
F 8 "NXP SEMICONDUCTORS_RMS1" H 11800 5800 50  0001 C CNN "Manufacturer2"
F 9 "2N7002,215" H 11800 5800 50  0001 C CNN "Manufacturer_No2"
F 10 "NXP SEMICONDUCTORS_RMS1" H 11800 5800 50  0001 C CNN "Manufacturer3"
F 11 "2N7002" H 11800 5800 50  0001 C CNN "Manufacturer_No3"
	1    11800 5800
	1    0    0    -1  
$EndComp
Wire Wire Line
	11900 5150 11900 5300
$Comp
L V_Diode:D_Zener_A1K3_10020994 D12
U 1 1 6864D7E9
P 11050 2400
AR Path="/6864D7E9" Ref="D12"  Part="1" 
AR Path="/5E924756/6864D7E9" Ref="D12"  Part="1" 
F 0 "D12" V 11125 2850 59  0000 R TNN
F 1 "BZV55-C12" V 11050 2850 42  0000 R TNN
F 2 "GR106772-A:SOD80" H 11050 2400 50  0001 C CNN
F 3 "" H 11050 2400 50  0001 C CNN
F 4 "DIODE ZENER, 500MW, 12V, SOD-80C" H 11050 2400 50  0001 C CNN "Description"
F 5 "10020994" H 11050 2400 50  0001 C CNN "Item Number"
F 6 "NXP SEMICONDUCTORS_RMS1" H 11050 2400 50  0001 C CNN "Manufacturer"
F 7 "BZV55-C12,115" H 11050 2400 50  0001 C CNN "Manufacturer_No"
F 8 "NXP SEMICONDUCTORS_RMS1" H 11050 2400 50  0001 C CNN "Manufacturer2"
F 9 "BZV55-C12" H 11050 2400 50  0001 C CNN "Manufacturer_No2"
	1    11050 2400
	0    -1   -1   0   
$EndComp
Wire Wire Line
	1900 3650 1900 3550
Wire Wire Line
	3500 4000 3500 4050
Wire Wire Line
	6400 3400 6400 3450
Wire Wire Line
	7500 3950 7900 3950
Wire Wire Line
	7450 2200 7300 2200
Wire Wire Line
	3200 4950 3250 4950
Wire Wire Line
	7150 4950 7000 4950
Wire Wire Line
	7450 4950 7600 4950
Wire Wire Line
	12850 6500 12850 6600
Wire Wire Line
	13750 7250 13400 7250
Wire Wire Line
	14050 7250 14400 7250
Wire Wire Line
	14550 6600 14550 6200
Wire Wire Line
	14550 6900 14550 7250
$Comp
L V_Capacitor:C0603_10nF_50V_10% C43
U 1 1 A25B9E4F
P 12850 6350
AR Path="/A25B9E4F" Ref="C43"  Part="1" 
AR Path="/5E924756/A25B9E4F" Ref="C43"  Part="1" 
F 0 "C43" H 12550 6275 64  0000 L BNN
F 1 "10nF" H 12575 6375 42  0000 L BNN
F 2 "GR106772-A:C0603" H 12850 6350 50  0001 C CNN
F 3 "" H 12850 6350 50  0001 C CNN
F 4 "CAPACITOR CERAMIC,10NF,+/-10%,50V,0603" H 12850 6350 50  0001 C CNN "Description"
F 5 "10022508" H 12850 6350 50  0001 C CNN "Item Number"
F 6 "YAGEO_RMS1" H 12850 6350 50  0001 C CNN "Manufacturer"
F 7 "CC0603KRX7R9BB103" H 12850 6350 50  0001 C CNN "Manufacturer_No"
F 8 "YAGEO_RMS1" H 12850 6350 50  0001 C CNN "Manufacturer2"
F 9 "CC0603KRX7R9BB104" H 12850 6350 50  0001 C CNN "Manufacturer_No2"
F 10 "KEMET_RMS1" H 12850 6350 50  0001 C CNN "Manufacturer3"
F 11 "C0603C103K5RACTU" H 12850 6350 50  0001 C CNN "Manufacturer_No3"
	1    12850 6350
	1    0    0    1   
$EndComp
$Comp
L V_Power:+24V #PWR0101
U 1 1 5EB7B186
P 1700 3050
F 0 "#PWR0101" H 1850 2950 50  0001 C CNN
F 1 "+24V" H 1715 3223 50  0000 C CNN
F 2 "" H 1700 3050 50  0001 C CNN
F 3 "" H 1700 3050 50  0001 C CNN
	1    1700 3050
	1    0    0    -1  
$EndComp
$Comp
L V_Power:GND #PWR0102
U 1 1 5EB7D80F
P 1700 4050
F 0 "#PWR0102" H 1850 4000 50  0001 C CNN
F 1 "GND" H 1700 3900 50  0000 C CNN
F 2 "" H 1700 3950 50  0001 C CNN
F 3 "" H 1700 3950 50  0001 C CNN
	1    1700 4050
	1    0    0    -1  
$EndComp
$Comp
L V_Power:GND #PWR0103
U 1 1 5EB7F116
P 3500 4100
F 0 "#PWR0103" H 3650 4050 50  0001 C CNN
F 1 "GND" H 3500 3950 50  0000 C CNN
F 2 "" H 3500 4000 50  0001 C CNN
F 3 "" H 3500 4000 50  0001 C CNN
	1    3500 4100
	1    0    0    -1  
$EndComp
$Comp
L V_Power:GND #PWR0104
U 1 1 5EB7F41E
P 13550 3625
F 0 "#PWR0104" H 13700 3575 50  0001 C CNN
F 1 "GND" H 13550 3451 50  0000 C CNN
F 2 "" H 13550 3525 50  0001 C CNN
F 3 "" H 13550 3525 50  0001 C CNN
	1    13550 3625
	1    0    0    -1  
$EndComp
$Comp
L V_Power:GND #PWR0105
U 1 1 5EB84679
P 11350 6375
F 0 "#PWR0105" H 11500 6325 50  0001 C CNN
F 1 "GND" H 11350 6201 50  0000 C CNN
F 2 "" H 11350 6275 50  0001 C CNN
F 3 "" H 11350 6275 50  0001 C CNN
	1    11350 6375
	1    0    0    -1  
$EndComp
Wire Wire Line
	11350 6375 11350 6300
Connection ~ 11350 6300
$Comp
L V_Power:GND #PWR0106
U 1 1 5EB90BF8
P 11900 7250
F 0 "#PWR0106" H 12050 7200 50  0001 C CNN
F 1 "GND" H 11900 7076 50  0000 C CNN
F 2 "" H 11900 7150 50  0001 C CNN
F 3 "" H 11900 7150 50  0001 C CNN
	1    11900 7250
	1    0    0    -1  
$EndComp
$Comp
L V_Power:GND #PWR0107
U 1 1 5EB91730
P 4550 7200
F 0 "#PWR0107" H 4700 7150 50  0001 C CNN
F 1 "GND" H 4550 7050 50  0000 C CNN
F 2 "" H 4550 7100 50  0001 C CNN
F 3 "" H 4550 7100 50  0001 C CNN
	1    4550 7200
	1    0    0    -1  
$EndComp
$Comp
L V_Power:GND #PWR0108
U 1 1 5EB968F7
P 2900 4700
F 0 "#PWR0108" H 3050 4650 50  0001 C CNN
F 1 "GND" H 2900 4550 50  0000 C CNN
F 2 "" H 2900 4600 50  0001 C CNN
F 3 "" H 2900 4600 50  0001 C CNN
	1    2900 4700
	-1   0    0    1   
$EndComp
$Comp
L V_Power:GND #PWR0109
U 1 1 5EB9904F
P 7600 4700
F 0 "#PWR0109" H 7750 4650 50  0001 C CNN
F 1 "GND" H 7600 4550 50  0000 C CNN
F 2 "" H 7600 4600 50  0001 C CNN
F 3 "" H 7600 4600 50  0001 C CNN
	1    7600 4700
	-1   0    0    1   
$EndComp
$Comp
L V_Power:+5V #0101
U 1 1 5EB9DF80
P 2450 2050
F 0 "#0101" H 2500 2100 50  0001 C CNN
F 1 "+5V" H 2350 2200 59  0000 L CNN
F 2 "" H 2450 2150 50  0001 C CNN
F 3 "" H 2450 2150 50  0001 C CNN
	1    2450 2050
	1    0    0    -1  
$EndComp
$Comp
L V_Power:+5V #U0101
U 1 1 5EB9EF89
P 3350 2200
F 0 "#U0101" H 3400 2250 50  0001 C CNN
F 1 "+5V" H 3250 2350 59  0000 L CNN
F 2 "" H 3350 2300 50  0001 C CNN
F 3 "" H 3350 2300 50  0001 C CNN
	1    3350 2200
	1    0    0    -1  
$EndComp
$Comp
L V_Power:+5V #U0102
U 1 1 5EB9F607
P 3850 3050
F 0 "#U0102" H 3900 3100 50  0001 C CNN
F 1 "+5V" H 3750 3200 59  0000 L CNN
F 2 "" H 3850 3150 50  0001 C CNN
F 3 "" H 3850 3150 50  0001 C CNN
	1    3850 3050
	1    0    0    -1  
$EndComp
$Comp
L V_Power:+5V #U0103
U 1 1 5EBA1EF2
P 3250 4700
F 0 "#U0103" H 3300 4750 50  0001 C CNN
F 1 "+5V" H 3150 4850 59  0000 L CNN
F 2 "" H 3250 4800 50  0001 C CNN
F 3 "" H 3250 4800 50  0001 C CNN
	1    3250 4700
	1    0    0    -1  
$EndComp
$Comp
L V_Power:GND #PWR0110
U 1 1 5EBA3B92
P 2850 2050
F 0 "#PWR0110" H 3000 2000 50  0001 C CNN
F 1 "GND" H 2850 1900 50  0000 C CNN
F 2 "" H 2850 1950 50  0001 C CNN
F 3 "" H 2850 1950 50  0001 C CNN
	1    2850 2050
	-1   0    0    1   
$EndComp
$Comp
L V_Power:+5V #U0104
U 1 1 5EBAC893
P 7000 4700
F 0 "#U0104" H 7050 4750 50  0001 C CNN
F 1 "+5V" H 6900 4850 59  0000 L CNN
F 2 "" H 7000 4800 50  0001 C CNN
F 3 "" H 7000 4800 50  0001 C CNN
	1    7000 4700
	1    0    0    -1  
$EndComp
$Comp
L V_Power:+5V #U0105
U 1 1 5EBAE438
P 7300 2075
F 0 "#U0105" H 7350 2125 50  0001 C CNN
F 1 "+5V" H 7200 2225 59  0000 L CNN
F 2 "" H 7300 2175 50  0001 C CNN
F 3 "" H 7300 2175 50  0001 C CNN
	1    7300 2075
	1    0    0    -1  
$EndComp
$Comp
L V_Power:+24V #PWR0111
U 1 1 5EBB68EC
P 13550 2200
F 0 "#PWR0111" H 13700 2100 50  0001 C CNN
F 1 "+24V" H 13565 2373 50  0000 C CNN
F 2 "" H 13550 2200 50  0001 C CNN
F 3 "" H 13550 2200 50  0001 C CNN
	1    13550 2200
	1    0    0    -1  
$EndComp
$Comp
L V_Power:+24V #PWR0112
U 1 1 5EBB9521
P 11050 2150
F 0 "#PWR0112" H 11200 2050 50  0001 C CNN
F 1 "+24V" H 11065 2323 50  0000 C CNN
F 2 "" H 11050 2150 50  0001 C CNN
F 3 "" H 11050 2150 50  0001 C CNN
	1    11050 2150
	1    0    0    -1  
$EndComp
$Comp
L V_Power:+24V #PWR0113
U 1 1 5EBBAA63
P 14150 2350
F 0 "#PWR0113" H 14300 2250 50  0001 C CNN
F 1 "+24V" V 14165 2478 50  0000 L CNN
F 2 "" H 14150 2350 50  0001 C CNN
F 3 "" H 14150 2350 50  0001 C CNN
	1    14150 2350
	0    1    1    0   
$EndComp
$Comp
L V_Power:+24V #PWR0114
U 1 1 5EBC53DB
P 11900 4650
F 0 "#PWR0114" H 12050 4550 50  0001 C CNN
F 1 "+24V" H 11915 4823 50  0000 C CNN
F 2 "" H 11900 4650 50  0001 C CNN
F 3 "" H 11900 4650 50  0001 C CNN
	1    11900 4650
	1    0    0    -1  
$EndComp
$Comp
L V_Power:GND #PWR0115
U 1 1 5EBCC49E
P 11050 3700
F 0 "#PWR0115" H 11200 3650 50  0001 C CNN
F 1 "GND" H 11050 3526 50  0000 C CNN
F 2 "" H 11050 3600 50  0001 C CNN
F 3 "" H 11050 3600 50  0001 C CNN
	1    11050 3700
	1    0    0    -1  
$EndComp
Connection ~ 11050 3700
$Comp
L V_Power:+5V #U0106
U 1 1 5EBD5275
P 4200 6550
F 0 "#U0106" H 4250 6600 50  0001 C CNN
F 1 "+5V" V 4150 6600 59  0000 L CNN
F 2 "" H 4200 6650 50  0001 C CNN
F 3 "" H 4200 6650 50  0001 C CNN
	1    4200 6550
	0    1    1    0   
$EndComp
Text Label 10500 10450 0    50   ~ 0
N$67
Text GLabel 10500 10450 0    50   Input ~ 0
N$67
Text Label 13075 6100 0    50   ~ 0
N$67
Text Label 13400 6900 0    50   ~ 0
IC11-B
Text HLabel 4150 2800 2    56   Output ~ 0
~RESET~
Wire Wire Line
	3500 3300 3500 3700
Wire Wire Line
	3850 3500 3850 3625
Text HLabel 3975 3625 2    56   Output ~ 0
RESET
Wire Wire Line
	3975 3625 3850 3625
Connection ~ 3850 3625
Wire Wire Line
	3850 3625 3850 3700
$EndSCHEMATC
