(module 1mm3 (layer F.Cu) (tedit 0)
  (fp_text reference REF** (at 0 0) (layer F.SilkS) hide
    (effects (font (size 1 1) (thickness 0.15)))
  )
  (fp_text value 1mm3 (at 0 2) (layer F.Fab) hide
    (effects (font (size 1 1) (thickness 0.15)))
  )
  (fp_line (start -0.762 0.762) (end -0.762 -0.762) (layer F.CrtYd) (width 0.05))
  (fp_line (start -0.762 -0.762) (end 0.762 -0.762) (layer F.CrtYd) (width 0.05))
  (fp_line (start 0.762 -0.762) (end 0.762 0.762) (layer F.CrtYd) (width 0.05))
  (fp_line (start 0.762 0.762) (end -0.762 0.762) (layer F.CrtYd) (width 0.05))
  (fp_line (start 0 -0.635) (end -0.635 0.635) (layer F.SilkS) (width 0))
  (fp_line (start -0.635 0.635) (end 0.635 0.635) (layer F.SilkS) (width 0))
  (fp_line (start 0.635 0.635) (end 0 -0.635) (layer F.SilkS) (width 0))
)