(module C0603 (layer F.Cu) (tedit 0)
  (fp_text reference REF** (at 0 0) (layer F.SilkS)
    (effects (font (size 1 1) (thickness 0.15)))
  )
  (fp_text value C0603 (at 0 2) (layer F.Fab) hide
    (effects (font (size 1 1) (thickness 0.15)))
  )
  (fp_line (start -1.51875 1.0425) (end -1.51875 -1.0425) (layer Dwgs.User) (width 0.05))
  (fp_line (start -1.51875 -1.0425) (end 1.51875 -1.0425) (layer Dwgs.User) (width 0.05))
  (fp_line (start 1.51875 -1.0425) (end 1.51875 1.0425) (layer Dwgs.User) (width 0.05))
  (fp_line (start 1.51875 1.0425) (end -1.51875 1.0425) (layer Dwgs.User) (width 0.05))
  (fp_line (start -1.42875 -0.9525) (end -1.42875 0.9525) (layer F.SilkS) (width 0.18))
  (fp_line (start -1.42875 0.9525) (end 1.42875 0.9525) (layer F.SilkS) (width 0.18))
  (fp_line (start 1.42875 0.9525) (end 1.42875 -0.9525) (layer F.SilkS) (width 0.18))
  (fp_line (start 1.42875 -0.9525) (end -1.42875 -0.9525) (layer F.SilkS) (width 0.18))
  (fp_line (start -1.42875 -0.9525) (end 1.42875 -0.9525) (layer F.CrtYd) (width 0.02))
  (fp_line (start 1.42875 -0.9525) (end 1.42875 0.9525) (layer F.CrtYd) (width 0.02))
  (fp_line (start 1.42875 0.9525) (end -1.42875 0.9525) (layer F.CrtYd) (width 0.02))
  (fp_line (start -1.42875 0.9525) (end -1.42875 -0.9525) (layer F.CrtYd) (width 0.02))
  (fp_line (start 0.9 -0.4) (end -0.9 -0.4) (layer F.Fab) (width 0.1))
  (fp_line (start -0.9 -0.4) (end -0.9 0.4) (layer F.Fab) (width 0.1))
  (fp_line (start -0.9 0.4) (end 0.9 0.4) (layer F.Fab) (width 0.1))
  (fp_line (start 0.9 0.4) (end 0.9 -0.4) (layer F.Fab) (width 0.1))
  (fp_line (start -1.0922 0.5588) (end -1.0922 -0.5588) (layer F.SilkS) (width 0.02))
  (fp_line (start -1.0922 -0.5588) (end -0.1778 -0.5588) (layer F.SilkS) (width 0.02))
  (fp_line (start -0.1778 -0.5588) (end -0.1778 0.5588) (layer F.SilkS) (width 0.02))
  (fp_line (start -0.1778 0.5588) (end -1.0922 0.5588) (layer F.SilkS) (width 0.02))
  (fp_line (start 0.1778 0.5588) (end 0.1778 -0.5588) (layer F.SilkS) (width 0.02))
  (fp_line (start 0.1778 -0.5588) (end 1.0922 -0.5588) (layer F.SilkS) (width 0.02))
  (fp_line (start 1.0922 -0.5588) (end 1.0922 0.5588) (layer F.SilkS) (width 0.02))
  (fp_line (start 1.0922 0.5588) (end 0.1778 0.5588) (layer F.SilkS) (width 0.02))
  (pad 1 smd rect (at -0.635 0) (size 0.9144 1.1176) (layers F.Cu F.Mask F.Paste)
    (clearance 0.2032) (solder_mask_margin 0.1016)
    (zone_connect 2))
  (pad 2 smd rect (at 0.635 0) (size 0.9144 1.1176) (layers F.Cu F.Mask F.Paste)
    (clearance 0.2032) (solder_mask_margin 0.1016)
    (zone_connect 2))
  (model ${KISYS3DMOD}/Capacitor_SMD.3dshapes/C_0603_1608Metric.wrl
    (offset (xyz 0 0 0))
    (scale (xyz 1 1 1))
    (rotate (xyz 0 0 0))
  )
)