(module CSTCR (layer F.Cu) (tedit 0)
  (fp_text reference REF** (at 0 0) (layer F.SilkS)
    (effects (font (size 1 1) (thickness 0.15)))
  )
  (fp_text value CSTCR (at 0 2) (layer F.Fab) hide
    (effects (font (size 1 1) (thickness 0.15)))
  )
  (fp_line (start -2.39 1.4) (end -2.39 -1.4) (layer Dwgs.User) (width 0.05))
  (fp_line (start -2.39 -1.4) (end 2.39 -1.4) (layer Dwgs.User) (width 0.05))
  (fp_line (start 2.39 -1.4) (end 2.39 1.4) (layer Dwgs.User) (width 0.05))
  (fp_line (start 2.39 1.4) (end -2.39 1.4) (layer Dwgs.User) (width 0.05))
  (fp_line (start -2.3 1) (end 2.3 1) (layer F.SilkS) (width 0.18))
  (fp_line (start 2.3 1) (end 2.3 -1) (layer F.SilkS) (width 0.18))
  (fp_line (start 2.3 -1) (end -2.3 -1) (layer F.SilkS) (width 0.18))
  (fp_line (start -2.3 -1) (end -2.3 1) (layer F.SilkS) (width 0.18))
  (fp_line (start -2 1.4) (end -2 1) (layer F.CrtYd) (width 0.02))
  (fp_line (start -2 1) (end -2.3 1) (layer F.CrtYd) (width 0.02))
  (fp_line (start -2.3 1) (end -2.3 -1) (layer F.CrtYd) (width 0.02))
  (fp_line (start -2.3 -1) (end -2 -1) (layer F.CrtYd) (width 0.02))
  (fp_line (start -2 -1) (end -2 -1.4) (layer F.CrtYd) (width 0.02))
  (fp_line (start -2 -1.4) (end 2 -1.4) (layer F.CrtYd) (width 0.02))
  (fp_line (start 2 -1.4) (end 2 -1) (layer F.CrtYd) (width 0.02))
  (fp_line (start 2 -1) (end 2.3 -1) (layer F.CrtYd) (width 0.02))
  (fp_line (start 2.3 -1) (end 2.3 1) (layer F.CrtYd) (width 0.02))
  (fp_line (start 2.3 1) (end 2 1) (layer F.CrtYd) (width 0.02))
  (fp_line (start 2 1) (end 2 1.4) (layer F.CrtYd) (width 0.02))
  (fp_line (start 2 1.4) (end -2 1.4) (layer F.CrtYd) (width 0.02))
  (fp_line (start -2.3 1) (end 2.3 1) (layer F.Fab) (width 0.1))
  (fp_line (start 2.3 1) (end 2.3 -1) (layer F.Fab) (width 0.1))
  (fp_line (start 2.3 -1) (end -2.3 -1) (layer F.Fab) (width 0.1))
  (fp_line (start -2.3 -1) (end -2.3 1) (layer F.Fab) (width 0.1))
  (fp_line (start -2.1 0.8) (end 2.1 0.8) (layer F.Fab) (width 0.1))
  (fp_line (start 2.1 0.8) (end 2.1 -0.8) (layer F.Fab) (width 0.1))
  (fp_line (start 2.1 -0.8) (end -2.1 -0.8) (layer F.Fab) (width 0.1))
  (fp_line (start -2.1 -0.8) (end -2.1 0.8) (layer F.Fab) (width 0.1))
  (fp_line (start -1.9 -1.3) (end -1.9 1.3) (layer F.SilkS) (width 0))
  (fp_line (start -1.9 1.3) (end -1.1 1.3) (layer F.SilkS) (width 0))
  (fp_line (start -1.1 1.3) (end -1.1 -1.3) (layer F.SilkS) (width 0))
  (fp_line (start -1.1 -1.3) (end -1.9 -1.3) (layer F.SilkS) (width 0))
  (fp_line (start -0.4 -1.3) (end -0.4 1.3) (layer F.SilkS) (width 0))
  (fp_line (start -0.4 1.3) (end 0.4 1.3) (layer F.SilkS) (width 0))
  (fp_line (start 0.4 1.3) (end 0.4 -1.3) (layer F.SilkS) (width 0))
  (fp_line (start 0.4 -1.3) (end -0.4 -1.3) (layer F.SilkS) (width 0))
  (fp_line (start 1.1 -1.3) (end 1.1 1.3) (layer F.SilkS) (width 0))
  (fp_line (start 1.1 1.3) (end 1.9 1.3) (layer F.SilkS) (width 0))
  (fp_line (start 1.9 1.3) (end 1.9 -1.3) (layer F.SilkS) (width 0))
  (fp_line (start 1.9 -1.3) (end 1.1 -1.3) (layer F.SilkS) (width 0))
  (pad 1 smd rect (at -1.5 0) (size 0.8 2.6) (layers F.Cu F.Mask F.Paste)
    (solder_mask_margin 0.1)
    (zone_connect 2))
  (pad 2 smd rect (at 0 0) (size 0.8 2.6) (layers F.Cu F.Mask F.Paste)
    (solder_mask_margin 0.1)
    (zone_connect 2))
  (pad 3 smd rect (at 1.5 0) (size 0.8 2.6) (layers F.Cu F.Mask F.Paste)
    (solder_mask_margin 0.1)
    (zone_connect 2))
  (model ${KIPRJMOD}/../Library/Footprints.3dshapes/CSTCR6M00G53-R0.step
    (offset (xyz 0 0 0))
    (scale (xyz 1 1 1))
    (rotate (xyz -90 0 0))
  )
)