(module DF3_FIX18_1 (layer F.Cu) (tedit 0)
  (fp_text reference REF** (at 0 0) (layer F.SilkS)
    (effects (font (size 1 1) (thickness 0.15)))
  )
  (fp_text value DF3_FIX18_1 (at 0 2) (layer F.Fab) hide
    (effects (font (size 1 1) (thickness 0.15)))
  )
  (fp_arc (start 0 0) (end 0.635 0) (angle 360) (layer B.CrtYd) (width 0.02))
  (fp_line (start -1.143 1.143) (end -1.143 -1.143) (layer Dwgs.User) (width 0.05))
  (fp_line (start -1.143 -1.143) (end 1.143 -1.143) (layer Dwgs.User) (width 0.05))
  (fp_line (start 1.143 -1.143) (end 1.143 1.143) (layer Dwgs.User) (width 0.05))
  (fp_line (start 1.143 1.143) (end -1.143 1.143) (layer Dwgs.User) (width 0.05))
  (fp_line (start 0.635 -0.635) (end 0.635 0.635) (layer F.CrtYd) (width 0.02))
  (fp_line (start 0.635 0.635) (end -0.635 0.635) (layer F.CrtYd) (width 0.02))
  (fp_line (start -0.635 0.635) (end -0.635 -0.635) (layer F.CrtYd) (width 0.02))
  (fp_line (start -0.635 -0.635) (end 0.635 -0.635) (layer F.CrtYd) (width 0.02))
  (pad 1 np_thru_hole circle (at 0 0) (size 1.27 1.27) (drill 1.8034 (offset 0 0 )) (layers *.Cu *.Mask)
    (clearance 0.3048) (solder_mask_margin 0.508)
    (zone_connect 2) (thermal_width 0.381) (thermal_gap 0.3302))
)