(module FNGS44L13R13A90 (layer F.Cu) (tedit 0)
  (fp_text reference REF** (at 0 0) (layer F.SilkS) hide
    (effects (font (size 1 1) (thickness 0.15)))
  )
  (fp_text value FNGS44L13R13A90 (at 0 2) (layer F.Fab) hide
    (effects (font (size 1 1) (thickness 0.15)))
  )
  (fp_line (start -0.67056 1.0668) (end -0.67056 -1.0668) (layer F.CrtYd) (width 0.05))
  (fp_line (start -0.67056 -1.0668) (end 0.67056 -1.0668) (layer F.CrtYd) (width 0.05))
  (fp_line (start 0.67056 -1.0668) (end 0.67056 1.0668) (layer F.CrtYd) (width 0.05))
  (fp_line (start 0.67056 1.0668) (end -0.67056 1.0668) (layer F.CrtYd) (width 0.05))
  (fp_line (start 0 0.3302) (end 0 -0.3302) (layer F.SilkS) (width 1.1176))
  (pad ~ smd oval (at 0 0) (size 1.1176 1.778) (layers F.Cu F.Mask F.Paste)
    (zone_connect 2))
)