(module FU-0031.8221 (layer F.Cu) (tedit 0)
  (fp_text reference REF** (at 0 0) (layer F.SilkS)
    (effects (font (size 1 1) (thickness 0.15)))
  )
  (fp_text value FU-0031.8221 (at 0 2) (layer F.Fab) hide
    (effects (font (size 1 1) (thickness 0.15)))
  )
  (fp_line (start -12.59 4.89) (end -12.59 -4.89) (layer Dwgs.User) (width 0.05))
  (fp_line (start -12.59 -4.89) (end 12.59 -4.89) (layer Dwgs.User) (width 0.05))
  (fp_line (start 12.59 -4.89) (end 12.59 4.89) (layer Dwgs.User) (width 0.05))
  (fp_line (start 12.59 4.89) (end -12.59 4.89) (layer Dwgs.User) (width 0.05))
  (fp_line (start -12.5 4.8) (end 12.5 4.8) (layer F.SilkS) (width 0.18))
  (fp_line (start 12.5 4.8) (end 12.5 -4.8) (layer F.SilkS) (width 0.18))
  (fp_line (start 12.5 -4.8) (end -12.5 -4.8) (layer F.SilkS) (width 0.18))
  (fp_line (start -12.5 -4.8) (end -12.5 4.8) (layer F.SilkS) (width 0.18))
  (fp_line (start -12.5 -4.8) (end 12.5 -4.8) (layer F.CrtYd) (width 0.02))
  (fp_line (start 12.5 -4.8) (end 12.5 4.8) (layer F.CrtYd) (width 0.02))
  (fp_line (start 12.5 4.8) (end -12.5 4.8) (layer F.CrtYd) (width 0.02))
  (fp_line (start -12.5 4.8) (end -12.5 -4.8) (layer F.CrtYd) (width 0.02))
  (fp_line (start -12.5 4.8) (end 12.5 4.8) (layer F.Fab) (width 0.1))
  (fp_line (start 12.5 4.8) (end 12.5 -4.8) (layer F.Fab) (width 0.1))
  (fp_line (start 12.5 -4.8) (end -12.5 -4.8) (layer F.Fab) (width 0.1))
  (fp_line (start -12.5 -4.8) (end -12.5 4.8) (layer F.Fab) (width 0.1))
  (fp_line (start -10 2.5) (end 10 2.5) (layer F.Fab) (width 0.1))
  (fp_line (start 10 2.5) (end 10 -2.5) (layer F.Fab) (width 0.1))
  (fp_line (start 10 -2.5) (end -10 -2.5) (layer F.Fab) (width 0.1))
  (fp_line (start -10 -2.5) (end -10 2.5) (layer F.Fab) (width 0.1))
  (fp_line (start -11.5 -2.5) (end -4 -2.5) (layer F.Fab) (width 0.1))
  (fp_line (start -4 -2.5) (end -4 -4.8) (layer F.Fab) (width 0.1))
  (fp_line (start -4 -4.8) (end -11.5 -4.8) (layer F.Fab) (width 0.1))
  (fp_line (start -11.5 -4.8) (end -11.5 -2.5) (layer F.Fab) (width 0.1))
  (fp_line (start 4 4.8) (end 11.5 4.8) (layer F.Fab) (width 0.1))
  (fp_line (start 11.5 4.8) (end 11.5 2.5) (layer F.Fab) (width 0.1))
  (fp_line (start 11.5 2.5) (end 4 2.5) (layer F.Fab) (width 0.1))
  (fp_line (start 4 2.5) (end 4 4.8) (layer F.Fab) (width 0.1))
  (fp_line (start 4 -2.5) (end 11.5 -2.5) (layer F.Fab) (width 0.1))
  (fp_line (start 11.5 -2.5) (end 11.5 -4.8) (layer F.Fab) (width 0.1))
  (fp_line (start 11.5 -4.8) (end 4 -4.8) (layer F.Fab) (width 0.1))
  (fp_line (start 4 -4.8) (end 4 -2.5) (layer F.Fab) (width 0.1))
  (fp_line (start -11.5 4.8) (end -4 4.8) (layer F.Fab) (width 0.1))
  (fp_line (start -4 4.8) (end -4 2.5) (layer F.Fab) (width 0.1))
  (fp_line (start -4 2.5) (end -11.5 2.5) (layer F.Fab) (width 0.1))
  (fp_line (start -11.5 2.5) (end -11.5 4.8) (layer F.Fab) (width 0.1))
  (fp_line (start -11.5 -3) (end -11.5 3) (layer F.SilkS) (width 0))
  (fp_line (start -11.5 3) (end -5.5 3) (layer F.SilkS) (width 0))
  (fp_line (start -5.5 3) (end -5.5 -3) (layer F.SilkS) (width 0))
  (fp_line (start -5.5 -3) (end -11.5 -3) (layer F.SilkS) (width 0))
  (fp_line (start 5.5 -3) (end 5.5 3) (layer F.SilkS) (width 0))
  (fp_line (start 5.5 3) (end 11.5 3) (layer F.SilkS) (width 0))
  (fp_line (start 11.5 3) (end 11.5 -3) (layer F.SilkS) (width 0))
  (fp_line (start 11.5 -3) (end 5.5 -3) (layer F.SilkS) (width 0))
  (pad 1 smd rect (at -8.5 0) (size 6 6) (layers F.Cu F.Mask F.Paste)
    (solder_mask_margin 0.1)
    (zone_connect 2))
  (pad 2 smd rect (at 8.5 0) (size 6 6) (layers F.Cu F.Mask F.Paste)
    (solder_mask_margin 0.1)
    (zone_connect 2))
  (model ${KIPRJMOD}/../Library/Footprints.3dshapes/FU-0031.8221.STEP
    (offset (xyz 4.45 0 2.25))
    (scale (xyz 1 1 1))
    (rotate (xyz -90 0 90))
  )
  (model ${KIPRJMOD}/../Library/Footprints.3dshapes/Fuse.STEP
    (offset (xyz 0 0 0))
    (scale (xyz 1 1 1))
    (rotate (xyz -90 0 90))
  )
)