(module LQFP48 (layer F.Cu) (tedit 0)
  (fp_text reference REF** (at 0 0) (layer F.SilkS)
    (effects (font (size 1 1) (thickness 0.15)))
  )
  (fp_text value LQFP48 (at 0 2) (layer F.Fab) hide
    (effects (font (size 1 1) (thickness 0.15)))
  )
  (fp_arc (start -2 2.00001) (end -2 2.5) (angle 360) (layer F.SilkS) (width 0.18))
  (fp_arc (start -2 2.00001) (end -2 2.5) (angle 360) (layer F.Fab) (width 0.1))
  (fp_line (start -5.2025 5.2025) (end -5.2025 -5.2025) (layer Dwgs.User) (width 0.05))
  (fp_line (start -5.2025 -5.2025) (end 5.2025 -5.2025) (layer Dwgs.User) (width 0.05))
  (fp_line (start 5.2025 -5.2025) (end 5.2025 5.2025) (layer Dwgs.User) (width 0.05))
  (fp_line (start 5.2025 5.2025) (end -5.2025 5.2025) (layer Dwgs.User) (width 0.05))
  (fp_line (start 3.1 -3.5) (end 3.25 -3.5) (layer F.SilkS) (width 0.18))
  (fp_line (start 3.25 -3.5) (end 3.5 -3.25) (layer F.SilkS) (width 0.18))
  (fp_line (start 3.5 -3.25) (end 3.5 -3.1) (layer F.SilkS) (width 0.18))
  (fp_line (start -3.1 -3.5) (end -3.25 -3.5) (layer F.SilkS) (width 0.18))
  (fp_line (start -3.25 -3.5) (end -3.5 -3.25) (layer F.SilkS) (width 0.18))
  (fp_line (start -3.5 -3.25) (end -3.5 -3.1) (layer F.SilkS) (width 0.18))
  (fp_line (start -3.45 3.05) (end -3.05 3.45) (layer F.SilkS) (width 0.18))
  (fp_line (start 3.1 3.5) (end 3.25 3.5) (layer F.SilkS) (width 0.18))
  (fp_line (start 3.25 3.5) (end 3.5 3.25) (layer F.SilkS) (width 0.18))
  (fp_line (start 3.5 3.25) (end 3.5 3.1) (layer F.SilkS) (width 0.18))
  (fp_line (start 5.15 4.6) (end 4.6 5.15) (layer F.CrtYd) (width 0.02))
  (fp_line (start 4.6 5.15) (end -3.1 5.15) (layer F.CrtYd) (width 0.02))
  (fp_line (start -3.1 5.15) (end -5.15 3.1) (layer F.CrtYd) (width 0.02))
  (fp_line (start -5.15 3.1) (end -5.15 -4.6) (layer F.CrtYd) (width 0.02))
  (fp_line (start -5.15 -4.6) (end -4.6 -5.15) (layer F.CrtYd) (width 0.02))
  (fp_line (start -4.6 -5.15) (end 3.1 -5.15) (layer F.CrtYd) (width 0.02))
  (fp_line (start 3.1 -5.15) (end 5.15 -3.1) (layer F.CrtYd) (width 0.02))
  (fp_line (start 5.15 -3.1) (end 5.15 4.6) (layer F.CrtYd) (width 0.02))
  (fp_line (start -3.5 3) (end -3 3.5) (layer F.Fab) (width 0.1))
  (fp_line (start -3 3.5) (end 3.25 3.5) (layer F.Fab) (width 0.1))
  (fp_line (start 3.25 3.5) (end 3.5 3.25) (layer F.Fab) (width 0.1))
  (fp_line (start 3.5 3.25) (end 3.5 -3.25) (layer F.Fab) (width 0.1))
  (fp_line (start 3.5 -3.25) (end 3.25 -3.5) (layer F.Fab) (width 0.1))
  (fp_line (start 3.25 -3.5) (end -3.25 -3.5) (layer F.Fab) (width 0.1))
  (fp_line (start -3.25 -3.5) (end -3.5 -3.25) (layer F.Fab) (width 0.1))
  (fp_line (start -3.5 -3.25) (end -3.5 3) (layer F.Fab) (width 0.1))
  (fp_line (start -3.5 2.75) (end -4.5 2.75) (layer F.Fab) (width 0.1))
  (fp_line (start -3.5 2.25) (end -4.5 2.25) (layer F.Fab) (width 0.1))
  (fp_line (start -3.5 1.75) (end -4.5 1.75) (layer F.Fab) (width 0.1))
  (fp_line (start -3.5 1.25) (end -4.5 1.25) (layer F.Fab) (width 0.1))
  (fp_line (start -3.5 0.75) (end -4.5 0.75) (layer F.Fab) (width 0.1))
  (fp_line (start -3.5 0.25) (end -4.5 0.25) (layer F.Fab) (width 0.1))
  (fp_line (start -3.5 -0.25) (end -4.5 -0.25) (layer F.Fab) (width 0.1))
  (fp_line (start -3.5 -0.75) (end -4.5 -0.75) (layer F.Fab) (width 0.1))
  (fp_line (start -3.5 -1.25) (end -4.5 -1.25) (layer F.Fab) (width 0.1))
  (fp_line (start -3.5 -1.75) (end -4.5 -1.75) (layer F.Fab) (width 0.1))
  (fp_line (start -3.5 -2.25) (end -4.5 -2.25) (layer F.Fab) (width 0.1))
  (fp_line (start -3.5 -2.75) (end -4.5 -2.75) (layer F.Fab) (width 0.1))
  (fp_line (start -2.75 -4.5) (end -2.75 -3.5) (layer F.Fab) (width 0.1))
  (fp_line (start -2.25 -4.5) (end -2.25 -3.5) (layer F.Fab) (width 0.1))
  (fp_line (start -1.75 -4.5) (end -1.75 -3.5) (layer F.Fab) (width 0.1))
  (fp_line (start -1.25 -4.5) (end -1.25 -3.5) (layer F.Fab) (width 0.1))
  (fp_line (start -0.75 -4.5) (end -0.75 -3.5) (layer F.Fab) (width 0.1))
  (fp_line (start -0.25 -4.5) (end -0.25 -3.5) (layer F.Fab) (width 0.1))
  (fp_line (start 0.25 -4.5) (end 0.25 -3.5) (layer F.Fab) (width 0.1))
  (fp_line (start 0.75 -4.5) (end 0.75 -3.5) (layer F.Fab) (width 0.1))
  (fp_line (start 1.25 -4.5) (end 1.25 -3.5) (layer F.Fab) (width 0.1))
  (fp_line (start 1.75 -4.5) (end 1.75 -3.5) (layer F.Fab) (width 0.1))
  (fp_line (start 2.25 -4.5) (end 2.25 -3.5) (layer F.Fab) (width 0.1))
  (fp_line (start 2.75 -4.5) (end 2.75 -3.5) (layer F.Fab) (width 0.1))
  (fp_line (start 3.5 -2.75) (end 4.5 -2.75) (layer F.Fab) (width 0.1))
  (fp_line (start 3.5 -2.25) (end 4.5 -2.25) (layer F.Fab) (width 0.1))
  (fp_line (start 3.5 -1.75) (end 4.5 -1.75) (layer F.Fab) (width 0.1))
  (fp_line (start 3.5 -1.25) (end 4.5 -1.25) (layer F.Fab) (width 0.1))
  (fp_line (start 3.5 -0.75) (end 4.5 -0.75) (layer F.Fab) (width 0.1))
  (fp_line (start 3.5 -0.25) (end 4.5 -0.25) (layer F.Fab) (width 0.1))
  (fp_line (start 3.5 0.25) (end 4.5 0.25) (layer F.Fab) (width 0.1))
  (fp_line (start 3.5 0.75) (end 4.5 0.75) (layer F.Fab) (width 0.1))
  (fp_line (start 3.5 1.25) (end 4.5 1.25) (layer F.Fab) (width 0.1))
  (fp_line (start 3.5 1.75) (end 4.5 1.75) (layer F.Fab) (width 0.1))
  (fp_line (start 3.5 2.25) (end 4.5 2.25) (layer F.Fab) (width 0.1))
  (fp_line (start 3.5 2.75) (end 4.5 2.75) (layer F.Fab) (width 0.1))
  (fp_line (start 2.75 4.5) (end 2.75 3.5) (layer F.Fab) (width 0.1))
  (fp_line (start 2.25 4.5) (end 2.25 3.5) (layer F.Fab) (width 0.1))
  (fp_line (start 1.75 4.5) (end 1.75 3.5) (layer F.Fab) (width 0.1))
  (fp_line (start 1.25 4.5) (end 1.25 3.5) (layer F.Fab) (width 0.1))
  (fp_line (start 0.75 4.5) (end 0.75 3.5) (layer F.Fab) (width 0.1))
  (fp_line (start 0.25 4.5) (end 0.25 3.5) (layer F.Fab) (width 0.1))
  (fp_line (start -0.25 4.5) (end -0.25 3.5) (layer F.Fab) (width 0.1))
  (fp_line (start -0.75 4.5) (end -0.75 3.5) (layer F.Fab) (width 0.1))
  (fp_line (start -1.25 4.5) (end -1.25 3.5) (layer F.Fab) (width 0.1))
  (fp_line (start -1.75 4.5) (end -1.75 3.5) (layer F.Fab) (width 0.1))
  (fp_line (start -2.25 4.5) (end -2.25 3.5) (layer F.Fab) (width 0.1))
  (fp_line (start -2.75 4.5) (end -2.75 3.5) (layer F.Fab) (width 0.1))
  (fp_line (start -2.89 3.45) (end -2.89 5.05) (layer F.SilkS) (width 0))
  (fp_line (start -2.89 5.05) (end -2.61 5.05) (layer F.SilkS) (width 0))
  (fp_line (start -2.61 5.05) (end -2.61 3.45) (layer F.SilkS) (width 0))
  (fp_line (start -2.61 3.45) (end -2.89 3.45) (layer F.SilkS) (width 0))
  (fp_line (start -2.39 3.45) (end -2.39 5.05) (layer F.SilkS) (width 0))
  (fp_line (start -2.39 5.05) (end -2.11 5.05) (layer F.SilkS) (width 0))
  (fp_line (start -2.11 5.05) (end -2.11 3.45) (layer F.SilkS) (width 0))
  (fp_line (start -2.11 3.45) (end -2.39 3.45) (layer F.SilkS) (width 0))
  (fp_line (start -1.89 3.45) (end -1.89 5.05) (layer F.SilkS) (width 0))
  (fp_line (start -1.89 5.05) (end -1.61 5.05) (layer F.SilkS) (width 0))
  (fp_line (start -1.61 5.05) (end -1.61 3.45) (layer F.SilkS) (width 0))
  (fp_line (start -1.61 3.45) (end -1.89 3.45) (layer F.SilkS) (width 0))
  (fp_line (start -1.39 3.45) (end -1.39 5.05) (layer F.SilkS) (width 0))
  (fp_line (start -1.39 5.05) (end -1.11 5.05) (layer F.SilkS) (width 0))
  (fp_line (start -1.11 5.05) (end -1.11 3.45) (layer F.SilkS) (width 0))
  (fp_line (start -1.11 3.45) (end -1.39 3.45) (layer F.SilkS) (width 0))
  (fp_line (start -0.89 3.45) (end -0.89 5.05) (layer F.SilkS) (width 0))
  (fp_line (start -0.89 5.05) (end -0.61 5.05) (layer F.SilkS) (width 0))
  (fp_line (start -0.61 5.05) (end -0.61 3.45) (layer F.SilkS) (width 0))
  (fp_line (start -0.61 3.45) (end -0.89 3.45) (layer F.SilkS) (width 0))
  (fp_line (start -0.39 3.45) (end -0.39 5.05) (layer F.SilkS) (width 0))
  (fp_line (start -0.39 5.05) (end -0.11 5.05) (layer F.SilkS) (width 0))
  (fp_line (start -0.11 5.05) (end -0.11 3.45) (layer F.SilkS) (width 0))
  (fp_line (start -0.11 3.45) (end -0.39 3.45) (layer F.SilkS) (width 0))
  (fp_line (start 0.11 3.45) (end 0.11 5.05) (layer F.SilkS) (width 0))
  (fp_line (start 0.11 5.05) (end 0.39 5.05) (layer F.SilkS) (width 0))
  (fp_line (start 0.39 5.05) (end 0.39 3.45) (layer F.SilkS) (width 0))
  (fp_line (start 0.39 3.45) (end 0.11 3.45) (layer F.SilkS) (width 0))
  (fp_line (start 0.61 3.45) (end 0.61 5.05) (layer F.SilkS) (width 0))
  (fp_line (start 0.61 5.05) (end 0.89 5.05) (layer F.SilkS) (width 0))
  (fp_line (start 0.89 5.05) (end 0.89 3.45) (layer F.SilkS) (width 0))
  (fp_line (start 0.89 3.45) (end 0.61 3.45) (layer F.SilkS) (width 0))
  (fp_line (start 1.11 3.45) (end 1.11 5.05) (layer F.SilkS) (width 0))
  (fp_line (start 1.11 5.05) (end 1.39 5.05) (layer F.SilkS) (width 0))
  (fp_line (start 1.39 5.05) (end 1.39 3.45) (layer F.SilkS) (width 0))
  (fp_line (start 1.39 3.45) (end 1.11 3.45) (layer F.SilkS) (width 0))
  (fp_line (start 1.61 3.45) (end 1.61 5.05) (layer F.SilkS) (width 0))
  (fp_line (start 1.61 5.05) (end 1.89 5.05) (layer F.SilkS) (width 0))
  (fp_line (start 1.89 5.05) (end 1.89 3.45) (layer F.SilkS) (width 0))
  (fp_line (start 1.89 3.45) (end 1.61 3.45) (layer F.SilkS) (width 0))
  (fp_line (start 2.11 3.45) (end 2.11 5.05) (layer F.SilkS) (width 0))
  (fp_line (start 2.11 5.05) (end 2.39 5.05) (layer F.SilkS) (width 0))
  (fp_line (start 2.39 5.05) (end 2.39 3.45) (layer F.SilkS) (width 0))
  (fp_line (start 2.39 3.45) (end 2.11 3.45) (layer F.SilkS) (width 0))
  (fp_line (start 2.61 3.45) (end 2.61 5.05) (layer F.SilkS) (width 0))
  (fp_line (start 2.61 5.05) (end 2.89 5.05) (layer F.SilkS) (width 0))
  (fp_line (start 2.89 5.05) (end 2.89 3.45) (layer F.SilkS) (width 0))
  (fp_line (start 2.89 3.45) (end 2.61 3.45) (layer F.SilkS) (width 0))
  (fp_line (start 4.11 1.95) (end 4.11 3.55) (layer F.SilkS) (width 0))
  (fp_line (start 4.11 3.55) (end 4.39 3.55) (layer F.SilkS) (width 0))
  (fp_line (start 4.39 3.55) (end 4.39 1.95) (layer F.SilkS) (width 0))
  (fp_line (start 4.39 1.95) (end 4.11 1.95) (layer F.SilkS) (width 0))
  (fp_line (start 4.11 1.45) (end 4.11 3.05) (layer F.SilkS) (width 0))
  (fp_line (start 4.11 3.05) (end 4.39 3.05) (layer F.SilkS) (width 0))
  (fp_line (start 4.39 3.05) (end 4.39 1.45) (layer F.SilkS) (width 0))
  (fp_line (start 4.39 1.45) (end 4.11 1.45) (layer F.SilkS) (width 0))
  (fp_line (start 4.11 0.95) (end 4.11 2.55) (layer F.SilkS) (width 0))
  (fp_line (start 4.11 2.55) (end 4.39 2.55) (layer F.SilkS) (width 0))
  (fp_line (start 4.39 2.55) (end 4.39 0.95) (layer F.SilkS) (width 0))
  (fp_line (start 4.39 0.95) (end 4.11 0.95) (layer F.SilkS) (width 0))
  (fp_line (start 4.11 0.45) (end 4.11 2.05) (layer F.SilkS) (width 0))
  (fp_line (start 4.11 2.05) (end 4.39 2.05) (layer F.SilkS) (width 0))
  (fp_line (start 4.39 2.05) (end 4.39 0.45) (layer F.SilkS) (width 0))
  (fp_line (start 4.39 0.45) (end 4.11 0.45) (layer F.SilkS) (width 0))
  (fp_line (start 4.11 -0.05) (end 4.11 1.55) (layer F.SilkS) (width 0))
  (fp_line (start 4.11 1.55) (end 4.39 1.55) (layer F.SilkS) (width 0))
  (fp_line (start 4.39 1.55) (end 4.39 -0.05) (layer F.SilkS) (width 0))
  (fp_line (start 4.39 -0.05) (end 4.11 -0.05) (layer F.SilkS) (width 0))
  (fp_line (start 4.11 -0.55) (end 4.11 1.05) (layer F.SilkS) (width 0))
  (fp_line (start 4.11 1.05) (end 4.39 1.05) (layer F.SilkS) (width 0))
  (fp_line (start 4.39 1.05) (end 4.39 -0.55) (layer F.SilkS) (width 0))
  (fp_line (start 4.39 -0.55) (end 4.11 -0.55) (layer F.SilkS) (width 0))
  (fp_line (start 4.11 -1.05) (end 4.11 0.55) (layer F.SilkS) (width 0))
  (fp_line (start 4.11 0.55) (end 4.39 0.55) (layer F.SilkS) (width 0))
  (fp_line (start 4.39 0.55) (end 4.39 -1.05) (layer F.SilkS) (width 0))
  (fp_line (start 4.39 -1.05) (end 4.11 -1.05) (layer F.SilkS) (width 0))
  (fp_line (start 4.11 -1.55) (end 4.11 0.05) (layer F.SilkS) (width 0))
  (fp_line (start 4.11 0.05) (end 4.39 0.05) (layer F.SilkS) (width 0))
  (fp_line (start 4.39 0.05) (end 4.39 -1.55) (layer F.SilkS) (width 0))
  (fp_line (start 4.39 -1.55) (end 4.11 -1.55) (layer F.SilkS) (width 0))
  (fp_line (start 4.11 -2.05) (end 4.11 -0.45) (layer F.SilkS) (width 0))
  (fp_line (start 4.11 -0.45) (end 4.39 -0.45) (layer F.SilkS) (width 0))
  (fp_line (start 4.39 -0.45) (end 4.39 -2.05) (layer F.SilkS) (width 0))
  (fp_line (start 4.39 -2.05) (end 4.11 -2.05) (layer F.SilkS) (width 0))
  (fp_line (start 4.11 -2.55) (end 4.11 -0.95) (layer F.SilkS) (width 0))
  (fp_line (start 4.11 -0.95) (end 4.39 -0.95) (layer F.SilkS) (width 0))
  (fp_line (start 4.39 -0.95) (end 4.39 -2.55) (layer F.SilkS) (width 0))
  (fp_line (start 4.39 -2.55) (end 4.11 -2.55) (layer F.SilkS) (width 0))
  (fp_line (start 4.11 -3.05) (end 4.11 -1.45) (layer F.SilkS) (width 0))
  (fp_line (start 4.11 -1.45) (end 4.39 -1.45) (layer F.SilkS) (width 0))
  (fp_line (start 4.39 -1.45) (end 4.39 -3.05) (layer F.SilkS) (width 0))
  (fp_line (start 4.39 -3.05) (end 4.11 -3.05) (layer F.SilkS) (width 0))
  (fp_line (start 4.11 -3.55) (end 4.11 -1.95) (layer F.SilkS) (width 0))
  (fp_line (start 4.11 -1.95) (end 4.39 -1.95) (layer F.SilkS) (width 0))
  (fp_line (start 4.39 -1.95) (end 4.39 -3.55) (layer F.SilkS) (width 0))
  (fp_line (start 4.39 -3.55) (end 4.11 -3.55) (layer F.SilkS) (width 0))
  (fp_line (start 2.61 -5.05) (end 2.61 -3.45) (layer F.SilkS) (width 0))
  (fp_line (start 2.61 -3.45) (end 2.89 -3.45) (layer F.SilkS) (width 0))
  (fp_line (start 2.89 -3.45) (end 2.89 -5.05) (layer F.SilkS) (width 0))
  (fp_line (start 2.89 -5.05) (end 2.61 -5.05) (layer F.SilkS) (width 0))
  (fp_line (start 2.11 -5.05) (end 2.11 -3.45) (layer F.SilkS) (width 0))
  (fp_line (start 2.11 -3.45) (end 2.39 -3.45) (layer F.SilkS) (width 0))
  (fp_line (start 2.39 -3.45) (end 2.39 -5.05) (layer F.SilkS) (width 0))
  (fp_line (start 2.39 -5.05) (end 2.11 -5.05) (layer F.SilkS) (width 0))
  (fp_line (start 1.61 -5.05) (end 1.61 -3.45) (layer F.SilkS) (width 0))
  (fp_line (start 1.61 -3.45) (end 1.89 -3.45) (layer F.SilkS) (width 0))
  (fp_line (start 1.89 -3.45) (end 1.89 -5.05) (layer F.SilkS) (width 0))
  (fp_line (start 1.89 -5.05) (end 1.61 -5.05) (layer F.SilkS) (width 0))
  (fp_line (start 1.11 -5.05) (end 1.11 -3.45) (layer F.SilkS) (width 0))
  (fp_line (start 1.11 -3.45) (end 1.39 -3.45) (layer F.SilkS) (width 0))
  (fp_line (start 1.39 -3.45) (end 1.39 -5.05) (layer F.SilkS) (width 0))
  (fp_line (start 1.39 -5.05) (end 1.11 -5.05) (layer F.SilkS) (width 0))
  (fp_line (start 0.61 -5.05) (end 0.61 -3.45) (layer F.SilkS) (width 0))
  (fp_line (start 0.61 -3.45) (end 0.89 -3.45) (layer F.SilkS) (width 0))
  (fp_line (start 0.89 -3.45) (end 0.89 -5.05) (layer F.SilkS) (width 0))
  (fp_line (start 0.89 -5.05) (end 0.61 -5.05) (layer F.SilkS) (width 0))
  (fp_line (start 0.11 -5.05) (end 0.11 -3.45) (layer F.SilkS) (width 0))
  (fp_line (start 0.11 -3.45) (end 0.39 -3.45) (layer F.SilkS) (width 0))
  (fp_line (start 0.39 -3.45) (end 0.39 -5.05) (layer F.SilkS) (width 0))
  (fp_line (start 0.39 -5.05) (end 0.11 -5.05) (layer F.SilkS) (width 0))
  (fp_line (start -0.39 -5.05) (end -0.39 -3.45) (layer F.SilkS) (width 0))
  (fp_line (start -0.39 -3.45) (end -0.11 -3.45) (layer F.SilkS) (width 0))
  (fp_line (start -0.11 -3.45) (end -0.11 -5.05) (layer F.SilkS) (width 0))
  (fp_line (start -0.11 -5.05) (end -0.39 -5.05) (layer F.SilkS) (width 0))
  (fp_line (start -0.89 -5.05) (end -0.89 -3.45) (layer F.SilkS) (width 0))
  (fp_line (start -0.89 -3.45) (end -0.61 -3.45) (layer F.SilkS) (width 0))
  (fp_line (start -0.61 -3.45) (end -0.61 -5.05) (layer F.SilkS) (width 0))
  (fp_line (start -0.61 -5.05) (end -0.89 -5.05) (layer F.SilkS) (width 0))
  (fp_line (start -1.39 -5.05) (end -1.39 -3.45) (layer F.SilkS) (width 0))
  (fp_line (start -1.39 -3.45) (end -1.11 -3.45) (layer F.SilkS) (width 0))
  (fp_line (start -1.11 -3.45) (end -1.11 -5.05) (layer F.SilkS) (width 0))
  (fp_line (start -1.11 -5.05) (end -1.39 -5.05) (layer F.SilkS) (width 0))
  (fp_line (start -1.89 -5.05) (end -1.89 -3.45) (layer F.SilkS) (width 0))
  (fp_line (start -1.89 -3.45) (end -1.61 -3.45) (layer F.SilkS) (width 0))
  (fp_line (start -1.61 -3.45) (end -1.61 -5.05) (layer F.SilkS) (width 0))
  (fp_line (start -1.61 -5.05) (end -1.89 -5.05) (layer F.SilkS) (width 0))
  (fp_line (start -2.39 -5.05) (end -2.39 -3.45) (layer F.SilkS) (width 0))
  (fp_line (start -2.39 -3.45) (end -2.11 -3.45) (layer F.SilkS) (width 0))
  (fp_line (start -2.11 -3.45) (end -2.11 -5.05) (layer F.SilkS) (width 0))
  (fp_line (start -2.11 -5.05) (end -2.39 -5.05) (layer F.SilkS) (width 0))
  (fp_line (start -2.89 -5.05) (end -2.89 -3.45) (layer F.SilkS) (width 0))
  (fp_line (start -2.89 -3.45) (end -2.61 -3.45) (layer F.SilkS) (width 0))
  (fp_line (start -2.61 -3.45) (end -2.61 -5.05) (layer F.SilkS) (width 0))
  (fp_line (start -2.61 -5.05) (end -2.89 -5.05) (layer F.SilkS) (width 0))
  (fp_line (start -4.39 -3.55) (end -4.39 -1.95) (layer F.SilkS) (width 0))
  (fp_line (start -4.39 -1.95) (end -4.11 -1.95) (layer F.SilkS) (width 0))
  (fp_line (start -4.11 -1.95) (end -4.11 -3.55) (layer F.SilkS) (width 0))
  (fp_line (start -4.11 -3.55) (end -4.39 -3.55) (layer F.SilkS) (width 0))
  (fp_line (start -4.39 -3.05) (end -4.39 -1.45) (layer F.SilkS) (width 0))
  (fp_line (start -4.39 -1.45) (end -4.11 -1.45) (layer F.SilkS) (width 0))
  (fp_line (start -4.11 -1.45) (end -4.11 -3.05) (layer F.SilkS) (width 0))
  (fp_line (start -4.11 -3.05) (end -4.39 -3.05) (layer F.SilkS) (width 0))
  (fp_line (start -4.39 -2.55) (end -4.39 -0.95) (layer F.SilkS) (width 0))
  (fp_line (start -4.39 -0.95) (end -4.11 -0.95) (layer F.SilkS) (width 0))
  (fp_line (start -4.11 -0.95) (end -4.11 -2.55) (layer F.SilkS) (width 0))
  (fp_line (start -4.11 -2.55) (end -4.39 -2.55) (layer F.SilkS) (width 0))
  (fp_line (start -4.39 -2.05) (end -4.39 -0.45) (layer F.SilkS) (width 0))
  (fp_line (start -4.39 -0.45) (end -4.11 -0.45) (layer F.SilkS) (width 0))
  (fp_line (start -4.11 -0.45) (end -4.11 -2.05) (layer F.SilkS) (width 0))
  (fp_line (start -4.11 -2.05) (end -4.39 -2.05) (layer F.SilkS) (width 0))
  (fp_line (start -4.39 -1.55) (end -4.39 0.05) (layer F.SilkS) (width 0))
  (fp_line (start -4.39 0.05) (end -4.11 0.05) (layer F.SilkS) (width 0))
  (fp_line (start -4.11 0.05) (end -4.11 -1.55) (layer F.SilkS) (width 0))
  (fp_line (start -4.11 -1.55) (end -4.39 -1.55) (layer F.SilkS) (width 0))
  (fp_line (start -4.39 -1.05) (end -4.39 0.55) (layer F.SilkS) (width 0))
  (fp_line (start -4.39 0.55) (end -4.11 0.55) (layer F.SilkS) (width 0))
  (fp_line (start -4.11 0.55) (end -4.11 -1.05) (layer F.SilkS) (width 0))
  (fp_line (start -4.11 -1.05) (end -4.39 -1.05) (layer F.SilkS) (width 0))
  (fp_line (start -4.39 -0.55) (end -4.39 1.05) (layer F.SilkS) (width 0))
  (fp_line (start -4.39 1.05) (end -4.11 1.05) (layer F.SilkS) (width 0))
  (fp_line (start -4.11 1.05) (end -4.11 -0.55) (layer F.SilkS) (width 0))
  (fp_line (start -4.11 -0.55) (end -4.39 -0.55) (layer F.SilkS) (width 0))
  (fp_line (start -4.39 -0.05) (end -4.39 1.55) (layer F.SilkS) (width 0))
  (fp_line (start -4.39 1.55) (end -4.11 1.55) (layer F.SilkS) (width 0))
  (fp_line (start -4.11 1.55) (end -4.11 -0.05) (layer F.SilkS) (width 0))
  (fp_line (start -4.11 -0.05) (end -4.39 -0.05) (layer F.SilkS) (width 0))
  (fp_line (start -4.39 0.45) (end -4.39 2.05) (layer F.SilkS) (width 0))
  (fp_line (start -4.39 2.05) (end -4.11 2.05) (layer F.SilkS) (width 0))
  (fp_line (start -4.11 2.05) (end -4.11 0.45) (layer F.SilkS) (width 0))
  (fp_line (start -4.11 0.45) (end -4.39 0.45) (layer F.SilkS) (width 0))
  (fp_line (start -4.39 0.95) (end -4.39 2.55) (layer F.SilkS) (width 0))
  (fp_line (start -4.39 2.55) (end -4.11 2.55) (layer F.SilkS) (width 0))
  (fp_line (start -4.11 2.55) (end -4.11 0.95) (layer F.SilkS) (width 0))
  (fp_line (start -4.11 0.95) (end -4.39 0.95) (layer F.SilkS) (width 0))
  (fp_line (start -4.39 1.45) (end -4.39 3.05) (layer F.SilkS) (width 0))
  (fp_line (start -4.39 3.05) (end -4.11 3.05) (layer F.SilkS) (width 0))
  (fp_line (start -4.11 3.05) (end -4.11 1.45) (layer F.SilkS) (width 0))
  (fp_line (start -4.11 1.45) (end -4.39 1.45) (layer F.SilkS) (width 0))
  (fp_line (start -4.39 1.95) (end -4.39 3.55) (layer F.SilkS) (width 0))
  (fp_line (start -4.39 3.55) (end -4.11 3.55) (layer F.SilkS) (width 0))
  (fp_line (start -4.11 3.55) (end -4.11 1.95) (layer F.SilkS) (width 0))
  (fp_line (start -4.11 1.95) (end -4.39 1.95) (layer F.SilkS) (width 0))
  (pad "" smd circle (at 4.25 4.25) (size 1.27 1.27) (layers F.Cu F.Mask)
    (solder_mask_margin 0.3175)
    (zone_connect 2))
  (pad "" smd circle (at -4.25 -4.25) (size 1.27 1.27) (layers F.Cu F.Mask)
    (solder_mask_margin 0.3175)
    (zone_connect 2))
  (pad 1 smd rect (at -2.75 4.25) (size 0.28 1.6) (layers F.Cu F.Mask F.Paste)
    (solder_mask_margin 0.1)
    (zone_connect 2))
  (pad 2 smd rect (at -2.25 4.25) (size 0.28 1.6) (layers F.Cu F.Mask F.Paste)
    (solder_mask_margin 0.1)
    (zone_connect 2))
  (pad 3 smd rect (at -1.75 4.25) (size 0.28 1.6) (layers F.Cu F.Mask F.Paste)
    (solder_mask_margin 0.1)
    (zone_connect 2))
  (pad 4 smd rect (at -1.25 4.25) (size 0.28 1.6) (layers F.Cu F.Mask F.Paste)
    (solder_mask_margin 0.1)
    (zone_connect 2))
  (pad 5 smd rect (at -0.75 4.25) (size 0.28 1.6) (layers F.Cu F.Mask F.Paste)
    (solder_mask_margin 0.1)
    (zone_connect 2))
  (pad 6 smd rect (at -0.25 4.25) (size 0.28 1.6) (layers F.Cu F.Mask F.Paste)
    (solder_mask_margin 0.1)
    (zone_connect 2))
  (pad 7 smd rect (at 0.25 4.25) (size 0.28 1.6) (layers F.Cu F.Mask F.Paste)
    (solder_mask_margin 0.1)
    (zone_connect 2))
  (pad 8 smd rect (at 0.75 4.25) (size 0.28 1.6) (layers F.Cu F.Mask F.Paste)
    (solder_mask_margin 0.1)
    (zone_connect 2))
  (pad 9 smd rect (at 1.25 4.25) (size 0.28 1.6) (layers F.Cu F.Mask F.Paste)
    (solder_mask_margin 0.1)
    (zone_connect 2))
  (pad 10 smd rect (at 1.75 4.25) (size 0.28 1.6) (layers F.Cu F.Mask F.Paste)
    (solder_mask_margin 0.1)
    (zone_connect 2))
  (pad 11 smd rect (at 2.25 4.25) (size 0.28 1.6) (layers F.Cu F.Mask F.Paste)
    (solder_mask_margin 0.1)
    (zone_connect 2))
  (pad 12 smd rect (at 2.75 4.25) (size 0.28 1.6) (layers F.Cu F.Mask F.Paste)
    (solder_mask_margin 0.1)
    (zone_connect 2))
  (pad 13 smd rect (at 4.25 2.75 90) (size 0.28 1.6) (layers F.Cu F.Mask F.Paste)
    (solder_mask_margin 0.1)
    (zone_connect 2))
  (pad 14 smd rect (at 4.25 2.25 90) (size 0.28 1.6) (layers F.Cu F.Mask F.Paste)
    (solder_mask_margin 0.1)
    (zone_connect 2))
  (pad 15 smd rect (at 4.25 1.75 90) (size 0.28 1.6) (layers F.Cu F.Mask F.Paste)
    (solder_mask_margin 0.1)
    (zone_connect 2))
  (pad 16 smd rect (at 4.25 1.25 90) (size 0.28 1.6) (layers F.Cu F.Mask F.Paste)
    (solder_mask_margin 0.1)
    (zone_connect 2))
  (pad 17 smd rect (at 4.25 0.75 90) (size 0.28 1.6) (layers F.Cu F.Mask F.Paste)
    (solder_mask_margin 0.1)
    (zone_connect 2))
  (pad 18 smd rect (at 4.25 0.25 90) (size 0.28 1.6) (layers F.Cu F.Mask F.Paste)
    (solder_mask_margin 0.1)
    (zone_connect 2))
  (pad 19 smd rect (at 4.25 -0.25 90) (size 0.28 1.6) (layers F.Cu F.Mask F.Paste)
    (solder_mask_margin 0.1)
    (zone_connect 2))
  (pad 20 smd rect (at 4.25 -0.75 90) (size 0.28 1.6) (layers F.Cu F.Mask F.Paste)
    (solder_mask_margin 0.1)
    (zone_connect 2))
  (pad 21 smd rect (at 4.25 -1.25 90) (size 0.28 1.6) (layers F.Cu F.Mask F.Paste)
    (solder_mask_margin 0.1)
    (zone_connect 2))
  (pad 22 smd rect (at 4.25 -1.75 90) (size 0.28 1.6) (layers F.Cu F.Mask F.Paste)
    (solder_mask_margin 0.1)
    (zone_connect 2))
  (pad 23 smd rect (at 4.25 -2.25 90) (size 0.28 1.6) (layers F.Cu F.Mask F.Paste)
    (solder_mask_margin 0.1)
    (zone_connect 2))
  (pad 24 smd rect (at 4.25 -2.75 90) (size 0.28 1.6) (layers F.Cu F.Mask F.Paste)
    (solder_mask_margin 0.1)
    (zone_connect 2))
  (pad 25 smd rect (at 2.75 -4.25) (size 0.28 1.6) (layers F.Cu F.Mask F.Paste)
    (solder_mask_margin 0.1)
    (zone_connect 2))
  (pad 26 smd rect (at 2.25 -4.25) (size 0.28 1.6) (layers F.Cu F.Mask F.Paste)
    (solder_mask_margin 0.1)
    (zone_connect 2))
  (pad 27 smd rect (at 1.75 -4.25) (size 0.28 1.6) (layers F.Cu F.Mask F.Paste)
    (solder_mask_margin 0.1)
    (zone_connect 2))
  (pad 28 smd rect (at 1.25 -4.25) (size 0.28 1.6) (layers F.Cu F.Mask F.Paste)
    (solder_mask_margin 0.1)
    (zone_connect 2))
  (pad 29 smd rect (at 0.75 -4.25) (size 0.28 1.6) (layers F.Cu F.Mask F.Paste)
    (solder_mask_margin 0.1)
    (zone_connect 2))
  (pad 30 smd rect (at 0.25 -4.25) (size 0.28 1.6) (layers F.Cu F.Mask F.Paste)
    (solder_mask_margin 0.1)
    (zone_connect 2))
  (pad 31 smd rect (at -0.25 -4.25) (size 0.28 1.6) (layers F.Cu F.Mask F.Paste)
    (solder_mask_margin 0.1)
    (zone_connect 2))
  (pad 32 smd rect (at -0.75 -4.25) (size 0.28 1.6) (layers F.Cu F.Mask F.Paste)
    (solder_mask_margin 0.1)
    (zone_connect 2))
  (pad 33 smd rect (at -1.25 -4.25) (size 0.28 1.6) (layers F.Cu F.Mask F.Paste)
    (solder_mask_margin 0.1)
    (zone_connect 2))
  (pad 34 smd rect (at -1.75 -4.25) (size 0.28 1.6) (layers F.Cu F.Mask F.Paste)
    (solder_mask_margin 0.1)
    (zone_connect 2))
  (pad 35 smd rect (at -2.25 -4.25) (size 0.28 1.6) (layers F.Cu F.Mask F.Paste)
    (solder_mask_margin 0.1)
    (zone_connect 2))
  (pad 36 smd rect (at -2.75 -4.25) (size 0.28 1.6) (layers F.Cu F.Mask F.Paste)
    (solder_mask_margin 0.1)
    (zone_connect 2))
  (pad 37 smd rect (at -4.25 -2.75 90) (size 0.28 1.6) (layers F.Cu F.Mask F.Paste)
    (solder_mask_margin 0.1)
    (zone_connect 2))
  (pad 38 smd rect (at -4.25 -2.25 90) (size 0.28 1.6) (layers F.Cu F.Mask F.Paste)
    (solder_mask_margin 0.1)
    (zone_connect 2))
  (pad 39 smd rect (at -4.25 -1.75 90) (size 0.28 1.6) (layers F.Cu F.Mask F.Paste)
    (solder_mask_margin 0.1)
    (zone_connect 2))
  (pad 40 smd rect (at -4.25 -1.25 90) (size 0.28 1.6) (layers F.Cu F.Mask F.Paste)
    (solder_mask_margin 0.1)
    (zone_connect 2))
  (pad 41 smd rect (at -4.25 -0.75 90) (size 0.28 1.6) (layers F.Cu F.Mask F.Paste)
    (solder_mask_margin 0.1)
    (zone_connect 2))
  (pad 42 smd rect (at -4.25 -0.25 90) (size 0.28 1.6) (layers F.Cu F.Mask F.Paste)
    (solder_mask_margin 0.1)
    (zone_connect 2))
  (pad 43 smd rect (at -4.25 0.25 90) (size 0.28 1.6) (layers F.Cu F.Mask F.Paste)
    (solder_mask_margin 0.1)
    (zone_connect 2))
  (pad 44 smd rect (at -4.25 0.75 90) (size 0.28 1.6) (layers F.Cu F.Mask F.Paste)
    (solder_mask_margin 0.1)
    (zone_connect 2))
  (pad 45 smd rect (at -4.25 1.25 90) (size 0.28 1.6) (layers F.Cu F.Mask F.Paste)
    (solder_mask_margin 0.1)
    (zone_connect 2))
  (pad 46 smd rect (at -4.25 1.75 90) (size 0.28 1.6) (layers F.Cu F.Mask F.Paste)
    (solder_mask_margin 0.1)
    (zone_connect 2))
  (pad 47 smd rect (at -4.25 2.25 90) (size 0.28 1.6) (layers F.Cu F.Mask F.Paste)
    (solder_mask_margin 0.1)
    (zone_connect 2))
  (pad 48 smd rect (at -4.25 2.75 90) (size 0.28 1.6) (layers F.Cu F.Mask F.Paste)
    (solder_mask_margin 0.1)
    (zone_connect 2))
)