(module MOL47500-0001 (layer F.Cu) (tedit 0)
  (fp_text reference REF** (at 0 0) (layer F.SilkS)
    (effects (font (size 1 1) (thickness 0.15)))
  )
  (fp_text value MOL47500-0001 (at 0 2) (layer F.Fab) hide
    (effects (font (size 1 1) (thickness 0.15)))
  )
  (fp_line (start -3.74 5.56) (end -3.74 -8.3) (layer Dwgs.User) (width 0.05))
  (fp_line (start -3.74 -8.3) (end 3.44 -8.3) (layer Dwgs.User) (width 0.05))
  (fp_line (start 3.44 -8.3) (end 3.44 5.56) (layer Dwgs.User) (width 0.05))
  (fp_line (start 3.44 5.56) (end -3.74 5.56) (layer Dwgs.User) (width 0.05))
  (fp_line (start -3.65 5.47) (end 3.35 5.47) (layer F.SilkS) (width 0.18))
  (fp_line (start 3.35 5.47) (end 3.35 -8.21) (layer F.SilkS) (width 0.18))
  (fp_line (start 3.35 -8.21) (end -3.65 -8.21) (layer F.SilkS) (width 0.18))
  (fp_line (start -3.65 -8.21) (end -3.65 5.47) (layer F.SilkS) (width 0.18))
  (fp_line (start 3.35 5.47) (end -3.65 5.47) (layer F.CrtYd) (width 0.02))
  (fp_line (start -3.65 5.47) (end -3.65 -8.21) (layer F.CrtYd) (width 0.02))
  (fp_line (start -3.65 -8.21) (end 3.35 -8.21) (layer F.CrtYd) (width 0.02))
  (fp_line (start 3.35 -8.21) (end 3.35 5.47) (layer F.CrtYd) (width 0.02))
  (fp_line (start 2.6588 -7.999) (end 2.6588 -6.221) (layer B.CrtYd) (width 0.02))
  (fp_line (start 2.6588 -6.221) (end 1.5412 -6.221) (layer B.CrtYd) (width 0.02))
  (fp_line (start 1.5412 -6.221) (end 1.5412 -7.999) (layer B.CrtYd) (width 0.02))
  (fp_line (start 1.5412 -7.999) (end 2.6588 -7.999) (layer B.CrtYd) (width 0.02))
  (fp_line (start 1.2588 -7.999) (end 1.2588 -6.221) (layer B.CrtYd) (width 0.02))
  (fp_line (start 1.2588 -6.221) (end 0.1412 -6.221) (layer B.CrtYd) (width 0.02))
  (fp_line (start 0.1412 -6.221) (end 0.1412 -7.999) (layer B.CrtYd) (width 0.02))
  (fp_line (start 0.1412 -7.999) (end 1.2588 -7.999) (layer B.CrtYd) (width 0.02))
  (fp_line (start -0.1412 -7.999) (end -0.1412 -6.221) (layer B.CrtYd) (width 0.02))
  (fp_line (start -0.1412 -6.221) (end -1.2588 -6.221) (layer B.CrtYd) (width 0.02))
  (fp_line (start -1.2588 -6.221) (end -1.2588 -7.999) (layer B.CrtYd) (width 0.02))
  (fp_line (start -1.2588 -7.999) (end -0.1412 -7.999) (layer B.CrtYd) (width 0.02))
  (fp_line (start -1.5412 -7.999) (end -1.5412 -6.221) (layer B.CrtYd) (width 0.02))
  (fp_line (start -1.5412 -6.221) (end -2.6588 -6.221) (layer B.CrtYd) (width 0.02))
  (fp_line (start -2.6588 -6.221) (end -2.6588 -7.999) (layer B.CrtYd) (width 0.02))
  (fp_line (start -2.6588 -7.999) (end -1.5412 -7.999) (layer B.CrtYd) (width 0.02))
  (fp_line (start -1.681 -5.11) (end -1.681 -2.57) (layer B.CrtYd) (width 0.02))
  (fp_line (start -1.681 -2.57) (end -3.459 -2.57) (layer B.CrtYd) (width 0.02))
  (fp_line (start -3.459 -2.57) (end -3.459 -5.11) (layer B.CrtYd) (width 0.02))
  (fp_line (start -3.459 -5.11) (end -1.681 -5.11) (layer B.CrtYd) (width 0.02))
  (fp_line (start 3.159 -5.11) (end 3.159 -2.57) (layer B.CrtYd) (width 0.02))
  (fp_line (start 3.159 -2.57) (end 1.381 -2.57) (layer B.CrtYd) (width 0.02))
  (fp_line (start 1.381 -2.57) (end 1.381 -5.11) (layer B.CrtYd) (width 0.02))
  (fp_line (start 1.381 -5.11) (end 3.159 -5.11) (layer B.CrtYd) (width 0.02))
  (fp_line (start 3.159 -1.27) (end 3.159 1.27) (layer B.CrtYd) (width 0.02))
  (fp_line (start 3.159 1.27) (end 1.381 1.27) (layer B.CrtYd) (width 0.02))
  (fp_line (start 1.381 1.27) (end 1.381 -1.27) (layer B.CrtYd) (width 0.02))
  (fp_line (start 1.381 -1.27) (end 3.159 -1.27) (layer B.CrtYd) (width 0.02))
  (fp_line (start -1.681 -1.27) (end -1.681 1.27) (layer B.CrtYd) (width 0.02))
  (fp_line (start -1.681 1.27) (end -3.459 1.27) (layer B.CrtYd) (width 0.02))
  (fp_line (start -3.459 1.27) (end -3.459 -1.27) (layer B.CrtYd) (width 0.02))
  (fp_line (start -3.459 -1.27) (end -1.681 -1.27) (layer B.CrtYd) (width 0.02))
  (fp_line (start -3.65 5.47) (end 3.35 5.47) (layer F.Fab) (width 0.1))
  (fp_line (start 3.35 5.47) (end 3.35 -8.21) (layer F.Fab) (width 0.1))
  (fp_line (start 3.35 -8.21) (end -3.65 -8.21) (layer F.Fab) (width 0.1))
  (fp_line (start -3.65 -8.21) (end -3.65 5.47) (layer F.Fab) (width 0.1))
  (fp_line (start -2 3.4) (end -1 -3) (layer F.Fab) (width 0.1))
  (fp_line (start -1 -3) (end 1 -3) (layer F.Fab) (width 0.1))
  (fp_line (start 1 -3) (end 2 3.4) (layer F.Fab) (width 0.1))
  (fp_line (start 2 3.4) (end -2 3.4) (layer F.Fab) (width 0.1))
  (fp_line (start -0.8 -3.6) (end -0.8 -5.8) (layer F.Fab) (width 0.1))
  (fp_line (start -0.8 -5.8) (end 0.8 -5.8) (layer F.Fab) (width 0.1))
  (fp_line (start 0.8 -5.8) (end 0.8 -3.6) (layer F.Fab) (width 0.1))
  (fp_line (start 0.8 -3.6) (end -0.8 -3.6) (layer F.Fab) (width 0.1))
  (fp_line (start 2.1 -6.7798) (end 2.1 -7.4402) (layer B.SilkS) (width 1.1176))
  (fp_line (start 0.7 -6.7798) (end 0.7 -7.4402) (layer B.SilkS) (width 1.1176))
  (fp_line (start -0.7 -6.7798) (end -0.7 -7.4402) (layer B.SilkS) (width 1.1176))
  (fp_line (start -2.1 -6.7798) (end -2.1 -7.4402) (layer B.SilkS) (width 1.1176))
  (fp_line (start -2.57 -3.459) (end -2.57 -4.221) (layer B.SilkS) (width 1.778))
  (fp_line (start 2.27 -3.459) (end 2.27 -4.221) (layer B.SilkS) (width 1.778))
  (fp_line (start 2.27 0.381) (end 2.27 -0.381) (layer B.SilkS) (width 1.778))
  (fp_line (start -2.57 0.381) (end -2.57 -0.381) (layer B.SilkS) (width 1.778))
  (pad 1 thru_hole oval (at 2.1 -7.11) (size 1.1176 1.778) (drill 0.8128 (offset 0 0 )) (layers *.Cu *.Mask)
    (clearance 0.127) (solder_mask_margin 0.127)
    (zone_connect 2))
  (pad 2 thru_hole oval (at 0.7 -7.11) (size 1.1176 1.778) (drill 0.8128 (offset 0 0 )) (layers *.Cu *.Mask)
    (clearance 0.127) (solder_mask_margin 0.127)
    (zone_connect 2))
  (pad 3 thru_hole oval (at -0.7 -7.11) (size 1.1176 1.778) (drill 0.8128 (offset 0 0 )) (layers *.Cu *.Mask)
    (clearance 0.127) (solder_mask_margin 0.127)
    (zone_connect 2))
  (pad 4 thru_hole oval (at -2.1 -7.11) (size 1.1176 1.778) (drill 0.8128 (offset 0 0 )) (layers *.Cu *.Mask)
    (clearance 0.127) (solder_mask_margin 0.127)
    (zone_connect 2))
  (pad 5 thru_hole oval (at -2.57 -3.84) (size 1.778 2.54) (drill oval 1.1 2 (offset 0 0 )) (layers *.Cu *.Mask)
    (clearance 0.1524) (solder_mask_margin 0.1524)
    (zone_connect 2))
  (pad 6 thru_hole oval (at 2.27 -3.84) (size 1.778 2.54) (drill oval 1.1 2 (offset 0 0 )) (layers *.Cu *.Mask)
    (clearance 0.1524) (solder_mask_margin 0.1524)
    (zone_connect 2))
  (pad 7 thru_hole oval (at 2.27 0) (size 1.778 2.54) (drill oval 1.1 2 (offset 0 0 )) (layers *.Cu *.Mask)
    (clearance 0.1524) (solder_mask_margin 0.1524)
    (zone_connect 2))
  (pad 8 thru_hole oval (at -2.57 0) (size 1.778 2.54) (drill oval 1.1 2 (offset 0 0 )) (layers *.Cu *.Mask)
    (clearance 0.1524) (solder_mask_margin 0.1524)
    (zone_connect 2))
  (model ${KIPRJMOD}/../Library/Footprints.3dshapes/673298001.stp
    (offset (xyz -0.15 1.65 7))
    (scale (xyz 1 1 1))
    (rotate (xyz -90 0 -90))
  )
)