(module OBLS100L67R67A90 (layer F.Cu) (tedit 0)
  (fp_text reference REF** (at 0 0) (layer F.SilkS) hide
    (effects (font (size 1 1) (thickness 0.15)))
  )
  (fp_text value OBLS100L67R67A90 (at 0 2) (layer F.Fab) hide
    (effects (font (size 1 1) (thickness 0.15)))
  )
  (fp_line (start -1.524 2.04216) (end -1.524 -2.04216) (layer F.CrtYd) (width 0.05))
  (fp_line (start -1.524 -2.04216) (end 1.524 -2.04216) (layer F.CrtYd) (width 0.05))
  (fp_line (start 1.524 -2.04216) (end 1.524 2.04216) (layer F.CrtYd) (width 0.05))
  (fp_line (start 1.524 2.04216) (end -1.524 2.04216) (layer F.CrtYd) (width 0.05))
  (fp_line (start -1.27 1.7018) (end -1.27 -1.7018) (layer F.SilkS) (width 0.02))
  (fp_line (start -1.27 -1.7018) (end 1.27 -1.7018) (layer F.SilkS) (width 0.02))
  (fp_line (start 1.27 -1.7018) (end 1.27 1.7018) (layer F.SilkS) (width 0.02))
  (fp_line (start 1.27 1.7018) (end -1.27 1.7018) (layer F.SilkS) (width 0.02))
  (pad ~ smd rect (at 0 0) (size 2.54 3.4036) (layers F.Cu F.Mask F.Paste)
    (zone_connect 2))
)