(module OBLS78L45.5R45.5A90 (layer F.Cu) (tedit 0)
  (fp_text reference REF** (at 0 0) (layer F.SilkS) hide
    (effects (font (size 1 1) (thickness 0.15)))
  )
  (fp_text value OBLS78L45.5R45.5A90 (at 0 2) (layer F.Fab) hide
    (effects (font (size 1 1) (thickness 0.15)))
  )
  (fp_line (start -1.18872 1.38684) (end -1.18872 -1.38684) (layer F.CrtYd) (width 0.05))
  (fp_line (start -1.18872 -1.38684) (end 1.18872 -1.38684) (layer F.CrtYd) (width 0.05))
  (fp_line (start 1.18872 -1.38684) (end 1.18872 1.38684) (layer F.CrtYd) (width 0.05))
  (fp_line (start 1.18872 1.38684) (end -1.18872 1.38684) (layer F.CrtYd) (width 0.05))
  (fp_line (start -0.9906 1.1557) (end -0.9906 -1.1557) (layer F.SilkS) (width 0.02))
  (fp_line (start -0.9906 -1.1557) (end 0.9906 -1.1557) (layer F.SilkS) (width 0.02))
  (fp_line (start 0.9906 -1.1557) (end 0.9906 1.1557) (layer F.SilkS) (width 0.02))
  (fp_line (start 0.9906 1.1557) (end -0.9906 1.1557) (layer F.SilkS) (width 0.02))
  (pad ~ smd rect (at 0 0) (size 1.9812 2.3114) (layers F.Cu F.Mask F.Paste)
    (zone_connect 2))
)