(module PR-1.15X1.6 (layer F.Cu) (tedit 0)
  (fp_text reference REF** (at 0 0) (layer F.SilkS) hide
    (effects (font (size 1 1) (thickness 0.15)))
  )
  (fp_text value masque_comp (at 0 2) (layer F.Fab) hide
    (effects (font (size 1 1) (thickness 0.15)))
  )
  (fp_line (start -0.75 1.02) (end -0.75 -1.02) (layer F.CrtYd) (width 0.05))
  (fp_line (start -0.75 -1.02) (end 0.75 -1.02) (layer F.CrtYd) (width 0.05))
  (fp_line (start 0.75 -1.02) (end 0.75 1.02) (layer F.CrtYd) (width 0.05))
  (fp_line (start 0.75 1.02) (end -0.75 1.02) (layer F.CrtYd) (width 0.05))
  (fp_line (start -0.575 -0.8) (end -0.575 0.8) (layer F.SilkS) (width 0))
  (fp_line (start -0.575 0.8) (end 0.575 0.8) (layer F.SilkS) (width 0))
  (fp_line (start 0.575 0.8) (end 0.575 -0.8) (layer F.SilkS) (width 0))
  (fp_line (start 0.575 -0.8) (end -0.575 -0.8) (layer F.SilkS) (width 0))
  (pad ~ smd rect (at 0 0) (size 1.15 1.6) (layers F.Cu F.Mask F.Paste)
    (solder_mask_margin 0.05)
    (zone_connect 2))
)