(module R2512_ENT-6.2 (layer F.Cu) (tedit 0)
  (fp_text reference REF** (at 0 0) (layer F.SilkS)
    (effects (font (size 1 1) (thickness 0.15)))
  )
  (fp_text value R2512_ENT-6.2 (at 0 2) (layer F.Fab) hide
    (effects (font (size 1 1) (thickness 0.15)))
  )
  (fp_line (start -4.37625 2.0066) (end -4.37625 -2.0066) (layer Dwgs.User) (width 0.05))
  (fp_line (start -4.37625 -2.0066) (end 4.37625 -2.0066) (layer Dwgs.User) (width 0.05))
  (fp_line (start 4.37625 -2.0066) (end 4.37625 2.0066) (layer Dwgs.User) (width 0.05))
  (fp_line (start 4.37625 2.0066) (end -4.37625 2.0066) (layer Dwgs.User) (width 0.05))
  (fp_line (start -4.28625 -1.905) (end -4.28625 1.905) (layer F.SilkS) (width 0.18))
  (fp_line (start -4.28625 1.905) (end 4.28625 1.905) (layer F.SilkS) (width 0.18))
  (fp_line (start 4.28625 1.905) (end 4.28625 -1.905) (layer F.SilkS) (width 0.18))
  (fp_line (start 4.28625 -1.905) (end -4.28625 -1.905) (layer F.SilkS) (width 0.18))
  (fp_line (start 4.28625 1.905) (end -4.28625 1.905) (layer F.CrtYd) (width 0.02))
  (fp_line (start -4.28625 1.905) (end -4.28625 -1.905) (layer F.CrtYd) (width 0.02))
  (fp_line (start -4.28625 -1.905) (end 4.28625 -1.905) (layer F.CrtYd) (width 0.02))
  (fp_line (start 4.28625 -1.905) (end 4.28625 1.905) (layer F.CrtYd) (width 0.02))
  (fp_line (start -3.15 1.6) (end 3.15 1.6) (layer F.Fab) (width 0.1))
  (fp_line (start 3.15 1.6) (end 3.15 -1.6) (layer F.Fab) (width 0.1))
  (fp_line (start 3.15 -1.6) (end -3.15 -1.6) (layer F.Fab) (width 0.1))
  (fp_line (start -3.15 -1.6) (end -3.15 1.6) (layer F.Fab) (width 0.1))
  (fp_line (start -3.7874 1.7526) (end -3.7874 -1.7526) (layer F.SilkS) (width 0.02))
  (fp_line (start -3.7874 -1.7526) (end -2.2126 -1.7526) (layer F.SilkS) (width 0.02))
  (fp_line (start -2.2126 -1.7526) (end -2.2126 1.7526) (layer F.SilkS) (width 0.02))
  (fp_line (start -2.2126 1.7526) (end -3.7874 1.7526) (layer F.SilkS) (width 0.02))
  (fp_line (start 2.2126 1.7526) (end 2.2126 -1.7526) (layer F.SilkS) (width 0.02))
  (fp_line (start 2.2126 -1.7526) (end 3.7874 -1.7526) (layer F.SilkS) (width 0.02))
  (fp_line (start 3.7874 -1.7526) (end 3.7874 1.7526) (layer F.SilkS) (width 0.02))
  (fp_line (start 3.7874 1.7526) (end 2.2126 1.7526) (layer F.SilkS) (width 0.02))
  (pad 1 smd rect (at -3 0) (size 1.5748 3.5052) (layers F.Cu F.Mask F.Paste)
    (clearance 0.2032) (solder_mask_margin 0.1016)
    (zone_connect 2))
  (pad 2 smd rect (at 3 0) (size 1.5748 3.5052) (layers F.Cu F.Mask F.Paste)
    (clearance 0.2032) (solder_mask_margin 0.1016)
    (zone_connect 2))
)