(module RECT1.7X4.3 (layer F.Cu) (tedit 0)
  (fp_text reference REF** (at 0 0) (layer F.SilkS) hide
    (effects (font (size 1 1) (thickness 0.15)))
  )
  (fp_text value RECT1.7X4.3 (at 0 2) (layer F.Fab) hide
    (effects (font (size 1 1) (thickness 0.15)))
  )
  (fp_line (start -1.02 2.58) (end -1.02 -2.58) (layer F.CrtYd) (width 0.05))
  (fp_line (start -1.02 -2.58) (end 1.02 -2.58) (layer F.CrtYd) (width 0.05))
  (fp_line (start 1.02 -2.58) (end 1.02 2.58) (layer F.CrtYd) (width 0.05))
  (fp_line (start 1.02 2.58) (end -1.02 2.58) (layer F.CrtYd) (width 0.05))
  (fp_line (start -0.85 -2.15) (end -0.85 2.15) (layer F.SilkS) (width 0))
  (fp_line (start -0.85 2.15) (end 0.85 2.15) (layer F.SilkS) (width 0))
  (fp_line (start 0.85 2.15) (end 0.85 -2.15) (layer F.SilkS) (width 0))
  (fp_line (start 0.85 -2.15) (end -0.85 -2.15) (layer F.SilkS) (width 0))
  (pad ~ smd rect (at 0 0) (size 1.7 4.3) (layers F.Cu F.Mask F.Paste)
    (zone_connect 2))
)