(module RECT2.3X3.7 (layer F.Cu) (tedit 0)
  (fp_text reference REF** (at 0 0) (layer F.SilkS) hide
    (effects (font (size 1 1) (thickness 0.15)))
  )
  (fp_text value RECT2.3X3.7 (at 0 2) (layer F.Fab) hide
    (effects (font (size 1 1) (thickness 0.15)))
  )
  (fp_line (start -1.38 2.22) (end -1.38 -2.22) (layer F.CrtYd) (width 0.05))
  (fp_line (start -1.38 -2.22) (end 1.38 -2.22) (layer F.CrtYd) (width 0.05))
  (fp_line (start 1.38 -2.22) (end 1.38 2.22) (layer F.CrtYd) (width 0.05))
  (fp_line (start 1.38 2.22) (end -1.38 2.22) (layer F.CrtYd) (width 0.05))
  (fp_line (start -1.15 -1.85) (end -1.15 1.85) (layer F.SilkS) (width 0))
  (fp_line (start -1.15 1.85) (end 1.15 1.85) (layer F.SilkS) (width 0))
  (fp_line (start 1.15 1.85) (end 1.15 -1.85) (layer F.SilkS) (width 0))
  (fp_line (start 1.15 -1.85) (end -1.15 -1.85) (layer F.SilkS) (width 0))
  (pad ~ smd rect (at 0 0) (size 2.3 3.7) (layers F.Cu F.Mask F.Paste)
    (zone_connect 2))
)