(module TOBLO82I62W12L69R69A90 (layer F.Cu) (tedit 0)
  (fp_text reference REF** (at 0 0) (layer F.SilkS) hide
    (effects (font (size 1 1) (thickness 0.15)))
  )
  (fp_text value TOBLO82I62W12L69R69A90 (at 0 2) (layer F.Fab) hide
    (effects (font (size 1 1) (thickness 0.15)))
  )
  (fp_line (start -1.24968 2.40792) (end -1.24968 -2.40792) (layer F.CrtYd) (width 0.05))
  (fp_line (start -1.24968 -2.40792) (end 1.24968 -2.40792) (layer F.CrtYd) (width 0.05))
  (fp_line (start 1.24968 -2.40792) (end 1.24968 2.40792) (layer F.CrtYd) (width 0.05))
  (fp_line (start 1.24968 2.40792) (end -1.24968 2.40792) (layer F.CrtYd) (width 0.05))
  (fp_line (start -0.9144 0.2794) (end -0.9144 1.8796) (layer F.SilkS) (width 0.254))
  (fp_line (start -0.9144 1.8796) (end -0.2794 1.8796) (layer F.SilkS) (width 0.254))
  (fp_line (start 0.2794 1.8796) (end 0.9144 1.8796) (layer F.SilkS) (width 0.254))
  (fp_line (start 0.9144 1.8796) (end 0.9144 0.2794) (layer F.SilkS) (width 0.254))
  (fp_line (start 0.9144 -0.2794) (end 0.9144 -1.8796) (layer F.SilkS) (width 0.254))
  (fp_line (start 0.9144 -1.8796) (end 0.2794 -1.8796) (layer F.SilkS) (width 0.254))
  (fp_line (start -0.2794 -1.8796) (end -0.9144 -1.8796) (layer F.SilkS) (width 0.254))
  (fp_line (start -0.9144 -1.8796) (end -0.9144 -0.2794) (layer F.SilkS) (width 0.254))
)