(module TOBLO110I90W12L50R50A90 (layer F.Cu) (tedit 0)
  (fp_text reference REF** (at 0 0) (layer F.SilkS) hide
    (effects (font (size 1 1) (thickness 0.15)))
  )
  (fp_text value TOBLO110I90W12L50R50A90 (at 0 2) (layer F.Fab) hide
    (effects (font (size 1 1) (thickness 0.15)))
  )
  (fp_line (start -1.6764 1.8288) (end -1.6764 -1.8288) (layer F.CrtYd) (width 0.05))
  (fp_line (start -1.6764 -1.8288) (end 1.6764 -1.8288) (layer F.CrtYd) (width 0.05))
  (fp_line (start 1.6764 -1.8288) (end 1.6764 1.8288) (layer F.CrtYd) (width 0.05))
  (fp_line (start 1.6764 1.8288) (end -1.6764 1.8288) (layer F.CrtYd) (width 0.05))
  (fp_line (start -1.27 0.2794) (end -1.27 1.397) (layer F.SilkS) (width 0.254))
  (fp_line (start -1.27 1.397) (end -0.2794 1.397) (layer F.SilkS) (width 0.254))
  (fp_line (start 0.2794 1.397) (end 1.27 1.397) (layer F.SilkS) (width 0.254))
  (fp_line (start 1.27 1.397) (end 1.27 0.2794) (layer F.SilkS) (width 0.254))
  (fp_line (start 1.27 -0.2794) (end 1.27 -1.397) (layer F.SilkS) (width 0.254))
  (fp_line (start 1.27 -1.397) (end 0.2794 -1.397) (layer F.SilkS) (width 0.254))
  (fp_line (start -0.2794 -1.397) (end -1.27 -1.397) (layer F.SilkS) (width 0.254))
  (fp_line (start -1.27 -1.397) (end -1.27 -0.2794) (layer F.SilkS) (width 0.254))
)