(module TQFP100 (layer F.Cu) (tedit 0)
  (fp_text reference REF** (at 0 0) (layer F.SilkS)
    (effects (font (size 1 1) (thickness 0.15)))
  )
  (fp_text value TQFP100 (at 0 2) (layer F.Fab) hide
    (effects (font (size 1 1) (thickness 0.15)))
  )
  (fp_line (start -8.716 8.716) (end -8.716 -8.716) (layer Dwgs.User) (width 0.05))
  (fp_line (start -8.716 -8.716) (end 8.716 -8.716) (layer Dwgs.User) (width 0.05))
  (fp_line (start 8.716 -8.716) (end 8.716 8.716) (layer Dwgs.User) (width 0.05))
  (fp_line (start 8.716 8.716) (end -8.716 8.716) (layer Dwgs.User) (width 0.05))
  (fp_line (start -7 7) (end 7 7) (layer F.SilkS) (width 0.18))
  (fp_line (start 7 7) (end 7 -7) (layer F.SilkS) (width 0.18))
  (fp_line (start 7 -7) (end -6.5 -7) (layer F.SilkS) (width 0.18))
  (fp_line (start -6.5 -7) (end -7 -6.5) (layer F.SilkS) (width 0.18))
  (fp_line (start -7 -6.5) (end -7 7) (layer F.SilkS) (width 0.18))
  (fp_line (start -6.3 -7) (end -6.3 -8.6) (layer F.CrtYd) (width 0.02))
  (fp_line (start -6.3 -8.6) (end 8.6 -8.6) (layer F.CrtYd) (width 0.02))
  (fp_line (start 8.6 -8.6) (end 8.6 6.3) (layer F.CrtYd) (width 0.02))
  (fp_line (start 8.6 6.3) (end 7 6.3) (layer F.CrtYd) (width 0.02))
  (fp_line (start 7 6.3) (end 7 7) (layer F.CrtYd) (width 0.02))
  (fp_line (start 7 7) (end 6.3 7) (layer F.CrtYd) (width 0.02))
  (fp_line (start 6.3 7) (end 6.3 8.6) (layer F.CrtYd) (width 0.02))
  (fp_line (start 6.3 8.6) (end -8.6 8.6) (layer F.CrtYd) (width 0.02))
  (fp_line (start -8.6 8.6) (end -8.6 -6.3) (layer F.CrtYd) (width 0.02))
  (fp_line (start -8.6 -6.3) (end -7 -6.3) (layer F.CrtYd) (width 0.02))
  (fp_line (start -7 -6.3) (end -7 -6.5) (layer F.CrtYd) (width 0.02))
  (fp_line (start -7 -6.5) (end -6.5 -7) (layer F.CrtYd) (width 0.02))
  (fp_line (start -6.5 -7) (end -6.3 -7) (layer F.CrtYd) (width 0.02))
  (fp_line (start 7 -6) (end 7.75 -6) (layer F.Fab) (width 0.1))
  (fp_line (start 7 -5.5) (end 7.75 -5.5) (layer F.Fab) (width 0.1))
  (fp_line (start 7 -5) (end 7.75 -5) (layer F.Fab) (width 0.1))
  (fp_line (start 7 -4.5) (end 7.75 -4.5) (layer F.Fab) (width 0.1))
  (fp_line (start 7 -4) (end 7.75 -4) (layer F.Fab) (width 0.1))
  (fp_line (start 7 -3.5) (end 7.75 -3.5) (layer F.Fab) (width 0.1))
  (fp_line (start 7 -3) (end 7.75 -3) (layer F.Fab) (width 0.1))
  (fp_line (start 7 -2.5) (end 7.75 -2.5) (layer F.Fab) (width 0.1))
  (fp_line (start 7 -2) (end 7.75 -2) (layer F.Fab) (width 0.1))
  (fp_line (start 7 -1.5) (end 7.75 -1.5) (layer F.Fab) (width 0.1))
  (fp_line (start 7 -1) (end 7.75 -1) (layer F.Fab) (width 0.1))
  (fp_line (start 7 -0.5) (end 7.75 -0.5) (layer F.Fab) (width 0.1))
  (fp_line (start 7 0) (end 7.75 0) (layer F.Fab) (width 0.1))
  (fp_line (start 7 0.5) (end 7.75 0.5) (layer F.Fab) (width 0.1))
  (fp_line (start 7 1) (end 7.75 1) (layer F.Fab) (width 0.1))
  (fp_line (start 7 1.5) (end 7.75 1.5) (layer F.Fab) (width 0.1))
  (fp_line (start 7 2) (end 7.75 2) (layer F.Fab) (width 0.1))
  (fp_line (start 7 2.5) (end 7.75 2.5) (layer F.Fab) (width 0.1))
  (fp_line (start 7 3) (end 7.75 3) (layer F.Fab) (width 0.1))
  (fp_line (start 7 3.5) (end 7.75 3.5) (layer F.Fab) (width 0.1))
  (fp_line (start 7 4) (end 7.75 4) (layer F.Fab) (width 0.1))
  (fp_line (start 7 4.5) (end 7.75 4.5) (layer F.Fab) (width 0.1))
  (fp_line (start 7 5) (end 7.75 5) (layer F.Fab) (width 0.1))
  (fp_line (start 7 5.5) (end 7.75 5.5) (layer F.Fab) (width 0.1))
  (fp_line (start 7 6) (end 7.75 6) (layer F.Fab) (width 0.1))
  (fp_line (start 6 7) (end 6 7.75) (layer F.Fab) (width 0.1))
  (fp_line (start 5.5 7) (end 5.5 7.75) (layer F.Fab) (width 0.1))
  (fp_line (start 5 7) (end 5 7.75) (layer F.Fab) (width 0.1))
  (fp_line (start 4.5 7) (end 4.5 7.75) (layer F.Fab) (width 0.1))
  (fp_line (start 4 7) (end 4 7.75) (layer F.Fab) (width 0.1))
  (fp_line (start 3.5 7) (end 3.5 7.75) (layer F.Fab) (width 0.1))
  (fp_line (start 3 7) (end 3 7.75) (layer F.Fab) (width 0.1))
  (fp_line (start 2.5 7) (end 2.5 7.75) (layer F.Fab) (width 0.1))
  (fp_line (start 2 7) (end 2 7.75) (layer F.Fab) (width 0.1))
  (fp_line (start 1.5 7) (end 1.5 7.75) (layer F.Fab) (width 0.1))
  (fp_line (start 1 7) (end 1 7.75) (layer F.Fab) (width 0.1))
  (fp_line (start 0.5 7) (end 0.5 7.75) (layer F.Fab) (width 0.1))
  (fp_line (start 0 7) (end 0 7.75) (layer F.Fab) (width 0.1))
  (fp_line (start -0.5 7) (end -0.5 7.75) (layer F.Fab) (width 0.1))
  (fp_line (start -1 7) (end -1 7.75) (layer F.Fab) (width 0.1))
  (fp_line (start -1.5 7) (end -1.5 7.75) (layer F.Fab) (width 0.1))
  (fp_line (start -2 7) (end -2 7.75) (layer F.Fab) (width 0.1))
  (fp_line (start -2.5 7) (end -2.5 7.75) (layer F.Fab) (width 0.1))
  (fp_line (start -3 7) (end -3 7.75) (layer F.Fab) (width 0.1))
  (fp_line (start -3.5 7) (end -3.5 7.75) (layer F.Fab) (width 0.1))
  (fp_line (start -4 7) (end -4 7.75) (layer F.Fab) (width 0.1))
  (fp_line (start -4.5 7) (end -4.5 7.75) (layer F.Fab) (width 0.1))
  (fp_line (start -5 7) (end -5 7.75) (layer F.Fab) (width 0.1))
  (fp_line (start -5.5 7) (end -5.5 7.75) (layer F.Fab) (width 0.1))
  (fp_line (start -6 7) (end -6 7.75) (layer F.Fab) (width 0.1))
  (fp_line (start 6 -7.75) (end 6 -7) (layer F.Fab) (width 0.1))
  (fp_line (start 5.5 -7.75) (end 5.5 -7) (layer F.Fab) (width 0.1))
  (fp_line (start 5 -7.75) (end 5 -7) (layer F.Fab) (width 0.1))
  (fp_line (start 4.5 -7.75) (end 4.5 -7) (layer F.Fab) (width 0.1))
  (fp_line (start 4 -7.75) (end 4 -7) (layer F.Fab) (width 0.1))
  (fp_line (start 3.5 -7.75) (end 3.5 -7) (layer F.Fab) (width 0.1))
  (fp_line (start 3 -7.75) (end 3 -7) (layer F.Fab) (width 0.1))
  (fp_line (start 2.5 -7.75) (end 2.5 -7) (layer F.Fab) (width 0.1))
  (fp_line (start 2 -7.75) (end 2 -7) (layer F.Fab) (width 0.1))
  (fp_line (start 1.5 -7.75) (end 1.5 -7) (layer F.Fab) (width 0.1))
  (fp_line (start 1 -7.75) (end 1 -7) (layer F.Fab) (width 0.1))
  (fp_line (start 0.5 -7.75) (end 0.5 -7) (layer F.Fab) (width 0.1))
  (fp_line (start 0 -7.75) (end 0 -7) (layer F.Fab) (width 0.1))
  (fp_line (start -0.5 -7.75) (end -0.5 -7) (layer F.Fab) (width 0.1))
  (fp_line (start -1 -7.75) (end -1 -7) (layer F.Fab) (width 0.1))
  (fp_line (start -1.5 -7.75) (end -1.5 -7) (layer F.Fab) (width 0.1))
  (fp_line (start -2 -7.75) (end -2 -7) (layer F.Fab) (width 0.1))
  (fp_line (start -2.5 -7.75) (end -2.5 -7) (layer F.Fab) (width 0.1))
  (fp_line (start -3 -7.75) (end -3 -7) (layer F.Fab) (width 0.1))
  (fp_line (start -3.5 -7.75) (end -3.5 -7) (layer F.Fab) (width 0.1))
  (fp_line (start -4 -7.75) (end -4 -7) (layer F.Fab) (width 0.1))
  (fp_line (start -4.5 -7.75) (end -4.5 -7) (layer F.Fab) (width 0.1))
  (fp_line (start -5 -7.75) (end -5 -7) (layer F.Fab) (width 0.1))
  (fp_line (start -5.5 -7.75) (end -5.5 -7) (layer F.Fab) (width 0.1))
  (fp_line (start -6 -7.75) (end -6 -7) (layer F.Fab) (width 0.1))
  (fp_line (start -7 6) (end -7.75 6) (layer F.Fab) (width 0.1))
  (fp_line (start -7 5.5) (end -7.75 5.5) (layer F.Fab) (width 0.1))
  (fp_line (start -7 5) (end -7.75 5) (layer F.Fab) (width 0.1))
  (fp_line (start -7 4.5) (end -7.75 4.5) (layer F.Fab) (width 0.1))
  (fp_line (start -7 4) (end -7.75 4) (layer F.Fab) (width 0.1))
  (fp_line (start -7 3.5) (end -7.75 3.5) (layer F.Fab) (width 0.1))
  (fp_line (start -7 3) (end -7.75 3) (layer F.Fab) (width 0.1))
  (fp_line (start -7 2.5) (end -7.75 2.5) (layer F.Fab) (width 0.1))
  (fp_line (start -7 2) (end -7.75 2) (layer F.Fab) (width 0.1))
  (fp_line (start -7 1.5) (end -7.75 1.5) (layer F.Fab) (width 0.1))
  (fp_line (start -7 1) (end -7.75 1) (layer F.Fab) (width 0.1))
  (fp_line (start -7 0.5) (end -7.75 0.5) (layer F.Fab) (width 0.1))
  (fp_line (start -7 0) (end -7.75 0) (layer F.Fab) (width 0.1))
  (fp_line (start -7 -0.5) (end -7.75 -0.5) (layer F.Fab) (width 0.1))
  (fp_line (start -7 -1) (end -7.75 -1) (layer F.Fab) (width 0.1))
  (fp_line (start -7 -1.5) (end -7.75 -1.5) (layer F.Fab) (width 0.1))
  (fp_line (start -7 -2) (end -7.75 -2) (layer F.Fab) (width 0.1))
  (fp_line (start -7 -2.5) (end -7.75 -2.5) (layer F.Fab) (width 0.1))
  (fp_line (start -7 -3) (end -7.75 -3) (layer F.Fab) (width 0.1))
  (fp_line (start -7 -3.5) (end -7.75 -3.5) (layer F.Fab) (width 0.1))
  (fp_line (start -7 -4) (end -7.75 -4) (layer F.Fab) (width 0.1))
  (fp_line (start -7 -4.5) (end -7.75 -4.5) (layer F.Fab) (width 0.1))
  (fp_line (start -7 -5) (end -7.75 -5) (layer F.Fab) (width 0.1))
  (fp_line (start -7 -5.5) (end -7.75 -5.5) (layer F.Fab) (width 0.1))
  (fp_line (start -7 -6) (end -7.75 -6) (layer F.Fab) (width 0.1))
  (fp_line (start -7 7) (end 7 7) (layer F.Fab) (width 0.1))
  (fp_line (start 7 7) (end 7 -7) (layer F.Fab) (width 0.1))
  (fp_line (start 7 -7) (end -6.5 -7) (layer F.Fab) (width 0.1))
  (fp_line (start -6.5 -7) (end -7 -6.5) (layer F.Fab) (width 0.1))
  (fp_line (start -7 -6.5) (end -7 7) (layer F.Fab) (width 0.1))
  (fp_line (start -8.462 -5.8603) (end -8.462 -6.1397) (layer F.SilkS) (width 0.02))
  (fp_line (start -8.462 -6.1397) (end -6.938 -6.1397) (layer F.SilkS) (width 0.02))
  (fp_line (start -6.938 -6.1397) (end -6.938 -5.8603) (layer F.SilkS) (width 0.02))
  (fp_line (start -6.938 -5.8603) (end -8.462 -5.8603) (layer F.SilkS) (width 0.02))
  (fp_line (start -8.462 -5.3603) (end -8.462 -5.6397) (layer F.SilkS) (width 0.02))
  (fp_line (start -8.462 -5.6397) (end -6.938 -5.6397) (layer F.SilkS) (width 0.02))
  (fp_line (start -6.938 -5.6397) (end -6.938 -5.3603) (layer F.SilkS) (width 0.02))
  (fp_line (start -6.938 -5.3603) (end -8.462 -5.3603) (layer F.SilkS) (width 0.02))
  (fp_line (start -8.462 -4.8603) (end -8.462 -5.1397) (layer F.SilkS) (width 0.02))
  (fp_line (start -8.462 -5.1397) (end -6.938 -5.1397) (layer F.SilkS) (width 0.02))
  (fp_line (start -6.938 -5.1397) (end -6.938 -4.8603) (layer F.SilkS) (width 0.02))
  (fp_line (start -6.938 -4.8603) (end -8.462 -4.8603) (layer F.SilkS) (width 0.02))
  (fp_line (start -8.462 -4.3603) (end -8.462 -4.6397) (layer F.SilkS) (width 0.02))
  (fp_line (start -8.462 -4.6397) (end -6.938 -4.6397) (layer F.SilkS) (width 0.02))
  (fp_line (start -6.938 -4.6397) (end -6.938 -4.3603) (layer F.SilkS) (width 0.02))
  (fp_line (start -6.938 -4.3603) (end -8.462 -4.3603) (layer F.SilkS) (width 0.02))
  (fp_line (start -8.462 -3.8603) (end -8.462 -4.1397) (layer F.SilkS) (width 0.02))
  (fp_line (start -8.462 -4.1397) (end -6.938 -4.1397) (layer F.SilkS) (width 0.02))
  (fp_line (start -6.938 -4.1397) (end -6.938 -3.8603) (layer F.SilkS) (width 0.02))
  (fp_line (start -6.938 -3.8603) (end -8.462 -3.8603) (layer F.SilkS) (width 0.02))
  (fp_line (start -8.462 -3.3603) (end -8.462 -3.6397) (layer F.SilkS) (width 0.02))
  (fp_line (start -8.462 -3.6397) (end -6.938 -3.6397) (layer F.SilkS) (width 0.02))
  (fp_line (start -6.938 -3.6397) (end -6.938 -3.3603) (layer F.SilkS) (width 0.02))
  (fp_line (start -6.938 -3.3603) (end -8.462 -3.3603) (layer F.SilkS) (width 0.02))
  (fp_line (start -8.462 -2.8603) (end -8.462 -3.1397) (layer F.SilkS) (width 0.02))
  (fp_line (start -8.462 -3.1397) (end -6.938 -3.1397) (layer F.SilkS) (width 0.02))
  (fp_line (start -6.938 -3.1397) (end -6.938 -2.8603) (layer F.SilkS) (width 0.02))
  (fp_line (start -6.938 -2.8603) (end -8.462 -2.8603) (layer F.SilkS) (width 0.02))
  (fp_line (start -8.462 -2.3603) (end -8.462 -2.6397) (layer F.SilkS) (width 0.02))
  (fp_line (start -8.462 -2.6397) (end -6.938 -2.6397) (layer F.SilkS) (width 0.02))
  (fp_line (start -6.938 -2.6397) (end -6.938 -2.3603) (layer F.SilkS) (width 0.02))
  (fp_line (start -6.938 -2.3603) (end -8.462 -2.3603) (layer F.SilkS) (width 0.02))
  (fp_line (start -8.462 -1.8603) (end -8.462 -2.1397) (layer F.SilkS) (width 0.02))
  (fp_line (start -8.462 -2.1397) (end -6.938 -2.1397) (layer F.SilkS) (width 0.02))
  (fp_line (start -6.938 -2.1397) (end -6.938 -1.8603) (layer F.SilkS) (width 0.02))
  (fp_line (start -6.938 -1.8603) (end -8.462 -1.8603) (layer F.SilkS) (width 0.02))
  (fp_line (start -8.462 -1.3603) (end -8.462 -1.6397) (layer F.SilkS) (width 0.02))
  (fp_line (start -8.462 -1.6397) (end -6.938 -1.6397) (layer F.SilkS) (width 0.02))
  (fp_line (start -6.938 -1.6397) (end -6.938 -1.3603) (layer F.SilkS) (width 0.02))
  (fp_line (start -6.938 -1.3603) (end -8.462 -1.3603) (layer F.SilkS) (width 0.02))
  (fp_line (start -8.462 -0.8603) (end -8.462 -1.1397) (layer F.SilkS) (width 0.02))
  (fp_line (start -8.462 -1.1397) (end -6.938 -1.1397) (layer F.SilkS) (width 0.02))
  (fp_line (start -6.938 -1.1397) (end -6.938 -0.8603) (layer F.SilkS) (width 0.02))
  (fp_line (start -6.938 -0.8603) (end -8.462 -0.8603) (layer F.SilkS) (width 0.02))
  (fp_line (start -8.462 -0.3603) (end -8.462 -0.6397) (layer F.SilkS) (width 0.02))
  (fp_line (start -8.462 -0.6397) (end -6.938 -0.6397) (layer F.SilkS) (width 0.02))
  (fp_line (start -6.938 -0.6397) (end -6.938 -0.3603) (layer F.SilkS) (width 0.02))
  (fp_line (start -6.938 -0.3603) (end -8.462 -0.3603) (layer F.SilkS) (width 0.02))
  (fp_line (start -8.462 0.1397) (end -8.462 -0.1397) (layer F.SilkS) (width 0.02))
  (fp_line (start -8.462 -0.1397) (end -6.938 -0.1397) (layer F.SilkS) (width 0.02))
  (fp_line (start -6.938 -0.1397) (end -6.938 0.1397) (layer F.SilkS) (width 0.02))
  (fp_line (start -6.938 0.1397) (end -8.462 0.1397) (layer F.SilkS) (width 0.02))
  (fp_line (start -8.462 0.6397) (end -8.462 0.3603) (layer F.SilkS) (width 0.02))
  (fp_line (start -8.462 0.3603) (end -6.938 0.3603) (layer F.SilkS) (width 0.02))
  (fp_line (start -6.938 0.3603) (end -6.938 0.6397) (layer F.SilkS) (width 0.02))
  (fp_line (start -6.938 0.6397) (end -8.462 0.6397) (layer F.SilkS) (width 0.02))
  (fp_line (start -8.462 1.1397) (end -8.462 0.8603) (layer F.SilkS) (width 0.02))
  (fp_line (start -8.462 0.8603) (end -6.938 0.8603) (layer F.SilkS) (width 0.02))
  (fp_line (start -6.938 0.8603) (end -6.938 1.1397) (layer F.SilkS) (width 0.02))
  (fp_line (start -6.938 1.1397) (end -8.462 1.1397) (layer F.SilkS) (width 0.02))
  (fp_line (start -8.462 1.6397) (end -8.462 1.3603) (layer F.SilkS) (width 0.02))
  (fp_line (start -8.462 1.3603) (end -6.938 1.3603) (layer F.SilkS) (width 0.02))
  (fp_line (start -6.938 1.3603) (end -6.938 1.6397) (layer F.SilkS) (width 0.02))
  (fp_line (start -6.938 1.6397) (end -8.462 1.6397) (layer F.SilkS) (width 0.02))
  (fp_line (start -8.462 2.1397) (end -8.462 1.8603) (layer F.SilkS) (width 0.02))
  (fp_line (start -8.462 1.8603) (end -6.938 1.8603) (layer F.SilkS) (width 0.02))
  (fp_line (start -6.938 1.8603) (end -6.938 2.1397) (layer F.SilkS) (width 0.02))
  (fp_line (start -6.938 2.1397) (end -8.462 2.1397) (layer F.SilkS) (width 0.02))
  (fp_line (start -8.462 2.6397) (end -8.462 2.3603) (layer F.SilkS) (width 0.02))
  (fp_line (start -8.462 2.3603) (end -6.938 2.3603) (layer F.SilkS) (width 0.02))
  (fp_line (start -6.938 2.3603) (end -6.938 2.6397) (layer F.SilkS) (width 0.02))
  (fp_line (start -6.938 2.6397) (end -8.462 2.6397) (layer F.SilkS) (width 0.02))
  (fp_line (start -8.462 3.1397) (end -8.462 2.8603) (layer F.SilkS) (width 0.02))
  (fp_line (start -8.462 2.8603) (end -6.938 2.8603) (layer F.SilkS) (width 0.02))
  (fp_line (start -6.938 2.8603) (end -6.938 3.1397) (layer F.SilkS) (width 0.02))
  (fp_line (start -6.938 3.1397) (end -8.462 3.1397) (layer F.SilkS) (width 0.02))
  (fp_line (start -8.462 3.6397) (end -8.462 3.3603) (layer F.SilkS) (width 0.02))
  (fp_line (start -8.462 3.3603) (end -6.938 3.3603) (layer F.SilkS) (width 0.02))
  (fp_line (start -6.938 3.3603) (end -6.938 3.6397) (layer F.SilkS) (width 0.02))
  (fp_line (start -6.938 3.6397) (end -8.462 3.6397) (layer F.SilkS) (width 0.02))
  (fp_line (start -8.462 4.1397) (end -8.462 3.8603) (layer F.SilkS) (width 0.02))
  (fp_line (start -8.462 3.8603) (end -6.938 3.8603) (layer F.SilkS) (width 0.02))
  (fp_line (start -6.938 3.8603) (end -6.938 4.1397) (layer F.SilkS) (width 0.02))
  (fp_line (start -6.938 4.1397) (end -8.462 4.1397) (layer F.SilkS) (width 0.02))
  (fp_line (start -8.462 4.6397) (end -8.462 4.3603) (layer F.SilkS) (width 0.02))
  (fp_line (start -8.462 4.3603) (end -6.938 4.3603) (layer F.SilkS) (width 0.02))
  (fp_line (start -6.938 4.3603) (end -6.938 4.6397) (layer F.SilkS) (width 0.02))
  (fp_line (start -6.938 4.6397) (end -8.462 4.6397) (layer F.SilkS) (width 0.02))
  (fp_line (start -8.462 5.1397) (end -8.462 4.8603) (layer F.SilkS) (width 0.02))
  (fp_line (start -8.462 4.8603) (end -6.938 4.8603) (layer F.SilkS) (width 0.02))
  (fp_line (start -6.938 4.8603) (end -6.938 5.1397) (layer F.SilkS) (width 0.02))
  (fp_line (start -6.938 5.1397) (end -8.462 5.1397) (layer F.SilkS) (width 0.02))
  (fp_line (start -8.462 5.6397) (end -8.462 5.3603) (layer F.SilkS) (width 0.02))
  (fp_line (start -8.462 5.3603) (end -6.938 5.3603) (layer F.SilkS) (width 0.02))
  (fp_line (start -6.938 5.3603) (end -6.938 5.6397) (layer F.SilkS) (width 0.02))
  (fp_line (start -6.938 5.6397) (end -8.462 5.6397) (layer F.SilkS) (width 0.02))
  (fp_line (start -8.462 6.1397) (end -8.462 5.8603) (layer F.SilkS) (width 0.02))
  (fp_line (start -8.462 5.8603) (end -6.938 5.8603) (layer F.SilkS) (width 0.02))
  (fp_line (start -6.938 5.8603) (end -6.938 6.1397) (layer F.SilkS) (width 0.02))
  (fp_line (start -6.938 6.1397) (end -8.462 6.1397) (layer F.SilkS) (width 0.02))
  (fp_line (start -6.1397 8.462) (end -6.1397 6.938) (layer F.SilkS) (width 0.02))
  (fp_line (start -6.1397 6.938) (end -5.8603 6.938) (layer F.SilkS) (width 0.02))
  (fp_line (start -5.8603 6.938) (end -5.8603 8.462) (layer F.SilkS) (width 0.02))
  (fp_line (start -5.8603 8.462) (end -6.1397 8.462) (layer F.SilkS) (width 0.02))
  (fp_line (start -5.6397 8.462) (end -5.6397 6.938) (layer F.SilkS) (width 0.02))
  (fp_line (start -5.6397 6.938) (end -5.3603 6.938) (layer F.SilkS) (width 0.02))
  (fp_line (start -5.3603 6.938) (end -5.3603 8.462) (layer F.SilkS) (width 0.02))
  (fp_line (start -5.3603 8.462) (end -5.6397 8.462) (layer F.SilkS) (width 0.02))
  (fp_line (start -5.1397 8.462) (end -5.1397 6.938) (layer F.SilkS) (width 0.02))
  (fp_line (start -5.1397 6.938) (end -4.8603 6.938) (layer F.SilkS) (width 0.02))
  (fp_line (start -4.8603 6.938) (end -4.8603 8.462) (layer F.SilkS) (width 0.02))
  (fp_line (start -4.8603 8.462) (end -5.1397 8.462) (layer F.SilkS) (width 0.02))
  (fp_line (start -4.6397 8.462) (end -4.6397 6.938) (layer F.SilkS) (width 0.02))
  (fp_line (start -4.6397 6.938) (end -4.3603 6.938) (layer F.SilkS) (width 0.02))
  (fp_line (start -4.3603 6.938) (end -4.3603 8.462) (layer F.SilkS) (width 0.02))
  (fp_line (start -4.3603 8.462) (end -4.6397 8.462) (layer F.SilkS) (width 0.02))
  (fp_line (start -4.1397 8.462) (end -4.1397 6.938) (layer F.SilkS) (width 0.02))
  (fp_line (start -4.1397 6.938) (end -3.8603 6.938) (layer F.SilkS) (width 0.02))
  (fp_line (start -3.8603 6.938) (end -3.8603 8.462) (layer F.SilkS) (width 0.02))
  (fp_line (start -3.8603 8.462) (end -4.1397 8.462) (layer F.SilkS) (width 0.02))
  (fp_line (start -3.6397 8.462) (end -3.6397 6.938) (layer F.SilkS) (width 0.02))
  (fp_line (start -3.6397 6.938) (end -3.3603 6.938) (layer F.SilkS) (width 0.02))
  (fp_line (start -3.3603 6.938) (end -3.3603 8.462) (layer F.SilkS) (width 0.02))
  (fp_line (start -3.3603 8.462) (end -3.6397 8.462) (layer F.SilkS) (width 0.02))
  (fp_line (start -3.1397 8.462) (end -3.1397 6.938) (layer F.SilkS) (width 0.02))
  (fp_line (start -3.1397 6.938) (end -2.8603 6.938) (layer F.SilkS) (width 0.02))
  (fp_line (start -2.8603 6.938) (end -2.8603 8.462) (layer F.SilkS) (width 0.02))
  (fp_line (start -2.8603 8.462) (end -3.1397 8.462) (layer F.SilkS) (width 0.02))
  (fp_line (start -2.6397 8.462) (end -2.6397 6.938) (layer F.SilkS) (width 0.02))
  (fp_line (start -2.6397 6.938) (end -2.3603 6.938) (layer F.SilkS) (width 0.02))
  (fp_line (start -2.3603 6.938) (end -2.3603 8.462) (layer F.SilkS) (width 0.02))
  (fp_line (start -2.3603 8.462) (end -2.6397 8.462) (layer F.SilkS) (width 0.02))
  (fp_line (start -2.1397 8.462) (end -2.1397 6.938) (layer F.SilkS) (width 0.02))
  (fp_line (start -2.1397 6.938) (end -1.8603 6.938) (layer F.SilkS) (width 0.02))
  (fp_line (start -1.8603 6.938) (end -1.8603 8.462) (layer F.SilkS) (width 0.02))
  (fp_line (start -1.8603 8.462) (end -2.1397 8.462) (layer F.SilkS) (width 0.02))
  (fp_line (start -1.6397 8.462) (end -1.6397 6.938) (layer F.SilkS) (width 0.02))
  (fp_line (start -1.6397 6.938) (end -1.3603 6.938) (layer F.SilkS) (width 0.02))
  (fp_line (start -1.3603 6.938) (end -1.3603 8.462) (layer F.SilkS) (width 0.02))
  (fp_line (start -1.3603 8.462) (end -1.6397 8.462) (layer F.SilkS) (width 0.02))
  (fp_line (start -1.1397 8.462) (end -1.1397 6.938) (layer F.SilkS) (width 0.02))
  (fp_line (start -1.1397 6.938) (end -0.8603 6.938) (layer F.SilkS) (width 0.02))
  (fp_line (start -0.8603 6.938) (end -0.8603 8.462) (layer F.SilkS) (width 0.02))
  (fp_line (start -0.8603 8.462) (end -1.1397 8.462) (layer F.SilkS) (width 0.02))
  (fp_line (start -0.6397 8.462) (end -0.6397 6.938) (layer F.SilkS) (width 0.02))
  (fp_line (start -0.6397 6.938) (end -0.3603 6.938) (layer F.SilkS) (width 0.02))
  (fp_line (start -0.3603 6.938) (end -0.3603 8.462) (layer F.SilkS) (width 0.02))
  (fp_line (start -0.3603 8.462) (end -0.6397 8.462) (layer F.SilkS) (width 0.02))
  (fp_line (start -0.1397 8.462) (end -0.1397 6.938) (layer F.SilkS) (width 0.02))
  (fp_line (start -0.1397 6.938) (end 0.1397 6.938) (layer F.SilkS) (width 0.02))
  (fp_line (start 0.1397 6.938) (end 0.1397 8.462) (layer F.SilkS) (width 0.02))
  (fp_line (start 0.1397 8.462) (end -0.1397 8.462) (layer F.SilkS) (width 0.02))
  (fp_line (start 0.3603 8.462) (end 0.3603 6.938) (layer F.SilkS) (width 0.02))
  (fp_line (start 0.3603 6.938) (end 0.6397 6.938) (layer F.SilkS) (width 0.02))
  (fp_line (start 0.6397 6.938) (end 0.6397 8.462) (layer F.SilkS) (width 0.02))
  (fp_line (start 0.6397 8.462) (end 0.3603 8.462) (layer F.SilkS) (width 0.02))
  (fp_line (start 0.8603 8.462) (end 0.8603 6.938) (layer F.SilkS) (width 0.02))
  (fp_line (start 0.8603 6.938) (end 1.1397 6.938) (layer F.SilkS) (width 0.02))
  (fp_line (start 1.1397 6.938) (end 1.1397 8.462) (layer F.SilkS) (width 0.02))
  (fp_line (start 1.1397 8.462) (end 0.8603 8.462) (layer F.SilkS) (width 0.02))
  (fp_line (start 1.3603 8.462) (end 1.3603 6.938) (layer F.SilkS) (width 0.02))
  (fp_line (start 1.3603 6.938) (end 1.6397 6.938) (layer F.SilkS) (width 0.02))
  (fp_line (start 1.6397 6.938) (end 1.6397 8.462) (layer F.SilkS) (width 0.02))
  (fp_line (start 1.6397 8.462) (end 1.3603 8.462) (layer F.SilkS) (width 0.02))
  (fp_line (start 1.8603 8.462) (end 1.8603 6.938) (layer F.SilkS) (width 0.02))
  (fp_line (start 1.8603 6.938) (end 2.1397 6.938) (layer F.SilkS) (width 0.02))
  (fp_line (start 2.1397 6.938) (end 2.1397 8.462) (layer F.SilkS) (width 0.02))
  (fp_line (start 2.1397 8.462) (end 1.8603 8.462) (layer F.SilkS) (width 0.02))
  (fp_line (start 2.3603 8.462) (end 2.3603 6.938) (layer F.SilkS) (width 0.02))
  (fp_line (start 2.3603 6.938) (end 2.6397 6.938) (layer F.SilkS) (width 0.02))
  (fp_line (start 2.6397 6.938) (end 2.6397 8.462) (layer F.SilkS) (width 0.02))
  (fp_line (start 2.6397 8.462) (end 2.3603 8.462) (layer F.SilkS) (width 0.02))
  (fp_line (start 2.8603 8.462) (end 2.8603 6.938) (layer F.SilkS) (width 0.02))
  (fp_line (start 2.8603 6.938) (end 3.1397 6.938) (layer F.SilkS) (width 0.02))
  (fp_line (start 3.1397 6.938) (end 3.1397 8.462) (layer F.SilkS) (width 0.02))
  (fp_line (start 3.1397 8.462) (end 2.8603 8.462) (layer F.SilkS) (width 0.02))
  (fp_line (start 3.3603 8.462) (end 3.3603 6.938) (layer F.SilkS) (width 0.02))
  (fp_line (start 3.3603 6.938) (end 3.6397 6.938) (layer F.SilkS) (width 0.02))
  (fp_line (start 3.6397 6.938) (end 3.6397 8.462) (layer F.SilkS) (width 0.02))
  (fp_line (start 3.6397 8.462) (end 3.3603 8.462) (layer F.SilkS) (width 0.02))
  (fp_line (start 3.8603 8.462) (end 3.8603 6.938) (layer F.SilkS) (width 0.02))
  (fp_line (start 3.8603 6.938) (end 4.1397 6.938) (layer F.SilkS) (width 0.02))
  (fp_line (start 4.1397 6.938) (end 4.1397 8.462) (layer F.SilkS) (width 0.02))
  (fp_line (start 4.1397 8.462) (end 3.8603 8.462) (layer F.SilkS) (width 0.02))
  (fp_line (start 4.3603 8.462) (end 4.3603 6.938) (layer F.SilkS) (width 0.02))
  (fp_line (start 4.3603 6.938) (end 4.6397 6.938) (layer F.SilkS) (width 0.02))
  (fp_line (start 4.6397 6.938) (end 4.6397 8.462) (layer F.SilkS) (width 0.02))
  (fp_line (start 4.6397 8.462) (end 4.3603 8.462) (layer F.SilkS) (width 0.02))
  (fp_line (start 4.8603 8.462) (end 4.8603 6.938) (layer F.SilkS) (width 0.02))
  (fp_line (start 4.8603 6.938) (end 5.1397 6.938) (layer F.SilkS) (width 0.02))
  (fp_line (start 5.1397 6.938) (end 5.1397 8.462) (layer F.SilkS) (width 0.02))
  (fp_line (start 5.1397 8.462) (end 4.8603 8.462) (layer F.SilkS) (width 0.02))
  (fp_line (start 5.3603 8.462) (end 5.3603 6.938) (layer F.SilkS) (width 0.02))
  (fp_line (start 5.3603 6.938) (end 5.6397 6.938) (layer F.SilkS) (width 0.02))
  (fp_line (start 5.6397 6.938) (end 5.6397 8.462) (layer F.SilkS) (width 0.02))
  (fp_line (start 5.6397 8.462) (end 5.3603 8.462) (layer F.SilkS) (width 0.02))
  (fp_line (start 5.8603 8.462) (end 5.8603 6.938) (layer F.SilkS) (width 0.02))
  (fp_line (start 5.8603 6.938) (end 6.1397 6.938) (layer F.SilkS) (width 0.02))
  (fp_line (start 6.1397 6.938) (end 6.1397 8.462) (layer F.SilkS) (width 0.02))
  (fp_line (start 6.1397 8.462) (end 5.8603 8.462) (layer F.SilkS) (width 0.02))
  (fp_line (start 6.938 6.1397) (end 6.938 5.8603) (layer F.SilkS) (width 0.02))
  (fp_line (start 6.938 5.8603) (end 8.462 5.8603) (layer F.SilkS) (width 0.02))
  (fp_line (start 8.462 5.8603) (end 8.462 6.1397) (layer F.SilkS) (width 0.02))
  (fp_line (start 8.462 6.1397) (end 6.938 6.1397) (layer F.SilkS) (width 0.02))
  (fp_line (start 6.938 5.6397) (end 6.938 5.3603) (layer F.SilkS) (width 0.02))
  (fp_line (start 6.938 5.3603) (end 8.462 5.3603) (layer F.SilkS) (width 0.02))
  (fp_line (start 8.462 5.3603) (end 8.462 5.6397) (layer F.SilkS) (width 0.02))
  (fp_line (start 8.462 5.6397) (end 6.938 5.6397) (layer F.SilkS) (width 0.02))
  (fp_line (start 6.938 5.1397) (end 6.938 4.8603) (layer F.SilkS) (width 0.02))
  (fp_line (start 6.938 4.8603) (end 8.462 4.8603) (layer F.SilkS) (width 0.02))
  (fp_line (start 8.462 4.8603) (end 8.462 5.1397) (layer F.SilkS) (width 0.02))
  (fp_line (start 8.462 5.1397) (end 6.938 5.1397) (layer F.SilkS) (width 0.02))
  (fp_line (start 6.938 4.6397) (end 6.938 4.3603) (layer F.SilkS) (width 0.02))
  (fp_line (start 6.938 4.3603) (end 8.462 4.3603) (layer F.SilkS) (width 0.02))
  (fp_line (start 8.462 4.3603) (end 8.462 4.6397) (layer F.SilkS) (width 0.02))
  (fp_line (start 8.462 4.6397) (end 6.938 4.6397) (layer F.SilkS) (width 0.02))
  (fp_line (start 6.938 4.1397) (end 6.938 3.8603) (layer F.SilkS) (width 0.02))
  (fp_line (start 6.938 3.8603) (end 8.462 3.8603) (layer F.SilkS) (width 0.02))
  (fp_line (start 8.462 3.8603) (end 8.462 4.1397) (layer F.SilkS) (width 0.02))
  (fp_line (start 8.462 4.1397) (end 6.938 4.1397) (layer F.SilkS) (width 0.02))
  (fp_line (start 6.938 3.6397) (end 6.938 3.3603) (layer F.SilkS) (width 0.02))
  (fp_line (start 6.938 3.3603) (end 8.462 3.3603) (layer F.SilkS) (width 0.02))
  (fp_line (start 8.462 3.3603) (end 8.462 3.6397) (layer F.SilkS) (width 0.02))
  (fp_line (start 8.462 3.6397) (end 6.938 3.6397) (layer F.SilkS) (width 0.02))
  (fp_line (start 6.938 3.1397) (end 6.938 2.8603) (layer F.SilkS) (width 0.02))
  (fp_line (start 6.938 2.8603) (end 8.462 2.8603) (layer F.SilkS) (width 0.02))
  (fp_line (start 8.462 2.8603) (end 8.462 3.1397) (layer F.SilkS) (width 0.02))
  (fp_line (start 8.462 3.1397) (end 6.938 3.1397) (layer F.SilkS) (width 0.02))
  (fp_line (start 6.938 2.6397) (end 6.938 2.3603) (layer F.SilkS) (width 0.02))
  (fp_line (start 6.938 2.3603) (end 8.462 2.3603) (layer F.SilkS) (width 0.02))
  (fp_line (start 8.462 2.3603) (end 8.462 2.6397) (layer F.SilkS) (width 0.02))
  (fp_line (start 8.462 2.6397) (end 6.938 2.6397) (layer F.SilkS) (width 0.02))
  (fp_line (start 6.938 2.1397) (end 6.938 1.8603) (layer F.SilkS) (width 0.02))
  (fp_line (start 6.938 1.8603) (end 8.462 1.8603) (layer F.SilkS) (width 0.02))
  (fp_line (start 8.462 1.8603) (end 8.462 2.1397) (layer F.SilkS) (width 0.02))
  (fp_line (start 8.462 2.1397) (end 6.938 2.1397) (layer F.SilkS) (width 0.02))
  (fp_line (start 6.938 1.6397) (end 6.938 1.3603) (layer F.SilkS) (width 0.02))
  (fp_line (start 6.938 1.3603) (end 8.462 1.3603) (layer F.SilkS) (width 0.02))
  (fp_line (start 8.462 1.3603) (end 8.462 1.6397) (layer F.SilkS) (width 0.02))
  (fp_line (start 8.462 1.6397) (end 6.938 1.6397) (layer F.SilkS) (width 0.02))
  (fp_line (start 6.938 1.1397) (end 6.938 0.8603) (layer F.SilkS) (width 0.02))
  (fp_line (start 6.938 0.8603) (end 8.462 0.8603) (layer F.SilkS) (width 0.02))
  (fp_line (start 8.462 0.8603) (end 8.462 1.1397) (layer F.SilkS) (width 0.02))
  (fp_line (start 8.462 1.1397) (end 6.938 1.1397) (layer F.SilkS) (width 0.02))
  (fp_line (start 6.938 0.6397) (end 6.938 0.3603) (layer F.SilkS) (width 0.02))
  (fp_line (start 6.938 0.3603) (end 8.462 0.3603) (layer F.SilkS) (width 0.02))
  (fp_line (start 8.462 0.3603) (end 8.462 0.6397) (layer F.SilkS) (width 0.02))
  (fp_line (start 8.462 0.6397) (end 6.938 0.6397) (layer F.SilkS) (width 0.02))
  (fp_line (start 6.938 0.1397) (end 6.938 -0.1397) (layer F.SilkS) (width 0.02))
  (fp_line (start 6.938 -0.1397) (end 8.462 -0.1397) (layer F.SilkS) (width 0.02))
  (fp_line (start 8.462 -0.1397) (end 8.462 0.1397) (layer F.SilkS) (width 0.02))
  (fp_line (start 8.462 0.1397) (end 6.938 0.1397) (layer F.SilkS) (width 0.02))
  (fp_line (start 6.938 -0.3603) (end 6.938 -0.6397) (layer F.SilkS) (width 0.02))
  (fp_line (start 6.938 -0.6397) (end 8.462 -0.6397) (layer F.SilkS) (width 0.02))
  (fp_line (start 8.462 -0.6397) (end 8.462 -0.3603) (layer F.SilkS) (width 0.02))
  (fp_line (start 8.462 -0.3603) (end 6.938 -0.3603) (layer F.SilkS) (width 0.02))
  (fp_line (start 6.938 -0.8603) (end 6.938 -1.1397) (layer F.SilkS) (width 0.02))
  (fp_line (start 6.938 -1.1397) (end 8.462 -1.1397) (layer F.SilkS) (width 0.02))
  (fp_line (start 8.462 -1.1397) (end 8.462 -0.8603) (layer F.SilkS) (width 0.02))
  (fp_line (start 8.462 -0.8603) (end 6.938 -0.8603) (layer F.SilkS) (width 0.02))
  (fp_line (start 6.938 -1.3603) (end 6.938 -1.6397) (layer F.SilkS) (width 0.02))
  (fp_line (start 6.938 -1.6397) (end 8.462 -1.6397) (layer F.SilkS) (width 0.02))
  (fp_line (start 8.462 -1.6397) (end 8.462 -1.3603) (layer F.SilkS) (width 0.02))
  (fp_line (start 8.462 -1.3603) (end 6.938 -1.3603) (layer F.SilkS) (width 0.02))
  (fp_line (start 6.938 -1.8603) (end 6.938 -2.1397) (layer F.SilkS) (width 0.02))
  (fp_line (start 6.938 -2.1397) (end 8.462 -2.1397) (layer F.SilkS) (width 0.02))
  (fp_line (start 8.462 -2.1397) (end 8.462 -1.8603) (layer F.SilkS) (width 0.02))
  (fp_line (start 8.462 -1.8603) (end 6.938 -1.8603) (layer F.SilkS) (width 0.02))
  (fp_line (start 6.938 -2.3603) (end 6.938 -2.6397) (layer F.SilkS) (width 0.02))
  (fp_line (start 6.938 -2.6397) (end 8.462 -2.6397) (layer F.SilkS) (width 0.02))
  (fp_line (start 8.462 -2.6397) (end 8.462 -2.3603) (layer F.SilkS) (width 0.02))
  (fp_line (start 8.462 -2.3603) (end 6.938 -2.3603) (layer F.SilkS) (width 0.02))
  (fp_line (start 6.938 -2.8603) (end 6.938 -3.1397) (layer F.SilkS) (width 0.02))
  (fp_line (start 6.938 -3.1397) (end 8.462 -3.1397) (layer F.SilkS) (width 0.02))
  (fp_line (start 8.462 -3.1397) (end 8.462 -2.8603) (layer F.SilkS) (width 0.02))
  (fp_line (start 8.462 -2.8603) (end 6.938 -2.8603) (layer F.SilkS) (width 0.02))
  (fp_line (start 6.938 -3.3603) (end 6.938 -3.6397) (layer F.SilkS) (width 0.02))
  (fp_line (start 6.938 -3.6397) (end 8.462 -3.6397) (layer F.SilkS) (width 0.02))
  (fp_line (start 8.462 -3.6397) (end 8.462 -3.3603) (layer F.SilkS) (width 0.02))
  (fp_line (start 8.462 -3.3603) (end 6.938 -3.3603) (layer F.SilkS) (width 0.02))
  (fp_line (start 6.938 -3.8603) (end 6.938 -4.1397) (layer F.SilkS) (width 0.02))
  (fp_line (start 6.938 -4.1397) (end 8.462 -4.1397) (layer F.SilkS) (width 0.02))
  (fp_line (start 8.462 -4.1397) (end 8.462 -3.8603) (layer F.SilkS) (width 0.02))
  (fp_line (start 8.462 -3.8603) (end 6.938 -3.8603) (layer F.SilkS) (width 0.02))
  (fp_line (start 6.938 -4.3603) (end 6.938 -4.6397) (layer F.SilkS) (width 0.02))
  (fp_line (start 6.938 -4.6397) (end 8.462 -4.6397) (layer F.SilkS) (width 0.02))
  (fp_line (start 8.462 -4.6397) (end 8.462 -4.3603) (layer F.SilkS) (width 0.02))
  (fp_line (start 8.462 -4.3603) (end 6.938 -4.3603) (layer F.SilkS) (width 0.02))
  (fp_line (start 6.938 -4.8603) (end 6.938 -5.1397) (layer F.SilkS) (width 0.02))
  (fp_line (start 6.938 -5.1397) (end 8.462 -5.1397) (layer F.SilkS) (width 0.02))
  (fp_line (start 8.462 -5.1397) (end 8.462 -4.8603) (layer F.SilkS) (width 0.02))
  (fp_line (start 8.462 -4.8603) (end 6.938 -4.8603) (layer F.SilkS) (width 0.02))
  (fp_line (start 6.938 -5.3603) (end 6.938 -5.6397) (layer F.SilkS) (width 0.02))
  (fp_line (start 6.938 -5.6397) (end 8.462 -5.6397) (layer F.SilkS) (width 0.02))
  (fp_line (start 8.462 -5.6397) (end 8.462 -5.3603) (layer F.SilkS) (width 0.02))
  (fp_line (start 8.462 -5.3603) (end 6.938 -5.3603) (layer F.SilkS) (width 0.02))
  (fp_line (start 6.938 -5.8603) (end 6.938 -6.1397) (layer F.SilkS) (width 0.02))
  (fp_line (start 6.938 -6.1397) (end 8.462 -6.1397) (layer F.SilkS) (width 0.02))
  (fp_line (start 8.462 -6.1397) (end 8.462 -5.8603) (layer F.SilkS) (width 0.02))
  (fp_line (start 8.462 -5.8603) (end 6.938 -5.8603) (layer F.SilkS) (width 0.02))
  (fp_line (start 5.8603 -6.938) (end 5.8603 -8.462) (layer F.SilkS) (width 0.02))
  (fp_line (start 5.8603 -8.462) (end 6.1397 -8.462) (layer F.SilkS) (width 0.02))
  (fp_line (start 6.1397 -8.462) (end 6.1397 -6.938) (layer F.SilkS) (width 0.02))
  (fp_line (start 6.1397 -6.938) (end 5.8603 -6.938) (layer F.SilkS) (width 0.02))
  (fp_line (start 5.3603 -6.938) (end 5.3603 -8.462) (layer F.SilkS) (width 0.02))
  (fp_line (start 5.3603 -8.462) (end 5.6397 -8.462) (layer F.SilkS) (width 0.02))
  (fp_line (start 5.6397 -8.462) (end 5.6397 -6.938) (layer F.SilkS) (width 0.02))
  (fp_line (start 5.6397 -6.938) (end 5.3603 -6.938) (layer F.SilkS) (width 0.02))
  (fp_line (start 4.8603 -6.938) (end 4.8603 -8.462) (layer F.SilkS) (width 0.02))
  (fp_line (start 4.8603 -8.462) (end 5.1397 -8.462) (layer F.SilkS) (width 0.02))
  (fp_line (start 5.1397 -8.462) (end 5.1397 -6.938) (layer F.SilkS) (width 0.02))
  (fp_line (start 5.1397 -6.938) (end 4.8603 -6.938) (layer F.SilkS) (width 0.02))
  (fp_line (start 4.3603 -6.938) (end 4.3603 -8.462) (layer F.SilkS) (width 0.02))
  (fp_line (start 4.3603 -8.462) (end 4.6397 -8.462) (layer F.SilkS) (width 0.02))
  (fp_line (start 4.6397 -8.462) (end 4.6397 -6.938) (layer F.SilkS) (width 0.02))
  (fp_line (start 4.6397 -6.938) (end 4.3603 -6.938) (layer F.SilkS) (width 0.02))
  (fp_line (start 3.8603 -6.938) (end 3.8603 -8.462) (layer F.SilkS) (width 0.02))
  (fp_line (start 3.8603 -8.462) (end 4.1397 -8.462) (layer F.SilkS) (width 0.02))
  (fp_line (start 4.1397 -8.462) (end 4.1397 -6.938) (layer F.SilkS) (width 0.02))
  (fp_line (start 4.1397 -6.938) (end 3.8603 -6.938) (layer F.SilkS) (width 0.02))
  (fp_line (start 3.3603 -6.938) (end 3.3603 -8.462) (layer F.SilkS) (width 0.02))
  (fp_line (start 3.3603 -8.462) (end 3.6397 -8.462) (layer F.SilkS) (width 0.02))
  (fp_line (start 3.6397 -8.462) (end 3.6397 -6.938) (layer F.SilkS) (width 0.02))
  (fp_line (start 3.6397 -6.938) (end 3.3603 -6.938) (layer F.SilkS) (width 0.02))
  (fp_line (start 2.8603 -6.938) (end 2.8603 -8.462) (layer F.SilkS) (width 0.02))
  (fp_line (start 2.8603 -8.462) (end 3.1397 -8.462) (layer F.SilkS) (width 0.02))
  (fp_line (start 3.1397 -8.462) (end 3.1397 -6.938) (layer F.SilkS) (width 0.02))
  (fp_line (start 3.1397 -6.938) (end 2.8603 -6.938) (layer F.SilkS) (width 0.02))
  (fp_line (start 2.3603 -6.938) (end 2.3603 -8.462) (layer F.SilkS) (width 0.02))
  (fp_line (start 2.3603 -8.462) (end 2.6397 -8.462) (layer F.SilkS) (width 0.02))
  (fp_line (start 2.6397 -8.462) (end 2.6397 -6.938) (layer F.SilkS) (width 0.02))
  (fp_line (start 2.6397 -6.938) (end 2.3603 -6.938) (layer F.SilkS) (width 0.02))
  (fp_line (start 1.8603 -6.938) (end 1.8603 -8.462) (layer F.SilkS) (width 0.02))
  (fp_line (start 1.8603 -8.462) (end 2.1397 -8.462) (layer F.SilkS) (width 0.02))
  (fp_line (start 2.1397 -8.462) (end 2.1397 -6.938) (layer F.SilkS) (width 0.02))
  (fp_line (start 2.1397 -6.938) (end 1.8603 -6.938) (layer F.SilkS) (width 0.02))
  (fp_line (start 1.3603 -6.938) (end 1.3603 -8.462) (layer F.SilkS) (width 0.02))
  (fp_line (start 1.3603 -8.462) (end 1.6397 -8.462) (layer F.SilkS) (width 0.02))
  (fp_line (start 1.6397 -8.462) (end 1.6397 -6.938) (layer F.SilkS) (width 0.02))
  (fp_line (start 1.6397 -6.938) (end 1.3603 -6.938) (layer F.SilkS) (width 0.02))
  (fp_line (start 0.8603 -6.938) (end 0.8603 -8.462) (layer F.SilkS) (width 0.02))
  (fp_line (start 0.8603 -8.462) (end 1.1397 -8.462) (layer F.SilkS) (width 0.02))
  (fp_line (start 1.1397 -8.462) (end 1.1397 -6.938) (layer F.SilkS) (width 0.02))
  (fp_line (start 1.1397 -6.938) (end 0.8603 -6.938) (layer F.SilkS) (width 0.02))
  (fp_line (start 0.3603 -6.938) (end 0.3603 -8.462) (layer F.SilkS) (width 0.02))
  (fp_line (start 0.3603 -8.462) (end 0.6397 -8.462) (layer F.SilkS) (width 0.02))
  (fp_line (start 0.6397 -8.462) (end 0.6397 -6.938) (layer F.SilkS) (width 0.02))
  (fp_line (start 0.6397 -6.938) (end 0.3603 -6.938) (layer F.SilkS) (width 0.02))
  (fp_line (start -0.1397 -6.938) (end -0.1397 -8.462) (layer F.SilkS) (width 0.02))
  (fp_line (start -0.1397 -8.462) (end 0.1397 -8.462) (layer F.SilkS) (width 0.02))
  (fp_line (start 0.1397 -8.462) (end 0.1397 -6.938) (layer F.SilkS) (width 0.02))
  (fp_line (start 0.1397 -6.938) (end -0.1397 -6.938) (layer F.SilkS) (width 0.02))
  (fp_line (start -0.6397 -6.938) (end -0.6397 -8.462) (layer F.SilkS) (width 0.02))
  (fp_line (start -0.6397 -8.462) (end -0.3603 -8.462) (layer F.SilkS) (width 0.02))
  (fp_line (start -0.3603 -8.462) (end -0.3603 -6.938) (layer F.SilkS) (width 0.02))
  (fp_line (start -0.3603 -6.938) (end -0.6397 -6.938) (layer F.SilkS) (width 0.02))
  (fp_line (start -1.1397 -6.938) (end -1.1397 -8.462) (layer F.SilkS) (width 0.02))
  (fp_line (start -1.1397 -8.462) (end -0.8603 -8.462) (layer F.SilkS) (width 0.02))
  (fp_line (start -0.8603 -8.462) (end -0.8603 -6.938) (layer F.SilkS) (width 0.02))
  (fp_line (start -0.8603 -6.938) (end -1.1397 -6.938) (layer F.SilkS) (width 0.02))
  (fp_line (start -1.6397 -6.938) (end -1.6397 -8.462) (layer F.SilkS) (width 0.02))
  (fp_line (start -1.6397 -8.462) (end -1.3603 -8.462) (layer F.SilkS) (width 0.02))
  (fp_line (start -1.3603 -8.462) (end -1.3603 -6.938) (layer F.SilkS) (width 0.02))
  (fp_line (start -1.3603 -6.938) (end -1.6397 -6.938) (layer F.SilkS) (width 0.02))
  (fp_line (start -2.1397 -6.938) (end -2.1397 -8.462) (layer F.SilkS) (width 0.02))
  (fp_line (start -2.1397 -8.462) (end -1.8603 -8.462) (layer F.SilkS) (width 0.02))
  (fp_line (start -1.8603 -8.462) (end -1.8603 -6.938) (layer F.SilkS) (width 0.02))
  (fp_line (start -1.8603 -6.938) (end -2.1397 -6.938) (layer F.SilkS) (width 0.02))
  (fp_line (start -2.6397 -6.938) (end -2.6397 -8.462) (layer F.SilkS) (width 0.02))
  (fp_line (start -2.6397 -8.462) (end -2.3603 -8.462) (layer F.SilkS) (width 0.02))
  (fp_line (start -2.3603 -8.462) (end -2.3603 -6.938) (layer F.SilkS) (width 0.02))
  (fp_line (start -2.3603 -6.938) (end -2.6397 -6.938) (layer F.SilkS) (width 0.02))
  (fp_line (start -3.1397 -6.938) (end -3.1397 -8.462) (layer F.SilkS) (width 0.02))
  (fp_line (start -3.1397 -8.462) (end -2.8603 -8.462) (layer F.SilkS) (width 0.02))
  (fp_line (start -2.8603 -8.462) (end -2.8603 -6.938) (layer F.SilkS) (width 0.02))
  (fp_line (start -2.8603 -6.938) (end -3.1397 -6.938) (layer F.SilkS) (width 0.02))
  (fp_line (start -3.6397 -6.938) (end -3.6397 -8.462) (layer F.SilkS) (width 0.02))
  (fp_line (start -3.6397 -8.462) (end -3.3603 -8.462) (layer F.SilkS) (width 0.02))
  (fp_line (start -3.3603 -8.462) (end -3.3603 -6.938) (layer F.SilkS) (width 0.02))
  (fp_line (start -3.3603 -6.938) (end -3.6397 -6.938) (layer F.SilkS) (width 0.02))
  (fp_line (start -4.1397 -6.938) (end -4.1397 -8.462) (layer F.SilkS) (width 0.02))
  (fp_line (start -4.1397 -8.462) (end -3.8603 -8.462) (layer F.SilkS) (width 0.02))
  (fp_line (start -3.8603 -8.462) (end -3.8603 -6.938) (layer F.SilkS) (width 0.02))
  (fp_line (start -3.8603 -6.938) (end -4.1397 -6.938) (layer F.SilkS) (width 0.02))
  (fp_line (start -4.6397 -6.938) (end -4.6397 -8.462) (layer F.SilkS) (width 0.02))
  (fp_line (start -4.6397 -8.462) (end -4.3603 -8.462) (layer F.SilkS) (width 0.02))
  (fp_line (start -4.3603 -8.462) (end -4.3603 -6.938) (layer F.SilkS) (width 0.02))
  (fp_line (start -4.3603 -6.938) (end -4.6397 -6.938) (layer F.SilkS) (width 0.02))
  (fp_line (start -5.1397 -6.938) (end -5.1397 -8.462) (layer F.SilkS) (width 0.02))
  (fp_line (start -5.1397 -8.462) (end -4.8603 -8.462) (layer F.SilkS) (width 0.02))
  (fp_line (start -4.8603 -8.462) (end -4.8603 -6.938) (layer F.SilkS) (width 0.02))
  (fp_line (start -4.8603 -6.938) (end -5.1397 -6.938) (layer F.SilkS) (width 0.02))
  (fp_line (start -5.6397 -6.938) (end -5.6397 -8.462) (layer F.SilkS) (width 0.02))
  (fp_line (start -5.6397 -8.462) (end -5.3603 -8.462) (layer F.SilkS) (width 0.02))
  (fp_line (start -5.3603 -8.462) (end -5.3603 -6.938) (layer F.SilkS) (width 0.02))
  (fp_line (start -5.3603 -6.938) (end -5.6397 -6.938) (layer F.SilkS) (width 0.02))
  (fp_line (start -6.1397 -6.938) (end -6.1397 -8.462) (layer F.SilkS) (width 0.02))
  (fp_line (start -6.1397 -8.462) (end -5.8603 -8.462) (layer F.SilkS) (width 0.02))
  (fp_line (start -5.8603 -8.462) (end -5.8603 -6.938) (layer F.SilkS) (width 0.02))
  (fp_line (start -5.8603 -6.938) (end -6.1397 -6.938) (layer F.SilkS) (width 0.02))
  (pad 1 smd rect (at -7.7 -6) (size 1.524 0.2794) (layers F.Cu F.Mask F.Paste)
    (clearance 0.2032) (solder_mask_margin 0.1143)
    (zone_connect 2))
  (pad 2 smd rect (at -7.7 -5.5) (size 1.524 0.2794) (layers F.Cu F.Mask F.Paste)
    (clearance 0.2032) (solder_mask_margin 0.1143)
    (zone_connect 2))
  (pad 3 smd rect (at -7.7 -5) (size 1.524 0.2794) (layers F.Cu F.Mask F.Paste)
    (clearance 0.2032) (solder_mask_margin 0.1143)
    (zone_connect 2))
  (pad 4 smd rect (at -7.7 -4.5) (size 1.524 0.2794) (layers F.Cu F.Mask F.Paste)
    (clearance 0.2032) (solder_mask_margin 0.1143)
    (zone_connect 2))
  (pad 5 smd rect (at -7.7 -4) (size 1.524 0.2794) (layers F.Cu F.Mask F.Paste)
    (clearance 0.2032) (solder_mask_margin 0.1143)
    (zone_connect 2))
  (pad 6 smd rect (at -7.7 -3.5) (size 1.524 0.2794) (layers F.Cu F.Mask F.Paste)
    (clearance 0.2032) (solder_mask_margin 0.1143)
    (zone_connect 2))
  (pad 7 smd rect (at -7.7 -3) (size 1.524 0.2794) (layers F.Cu F.Mask F.Paste)
    (clearance 0.2032) (solder_mask_margin 0.1143)
    (zone_connect 2))
  (pad 8 smd rect (at -7.7 -2.5) (size 1.524 0.2794) (layers F.Cu F.Mask F.Paste)
    (clearance 0.2032) (solder_mask_margin 0.1143)
    (zone_connect 2))
  (pad 9 smd rect (at -7.7 -2) (size 1.524 0.2794) (layers F.Cu F.Mask F.Paste)
    (clearance 0.2032) (solder_mask_margin 0.1143)
    (zone_connect 2))
  (pad 10 smd rect (at -7.7 -1.5) (size 1.524 0.2794) (layers F.Cu F.Mask F.Paste)
    (clearance 0.2032) (solder_mask_margin 0.1143)
    (zone_connect 2))
  (pad 11 smd rect (at -7.7 -1) (size 1.524 0.2794) (layers F.Cu F.Mask F.Paste)
    (clearance 0.2032) (solder_mask_margin 0.1143)
    (zone_connect 2))
  (pad 12 smd rect (at -7.7 -0.5) (size 1.524 0.2794) (layers F.Cu F.Mask F.Paste)
    (clearance 0.2032) (solder_mask_margin 0.1143)
    (zone_connect 2))
  (pad 13 smd rect (at -7.7 0) (size 1.524 0.2794) (layers F.Cu F.Mask F.Paste)
    (clearance 0.2032) (solder_mask_margin 0.1143)
    (zone_connect 2))
  (pad 14 smd rect (at -7.7 0.5) (size 1.524 0.2794) (layers F.Cu F.Mask F.Paste)
    (clearance 0.2032) (solder_mask_margin 0.1143)
    (zone_connect 2))
  (pad 15 smd rect (at -7.7 1) (size 1.524 0.2794) (layers F.Cu F.Mask F.Paste)
    (clearance 0.2032) (solder_mask_margin 0.1143)
    (zone_connect 2))
  (pad 16 smd rect (at -7.7 1.5) (size 1.524 0.2794) (layers F.Cu F.Mask F.Paste)
    (clearance 0.2032) (solder_mask_margin 0.1143)
    (zone_connect 2))
  (pad 17 smd rect (at -7.7 2) (size 1.524 0.2794) (layers F.Cu F.Mask F.Paste)
    (clearance 0.2032) (solder_mask_margin 0.1143)
    (zone_connect 2))
  (pad 18 smd rect (at -7.7 2.5) (size 1.524 0.2794) (layers F.Cu F.Mask F.Paste)
    (clearance 0.2032) (solder_mask_margin 0.1143)
    (zone_connect 2))
  (pad 19 smd rect (at -7.7 3) (size 1.524 0.2794) (layers F.Cu F.Mask F.Paste)
    (clearance 0.2032) (solder_mask_margin 0.1143)
    (zone_connect 2))
  (pad 20 smd rect (at -7.7 3.5) (size 1.524 0.2794) (layers F.Cu F.Mask F.Paste)
    (clearance 0.2032) (solder_mask_margin 0.1143)
    (zone_connect 2))
  (pad 21 smd rect (at -7.7 4) (size 1.524 0.2794) (layers F.Cu F.Mask F.Paste)
    (clearance 0.2032) (solder_mask_margin 0.1143)
    (zone_connect 2))
  (pad 22 smd rect (at -7.7 4.5) (size 1.524 0.2794) (layers F.Cu F.Mask F.Paste)
    (clearance 0.2032) (solder_mask_margin 0.1143)
    (zone_connect 2))
  (pad 23 smd rect (at -7.7 5) (size 1.524 0.2794) (layers F.Cu F.Mask F.Paste)
    (clearance 0.2032) (solder_mask_margin 0.1143)
    (zone_connect 2))
  (pad 24 smd rect (at -7.7 5.5) (size 1.524 0.2794) (layers F.Cu F.Mask F.Paste)
    (clearance 0.2032) (solder_mask_margin 0.1143)
    (zone_connect 2))
  (pad 25 smd rect (at -7.7 6) (size 1.524 0.2794) (layers F.Cu F.Mask F.Paste)
    (clearance 0.2032) (solder_mask_margin 0.1143)
    (zone_connect 2))
  (pad 26 smd rect (at -6 7.7) (size 0.2794 1.524) (layers F.Cu F.Mask F.Paste)
    (clearance 0.2032) (solder_mask_margin 0.1143)
    (zone_connect 2))
  (pad 27 smd rect (at -5.5 7.7) (size 0.2794 1.524) (layers F.Cu F.Mask F.Paste)
    (clearance 0.2032) (solder_mask_margin 0.1143)
    (zone_connect 2))
  (pad 28 smd rect (at -5 7.7) (size 0.2794 1.524) (layers F.Cu F.Mask F.Paste)
    (clearance 0.2032) (solder_mask_margin 0.1143)
    (zone_connect 2))
  (pad 29 smd rect (at -4.5 7.7) (size 0.2794 1.524) (layers F.Cu F.Mask F.Paste)
    (clearance 0.2032) (solder_mask_margin 0.1143)
    (zone_connect 2))
  (pad 30 smd rect (at -4 7.7) (size 0.2794 1.524) (layers F.Cu F.Mask F.Paste)
    (clearance 0.2032) (solder_mask_margin 0.1143)
    (zone_connect 2))
  (pad 31 smd rect (at -3.5 7.7) (size 0.2794 1.524) (layers F.Cu F.Mask F.Paste)
    (clearance 0.2032) (solder_mask_margin 0.1143)
    (zone_connect 2))
  (pad 32 smd rect (at -3 7.7) (size 0.2794 1.524) (layers F.Cu F.Mask F.Paste)
    (clearance 0.2032) (solder_mask_margin 0.1143)
    (zone_connect 2))
  (pad 33 smd rect (at -2.5 7.7) (size 0.2794 1.524) (layers F.Cu F.Mask F.Paste)
    (clearance 0.2032) (solder_mask_margin 0.1143)
    (zone_connect 2))
  (pad 34 smd rect (at -2 7.7) (size 0.2794 1.524) (layers F.Cu F.Mask F.Paste)
    (clearance 0.2032) (solder_mask_margin 0.1143)
    (zone_connect 2))
  (pad 35 smd rect (at -1.5 7.7) (size 0.2794 1.524) (layers F.Cu F.Mask F.Paste)
    (clearance 0.2032) (solder_mask_margin 0.1143)
    (zone_connect 2))
  (pad 36 smd rect (at -1 7.7) (size 0.2794 1.524) (layers F.Cu F.Mask F.Paste)
    (clearance 0.2032) (solder_mask_margin 0.1143)
    (zone_connect 2))
  (pad 37 smd rect (at -0.5 7.7) (size 0.2794 1.524) (layers F.Cu F.Mask F.Paste)
    (clearance 0.2032) (solder_mask_margin 0.1143)
    (zone_connect 2))
  (pad 38 smd rect (at 0 7.7) (size 0.2794 1.524) (layers F.Cu F.Mask F.Paste)
    (clearance 0.2032) (solder_mask_margin 0.1143)
    (zone_connect 2))
  (pad 39 smd rect (at 0.5 7.7) (size 0.2794 1.524) (layers F.Cu F.Mask F.Paste)
    (clearance 0.2032) (solder_mask_margin 0.1143)
    (zone_connect 2))
  (pad 40 smd rect (at 1 7.7) (size 0.2794 1.524) (layers F.Cu F.Mask F.Paste)
    (clearance 0.2032) (solder_mask_margin 0.1143)
    (zone_connect 2))
  (pad 41 smd rect (at 1.5 7.7) (size 0.2794 1.524) (layers F.Cu F.Mask F.Paste)
    (clearance 0.2032) (solder_mask_margin 0.1143)
    (zone_connect 2))
  (pad 42 smd rect (at 2 7.7) (size 0.2794 1.524) (layers F.Cu F.Mask F.Paste)
    (clearance 0.2032) (solder_mask_margin 0.1143)
    (zone_connect 2))
  (pad 43 smd rect (at 2.5 7.7) (size 0.2794 1.524) (layers F.Cu F.Mask F.Paste)
    (clearance 0.2032) (solder_mask_margin 0.1143)
    (zone_connect 2))
  (pad 44 smd rect (at 3 7.7) (size 0.2794 1.524) (layers F.Cu F.Mask F.Paste)
    (clearance 0.2032) (solder_mask_margin 0.1143)
    (zone_connect 2))
  (pad 45 smd rect (at 3.5 7.7) (size 0.2794 1.524) (layers F.Cu F.Mask F.Paste)
    (clearance 0.2032) (solder_mask_margin 0.1143)
    (zone_connect 2))
  (pad 46 smd rect (at 4 7.7) (size 0.2794 1.524) (layers F.Cu F.Mask F.Paste)
    (clearance 0.2032) (solder_mask_margin 0.1143)
    (zone_connect 2))
  (pad 47 smd rect (at 4.5 7.7) (size 0.2794 1.524) (layers F.Cu F.Mask F.Paste)
    (clearance 0.2032) (solder_mask_margin 0.1143)
    (zone_connect 2))
  (pad 48 smd rect (at 5 7.7) (size 0.2794 1.524) (layers F.Cu F.Mask F.Paste)
    (clearance 0.2032) (solder_mask_margin 0.1143)
    (zone_connect 2))
  (pad 49 smd rect (at 5.5 7.7) (size 0.2794 1.524) (layers F.Cu F.Mask F.Paste)
    (clearance 0.2032) (solder_mask_margin 0.1143)
    (zone_connect 2))
  (pad 50 smd rect (at 6 7.7) (size 0.2794 1.524) (layers F.Cu F.Mask F.Paste)
    (clearance 0.2032) (solder_mask_margin 0.1143)
    (zone_connect 2))
  (pad 51 smd rect (at 7.7 6) (size 1.524 0.2794) (layers F.Cu F.Mask F.Paste)
    (clearance 0.2032) (solder_mask_margin 0.1143)
    (zone_connect 2))
  (pad 52 smd rect (at 7.7 5.5) (size 1.524 0.2794) (layers F.Cu F.Mask F.Paste)
    (clearance 0.2032) (solder_mask_margin 0.1143)
    (zone_connect 2))
  (pad 53 smd rect (at 7.7 5) (size 1.524 0.2794) (layers F.Cu F.Mask F.Paste)
    (clearance 0.2032) (solder_mask_margin 0.1143)
    (zone_connect 2))
  (pad 54 smd rect (at 7.7 4.5) (size 1.524 0.2794) (layers F.Cu F.Mask F.Paste)
    (clearance 0.2032) (solder_mask_margin 0.1143)
    (zone_connect 2))
  (pad 55 smd rect (at 7.7 4) (size 1.524 0.2794) (layers F.Cu F.Mask F.Paste)
    (clearance 0.2032) (solder_mask_margin 0.1143)
    (zone_connect 2))
  (pad 56 smd rect (at 7.7 3.5) (size 1.524 0.2794) (layers F.Cu F.Mask F.Paste)
    (clearance 0.2032) (solder_mask_margin 0.1143)
    (zone_connect 2))
  (pad 57 smd rect (at 7.7 3) (size 1.524 0.2794) (layers F.Cu F.Mask F.Paste)
    (clearance 0.2032) (solder_mask_margin 0.1143)
    (zone_connect 2))
  (pad 58 smd rect (at 7.7 2.5) (size 1.524 0.2794) (layers F.Cu F.Mask F.Paste)
    (clearance 0.2032) (solder_mask_margin 0.1143)
    (zone_connect 2))
  (pad 59 smd rect (at 7.7 2) (size 1.524 0.2794) (layers F.Cu F.Mask F.Paste)
    (clearance 0.2032) (solder_mask_margin 0.1143)
    (zone_connect 2))
  (pad 60 smd rect (at 7.7 1.5) (size 1.524 0.2794) (layers F.Cu F.Mask F.Paste)
    (clearance 0.2032) (solder_mask_margin 0.1143)
    (zone_connect 2))
  (pad 61 smd rect (at 7.7 1) (size 1.524 0.2794) (layers F.Cu F.Mask F.Paste)
    (clearance 0.2032) (solder_mask_margin 0.1143)
    (zone_connect 2))
  (pad 62 smd rect (at 7.7 0.5) (size 1.524 0.2794) (layers F.Cu F.Mask F.Paste)
    (clearance 0.2032) (solder_mask_margin 0.1143)
    (zone_connect 2))
  (pad 63 smd rect (at 7.7 0) (size 1.524 0.2794) (layers F.Cu F.Mask F.Paste)
    (clearance 0.2032) (solder_mask_margin 0.1143)
    (zone_connect 2))
  (pad 64 smd rect (at 7.7 -0.5) (size 1.524 0.2794) (layers F.Cu F.Mask F.Paste)
    (clearance 0.2032) (solder_mask_margin 0.1143)
    (zone_connect 2))
  (pad 65 smd rect (at 7.7 -1) (size 1.524 0.2794) (layers F.Cu F.Mask F.Paste)
    (clearance 0.2032) (solder_mask_margin 0.1143)
    (zone_connect 2))
  (pad 66 smd rect (at 7.7 -1.5) (size 1.524 0.2794) (layers F.Cu F.Mask F.Paste)
    (clearance 0.2032) (solder_mask_margin 0.1143)
    (zone_connect 2))
  (pad 67 smd rect (at 7.7 -2) (size 1.524 0.2794) (layers F.Cu F.Mask F.Paste)
    (clearance 0.2032) (solder_mask_margin 0.1143)
    (zone_connect 2))
  (pad 68 smd rect (at 7.7 -2.5) (size 1.524 0.2794) (layers F.Cu F.Mask F.Paste)
    (clearance 0.2032) (solder_mask_margin 0.1143)
    (zone_connect 2))
  (pad 69 smd rect (at 7.7 -3) (size 1.524 0.2794) (layers F.Cu F.Mask F.Paste)
    (clearance 0.2032) (solder_mask_margin 0.1143)
    (zone_connect 2))
  (pad 70 smd rect (at 7.7 -3.5) (size 1.524 0.2794) (layers F.Cu F.Mask F.Paste)
    (clearance 0.2032) (solder_mask_margin 0.1143)
    (zone_connect 2))
  (pad 71 smd rect (at 7.7 -4) (size 1.524 0.2794) (layers F.Cu F.Mask F.Paste)
    (clearance 0.2032) (solder_mask_margin 0.1143)
    (zone_connect 2))
  (pad 72 smd rect (at 7.7 -4.5) (size 1.524 0.2794) (layers F.Cu F.Mask F.Paste)
    (clearance 0.2032) (solder_mask_margin 0.1143)
    (zone_connect 2))
  (pad 73 smd rect (at 7.7 -5) (size 1.524 0.2794) (layers F.Cu F.Mask F.Paste)
    (clearance 0.2032) (solder_mask_margin 0.1143)
    (zone_connect 2))
  (pad 74 smd rect (at 7.7 -5.5) (size 1.524 0.2794) (layers F.Cu F.Mask F.Paste)
    (clearance 0.2032) (solder_mask_margin 0.1143)
    (zone_connect 2))
  (pad 75 smd rect (at 7.7 -6) (size 1.524 0.2794) (layers F.Cu F.Mask F.Paste)
    (clearance 0.2032) (solder_mask_margin 0.1143)
    (zone_connect 2))
  (pad 76 smd rect (at 6 -7.7) (size 0.2794 1.524) (layers F.Cu F.Mask F.Paste)
    (clearance 0.2032) (solder_mask_margin 0.1143)
    (zone_connect 2))
  (pad 77 smd rect (at 5.5 -7.7) (size 0.2794 1.524) (layers F.Cu F.Mask F.Paste)
    (clearance 0.2032) (solder_mask_margin 0.1143)
    (zone_connect 2))
  (pad 78 smd rect (at 5 -7.7) (size 0.2794 1.524) (layers F.Cu F.Mask F.Paste)
    (clearance 0.2032) (solder_mask_margin 0.1143)
    (zone_connect 2))
  (pad 79 smd rect (at 4.5 -7.7) (size 0.2794 1.524) (layers F.Cu F.Mask F.Paste)
    (clearance 0.2032) (solder_mask_margin 0.1143)
    (zone_connect 2))
  (pad 80 smd rect (at 4 -7.7) (size 0.2794 1.524) (layers F.Cu F.Mask F.Paste)
    (clearance 0.2032) (solder_mask_margin 0.1143)
    (zone_connect 2))
  (pad 81 smd rect (at 3.5 -7.7) (size 0.2794 1.524) (layers F.Cu F.Mask F.Paste)
    (clearance 0.2032) (solder_mask_margin 0.1143)
    (zone_connect 2))
  (pad 82 smd rect (at 3 -7.7) (size 0.2794 1.524) (layers F.Cu F.Mask F.Paste)
    (clearance 0.2032) (solder_mask_margin 0.1143)
    (zone_connect 2))
  (pad 83 smd rect (at 2.5 -7.7) (size 0.2794 1.524) (layers F.Cu F.Mask F.Paste)
    (clearance 0.2032) (solder_mask_margin 0.1143)
    (zone_connect 2))
  (pad 84 smd rect (at 2 -7.7) (size 0.2794 1.524) (layers F.Cu F.Mask F.Paste)
    (clearance 0.2032) (solder_mask_margin 0.1143)
    (zone_connect 2))
  (pad 85 smd rect (at 1.5 -7.7) (size 0.2794 1.524) (layers F.Cu F.Mask F.Paste)
    (clearance 0.2032) (solder_mask_margin 0.1143)
    (zone_connect 2))
  (pad 86 smd rect (at 1 -7.7) (size 0.2794 1.524) (layers F.Cu F.Mask F.Paste)
    (clearance 0.2032) (solder_mask_margin 0.1143)
    (zone_connect 2))
  (pad 87 smd rect (at 0.5 -7.7) (size 0.2794 1.524) (layers F.Cu F.Mask F.Paste)
    (clearance 0.2032) (solder_mask_margin 0.1143)
    (zone_connect 2))
  (pad 88 smd rect (at 0 -7.7) (size 0.2794 1.524) (layers F.Cu F.Mask F.Paste)
    (clearance 0.2032) (solder_mask_margin 0.1143)
    (zone_connect 2))
  (pad 89 smd rect (at -0.5 -7.7) (size 0.2794 1.524) (layers F.Cu F.Mask F.Paste)
    (clearance 0.2032) (solder_mask_margin 0.1143)
    (zone_connect 2))
  (pad 90 smd rect (at -1 -7.7) (size 0.2794 1.524) (layers F.Cu F.Mask F.Paste)
    (clearance 0.2032) (solder_mask_margin 0.1143)
    (zone_connect 2))
  (pad 91 smd rect (at -1.5 -7.7) (size 0.2794 1.524) (layers F.Cu F.Mask F.Paste)
    (clearance 0.2032) (solder_mask_margin 0.1143)
    (zone_connect 2))
  (pad 92 smd rect (at -2 -7.7) (size 0.2794 1.524) (layers F.Cu F.Mask F.Paste)
    (clearance 0.2032) (solder_mask_margin 0.1143)
    (zone_connect 2))
  (pad 93 smd rect (at -2.5 -7.7) (size 0.2794 1.524) (layers F.Cu F.Mask F.Paste)
    (clearance 0.2032) (solder_mask_margin 0.1143)
    (zone_connect 2))
  (pad 94 smd rect (at -3 -7.7) (size 0.2794 1.524) (layers F.Cu F.Mask F.Paste)
    (clearance 0.2032) (solder_mask_margin 0.1143)
    (zone_connect 2))
  (pad 95 smd rect (at -3.5 -7.7) (size 0.2794 1.524) (layers F.Cu F.Mask F.Paste)
    (clearance 0.2032) (solder_mask_margin 0.1143)
    (zone_connect 2))
  (pad 96 smd rect (at -4 -7.7) (size 0.2794 1.524) (layers F.Cu F.Mask F.Paste)
    (clearance 0.2032) (solder_mask_margin 0.1143)
    (zone_connect 2))
  (pad 97 smd rect (at -4.5 -7.7) (size 0.2794 1.524) (layers F.Cu F.Mask F.Paste)
    (clearance 0.2032) (solder_mask_margin 0.1143)
    (zone_connect 2))
  (pad 98 smd rect (at -5 -7.7) (size 0.2794 1.524) (layers F.Cu F.Mask F.Paste)
    (clearance 0.2032) (solder_mask_margin 0.1143)
    (zone_connect 2))
  (pad 99 smd rect (at -5.5 -7.7) (size 0.2794 1.524) (layers F.Cu F.Mask F.Paste)
    (clearance 0.2032) (solder_mask_margin 0.1143)
    (zone_connect 2))
  (pad 100 smd rect (at -6 -7.7) (size 0.2794 1.524) (layers F.Cu F.Mask F.Paste)
    (clearance 0.2032) (solder_mask_margin 0.1143)
    (zone_connect 2))
  (pad 101 smd circle (at -7.7 7.7) (size 1.27 1.27) (layers F.Cu F.Mask)
    (solder_mask_margin 0.3175)
    (zone_connect 2))
  (pad 102 smd circle (at 7.7 -7.7) (size 1.27 1.27) (layers F.Cu F.Mask)
    (solder_mask_margin 0.3175)
    (zone_connect 2))
  (model ${KISYS3DMOD}/Package_QFP.3dshapes/TQFP-100_14x14mm_P0.5mm.wrl
    (offset (xyz 0 0 0))
    (scale (xyz 1 1 1))
    (rotate (xyz 0 0 0))
  )
)